%!PS-Adobe-2.0 EPSF-2.0
%%Creator: SM
%%BoundingBox: 18 144 592 718
%%DocumentFonts: Helvetica
%%EndComments
 20 dict begin
72 300 div dup scale
1 setlinejoin 0 setlinecap
/Helvetica findfont 55 scalefont setfont 
/B {CS newpath moveto} def
/F {moveto 0 setlinecap} def
/C {CS M 1 1 3 {pop 3 1 roll 255 div} for SET_COLOUR} def
/CS {currentpoint stroke} def
/CF {currentpoint eofill} def
/L {lineto} def /l {rlineto} def /M {moveto} def /m {rmoveto} def
/P {currentpoint 0 1 rlineto stroke moveto} def
/T {currentlinecap exch 1 setlinecap show setlinecap} def
errordict /nocurrentpoint {pop 0 0 M currentpoint} put
/SET_COLOUR statusdict begin /processcolors where
  {pop processcolors 1 gt} {false} ifelse
  {(setrgbcolor)} {(pop pop pop)} ifelse cvx end def
 80 600 translate
gsave
CS [] 0 setdash M
CS M 1 100 mul 72 div dup setlinewidth
/P [ /currentpoint cvx 0 5 -1 roll .05 add dup -2 div 0 exch /rmoveto cvx /rlineto cvx /stroke cvx /moveto cvx ] cvx def
 0 0 0 C
CS M 4 100 mul 72 div dup setlinewidth
/P [ /currentpoint cvx 0 5 -1 roll .05 add dup -2 div 0 exch /rmoveto cvx /rlineto cvx /stroke cvx /moveto cvx ] cvx def
 0 0 255 C
510 255 M 1 10 l
146 -10 m 0 10 l
86 -10 m 0 10 l
64 -10 m 0 10 l
54 -10 m -1 10 l
50 -10 m -1 10 l
50 -10 m -1 10 l
63 -10 m -3 10 l
102 -10 m 2 10 l
43 -10 m 1 10 l
30 -10 m 0 10 l
27 -10 m 1 10 l
28 -10 m 0 10 l
35 -10 m -1 10 l
51 -10 m -1 10 l
108 -10 m -1 10 l
511 265 M 1 10 l
145 -10 m 1 10 l
85 -10 m 0 10 l
64 0 m 0 -10 l
0 0 l
53 0 m 0 10 l
49 -10 m 0 10 l
48 0 m 0 -1 l
1 -9 m -1 9 l
59 1 m 1 -7 l
1 -3 m -1 3 l
105 -3 m 2 10 l
42 -10 m 1 10 l
29 -10 m 1 10 l
27 -10 m 0 10 l
28 -10 m 0 10 l
34 -10 m 0 10 l
50 -10 m 0 10 l
107 -10 m -2 10 l
512 275 M 1 10 l
145 -10 m 0 10 l
85 -10 m 0 10 l
64 -10 m 0 10 l
53 -10 m 0 10 l
49 -10 m -1 10 l
49 -10 m -1 10 l
60 -10 m -2 10 l
110 -10 m 3 10 l
40 -10 m 1 10 l
29 -10 m 0 10 l
27 -10 m 0 10 l
28 -10 m 0 10 l
34 -10 m 0 10 l
50 -10 m -1 10 l
106 -10 m -1 10 l
513 285 M 1 10 l
144 -10 m 1 10 l
84 -10 m 0 10 l
64 -10 m 0 10 l
53 -10 m -1 10 l
49 -10 m -1 10 l
49 -10 m -1 10 l
59 -10 m -2 10 l
115 -10 m 1 5 l
1 5 l
39 -10 m 0 3 l
1 7 l
28 -10 m 1 10 l
26 -10 m 0 10 l
28 -10 m 0 10 l
34 -10 m -1 10 l
50 -10 m -1 10 l
104 0 m 1 -4 l
1 -6 m -1 6 l
514 295 M 1 10 l
144 -10 m 0 10 l
84 -10 m 1 10 l
63 -10 m 0 10 l
52 -10 m 0 10 l
48 0 m 0 -6 l
0 -4 m 0 4 l
48 -4 m -1 10 l
58 -10 m -3 10 l
120 -10 m 2 10 l
38 -10 m 0 10 l
29 -10 m 0 7 l
0 3 l
26 -10 m 0 10 l
28 -10 m 0 10 l
33 -10 m 0 10 l
49 -10 m -1 10 l
105 -10 m -1 10 l
515 305 M 1 10 l
143 -10 m 1 10 l
84 -10 m 0 10 l
63 -10 m -1 10 l
53 -10 m 0 10 l
48 -10 m -1 10 l
48 -10 m -1 10 l
54 0 m 0 0 l
2 -10 m -2 10 l
124 -10 m 1 10 l
37 -10 m 1 10 l
28 -10 m 1 10 l
25 -10 m 1 10 l
27 -10 m 0 10 l
33 -10 m 0 10 l
48 -10 m 0 10 l
104 -10 m -2 10 l
516 315 M 0 1 l
1 9 l
143 -10 m 0 10 l
84 -10 m 0 10 l
62 -10 m 0 10 l
53 -10 m -1 10 l
48 -10 m 0 10 l
47 -10 m -1 10 l
55 -10 m -1 10 l
126 -10 m 2 10 l
36 -10 m 1 10 l
28 -10 m 0 10 l
26 -10 m 0 10 l
27 -10 m 0 10 l
33 -10 m -1 10 l
49 -10 m -1 10 l
103 -10 m -1 10 l
517 325 M 1 11 l
142 -11 m 1 11 l
83 -11 m 0 11 l
62 -11 m 0 11 l
52 -11 m 0 11 l
48 -11 m -1 11 l
47 -11 m -1 11 l
55 -11 m -2 11 l
130 -11 m 2 11 l
35 -11 m 1 11 l
27 -11 m 1 11 l
25 -11 m 0 11 l
27 -11 m 0 11 l
32 -11 m 0 11 l
48 -11 m -1 11 l
103 -11 m -2 11 l
518 336 M 1 10 l
142 -10 m 0 10 l
83 -10 m 0 10 l
62 -10 m 0 10 l
52 -10 m 0 10 l
47 -10 m 0 10 l
46 -10 m -1 10 l
54 -10 m -2 10 l
134 -10 m 2 8 l
0 2 l
34 -10 m 1 10 l
27 -10 m 0 10 l
25 -10 m 0 10 l
27 -10 m 0 10 l
32 -10 m -1 10 l
48 -10 m -1 10 l
102 -10 m -2 10 l
519 346 M 1 10 l
141 -10 m 1 10 l
82 -10 m 1 10 l
61 -10 m 0 10 l
52 -10 m 0 10 l
47 -10 m -1 10 l
46 -10 m -1 10 l
53 -10 m -2 10 l
138 -10 m 2 10 l
33 -10 m 1 10 l
26 -10 m 0 10 l
25 -10 m 0 10 l
27 -10 m -1 10 l
32 -10 m 0 10 l
47 -10 m -1 10 l
101 -10 m -1 10 l
520 356 M 1 10 l
141 -10 m 0 10 l
83 -10 m 0 10 l
61 -10 m 0 10 l
52 -10 m -1 10 l
47 -10 m -1 10 l
46 -10 m -1 10 l
52 -10 m -2 10 l
142 -10 m 1 10 l
33 -10 m 1 10 l
25 -10 m 1 10 l
24 -10 m 0 10 l
26 -10 m 0 10 l
32 -10 m 0 10 l
46 -10 m -1 10 l
99 0 m 2 -10 l
0 0 l
521 366 M 1 10 l
140 -10 m 1 10 l
82 -10 m 0 10 l
61 -10 m 0 10 l
51 -10 m 0 10 l
46 -10 m 0 10 l
45 -10 m 0 10 l
49 0 m 0 -4 l
1 -6 m -1 6 l
144 -6 m 2 10 l
32 -10 m 0 10 l
26 -10 m 0 10 l
24 -10 m 1 10 l
25 -10 m 0 10 l
32 -10 m -1 10 l
46 0 m 0 -9 l
0 -1 m 0 1 l
99 -1 m -1 10 l
522 376 M 1 10 l
140 -10 m 0 10 l
82 -10 m 0 10 l
61 -10 m 0 10 l
51 0 m 0 -7 l
0 -3 m 0 3 l
46 -3 m -1 10 l
45 0 m 0 -6 l
1 -4 m -1 4 l
50 -4 m -2 10 l
148 -10 m 1 10 l
31 -10 m 1 10 l
25 -10 m 1 10 l
24 -10 m 0 10 l
25 -10 m 0 10 l
31 -10 m 0 10 l
46 -10 m -1 10 l
99 -10 m -2 10 l
523 386 M 1 10 l
139 -10 m 1 10 l
81 -10 m 0 10 l
61 -10 m 0 10 l
51 -10 m 0 10 l
45 -10 m 0 10 l
45 -10 m -1 10 l
49 -10 m -1 10 l
150 -10 m 2 10 l
30 -10 m 1 10 l
25 -10 m 0 10 l
24 -10 m 0 10 l
25 -10 m 0 10 l
31 -10 m -1 10 l
46 -10 m -1 10 l
98 -10 m -2 10 l
524 396 M 1 10 l
139 -10 m 0 10 l
81 -10 m 1 10 l
60 -10 m 0 10 l
51 -10 m -1 10 l
46 -10 m -1 10 l
45 -10 m -1 10 l
49 -10 m -2 10 l
154 -10 m 1 10 l
30 -10 m 1 10 l
24 -10 m 1 10 l
23 -10 m 0 10 l
25 -10 m 0 10 l
30 -10 m 0 10 l
45 -10 m -1 10 l
97 -10 m -1 10 l
525 406 M 1 8 l
0 2 l
138 -10 m 1 10 l
81 -10 m 0 10 l
60 -10 m 0 10 l
50 -10 m 0 10 l
45 -10 m 0 10 l
44 -10 m -1 10 l
48 -10 m -1 10 l
156 -10 m 1 3 l
1 7 l
29 -10 m 0 1 l
1 9 l
24 -10 m 0 10 l
23 -10 m 0 10 l
25 -10 m 0 10 l
30 -10 m -1 10 l
45 -10 m -1 10 l
97 -10 m -2 10 l
526 416 M 1 10 l
138 -10 m 0 10 l
81 -10 m 0 10 l
60 -10 m 0 10 l
50 -10 m 0 10 l
45 -10 m -1 10 l
44 -10 m -1 10 l
48 -10 m -2 10 l
76 0 m 3 -3 l
10 -4 l
10 5 l
1 2 l
60 -10 m 1 10 l
29 -10 m 0 10 l
24 -10 m 0 10 l
23 -10 m 0 10 l
25 -10 m 0 10 l
29 -10 m 0 10 l
44 -10 m 0 10 l
94 0 m 1 -7 l
0 -3 m 0 3 l
527 426 M 1 10 l
137 -10 m 1 10 l
80 -10 m 0 10 l
60 -10 m 0 10 l
CS M
50 -10 m 0 10 l
44 -10 m 0 10 l
43 -10 m 0 10 l
46 -10 m -1 10 l
69 0 m 1 -1 l
7 -9 m -7 9 l
31 -9 m 8 10 l
53 -10 m 1 10 l
28 -10 m 1 10 l
23 -10 m 1 10 l
22 -10 m 0 10 l
25 -10 m -1 10 l
30 -10 m 0 10 l
44 -10 m -1 10 l
95 -10 m -2 10 l
528 436 M 1 10 l
137 -10 m 0 10 l
80 -10 m 0 10 l
60 -10 m 0 10 l
50 -10 m -1 10 l
45 -10 m -1 10 l
44 -10 m -1 10 l
45 0 m 0 -6 l
1 -4 m -1 4 l
70 -4 m -5 10 l
45 -10 m 1 0 l
4 10 l
49 -10 m 2 10 l
27 -10 m 1 10 l
23 -10 m 0 10 l
22 -10 m 1 10 l
23 -10 m 0 10 l
30 -10 m -1 10 l
44 -10 m -1 10 l
94 -10 m -2 10 l
529 446 M 1 10 l
136 -10 m 0 6 l
1 4 l
79 -10 m 1 10 l
59 -10 m 0 10 l
49 -10 m 0 10 l
44 -10 m 0 10 l
43 -10 m -1 10 l
46 -10 m -2 10 l
62 0 m 1 -2 l
4 -8 m -4 8 l
54 -8 m 5 10 l
46 -10 m 1 10 l
27 -10 m 0 10 l
23 -10 m 0 10 l
23 -10 m 0 10 l
23 -10 m 0 10 l
29 -10 m 0 10 l
43 -10 m -1 10 l
93 -10 m -1 10 l
530 456 M 1 10 l
136 -10 m 0 10 l
80 -10 m 0 1 l
0 9 l
59 -10 m 0 10 l
49 -10 m 0 10 l
44 -10 m 0 10 l
42 -10 m -1 10 l
45 -10 m -1 10 l
63 -10 m -4 10 l
64 -10 m 1 1 l
3 9 l
43 -10 m 1 10 l
26 -10 m 1 10 l
22 -10 m 1 10 l
22 -10 m 0 10 l
23 -10 m 0 10 l
28 0 m 0 -1 l
1 -9 m -1 9 l
43 -9 m -1 10 l
93 -10 m -2 10 l
531 466 M 1 10 l
135 -10 m 1 10 l
79 -10 m 0 10 l
59 -10 m 0 10 l
49 -10 m 0 10 l
44 -10 m -1 10 l
42 -10 m 0 10 l
44 -10 m -1 10 l
60 -10 m -3 10 l
71 -10 m 3 10 l
41 -10 m 1 10 l
26 -10 m 1 10 l
22 -10 m 0 10 l
22 -10 m 0 10 l
23 -10 m 0 10 l
28 -10 m 0 10 l
42 -10 m -1 10 l
92 -10 m -2 10 l
532 476 M 2 10 l
134 -10 m 0 10 l
79 -10 m 0 10 l
59 -10 m 0 10 l
49 -10 m -1 10 l
44 -10 m 0 10 l
42 -10 m -1 10 l
44 -10 m -2 10 l
56 0 m 1 -3 l
2 -7 m -2 7 l
76 -7 m 3 10 l
39 -10 m 2 10 l
25 -10 m 0 10 l
22 -10 m 1 10 l
21 -10 m 0 10 l
23 -10 m 0 10 l
28 -10 m -1 10 l
41 0 m 0 -1 l
1 -9 m -1 9 l
90 1 m 1 -6 l
0 -4 m 0 4 l
534 486 M 1 10 l
133 -10 m 1 10 l
78 -10 m 1 10 l
58 -10 m 0 10 l
48 -10 m 0 10 l
44 -10 m -1 10 l
42 -10 m -1 10 l
43 -10 m -1 10 l
57 -10 m -3 10 l
83 -10 m 1 1 l
2 9 l
38 -10 m 0 2 l
1 8 l
24 -10 m 1 10 l
22 -10 m 0 10 l
21 -10 m 0 10 l
23 -10 m -1 10 l
28 -10 m 0 10 l
41 -10 m -1 10 l
91 -10 m -2 10 l
535 496 M 1 10 l
133 -10 m 0 10 l
79 -10 m 0 10 l
58 -10 m 0 10 l
48 -10 m 0 10 l
43 0 m 0 -7 l
0 -3 m 0 3 l
41 -3 m -1 10 l
43 -10 m -1 10 l
55 -10 m -3 10 l
89 -10 m 3 10 l
36 -10 m 1 10 l
24 -10 m 1 10 l
21 -10 m 0 10 l
21 -10 m 0 10 l
22 -10 m 0 10 l
28 -10 m -1 10 l
41 -10 m 0 10 l
89 -10 m -2 10 l
536 506 M 0 3 l
1 7 l
132 -10 m 1 10 l
78 -10 m 0 10 l
58 -10 m 0 10 l
48 -10 m 0 10 l
43 -10 m -1 10 l
41 0 m 0 -9 l
0 -1 m 0 1 l
42 -1 m -1 10 l
53 -10 m -3 10 l
95 -10 m 2 10 l
35 -10 m 1 10 l
24 -10 m 0 10 l
21 -10 m 1 10 l
20 -10 m 0 10 l
22 -10 m 0 10 l
27 -10 m 0 10 l
41 -10 m -1 10 l
88 -10 m -1 10 l
537 516 M 1 10 l
132 -10 m 0 10 l
78 -10 m 0 10 l
58 -10 m 0 10 l
48 -10 m 0 10 l
42 -10 m 0 10 l
41 -10 m -1 10 l
41 0 m 0 -5 l
1 -5 m -1 5 l
49 5 m 1 -6 l
1 -4 m -1 4 l
98 -4 m 3 10 l
33 -10 m 1 10 l
23 -10 m 1 10 l
21 -10 m 0 10 l
20 -10 m 0 10 l
22 -10 m 0 10 l
27 -10 m -1 10 l
41 -10 m -1 10 l
88 -10 m -2 10 l
538 526 M 1 10 l
131 -10 m 1 10 l
77 -10 m 0 10 l
58 -10 m 0 10 l
48 -10 m -1 10 l
43 -10 m 0 10 l
40 -10 m -1 10 l
42 -10 m -1 10 l
50 -10 m -2 10 l
104 -10 m 0 0 l
2 10 l
32 -10 m 1 10 l
23 -10 m 1 10 l
20 -10 m 0 10 l
20 -10 m 0 10 l
22 -10 m 0 10 l
26 -10 m 0 10 l
40 -10 m -1 10 l
87 -10 m -2 10 l
539 536 M 1 10 l
131 -10 m 0 10 l
77 -10 m 1 10 l
57 -10 m 0 10 l
47 -10 m 0 10 l
43 -10 m -1 10 l
40 -10 m 0 10 l
41 -10 m -1 10 l
49 -10 m -2 10 l
108 -10 m 2 10 l
31 -10 m 1 10 l
23 -10 m 0 10 l
20 -10 m 1 10 l
19 -10 m 0 10 l
22 -10 m 0 10 l
26 -10 m 0 10 l
39 -10 m -1 10 l
84 0 m 2 -8 l
0 -2 m 0 2 l
540 546 M 1 10 l
130 -10 m 1 10 l
77 -10 m 0 10 l
57 -10 m 0 10 l
47 -10 m 0 10 l
42 -10 m 0 10 l
40 -10 m -1 10 l
41 -10 m -2 10 l
49 -10 m -2 10 l
112 -10 m 2 10 l
30 -10 m 1 10 l
22 -10 m 1 10 l
20 -10 m 0 10 l
19 -10 m 0 10 l
22 -10 m -1 10 l
27 -10 m -1 10 l
39 -10 m -1 10 l
85 -10 m -1 10 l
541 556 M 1 10 l
130 -10 m 0 10 l
77 -10 m 0 10 l
57 -10 m 0 10 l
47 -10 m 0 10 l
42 -10 m -1 10 l
40 -10 m -1 10 l
40 -10 m -1 10 l
48 -10 m -2 10 l
116 -10 m 2 10 l
29 -10 m 1 10 l
22 -10 m 0 1 l
0 9 l
20 -10 m 0 4 l
0 6 l
19 -10 m 0 10 l
21 -10 m 0 10 l
26 -10 m 0 10 l
38 -10 m -1 10 l
85 -10 m -2 10 l
542 566 M 1 10 l
129 -10 m 1 10 l
76 -10 m 0 10 l
57 -10 m 0 10 l
47 -10 m 0 10 l
41 -10 m 0 10 l
39 -10 m 0 10 l
39 -10 m -1 10 l
45 0 m 1 -9 l
1 -1 m -1 1 l
119 -1 m 2 10 l
0 0 l
28 -10 m 1 10 l
21 -10 m 1 10 l
19 -10 m 0 10 l
19 -10 m 1 10 l
20 0 m 0 -7 l
0 -3 m 0 3 l
26 -3 m -1 10 l
38 -10 m -1 10 l
84 -10 m -2 10 l
543 576 M 1 10 l
129 -10 m 0 10 l
76 -10 m 1 10 l
56 -10 m 0 10 l
47 -10 m -1 10 l
42 -10 m 0 10 l
39 -10 m -1 10 l
39 -10 m -1 10 l
46 -10 m -2 10 l
CS M
124 -10 m 1 10 l
28 -10 m 1 9 l
0 1 l
21 -10 m 1 10 l
18 -10 m 1 10 l
19 -10 m 0 10 l
20 -10 m 0 10 l
25 -10 m 0 10 l
37 -10 m -1 10 l
83 -10 m -2 10 l
544 586 M 1 10 l
128 -10 m 1 10 l
76 -10 m 0 10 l
56 -10 m 0 10 l
46 -10 m 0 10 l
42 -10 m -1 10 l
39 -10 m -1 10 l
39 -10 m -1 10 l
45 -10 m -2 10 l
127 -10 m 2 10 l
27 -10 m 1 10 l
21 -10 m 0 10 l
19 -10 m 0 10 l
19 -10 m 0 10 l
20 -10 m 0 10 l
25 -10 m -1 10 l
36 0 m 0 -1 l
1 -9 m -1 9 l
80 1 m 1 -1 l
1 -9 m -1 9 l
545 596 M 1 7 l
0 3 l
128 -10 m 1 10 l
75 -10 m 0 10 l
56 -10 m 0 10 l
46 -10 m 0 10 l
41 -10 m 0 10 l
38 -10 m 0 10 l
38 -10 m -1 10 l
44 -10 m -2 10 l
131 -10 m 2 10 l
26 -10 m 1 10 l
20 -10 m 1 10 l
18 -10 m 0 10 l
19 -10 m 0 10 l
20 -10 m -1 10 l
25 -10 m 0 10 l
36 -10 m -1 10 l
81 -10 m -2 10 l
546 606 M 2 10 l
127 -10 m 0 10 l
75 -10 m 0 10 l
56 -10 m 0 10 l
46 -10 m 0 10 l
41 -10 m -1 10 l
39 -10 m -1 10 l
38 -10 m 0 10 l
42 -10 m -1 10 l
134 -10 m 1 10 l
26 -10 m 1 10 l
20 -10 m 0 10 l
18 -10 m 1 10 l
18 -10 m 0 10 l
19 -10 m 0 10 l
25 -10 m -1 10 l
36 -10 m -1 10 l
80 -10 m -1 10 l
548 616 M 1 10 l
126 -10 m 1 10 l
74 -10 m 1 10 l
55 -10 m 0 10 l
46 -10 m 0 10 l
40 -10 m 0 10 l
38 -10 m 0 10 l
37 0 m 0 -8 l
1 -2 m -1 2 l
40 8 m 0 -1 l
2 -9 m -2 9 l
137 -9 m 2 10 l
25 -10 m 0 10 l
20 -10 m 1 10 l
18 -10 m 0 10 l
18 -10 m 0 10 l
19 -10 m 0 10 l
24 -10 m -1 10 l
36 -10 m -1 10 l
80 -10 m -2 10 l
549 626 M 1 10 l
126 -10 m 0 10 l
75 -10 m 0 10 l
55 -10 m 0 10 l
46 -10 m 0 10 l
40 -10 m 0 10 l
38 -10 m -1 10 l
38 -10 m -1 10 l
41 -10 m -1 10 l
67 0 m 5 -4 l
10 0 l
6 4 l
52 -10 m 2 10 l
23 -10 m 1 10 l
20 -10 m 0 10 l
18 -10 m 0 10 l
18 -10 m 0 10 l
19 -10 m 0 10 l
23 -10 m 0 10 l
35 -10 m 0 10 l
78 -10 m -2 10 l
550 636 M 1 10 l
125 -10 m 0 5 l
1 5 l
74 -10 m 0 10 l
55 -10 m 0 10 l
46 -10 m 0 10 l
40 -10 m -1 10 l
38 -10 m -1 10 l
38 -10 m -1 10 l
41 -10 m -2 10 l
61 0 m 3 -5 l
5 -5 m -5 5 l
26 -5 m 4 3 l
4 7 l
46 -10 m 0 2 l
1 8 l
23 -10 m 1 10 l
19 -10 m 1 10 l
17 -10 m 0 10 l
18 -10 m 0 10 l
19 -10 m -1 10 l
24 -10 m -1 10 l
36 -10 m -1 10 l
77 -10 m -2 10 l
551 646 M 1 10 l
125 -10 m 0 10 l
74 -10 m 0 10 l
55 -10 m 0 10 l
46 -10 m -1 10 l
40 -10 m 0 10 l
37 -10 m 0 10 l
37 -10 m -1 10 l
40 -10 m -1 10 l
62 -10 m -6 10 l
43 -10 m 6 10 l
0 0 l
41 -10 m 1 10 l
23 -10 m 1 10 l
19 -10 m 0 10 l
17 -10 m 1 10 l
17 -10 m 0 10 l
18 -10 m 0 10 l
23 -10 m 0 10 l
35 -10 m -1 10 l
74 0 m 2 -7 l
0 -3 m 0 3 l
552 656 M 1 10 l
124 -10 m 1 10 l
73 -10 m 1 10 l
54 -10 m 0 10 l
45 -10 m 0 10 l
40 -10 m 0 10 l
37 -10 m -1 10 l
37 -10 m -1 10 l
40 -10 m -2 10 l
54 0 m 3 -7 l
1 -3 m -1 3 l
50 -3 m 4 10 l
38 -10 m 2 10 l
22 -10 m 1 10 l
18 -10 m 1 10 l
17 -10 m 0 10 l
17 -10 m 0 10 l
18 -10 m 0 10 l
23 -10 m -1 10 l
35 -10 m -1 10 l
75 -10 m -2 10 l
553 666 M 1 10 l
124 -10 m 0 10 l
74 -10 m 0 10 l
54 -10 m 1 10 l
44 -10 m 0 10 l
40 -10 m -1 10 l
37 0 m 0 -9 l
0 -1 m 0 1 l
36 -1 m -1 10 l
39 -10 m -1 10 l
55 -10 m -4 10 l
61 -10 m 4 10 l
36 -10 m 1 10 l
22 -10 m 1 10 l
18 -10 m 0 10 l
17 -10 m 0 10 l
17 -10 m 0 10 l
18 -10 m 0 10 l
22 0 m 0 -9 l
0 -1 m 0 1 l
34 -1 m -1 10 l
74 -10 m -2 10 l
554 676 M 1 10 l
123 -10 m 1 10 l
73 -10 m 0 10 l
55 -10 m 0 10 l
44 -10 m 0 10 l
39 -10 m 0 10 l
37 -10 m -1 10 l
36 -10 m -1 10 l
39 -10 m -1 10 l
48 0 m 1 0 l
3 -10 m -3 10 l
68 -10 m 2 5 l
1 5 l
34 -10 m 1 10 l
22 -10 m 0 10 l
18 -10 m 1 10 l
16 -10 m 0 10 l
17 -10 m 0 10 l
18 -10 m 0 10 l
22 -10 m -1 10 l
34 -10 m -1 10 l
73 -10 m -1 10 l
555 686 M 1 8 l
0 3 l
123 -11 m 1 11 l
72 -11 m 1 11 l
54 -11 m 0 11 l
44 -11 m 0 11 l
39 -11 m 0 11 l
36 -11 m 0 11 l
35 -11 m -1 11 l
37 0 m 0 -2 l
2 -9 m -2 9 l
50 -9 m -3 11 l
75 -11 m 3 11 l
32 -11 m 2 11 l
20 -11 m 1 11 l
18 -11 m 0 11 l
16 -11 m 0 11 l
17 -11 m 0 11 l
18 -11 m -1 11 l
22 -11 m 0 11 l
33 -11 m -2 11 l
74 -11 m -3 11 l
556 697 M 1 10 l
123 -10 m 0 10 l
73 -10 m 0 10 l
54 -10 m 0 10 l
44 -10 m 0 10 l
39 -10 m -1 10 l
37 -10 m -1 10 l
35 -10 m 0 10 l
37 -10 m -1 10 l
48 -10 m -2 10 l
80 -10 m 3 10 l
31 -10 m 1 10 l
20 -10 m 1 8 l
0 2 l
17 -10 m 1 10 l
15 -10 m 1 10 l
16 -10 m 0 10 l
17 -10 m 0 10 l
22 -10 m -1 10 l
31 0 m 1 -9 l
0 -1 m 0 1 l
69 9 m 1 -6 l
1 -4 m -1 4 l
557 707 M 2 10 l
121 -10 m 1 10 l
72 -10 m 0 10 l
54 -10 m 0 7 l
0 3 l
44 -10 m 0 10 l
38 -10 m 0 10 l
36 -10 m -1 10 l
36 -10 m -1 10 l
37 -10 m -1 10 l
47 -10 m -3 10 l
86 -10 m 3 10 l
0 0 l
29 -10 m 1 7 l
0 3 l
20 -10 m 1 10 l
17 -10 m 0 10 l
16 -10 m 0 10 l
16 -10 m 0 10 l
17 -10 m 0 10 l
21 -10 m 0 10 l
31 -10 m -1 10 l
71 -10 m -1 10 l
559 717 M 1 10 l
121 -10 m 0 10 l
72 -10 m 1 10 l
53 -10 m 0 10 l
44 -10 m 0 10 l
38 -10 m 0 10 l
35 -10 m 0 10 l
35 -10 m -1 10 l
37 -10 m -2 10 l
43 0 m 2 -5 l
1 -5 m -1 5 l
90 -5 m 2 10 l
28 -10 m 1 10 l
CS M
20 -10 m 0 10 l
17 -10 m 0 10 l
16 -10 m 0 10 l
16 -10 m 0 10 l
17 -10 m 0 10 l
21 -10 m -1 10 l
31 -10 m 0 10 l
70 -10 m -2 10 l
560 727 M 1 10 l
120 -10 m 1 10 l
72 -10 m 0 10 l
53 -10 m 0 10 l
44 -10 m 0 10 l
38 -10 m 0 10 l
35 -10 m 0 10 l
34 -10 m -1 10 l
36 -10 m -1 10 l
44 -10 m -2 10 l
96 -10 m 2 10 l
27 -10 m 1 10 l
19 -10 m 1 10 l
16 -10 m 1 10 l
15 -10 m 0 10 l
16 -10 m 0 10 l
17 -10 m -1 10 l
21 -10 m 0 10 l
31 -10 m -2 10 l
70 -10 m -2 10 l
561 737 M 1 10 l
120 -10 m 0 10 l
72 -10 m 0 10 l
53 -10 m 0 10 l
44 -10 m -1 10 l
39 -10 m -1 10 l
36 -10 m -1 10 l
34 0 m 0 -10 l
0 0 l
35 0 m -1 10 l
43 -10 m -2 10 l
100 -10 m 2 10 l
26 -10 m 1 10 l
19 -10 m 1 10 l
16 -10 m 0 10 l
15 -10 m 1 10 l
15 -10 m 0 10 l
16 -10 m 0 10 l
21 -10 m -1 10 l
30 -10 m -1 10 l
69 -10 m -2 10 l
562 747 M 1 10 l
119 -10 m 1 10 l
71 -10 m 0 10 l
53 -10 m 0 10 l
43 -10 m 0 10 l
38 -10 m 0 10 l
35 -10 m 0 10 l
34 -10 m -1 10 l
35 -10 m -1 10 l
42 -10 m -2 10 l
104 -10 m 3 10 l
24 -10 m 2 10 l
18 -10 m 1 10 l
15 -10 m 1 10 l
15 -10 m 0 10 l
15 -10 m 0 10 l
16 -10 m 0 10 l
20 -10 m -1 10 l
30 -10 m -1 10 l
66 0 m 0 -5 l
2 -5 m -2 5 l
563 757 M 1 10 l
119 -10 m 1 10 l
70 -10 m 1 10 l
52 -10 m 0 10 l
43 -10 m 0 10 l
38 -10 m 0 10 l
35 -10 m -1 10 l
34 -10 m -1 10 l
35 -10 m -1 10 l
41 -10 m -2 10 l
109 -10 m 1 5 l
1 5 l
24 -10 m 1 10 l
18 -10 m 0 10 l
16 -10 m 0 5 l
0 5 l
15 -10 m 0 10 l
15 -10 m 0 10 l
16 -10 m 0 10 l
19 -10 m 0 10 l
29 -10 m -1 10 l
67 -10 m -2 10 l
564 767 M 1 10 l
119 -10 m 0 10 l
71 -10 m 0 10 l
52 -10 m 0 10 l
43 -10 m 0 10 l
38 -10 m -1 10 l
35 -10 m 0 10 l
33 -10 m -1 10 l
35 -10 m -1 10 l
38 0 m 1 -9 l
1 -1 m -1 1 l
112 -1 m 1 10 l
24 -10 m 1 10 l
17 -10 m 1 10 l
15 -10 m 1 10 l
14 -10 m 0 10 l
15 -10 m 0 10 l
16 -10 m -1 10 l
20 -10 m -1 10 l
29 -10 m -1 10 l
66 -10 m -2 10 l
565 777 M 1 6 l
1 4 l
117 -10 m 1 10 l
70 -10 m 0 10 l
52 -10 m 0 10 l
43 -10 m 0 10 l
37 -10 m 0 10 l
35 -10 m -1 10 l
33 -10 m 0 10 l
33 0 m 0 -7 l
1 -3 m -1 3 l
39 -3 m -2 10 l
116 -10 m 2 10 l
23 -10 m 1 10 l
17 -10 m 0 10 l
16 -10 m 0 10 l
14 -10 m 0 10 l
15 -10 m 0 10 l
15 -10 m 0 10 l
19 -10 m 0 10 l
28 -10 m -1 10 l
65 -10 m -3 10 l
567 787 M 1 10 l
117 -10 m 0 10 l
70 -10 m 1 10 l
51 -10 m 1 10 l
42 -10 m 0 10 l
37 0 m 0 -5 l
0 -5 m 0 5 l
34 -5 m 0 10 l
33 -10 m -1 10 l
34 -10 m -1 10 l
38 -10 m -2 10 l
120 -10 m 2 10 l
22 -10 m 1 10 l
16 -10 m 1 10 l
15 -10 m 0 10 l
14 -10 m 0 10 l
15 -10 m -1 10 l
16 -10 m 0 10 l
19 -10 m -1 10 l
27 0 m 0 -3 l
1 -7 m -1 7 l
63 -7 m -2 10 l
568 797 M 1 10 l
116 -10 m 1 10 l
70 -10 m 0 10 l
52 -10 m 0 10 l
42 -10 m 0 10 l
37 -10 m 0 10 l
34 -10 m -1 10 l
33 -10 m -1 10 l
34 -10 m -1 10 l
37 -10 m -1 10 l
123 -10 m 2 10 l
21 -10 m 1 10 l
16 -10 m 1 10 l
14 -10 m 1 10 l
13 -10 m 1 10 l
13 -10 m 0 10 l
16 -10 m -1 10 l
19 -10 m -1 10 l
28 -10 m -1 10 l
60 0 m 1 -6 l
1 -4 m -1 4 l
569 807 M 1 10 l
116 -10 m 0 7 l
1 3 l
69 -10 m 0 10 l
52 -10 m 0 10 l
42 -10 m 0 10 l
37 -10 m -1 10 l
34 -10 m 0 10 l
32 -10 m 0 10 l
33 -10 m -1 10 l
37 -10 m -2 10 l
57 0 m 2 -3 l
10 -6 l
10 3 l
5 6 l
43 -10 m 1 10 l
21 -10 m 0 0 l
1 10 l
16 -10 m 0 10 l
15 -10 m 0 10 l
14 -10 m 0 10 l
13 -10 m 0 10 l
15 -10 m 0 10 l
18 -10 m 0 10 l
27 -10 m -1 10 l
61 -10 m -2 10 l
570 817 M 1 10 l
116 -10 m 0 10 l
69 -10 m 1 10 l
51 -10 m 0 10 l
42 -10 m 0 10 l
36 -10 m 0 10 l
34 -10 m -1 10 l
33 -10 m -1 10 l
33 -10 m -1 10 l
34 0 m 0 -2 l
2 -8 m -2 8 l
59 -8 m -7 10 l
34 -10 m 5 6 l
2 4 l
37 -10 m 1 3 l
1 7 l
20 -10 m 1 10 l
15 -10 m 1 10 l
14 -10 m 0 10 l
14 -10 m 0 10 l
13 -10 m 0 10 l
15 -10 m 0 10 l
18 -10 m -1 10 l
27 -10 m -1 10 l
60 -10 m -2 10 l
571 827 M 1 10 l
115 -10 m 1 10 l
69 -10 m 0 0 l
0 10 l
51 -10 m 0 10 l
42 -10 m 0 10 l
36 -10 m 0 10 l
33 -10 m 0 10 l
32 -10 m -1 10 l
33 -10 m -1 10 l
35 -10 m -1 10 l
48 0 m 4 -8 l
1 -2 m -1 2 l
42 -2 m 4 10 l
35 -10 m 1 10 l
20 -10 m 0 10 l
16 -10 m 1 10 l
13 -10 m 1 10 l
13 -10 m 0 10 l
13 -10 m 0 10 l
15 -10 m 0 10 l
17 -10 m -1 10 l
27 -10 m -1 10 l
59 -10 m -2 10 l
572 837 M 1 10 l
115 -10 m 0 10 l
69 -10 m 0 10 l
51 -10 m 0 10 l
42 -10 m 0 10 l
36 -10 m 0 10 l
33 -10 m -1 10 l
32 -10 m 0 10 l
32 -10 m -1 10 l
35 -10 m -2 10 l
50 -10 m -4 10 l
54 -10 m 4 7 l
1 3 l
31 -10 m 2 10 l
18 -10 m 1 10 l
16 -10 m 0 10 l
14 -10 m 0 10 l
13 -10 m 0 10 l
13 -10 m 0 10 l
15 -10 m -1 10 l
17 0 m 0 -5 l
0 -5 m 0 5 l
26 -5 m -1 10 l
58 -10 m -2 10 l
573 847 M 1 10 l
114 -10 m 1 10 l
68 -10 m 1 10 l
50 -10 m 0 10 l
42 -10 m 0 10 l
36 -10 m -1 10 l
33 -10 m 0 10 l
32 -10 m -1 10 l
32 -10 m -1 10 l
34 -10 m -1 10 l
43 0 m 2 -4 l
2 -6 m -2 6 l
61 -6 m 3 10 l
30 -10 m 1 10 l
18 -10 m 1 10 l
15 -10 m 1 10 l
13 -10 m 0 10 l
13 -10 m 0 10 l
13 -10 m 0 10 l
14 -10 m 0 10 l
17 -10 m -1 10 l
26 -10 m -1 10 l
54 0 m 2 -9 l
CS M
1 -1 m -1 1 l
574 857 M 2 10 l
113 -10 m 1 10 l
68 -10 m 0 10 l
50 -10 m 0 10 l
42 -10 m 0 10 l
35 -10 m 0 10 l
33 -10 m 0 10 l
31 -10 m -1 10 l
32 -10 m -1 10 l
34 -10 m -2 10 l
45 -10 m -3 10 l
69 -10 m 3 10 l
28 -10 m 1 10 l
18 -10 m 1 10 l
15 -10 m 0 1 l
0 9 l
13 -10 m 1 10 l
12 -10 m 0 10 l
13 -10 m 0 10 l
14 -10 m 0 10 l
16 -10 m 0 10 l
25 -10 m -2 10 l
56 -10 m -2 10 l
576 867 M 0 4 l
1 6 l
113 -10 m 0 10 l
68 -10 m 0 10 l
50 -10 m 1 10 l
41 -10 m -1 10 l
36 -10 m 0 10 l
33 -10 m -1 10 l
31 -10 m 0 10 l
31 -10 m -1 10 l
33 -10 m -1 10 l
43 -10 m -3 10 l
75 -10 m 3 8 l
0 2 l
26 -10 m 2 10 l
17 -10 m 1 10 l
14 -10 m 1 10 l
13 -10 m 0 10 l
12 -10 m 1 10 l
12 -10 m 0 10 l
14 -10 m -1 10 l
17 -10 m -1 10 l
24 -10 m -1 10 l
55 -10 m -2 10 l
577 877 M 1 10 l
112 -10 m 1 10 l
67 -10 m 1 10 l
50 -10 m 0 10 l
40 -10 m 0 10 l
36 -10 m 0 10 l
32 0 m 0 -7 l
0 -3 m 0 3 l
30 7 m 0 -1 l
1 -9 m -1 9 l
30 1 m 0 -3 l
1 -7 m -1 7 l
33 -7 m -1 10 l
38 0 m 1 -1 l
2 -9 m -2 9 l
80 -9 m 3 10 l
25 -10 m 1 10 l
17 -10 m 1 10 l
14 -10 m 0 10 l
13 -10 m 0 10 l
13 -10 m 0 10 l
12 -10 m 0 10 l
13 -10 m 0 10 l
16 -10 m 0 10 l
22 0 m 0 -1 l
1 -9 m -1 9 l
54 -9 m -2 10 l
578 887 M 1 10 l
112 -10 m 1 10 l
67 -10 m 0 10 l
50 -10 m 0 10 l
40 -10 m 0 10 l
36 -10 m 0 10 l
32 -10 m 0 10 l
30 -10 m 0 10 l
30 -10 m -1 10 l
31 0 m 0 -1 l
2 -9 m -2 9 l
40 -9 m -2 10 l
86 -10 m 2 10 l
24 -10 m 1 4 l
1 6 l
16 -10 m 1 10 l
13 -10 m 1 10 l
12 -10 m 1 10 l
12 -10 m 0 10 l
12 -10 m 0 10 l
13 -10 m 0 10 l
16 -10 m -1 10 l
23 -10 m -1 10 l
51 0 m 0 -4 l
2 -6 m -2 6 l
579 897 M 1 10 l
112 -10 m 0 10 l
67 -10 m 0 10 l
50 -10 m 0 10 l
40 -10 m 0 10 l
36 -10 m -1 10 l
33 -10 m -1 10 l
31 -10 m -1 10 l
30 -10 m -1 10 l
32 -10 m -1 10 l
39 -10 m -2 10 l
90 -10 m 3 10 l
23 -10 m 1 10 l
16 -10 m 1 10 l
13 -10 m 1 10 l
12 -10 m 0 10 l
12 -10 m 0 10 l
12 -10 m 0 10 l
13 -10 m -1 10 l
16 -10 m -1 10 l
23 -10 m -1 10 l
52 -10 m -3 10 l
580 907 M 1 10 l
111 -10 m 1 10 l
66 -10 m 1 10 l
49 -10 m 0 10 l
40 -10 m 0 10 l
35 -10 m 0 10 l
32 -10 m 0 10 l
30 -10 m -1 10 l
30 -10 m 0 10 l
31 -10 m -1 10 l
38 -10 m -3 10 l
96 -10 m 2 9 l
0 1 l
22 -10 m 1 10 l
16 -10 m 0 10 l
14 -10 m 0 10 l
12 -10 m 0 10 l
12 -10 m 0 10 l
12 -10 m 0 10 l
12 -10 m 0 10 l
15 -10 m 0 10 l
22 -10 m -1 10 l
50 -10 m -2 10 l
581 917 M 2 10 l
110 -10 m 0 10 l
67 -10 m 0 10 l
49 -10 m 0 10 l
40 -10 m 0 10 l
35 -10 m 0 10 l
32 -10 m -1 10 l
30 -10 m 0 10 l
30 -10 m -1 10 l
31 -10 m -1 10 l
36 -10 m -2 10 l
100 -10 m 2 10 l
21 -10 m 1 10 l
15 -10 m 1 6 l
0 4 l
13 -10 m 1 10 l
11 -10 m 1 10 l
11 -10 m 0 10 l
12 -10 m 0 10 l
12 -10 m 0 10 l
15 -10 m -1 10 l
22 -10 m -1 10 l
49 -10 m -2 10 l
583 927 M 1 10 l
109 -10 m 1 10 l
66 -10 m 0 10 l
49 -10 m 0 10 l
40 -10 m 0 10 l
35 -10 m 0 10 l
31 -10 m 0 10 l
30 -10 m -1 10 l
30 -10 m -1 10 l
31 -10 m -2 10 l
34 0 m 2 -7 l
0 -3 m 0 3 l
102 -3 m 2 10 l
20 -10 m 1 10 l
15 -10 m 1 10 l
13 -10 m 0 10 l
12 -10 m 0 10 l
11 -10 m 0 10 l
12 -10 m 0 10 l
12 -10 m -1 10 l
15 -10 m 0 10 l
21 -10 m -1 10 l
45 0 m 0 0 l
3 -10 m -3 10 l
584 937 M 1 10 l
109 -10 m 1 10 l
65 -10 m 1 10 l
48 -10 m 1 10 l
39 -10 m 0 10 l
35 -10 m 0 10 l
31 -10 m 0 10 l
29 -10 m 0 10 l
29 -10 m -1 10 l
30 -10 m -1 10 l
35 -10 m -2 10 l
108 -10 m 2 10 l
19 -10 m 1 10 l
15 -10 m 1 10 l
12 -10 m 1 10 l
11 -10 m 0 10 l
11 -10 m 0 10 l
12 -10 m 0 10 l
11 -10 m 0 10 l
15 -10 m -1 10 l
21 -10 m -1 10 l
46 -10 m -2 10 l
585 947 M 1 10 l
109 -10 m 0 10 l
66 -10 m 0 10 l
49 -10 m 0 10 l
39 -10 m 0 10 l
35 -10 m -1 10 l
32 -10 m -1 10 l
30 -10 m -1 10 l
29 -10 m -1 10 l
30 -10 m -1 10 l
34 -10 m -2 10 l
112 -10 m 2 10 l
18 -10 m 1 10 l
15 -10 m 0 10 l
13 -10 m 0 10 l
11 -10 m 1 10 l
10 -10 m 0 10 l
12 -10 m -1 10 l
12 0 m 0 -9 l
0 -1 m 0 1 l
14 -1 m -1 10 l
21 -10 m -2 10 l
46 -10 m -2 10 l
586 957 M 0 1 l
1 9 l
108 -10 m 1 10 l
65 -10 m 0 10 l
49 -10 m 0 10 l
39 -10 m 0 10 l
34 -10 m 0 10 l
31 -10 m 0 10 l
29 -10 m 0 10 l
28 -10 m 0 10 l
29 -10 m -1 10 l
33 -10 m -1 10 l
51 0 m 6 -6 l
10 -2 l
10 7 l
0 1 l
38 -10 m 2 10 l
17 -10 m 2 10 l
13 -10 m 1 10 l
12 -10 m 1 10 l
11 -10 m 0 10 l
10 -10 m 1 10 l
10 -10 m 0 10 l
12 -10 m 0 10 l
13 -10 m 0 10 l
19 -10 m -1 10 l
45 -10 m -3 10 l
587 967 M 1 10 l
108 -10 m 1 7 l
0 3 l
64 -10 m 1 10 l
48 -10 m 0 10 l
39 -10 m 0 10 l
34 -10 m 0 10 l
31 -10 m 0 10 l
29 -10 m -1 10 l
29 -10 m -1 10 l
29 -10 m -1 10 l
33 -10 m -2 10 l
46 0 m 3 -5 l
4 -5 m -4 5 l
30 -5 m 6 10 l
34 -10 m 0 1 l
1 9 l
18 -10 m 1 10 l
13 -10 m 1 10 l
12 -10 m 0 10 l
11 -10 m 0 10 l
11 -10 m 0 10 l
10 -10 m 0 10 l
12 -10 m -1 10 l
14 -10 m -1 10 l
18 0 m 0 -3 l
1 -7 m -1 7 l
43 -7 m -2 10 l
588 977 M 2 10 l
107 -10 m 0 10 l
65 -10 m 0 10 l
48 -10 m 0 10 l
39 -10 m 0 10 l
34 -10 m 0 10 l
31 -10 m -1 10 l
29 -10 m 0 10 l
CS M
28 -10 m -1 10 l
28 0 m 0 -5 l
1 -5 m -1 5 l
30 5 m 0 -1 l
2 -9 m -2 9 l
48 -9 m -5 10 l
44 -10 m 4 6 l
2 4 l
29 -10 m 2 10 l
17 -10 m 0 2 l
1 8 l
13 -10 m 1 10 l
11 -10 m 0 10 l
11 -10 m 0 10 l
11 -10 m 0 10 l
10 -10 m 0 10 l
11 -10 m 0 10 l
13 -10 m -1 10 l
19 -10 m -1 10 l
39 0 m 2 -8 l
1 -2 m -1 2 l
590 987 M 1 10 l
106 -10 m 1 10 l
64 -10 m 1 10 l
47 -10 m 0 10 l
39 -10 m 0 10 l
34 -10 m 0 10 l
30 -10 m 0 10 l
29 -10 m -1 10 l
28 -10 m -1 10 l
29 -10 m -1 10 l
31 -10 m -1 10 l
40 0 m 2 -4 l
2 -6 m -2 6 l
52 -6 m 3 10 l
28 -10 m 1 10 l
17 -10 m 1 10 l
13 -10 m 0 10 l
11 -10 m 1 10 l
10 -10 m 1 10 l
10 -10 m 0 10 l
10 -10 m 0 10 l
11 -10 m 0 10 l
12 -10 m 0 10 l
18 -10 m -1 10 l
40 -10 m -2 10 l
591 997 M 1 10 l
106 -10 m 1 10 l
64 -10 m 0 10 l
47 -10 m 1 10 l
38 -10 m 0 10 l
34 -10 m 0 10 l
30 -10 m 0 10 l
28 -10 m 0 10 l
27 -10 m 0 10 l
28 -10 m -1 10 l
31 -10 m -2 10 l
42 -10 m -3 10 l
60 -10 m 4 10 l
25 -10 m 2 10 l
16 -10 m 1 10 l
12 -10 m 1 10 l
11 -10 m 0 10 l
11 -10 m 0 10 l
10 -10 m 0 10 l
10 -10 m 0 10 l
11 -10 m -1 10 l
12 0 m 0 0 l
1 -10 m -1 10 l
18 -10 m -1 10 l
39 -10 m -2 10 l
592 1007 M 1 10 l
106 -10 m 0 10 l
64 -10 m 0 10 l
48 -10 m 0 10 l
38 -10 m 0 10 l
34 -10 m 0 10 l
30 -10 m -1 10 l
29 -10 m -1 10 l
27 0 m 0 -4 l
1 -6 m -1 6 l
28 -6 m -1 10 l
30 -10 m -1 10 l
40 -10 m -4 10 l
68 -10 m 1 2 l
2 8 l
24 -10 m 1 10 l
16 -10 m 1 10 l
12 -10 m 1 10 l
10 -10 m 1 10 l
10 -10 m 0 10 l
10 -10 m 0 10 l
10 -10 m 0 10 l
10 -10 m 0 10 l
12 -10 m 0 10 l
17 -10 m -1 10 l
38 -10 m -3 10 l
593 1017 M 1 10 l
105 -10 m 1 10 l
63 -10 m 1 10 l
47 -10 m 0 10 l
38 -10 m 0 10 l
34 -10 m -1 10 l
30 -10 m 0 10 l
28 -10 m 0 10 l
27 -10 m -1 10 l
28 -10 m -1 10 l
30 -10 m -2 10 l
35 0 m 2 -4 l
1 -6 m -1 6 l
72 -6 m 3 10 l
22 -10 m 2 10 l
15 -10 m 0 10 l
13 -10 m 0 10 l
11 -10 m 0 10 l
10 -10 m 1 10 l
9 -10 m 0 10 l
10 -10 m 0 10 l
10 -10 m 0 10 l
12 -10 m -1 10 l
17 -10 m -1 10 l
34 0 m 1 -7 l
1 -3 m -1 3 l
594 1027 M 2 11 l
104 -11 m 1 11 l
63 -11 m 0 11 l
47 -11 m 0 11 l
38 -11 m 0 11 l
33 -11 m 0 11 l
30 -11 m 0 11 l
28 -11 m -1 11 l
27 -11 m 0 11 l
27 -11 m -1 11 l
29 -11 m -1 11 l
36 -11 m -2 11 l
79 -11 m 3 11 l
21 -11 m 1 7 l
0 4 l
14 -11 m 1 11 l
12 -11 m 1 11 l
10 -11 m 1 11 l
10 -11 m 0 11 l
9 -11 m 0 11 l
10 -11 m 0 11 l
10 -11 m -1 11 l
12 -11 m -1 11 l
17 -11 m -2 11 l
36 -11 m -3 11 l
596 1038 M 0 4 l
1 6 l
104 -10 m 0 10 l
63 -10 m 1 10 l
46 -10 m 0 10 l
38 -10 m 0 10 l
33 -10 m 0 10 l
30 -10 m -1 10 l
28 -10 m 0 10 l
27 -10 m -1 10 l
27 -10 m -1 10 l
29 -10 m -1 10 l
35 -10 m -2 10 l
84 -10 m 2 7 l
0 3 l
20 -10 m 1 10 l
14 -10 m 1 10 l
12 -10 m 1 10 l
10 -10 m 0 10 l
10 -10 m 0 10 l
9 -10 m 0 10 l
10 -10 m 0 10 l
9 -10 m 0 10 l
11 -10 m 0 10 l
15 -10 m -1 10 l
34 -10 m -2 10 l
597 1048 M 1 10 l
103 -10 m 1 10 l
63 -10 m 0 10 l
46 -10 m 0 10 l
38 -10 m 0 10 l
33 -10 m 0 10 l
29 -10 m 0 10 l
28 -10 m -1 10 l
27 -10 m -1 10 l
27 -10 m -1 10 l
27 0 m 0 -2 l
2 -8 m -2 8 l
35 -8 m -3 10 l
89 -10 m 2 10 l
19 -10 m 2 10 l
13 -10 m 1 10 l
12 -10 m 0 10 l
10 -10 m 1 10 l
9 -10 m 0 10 l
9 -10 m 0 10 l
10 -10 m -1 10 l
10 -10 m 0 10 l
11 -10 m -1 10 l
15 -10 m -1 10 l
33 -10 m -3 10 l
598 1058 M 1 10 l
103 -10 m 1 10 l
62 -10 m 0 10 l
46 -10 m 1 10 l
37 -10 m 0 10 l
33 -10 m 0 10 l
29 -10 m 0 10 l
27 -10 m 0 10 l
26 -10 m 0 10 l
26 -10 m -1 10 l
28 -10 m -1 10 l
31 0 m 1 -3 l
1 -7 m -1 7 l
92 -7 m 2 10 l
19 -10 m 1 10 l
13 -10 m 1 10 l
11 -10 m 1 10 l
10 -10 m 0 5 l
0 5 l
9 -10 m 1 10 l
8 -10 m 1 10 l
8 -10 m 0 10 l
10 -10 m 0 10 l
10 -10 m 0 10 l
13 0 m 0 -5 l
1 -5 m -1 5 l
29 5 m 1 -8 l
1 -2 m -1 2 l
599 1068 M 1 10 l
103 -10 m 0 10 l
62 -10 m 1 10 l
46 -10 m 0 10 l
37 -10 m 0 10 l
33 -10 m 0 10 l
29 -10 m 0 10 l
27 -10 m -1 10 l
27 -10 m -1 10 l
26 -10 m -1 10 l
28 -10 m -1 10 l
32 -10 m -2 10 l
97 -10 m 3 10 l
17 -10 m 1 10 l
13 -10 m 1 10 l
11 -10 m 0 0 l
0 10 l
10 -10 m 1 10 l
9 -10 m 0 10 l
9 -10 m 0 10 l
8 -10 m 0 10 l
10 -10 m -1 10 l
11 -10 m -1 10 l
14 -10 m -1 10 l
30 -10 m -3 10 l
600 1078 M 2 10 l
101 -10 m 1 10 l
62 -10 m 0 10 l
46 -10 m 0 10 l
37 -10 m 0 10 l
33 -10 m 0 10 l
29 -10 m -1 10 l
27 0 m 0 -4 l
0 -6 m 0 6 l
26 -6 m -1 10 l
26 -10 m -1 10 l
28 -10 m -2 10 l
32 -10 m -2 10 l
102 -10 m 2 10 l
16 -10 m 1 10 l
13 -10 m 1 9 l
0 1 l
10 -10 m 1 10 l
10 -10 m 0 10 l
9 -10 m 0 7 l
0 3 l
9 -10 m 0 10 l
8 -10 m 0 10 l
9 -10 m 0 10 l
10 -10 m 0 10 l
13 -10 m -1 10 l
28 -10 m -2 10 l
602 1088 M 1 10 l
101 -10 m 1 10 l
61 -10 m 1 10 l
45 -10 m 0 10 l
37 -10 m 1 10 l
32 -10 m 0 10 l
28 -10 m 0 10 l
27 -10 m 0 10 l
25 -10 m 0 10 l
25 0 m 0 -9 l
0 -1 m 0 1 l
26 -1 m -1 10 l
31 -10 m -2 10 l
46 0 m 1 -2 l
10 -7 l
10 3 l
5 6 l
34 -10 m 1 5 l
1 5 l
15 -10 m 2 10 l
12 -10 m 1 10 l
CS M
10 -10 m 1 10 l
9 -10 m 0 10 l
9 -10 m 0 10 l
9 -10 m 0 10 l
8 -10 m 0 10 l
9 -10 m 0 10 l
10 -10 m -1 10 l
13 -10 m -1 10 l
27 -10 m -3 10 l
603 1098 M 1 10 l
101 -10 m 0 10 l
62 -10 m 0 3 l
0 7 l
45 -10 m 1 10 l
37 -10 m 0 10 l
32 -10 m -1 10 l
29 -10 m 0 10 l
27 -10 m -1 10 l
26 -10 m -1 10 l
26 -10 m -1 10 l
26 -10 m -1 10 l
30 -10 m -2 10 l
48 -10 m -6 10 l
32 -10 m 5 6 l
2 4 l
29 -10 m 1 10 l
16 -10 m 1 10 l
12 -10 m 1 10 l
10 -10 m 0 10 l
9 -10 m 1 10 l
8 -10 m 0 10 l
9 -10 m 0 10 l
8 -10 m 0 10 l
9 -10 m -1 10 l
10 -10 m 0 10 l
12 -10 m -1 10 l
22 0 m 2 -9 l
1 -1 m -1 1 l
604 1108 M 1 10 l
100 -10 m 1 10 l
61 -10 m 0 10 l
46 -10 m 0 10 l
37 -10 m 0 10 l
31 -10 m 0 10 l
29 -10 m 0 10 l
26 -10 m 0 10 l
25 -10 m 0 10 l
25 -10 m -1 10 l
26 -10 m -1 10 l
27 0 m 1 -1 l
1 -9 m -1 9 l
38 1 m 2 -5 l
3 -5 m -3 5 l
42 -5 m 4 10 l
26 -10 m 2 10 l
15 -10 m 1 8 l
0 2 l
12 -10 m 0 10 l
10 -10 m 1 10 l
9 -10 m 0 10 l
8 -10 m 1 10 l
8 -10 m 0 10 l
8 -10 m 0 10 l
8 -10 m 0 10 l
10 -10 m -1 10 l
12 -10 m -1 10 l
23 -10 m -2 10 l
605 1118 M 1 8 l
0 2 l
100 -10 m 1 7 l
0 3 l
60 -10 m 1 10 l
45 -10 m 0 10 l
37 -10 m 0 10 l
31 -10 m 0 10 l
29 -10 m -1 10 l
27 -10 m -1 10 l
26 -10 m -1 10 l
25 -10 m -1 10 l
26 -10 m -1 10 l
28 -10 m -1 10 l
40 -10 m -4 10 l
52 -10 m 4 7 l
1 3 l
23 -10 m 2 10 l
14 -10 m 1 10 l
11 -10 m 1 10 l
10 -10 m 0 10 l
9 -10 m 0 10 l
9 -10 m 0 10 l
8 -10 m 0 10 l
8 -10 m 0 10 l
8 -10 m 0 10 l
9 -10 m -1 10 l
12 -10 m -1 10 l
22 -10 m -2 10 l
606 1128 M 2 10 l
99 -10 m 0 10 l
61 -10 m 0 10 l
45 -10 m 0 10 l
37 -10 m 0 10 l
31 -10 m 0 10 l
28 -10 m 0 10 l
26 -10 m 0 10 l
25 -10 m -1 10 l
25 -10 m -1 10 l
26 -10 m -1 10 l
28 -10 m -2 10 l
38 -10 m -4 10 l
61 -10 m 3 10 l
22 -10 m 1 10 l
14 -10 m 1 10 l
11 -10 m 1 10 l
9 -10 m 1 10 l
8 -10 m 1 10 l
8 -10 m 0 10 l
8 -10 m 0 10 l
8 -10 m 0 10 l
8 -10 m 0 10 l
8 -10 m 0 10 l
11 -10 m -1 10 l
21 -10 m -3 10 l
608 1138 M 1 10 l
98 -10 m 1 10 l
60 -10 m 1 10 l
44 -10 m 0 10 l
37 -10 m 0 10 l
31 -10 m 0 10 l
28 -10 m 0 10 l
26 -10 m 0 10 l
24 -10 m 0 10 l
24 -10 m 0 10 l
24 0 m 0 -7 l
1 -3 m -1 3 l
27 -3 m -1 10 l
32 0 m 3 -8 l
0 -2 m 0 2 l
64 -2 m 3 10 l
20 -10 m 2 10 l
13 -10 m 1 10 l
11 -10 m 1 10 l
9 -10 m 0 10 l
9 -10 m 0 10 l
8 -10 m 0 10 l
8 -10 m 0 10 l
8 -10 m 0 10 l
8 -10 m -1 10 l
9 -10 m -1 10 l
11 -10 m -1 10 l
17 0 m 1 -9 l
1 -1 m -1 1 l
609 1148 M 1 10 l
98 -10 m 1 10 l
60 -10 m 0 10 l
44 -10 m 1 10 l
36 -10 m 0 10 l
31 -10 m 0 10 l
28 -10 m 0 10 l
26 -10 m -1 10 l
25 -10 m -1 10 l
25 -10 m -1 10 l
25 -10 m -1 10 l
27 -10 m -2 10 l
34 -10 m -2 10 l
72 -10 m 3 9 l
0 1 l
19 -10 m 1 5 l
0 5 l
13 -10 m 1 10 l
11 -10 m 0 10 l
9 -10 m 1 10 l
8 -10 m 1 10 l
7 -10 m 1 10 l
7 -10 m 0 10 l
8 -10 m 0 10 l
7 -10 m 0 10 l
8 -10 m 0 10 l
10 -10 m -1 10 l
18 -10 m -2 10 l
610 1158 M 1 10 l
98 -10 m 0 10 l
60 -10 m 0 10 l
45 -10 m 0 10 l
36 -10 m 0 10 l
31 -10 m 0 10 l
28 -10 m 0 10 l
25 -10 m 0 10 l
24 -10 m 0 10 l
24 -10 m -1 10 l
25 -10 m -1 10 l
26 -10 m -1 10 l
33 -10 m -3 10 l
78 -10 m 2 10 l
18 -10 m 2 10 l
12 -10 m 1 10 l
10 -10 m 1 10 l
9 -10 m 0 10 l
9 -10 m 0 10 l
8 -10 m 0 10 l
7 -10 m 0 10 l
8 -10 m 0 10 l
7 -10 m 0 10 l
8 -10 m -1 10 l
9 0 m 0 -3 l
1 -7 m -1 7 l
17 -7 m -3 10 l
611 1168 M 2 10 l
96 -10 m 1 10 l
59 -10 m 1 10 l
44 -10 m 0 10 l
36 -10 m 0 10 l
31 -10 m 0 10 l
28 -10 m -1 10 l
26 -10 m 0 10 l
24 -10 m -1 10 l
24 -10 m -1 10 l
25 -10 m -1 10 l
26 -10 m -2 10 l
29 0 m 1 -1 l
2 -9 m -2 9 l
82 -9 m 3 10 l
17 -10 m 1 10 l
12 -10 m 1 10 l
10 -10 m 1 10 l
8 -10 m 1 10 l
8 -10 m 0 10 l
8 -10 m 0 10 l
7 -10 m 0 10 l
8 -10 m -1 10 l
8 -10 m 0 10 l
7 -10 m 0 10 l
9 -10 m -1 10 l
15 -10 m -2 10 l
613 1178 M 1 10 l
96 -10 m 1 10 l
59 -10 m 0 10 l
44 -10 m 0 10 l
36 -10 m 0 10 l
31 -10 m 0 10 l
27 -10 m 0 10 l
26 -10 m -1 10 l
24 0 m 0 -8 l
0 -2 m 0 2 l
23 -2 m 0 10 l
24 -10 m -1 10 l
24 0 m 0 -4 l
1 -6 m -1 6 l
30 -6 m -2 10 l
88 -10 m 2 10 l
16 -10 m 1 10 l
12 -10 m 1 10 l
10 -10 m 1 10 l
8 -10 m 1 10 l
7 -10 m 1 10 l
7 -10 m 0 10 l
7 -10 m 0 10 l
7 -10 m 0 10 l
8 -10 m -1 10 l
8 -10 m -1 10 l
9 -10 m -1 10 l
12 0 m 0 -4 l
2 -6 m -2 6 l
614 1188 M 1 10 l
96 -10 m 1 10 l
58 -10 m 1 10 l
43 -10 m 1 10 l
35 -10 m 0 10 l
31 -10 m 0 10 l
27 -10 m 0 10 l
25 -10 m 0 10 l
24 -10 m -1 10 l
24 -10 m -1 10 l
24 -10 m -1 10 l
25 -10 m -1 10 l
29 -10 m -2 10 l
92 -10 m 2 10 l
15 -10 m 2 10 l
11 -10 m 1 10 l
10 -10 m 0 10 l
9 -10 m 0 10 l
8 -10 m 0 10 l
7 -10 m 0 10 l
7 -10 m 1 10 l
6 -10 m 0 10 l
7 -10 m 0 10 l
7 0 m 0 -3 l
0 -7 m 0 7 l
8 -7 m 0 10 l
12 -10 m -2 10 l
615 1198 M 1 10 l
0 0 l
96 -10 m 0 10 l
59 -10 m 0 10 l
44 -10 m 0 10 l
35 -10 m 0 10 l
31 -10 m 0 10 l
27 -10 m 0 10 l
25 -10 m -1 10 l
24 -10 m 0 10 l
23 -10 m -1 10 l
CS M
24 -10 m -1 10 l
25 -10 m -2 10 l
29 -10 m -2 10 l
45 0 m 2 -2 l
10 -3 l
6 5 l
33 -10 m 1 2 l
1 8 l
15 -10 m 1 10 l
11 -10 m 1 10 l
9 -10 m 1 10 l
8 -10 m 1 10 l
7 -10 m 0 10 l
7 -10 m 1 10 l
7 -10 m 0 10 l
6 -10 m 0 10 l
7 -10 m 0 10 l
7 -10 m 0 10 l
8 -10 m -1 10 l
11 -10 m -1 10 l
616 1208 M 1 10 l
95 -10 m 1 10 l
58 -10 m 1 10 l
43 -10 m 0 10 l
35 -10 m 0 10 l
31 -10 m 0 10 l
27 -10 m 0 10 l
24 -10 m 0 10 l
24 -10 m -1 10 l
23 -10 m 0 10 l
23 -10 m -1 10 l
24 -10 m -1 10 l
28 -10 m -2 10 l
39 0 m 0 0 l
8 -10 m -8 10 l
26 -10 m 4 3 l
4 7 l
27 -10 m 2 10 l
14 -10 m 2 10 l
10 -10 m 1 7 l
0 3 l
9 -10 m 1 10 l
8 -10 m 0 10 l
7 -10 m 1 10 l
7 -10 m 0 10 l
7 -10 m 0 10 l
6 -10 m 0 10 l
7 -10 m 0 10 l
7 -10 m -1 10 l
8 -10 m -1 10 l
11 -10 m -1 10 l
617 1218 M 2 10 l
94 -10 m 1 10 l
58 -10 m 0 10 l
43 -10 m 0 10 l
35 -10 m 1 10 l
30 -10 m 0 10 l
27 -10 m -1 10 l
25 -10 m 0 10 l
23 -10 m 0 10 l
22 0 m 0 -4 l
1 -6 m -1 6 l
23 -6 m -1 10 l
24 -10 m -1 10 l
25 0 m 1 -2 l
1 -8 m -1 8 l
40 -8 m -5 10 l
39 -10 m 6 10 l
0 0 l
23 -10 m 2 10 l
14 -10 m 1 10 l
0 0 l
10 -10 m 1 10 l
9 -10 m 0 1 l
0 9 l
8 -10 m 1 10 l
7 -10 m 0 10 l
7 -10 m 0 10 l
7 -10 m 0 10 l
6 -10 m 0 10 l
7 -10 m -1 10 l
7 -10 m 0 10 l
7 -10 m 0 10 l
10 -10 m -2 10 l
619 1228 M 2 10 l
93 -10 m 1 10 l
57 -10 m 1 10 l
42 -10 m 1 10 l
35 -10 m 0 10 l
30 -10 m 0 10 l
26 -10 m 0 10 l
25 -10 m 0 10 l
23 -10 m -1 10 l
23 -10 m -1 10 l
23 -10 m -1 10 l
24 -10 m -1 10 l
26 -10 m -2 10 l
38 -10 m -5 10 l
50 -10 m 3 10 l
22 -10 m 2 10 l
13 -10 m 1 10 l
10 -10 m 1 10 l
8 -10 m 1 10 l
8 -10 m 0 10 l
7 -10 m 0 10 l
7 -10 m 0 10 l
7 -10 m 0 10 l
6 -10 m 0 10 l
6 -10 m 0 10 l
7 -10 m -1 10 l
8 -10 m -1 10 l
9 -10 m -1 10 l
621 1238 M 5 5 l
6 5 l
83 -10 m 2 2 l
5 8 l
51 -10 m 4 7 l
1 3 l
38 -10 m 1 3 l
3 7 l
31 -10 m 3 10 l
27 -10 m 2 10 l
24 -10 m 2 10 l
23 -10 m 1 10 l
21 -10 m 1 10 l
21 -10 m 1 10 l
21 -10 m 0 10 l
23 -10 m -1 10 l
25 -10 m -1 10 l
31 0 m 3 -8 l
0 -2 m 0 2 l
53 -2 m 4 10 l
20 -10 m 2 10 l
12 -10 m 1 10 l
10 -10 m 1 10 l
8 -10 m 1 10 l
7 -10 m 1 10 l
6 -10 m 1 10 l
6 -10 m 1 10 l
6 -10 m 0 10 l
6 -10 m 0 10 l
6 -10 m 0 10 l
6 -10 m 0 10 l
7 -10 m -1 10 l
9 -10 m -1 10 l
-618 0 m 4 1 l
10 1 l
10 1 l
10 0 l
10 1 l
10 1 l
11 1 l
10 0 l
10 1 l
5 -7 m 5 1 l
-10 6 m 10 0 l
0 -6 m 10 0 l
-10 6 m 10 1 l
0 -7 m 10 1 l
-10 6 m 10 0 l
0 -6 m 10 1 l
-10 5 m 10 1 l
0 -6 m 10 1 l
-10 5 m 10 0 l
0 -5 m 10 1 l
-10 4 m 10 0 l
1 -9 m 9 1 l
-10 4 m 10 0 l
-10 4 m 10 1 l
0 -9 m 10 1 l
-10 3 m 10 1 l
-10 4 m 10 0 l
0 -8 m 10 1 l
-10 3 m 10 0 l
-10 4 m 2 0 l
8 -7 m 10 0 l
-10 3 m 10 1 l
3 -7 m 7 1 l
-10 2 m 10 1 l
-10 3 m 10 0 l
0 -6 m 10 1 l
-10 2 m 10 1 l
-10 2 m 10 1 l
0 -6 m 10 0 l
-10 3 m 10 0 l
-10 3 m 10 0 l
7 -8 m 3 0 l
-10 2 m 10 1 l
-10 2 m 10 1 l
-10 2 m 10 1 l
0 -9 m 10 1 l
-10 2 m 10 1 l
-10 2 m 10 0 l
-10 3 m 10 0 l
0 -8 m 10 1 l
-10 2 m 10 0 l
-10 2 m 10 1 l
-10 2 m 10 0 l
6 -9 m 4 0 l
-10 2 m 10 1 l
-10 1 m 10 1 l
-10 2 m 10 0 l
-10 2 m 10 1 l
0 -10 m 10 1 l
-10 2 m 10 0 l
-10 2 m 10 0 l
-10 2 m 10 1 l
-10 2 m 10 0 l
0 -9 m 10 1 l
-10 1 m 10 1 l
-10 1 m 10 1 l
-10 2 m 10 0 l
-10 2 m 10 0 l
2 -10 m 8 1 l
-10 1 m 10 1 l
-10 1 m 10 1 l
-10 1 m 10 0 l
-10 2 m 10 0 l
-10 2 m 4 0 l
6 -9 m 10 0 l
-10 2 m 10 0 l
-10 2 m 10 0 l
-10 1 m 10 1 l
-10 1 m 10 1 l
6 -9 m 4 0 l
-10 1 m 10 1 l
-10 1 m 10 1 l
-10 1 m 10 1 l
-10 1 m 10 0 l
-10 2 m 10 0 l
0 -9 m 10 1 l
-10 1 m 10 1 l
-10 1 m 10 0 l
-10 2 m 10 0 l
-10 1 m 10 1 l
-10 1 m 10 0 l
8 -9 m 2 0 l
-10 1 m 10 1 l
-10 1 m 10 0 l
-10 1 m 10 1 l
-10 1 m 10 0 l
-10 2 m 10 0 l
-10 1 m 10 0 l
0 -9 m 10 1 l
-10 1 m 10 0 l
-10 1 m 10 1 l
-10 1 m 10 0 l
-10 1 m 10 1 l
-10 1 m 10 0 l
-10 1 m 10 1 l
10 -10 m 0 0 l
-10 1 m 10 1 l
-10 0 m 10 1 l
-10 1 m 10 0 l
-10 1 m 10 1 l
-10 1 m 10 0 l
-10 1 m 10 0 l
-10 2 m 10 0 l
0 -10 m 10 1 l
-10 1 m 10 0 l
-10 1 m 10 0 l
-10 1 m 10 1 l
-10 1 m 10 0 l
-10 1 m 10 0 l
-10 1 m 10 1 l
-10 1 m 10 0 l
0 -9 m 10 0 l
-10 1 m 10 1 l
-10 0 m 10 1 l
-10 1 m 10 0 l
-10 1 m 10 0 l
-10 1 m 10 1 l
-10 1 m 10 0 l
-10 1 m 4 0 l
7 -10 m 9 1 l
-10 0 m 10 1 l
-10 1 m 10 0 l
-10 1 m 10 0 l
-10 1 m 10 0 l
-10 1 m 10 1 l
-10 1 m 10 0 l
-10 1 m 10 0 l
0 -8 m 10 0 l
-10 1 m 10 0 l
-10 1 m 10 0 l
-10 1 m 10 1 l
-10 0 m 10 1 l
-10 1 m 10 0 l
-10 1 m 10 0 l
-10 1 m 10 0 l
3 -9 m 7 0 l
-10 1 m 10 1 l
-10 0 m 10 1 l
-10 0 m 10 1 l
-10 1 m 10 0 l
-10 1 m 10 0 l
-10 1 m 10 0 l
-10 1 m 10 0 l
-10 1 m 10 1 l
0 -10 m 11 1 l
CS M
-11 1 m 11 0 l
-11 1 m 11 0 l
-11 1 m 11 0 l
-11 1 m 11 0 l
-11 1 m 11 0 l
-11 1 m 11 0 l
-11 1 m 11 1 l
-11 1 m 11 0 l
6 -10 m 4 0 l
-10 1 m 10 0 l
-10 1 m 10 0 l
-10 1 m 10 0 l
-10 1 m 10 0 l
-10 1 m 10 1 l
-10 0 m 10 1 l
-10 0 m 10 1 l
-10 1 m 10 0 l
-10 1 m 10 0 l
0 -10 m 10 1 l
-10 0 m 10 1 l
-10 0 m 10 1 l
-10 0 m 10 1 l
-10 0 m 10 1 l
-10 1 m 10 0 l
-10 1 m 10 0 l
-10 1 m 10 0 l
-10 1 m 10 0 l
-10 1 m 10 0 l
0 -9 m 10 0 l
-10 1 m 10 0 l
-10 1 m 10 0 l
-10 1 m 10 0 l
-10 1 m 10 0 l
-10 1 m 10 0 l
-10 1 m 10 0 l
-10 1 m 10 0 l
-10 1 m 10 0 l
-10 1 m 10 0 l
7 -10 m 3 0 l
-10 1 m 10 0 l
-10 1 m 10 0 l
-10 1 m 10 0 l
-10 1 m 10 0 l
-10 1 m 10 0 l
-10 1 m 10 0 l
-10 1 m 10 0 l
-10 1 m 10 0 l
-10 1 m 10 0 l
-10 1 m 10 0 l
0 -10 m 10 0 l
-10 1 m 10 0 l
-10 1 m 10 0 l
-10 1 m 10 0 l
-10 1 m 10 0 l
-10 1 m 10 0 l
-10 1 m 10 0 l
-10 1 m 10 0 l
-10 1 m 10 0 l
-10 1 m 10 0 l
-10 1 m 8 0 l
2 -10 m 10 0 l
-10 1 m 10 0 l
-10 1 m 10 0 l
-10 1 m 10 0 l
-10 1 m 10 0 l
-10 1 m 10 0 l
-10 1 m 10 0 l
-10 1 m 10 0 l
-10 1 m 10 0 l
-10 1 m 10 0 l
0 -9 m 10 1 l
-10 0 m 10 0 l
-10 1 m 10 0 l
-10 1 m 10 0 l
-10 1 m 10 0 l
-10 1 m 10 0 l
-10 1 m 10 0 l
-10 1 m 10 0 l
-10 1 m 10 0 l
-10 1 m 10 0 l
0 -8 m 10 -1 l
-10 1 m 10 0 l
-10 1 m 10 0 l
-10 1 m 10 0 l
-10 1 m 10 0 l
-10 1 m 10 0 l
-10 1 m 10 0 l
-10 1 m 10 0 l
-10 1 m 10 0 l
-10 1 m 10 0 l
0 -9 m 10 0 l
-10 1 m 10 0 l
-10 1 m 10 0 l
-10 1 m 10 0 l
-10 1 m 10 0 l
-10 1 m 10 0 l
-10 1 m 10 0 l
-10 1 m 10 0 l
-10 1 m 10 0 l
-10 1 m 10 0 l
7 -9 m -7 0 l
0 1 m 10 0 l
-10 1 m 10 0 l
-10 1 m 10 0 l
-10 1 m 10 0 l
-10 1 m 10 0 l
-10 1 m 10 0 l
-10 1 m 10 0 l
-10 1 m 10 0 l
-10 1 m 10 0 l
-10 1 m 10 0 l
0 -9 m 10 0 l
-10 1 m 10 0 l
-10 1 m 10 0 l
-10 1 m 10 0 l
-10 1 m 10 0 l
-10 1 m 10 0 l
-10 1 m 10 0 l
-10 1 m 10 0 l
-10 1 m 10 0 l
-10 1 m 10 0 l
9 -10 m -9 1 l
0 1 m 10 -1 l
-10 2 m 10 -1 l
-10 2 m 10 -1 l
-10 2 m 10 -1 l
-10 2 m 10 -1 l
-10 2 m 10 0 l
-10 1 m 10 0 l
-10 1 m 10 0 l
-10 1 m 10 0 l
0 -9 m 10 -1 l
-10 2 m 10 -1 l
-10 2 m 10 0 l
-10 1 m 10 0 l
-10 1 m 10 0 l
-10 2 m 10 -1 l
-10 2 m 10 -1 l
-10 2 m 10 -1 l
-10 2 m 10 0 l
2 -10 m -2 0 l
0 1 m 10 -1 l
-10 3 m 10 -1 l
-10 2 m 10 -1 l
-10 2 m 10 -1 l
-10 2 m 10 -1 l
-10 2 m 10 0 l
-10 1 m 10 0 l
-10 2 m 10 -1 l
3 -9 m -3 0 l
0 2 m 10 -2 l
-10 3 m 10 -1 l
-10 2 m 10 -1 l
-10 2 m 10 -1 l
-10 3 m 10 -1 l
-10 2 m 10 -1 l
-10 2 m 10 0 l
-4 1 m 4 0 l
2 -10 m -2 0 l
10 0 m -10 2 l
0 1 m 10 -1 l
-10 2 m 10 -1 l
-10 3 m 10 -1 l
-10 2 m 10 -1 l
-10 3 m 10 -1 l
-10 2 m 10 -1 l
7 -9 m -7 2 l
0 1 m 10 -2 l
-10 4 m 10 -2 l
-10 3 m 10 -1 l
-10 3 m 10 -1 l
-10 2 m 10 -1 l
4 -8 m -4 1 l
10 -1 m -10 3 l
0 2 m 10 -3 l
-10 5 m 10 -2 l
-10 3 m 10 -1 l
-7 3 m 7 -1 l
6 -9 m -6 2 l
0 3 m 10 -4 l
-10 6 m 10 -3 l
-10 5 m 10 -1 l
2 -8 m -2 1 l
8 -1 m -8 4 l
0 4 m 10 -4 l
-6 6 m 6 -1 l
4 -9 m -4 4 l
0 5 m 10 -7 l
2 -2 m -2 2 l
10 8 m 0 0 l
10 0 l
10 0 l
10 0 l
10 0 l
10 0 l
10 0 l
10 0 l
10 0 l
10 0 l
10 0 l
10 0 l
11 0 l
10 0 l
10 0 l
10 0 l
10 0 l
10 0 l
10 0 l
10 0 l
10 0 l
10 0 l
10 0 l
10 0 l
10 0 l
10 0 l
10 0 l
10 0 l
10 0 l
10 0 l
10 0 l
10 0 l
10 0 l
10 0 l
10 0 l
10 0 l
10 0 l
10 0 l
10 0 l
10 0 l
10 0 l
10 0 l
10 0 l
10 0 l
10 0 l
10 0 l
10 0 l
10 0 l
11 0 l
10 0 l
10 0 l
10 0 l
10 0 l
10 0 l
10 0 l
10 0 l
10 0 l
10 0 l
10 0 l
10 0 l
10 0 l
10 0 l
10 0 l
10 0 l
10 0 l
10 0 l
10 0 l
10 0 l
10 0 l
10 0 l
10 0 l
10 0 l
10 0 l
10 0 l
10 0 l
10 0 l
10 0 l
10 0 l
10 0 l
10 0 l
10 0 l
10 0 l
11 0 l
10 0 l
10 0 l
10 0 l
10 0 l
10 0 l
10 0 l
10 0 l
10 0 l
10 0 l
10 0 l
10 0 l
10 0 l
10 0 l
10 0 l
10 0 l
10 0 l
10 0 l
10 0 l
255 1260 M 10 0 l
10 0 l
10 1 l
10 0 l
10 0 l
10 0 l
10 0 l
11 0 l
10 0 l
10 -1 l
CS M
10 0 l
10 0 l
10 0 l
10 0 l
10 0 l
10 0 l
10 0 l
10 0 l
10 0 l
10 0 l
10 0 l
10 0 l
10 0 l
10 0 l
10 0 l
10 0 l
10 0 l
10 0 l
10 0 l
10 0 l
10 0 l
10 0 l
10 0 l
10 0 l
10 0 l
10 0 l
10 0 l
10 0 l
10 0 l
10 0 l
10 0 l
10 0 l
10 0 l
11 0 l
10 0 l
10 0 l
10 0 l
10 0 l
10 0 l
10 0 l
10 0 l
10 0 l
10 0 l
10 0 l
2 -2 m 8 0 l
-10 2 m 10 0 l
0 -2 m 10 0 l
-10 2 m 10 0 l
0 -2 m 10 1 l
-10 1 m 10 0 l
0 -1 m 10 0 l
-10 1 m 10 0 l
0 -1 m 10 0 l
-10 1 m 10 0 l
0 -1 m 10 0 l
-10 1 m 10 0 l
0 -1 m 10 0 l
-10 1 m 10 0 l
0 -1 m 10 0 l
-10 1 m 10 0 l
0 -1 m 10 0 l
-10 1 m 10 0 l
0 -1 m 10 0 l
-10 1 m 10 0 l
0 -1 m 10 0 l
-10 1 m 10 0 l
4 -2 m 6 0 l
-10 1 m 10 0 l
-10 1 m 10 0 l
0 -2 m 10 0 l
-10 1 m 10 0 l
-10 1 m 10 0 l
0 -2 m 10 0 l
-10 1 m 10 0 l
-10 1 m 10 0 l
0 -2 m 10 1 l
-10 0 m 10 0 l
-10 1 m 10 0 l
0 -1 m 10 0 l
-10 0 m 10 0 l
-10 1 m 10 0 l
0 -1 m 10 0 l
-10 0 m 10 0 l
-10 1 m 10 0 l
0 -1 m 10 0 l
-10 0 m 10 1 l
-10 0 m 10 0 l
0 -1 m 10 0 l
-10 1 m 10 0 l
-10 0 m 10 0 l
4 -2 m 6 0 l
-10 1 m 10 0 l
-10 1 m 10 0 l
-10 0 m 10 0 l
0 -2 m 10 0 l
-10 1 m 10 0 l
-10 1 m 10 0 l
-10 0 m 10 0 l
0 -2 m 10 0 l
-10 1 m 10 0 l
-10 1 m 10 0 l
-10 0 m 10 0 l
0 -2 m 10 0 l
-10 1 m 10 0 l
-10 1 m 10 0 l
-10 0 m 10 0 l
0 -2 m 11 0 l
-11 1 m 11 0 l
-11 1 m 11 0 l
-11 0 m 11 0 l
0 -2 m 10 1 l
-10 0 m 10 0 l
-10 1 m 10 0 l
-10 0 m 10 0 l
0 -1 m 10 0 l
-10 0 m 10 0 l
-10 1 m 10 0 l
-10 0 m 10 0 l
0 -1 m 10 0 l
-10 0 m 10 0 l
-10 1 m 10 0 l
-10 0 m 10 0 l
0 -1 m 10 0 l
-10 0 m 10 0 l
-10 1 m 10 0 l
-10 0 m 10 0 l
8 -2 m 2 0 l
-10 1 m 10 0 l
-10 0 m 10 0 l
-10 1 m 10 0 l
-10 0 m 10 0 l
0 -2 m 10 0 l
-10 1 m 10 0 l
-10 0 m 10 0 l
-10 1 m 10 0 l
-10 0 m 10 0 l
0 -2 m 10 0 l
-10 1 m 10 0 l
-10 0 m 10 0 l
-10 1 m 10 0 l
-10 0 m 10 0 l
0 -2 m 10 0 l
-10 1 m 10 0 l
-10 0 m 10 0 l
-10 1 m 10 0 l
-10 0 m 10 0 l
0 -2 m 10 0 l
-10 1 m 10 0 l
-10 0 m 10 0 l
-10 1 m 10 0 l
-10 0 m 10 0 l
0 -2 m 0 0 l
0 1 m 10 0 l
-10 0 m 10 0 l
-10 1 m 10 0 l
-10 0 m 10 0 l
0 -1 m 10 0 l
-10 0 m 10 0 l
-10 1 m 10 0 l
-10 0 m 10 0 l
0 -1 m 10 0 l
-10 0 m 10 0 l
-10 1 m 10 0 l
-10 0 m 10 0 l
0 -1 m 10 -1 l
-10 1 m 10 0 l
-10 1 m 10 0 l
-10 0 m 10 0 l
0 -2 m 10 0 l
-10 1 m 10 0 l
-10 1 m 10 0 l
-10 0 m 10 0 l
6 -2 m -6 0 l
0 1 m 10 0 l
-10 1 m 10 0 l
-10 0 m 10 0 l
0 -1 m 10 0 l
-10 1 m 10 -1 l
-10 1 m 10 0 l
0 -1 m 10 -1 l
-10 1 m 10 0 l
-10 1 m 10 0 l
3 -2 m -3 0 l
0 1 m 10 0 l
-10 1 m 10 0 l
0 -1 m 10 0 l
-10 1 m 10 0 l
4 -2 m -4 1 l
0 1 m 10 0 l
10 0 l
10 -2 m -10 2 l
 255 0 0 C
10 -2 m 0 0 l
10 0 l
10 0 l
10 0 l
10 0 l
10 0 l
10 0 l
10 0 l
10 0 l
10 0 l
10 0 l
10 0 l
11 0 l
10 0 l
10 0 l
10 0 l
10 0 l
10 0 l
10 0 l
10 0 l
10 0 l
10 0 l
10 0 l
10 0 l
10 0 l
10 0 l
10 0 l
10 0 l
10 0 l
10 0 l
10 0 l
10 0 l
10 0 l
10 0 l
10 0 l
10 0 l
10 0 l
10 0 l
10 0 l
10 0 l
10 0 l
10 0 l
10 0 l
10 0 l
10 0 l
10 0 l
10 0 l
10 0 l
11 0 l
10 0 l
10 0 l
10 0 l
10 0 l
10 0 l
10 0 l
10 0 l
10 0 l
10 0 l
10 0 l
10 0 l
10 0 l
10 0 l
10 0 l
10 0 l
10 0 l
10 0 l
10 0 l
10 0 l
10 0 l
10 0 l
10 0 l
10 0 l
10 0 l
10 0 l
10 0 l
10 0 l
10 0 l
10 0 l
10 0 l
10 0 l
10 0 l
10 0 l
11 0 l
10 0 l
10 0 l
10 0 l
10 0 l
10 0 l
10 0 l
10 0 l
10 0 l
10 0 l
10 0 l
10 0 l
10 0 l
10 0 l
10 0 l
10 0 l
10 0 l
10 0 l
10 0 l
255 1260 M 10 1 l
10 0 l
10 0 l
10 0 l
10 0 l
10 0 l
10 0 l
11 0 l
CS M
10 0 l
10 0 l
10 0 l
10 -1 l
10 0 l
10 0 l
10 0 l
10 0 l
10 0 l
10 0 l
10 0 l
10 0 l
10 0 l
10 0 l
10 0 l
10 0 l
10 0 l
10 0 l
10 0 l
10 0 l
10 0 l
10 0 l
10 0 l
10 0 l
10 0 l
10 0 l
10 0 l
10 0 l
10 0 l
10 0 l
-4 8 m 4 0 l
0 -8 m 10 0 l
-10 8 m 10 -1 l
0 -7 m 10 0 l
-10 7 m 10 0 l
0 -7 m 10 0 l
-10 7 m 10 -1 l
0 -6 m 10 0 l
-10 6 m 10 0 l
0 -6 m 10 0 l
-10 6 m 10 -1 l
0 -5 m 11 0 l
-11 5 m 11 0 l
0 -5 m 10 0 l
-10 5 m 10 0 l
0 -5 m 10 0 l
-10 5 m 10 -1 l
0 -4 m 10 0 l
-10 4 m 10 0 l
-5 4 m 5 0 l
0 -8 m 10 0 l
-10 4 m 10 0 l
-10 4 m 10 -1 l
0 -7 m 10 0 l
-10 4 m 10 0 l
-10 3 m 10 0 l
0 -7 m 10 0 l
-10 4 m 10 -1 l
-10 4 m 10 -1 l
0 -6 m 10 0 l
-10 3 m 10 0 l
-10 3 m 10 0 l
0 -6 m 10 0 l
-10 3 m 10 0 l
-10 3 m 10 0 l
0 -6 m 10 0 l
-10 3 m 10 0 l
-10 3 m 10 -1 l
-9 3 m 9 0 l
0 -8 m 10 0 l
-10 3 m 10 0 l
-10 2 m 10 0 l
-10 3 m 10 -1 l
0 -7 m 10 0 l
-10 3 m 10 -1 l
-10 3 m 10 0 l
-10 2 m 10 0 l
0 -7 m 10 0 l
-10 2 m 10 0 l
-10 3 m 10 -1 l
-10 3 m 10 -1 l
0 -6 m 10 0 l
-10 2 m 10 0 l
-10 2 m 10 0 l
-10 2 m 10 0 l
-7 2 m 7 0 l
0 -8 m 10 0 l
-10 2 m 10 0 l
-10 2 m 10 0 l
-10 2 m 10 0 l
-10 2 m 10 -1 l
0 -7 m 10 0 l
-10 2 m 10 0 l
-10 2 m 10 0 l
-10 2 m 10 -1 l
-10 2 m 10 0 l
0 -7 m 10 0 l
-10 2 m 10 0 l
-10 2 m 10 -1 l
-10 2 m 10 0 l
-10 2 m 10 -1 l
-3 2 m 3 0 l
0 -8 m 10 0 l
-10 2 m 10 0 l
-10 1 m 10 0 l
-10 2 m 10 0 l
-10 1 m 10 0 l
-10 2 m 10 0 l
0 -8 m 10 0 l
-10 2 m 10 0 l
-10 1 m 10 0 l
-10 2 m 10 -1 l
-10 2 m 10 0 l
-10 2 m 10 -1 l
0 -7 m 10 0 l
-10 2 m 10 0 l
-10 1 m 10 0 l
-10 1 m 10 0 l
-10 2 m 10 -1 l
-10 2 m 10 0 l
-4 1 m 4 0 l
0 -8 m 10 0 l
-10 2 m 10 0 l
-10 1 m 10 0 l
-10 1 m 10 0 l
-10 1 m 10 0 l
-10 2 m 10 -1 l
-10 2 m 10 -1 l
0 -7 m 10 0 l
-10 2 m 10 -1 l
-10 2 m 10 0 l
-10 1 m 10 0 l
-10 1 m 10 0 l
-10 1 m 10 0 l
-10 1 m 10 0 l
0 -7 m 10 0 l
-10 1 m 10 0 l
-10 2 m 10 -1 l
-10 2 m 10 0 l
-10 1 m 10 0 l
-10 1 m 10 0 l
-10 1 m 10 0 l
-8 1 m 8 0 l
0 -8 m 10 0 l
-10 1 m 10 0 l
-10 1 m 10 0 l
-10 2 m 10 -1 l
-10 2 m 10 -1 l
-10 2 m 10 -1 l
-10 2 m 10 -1 l
-10 2 m 10 -1 l
0 -7 m 10 0 l
-10 1 m 10 0 l
-10 1 m 10 0 l
-10 1 m 10 0 l
-10 1 m 10 0 l
-10 1 m 10 0 l
-10 1 m 10 0 l
-10 1 m 10 0 l
-4 1 m 4 0 l
0 -8 m 10 0 l
-10 1 m 10 0 l
-10 1 m 10 0 l
-10 1 m 10 0 l
-10 1 m 10 0 l
-10 1 m 10 0 l
-10 1 m 10 0 l
-10 1 m 10 0 l
-10 1 m 10 0 l
0 -8 m 10 0 l
-10 1 m 10 0 l
-10 1 m 10 0 l
-10 1 m 10 0 l
-10 1 m 10 0 l
-10 1 m 10 0 l
-10 1 m 10 -1 l
-10 2 m 10 -1 l
-10 2 m 10 -1 l
-2 1 m 2 0 l
0 -8 m 10 0 l
-10 1 m 10 0 l
-10 1 m 10 0 l
-10 1 m 10 0 l
-10 1 m 10 0 l
-10 1 m 10 -1 l
-10 1 m 10 0 l
-10 1 m 10 0 l
-10 1 m 10 0 l
-10 1 m 10 0 l
0 -8 m 10 0 l
-10 1 m 10 0 l
-10 1 m 10 0 l
-10 1 m 10 0 l
-10 1 m 10 -1 l
-10 1 m 10 0 l
-10 1 m 10 0 l
-10 1 m 10 0 l
-10 1 m 10 0 l
-10 1 m 10 -1 l
0 1 m 0 0 l
0 -8 m 10 0 l
-10 1 m 10 0 l
-10 1 m 10 0 l
-10 1 m 10 0 l
-10 0 m 10 0 l
-10 1 m 10 0 l
-10 1 m 10 0 l
-10 1 m 10 0 l
-10 1 m 10 -1 l
-10 1 m 10 0 l
-10 1 m 10 0 l
0 -8 m 10 0 l
-10 1 m 10 0 l
-10 1 m 10 0 l
-10 1 m 10 -1 l
-10 1 m 10 0 l
-10 1 m 10 0 l
-10 1 m 10 0 l
-10 1 m 10 -1 l
-10 1 m 10 0 l
-10 1 m 10 0 l
-10 1 m 10 -1 l
0 -7 m 10 0 l
-10 1 m 10 0 l
-10 1 m 10 0 l
-10 0 m 10 0 l
-10 1 m 10 0 l
-10 1 m 10 0 l
-10 1 m 10 -1 l
-10 1 m 10 0 l
-10 1 m 10 0 l
-10 1 m 10 -1 l
-10 1 m 10 0 l
-9 1 m 9 0 l
0 -8 m 10 0 l
-10 1 m 10 0 l
-10 1 m 10 0 l
-10 0 m 10 0 l
-10 1 m 10 0 l
-10 1 m 10 0 l
-10 0 m 10 0 l
-10 1 m 10 0 l
-10 1 m 10 0 l
-10 0 m 10 0 l
-10 1 m 10 0 l
-10 1 m 10 0 l
0 -8 m 10 0 l
-10 1 m 10 0 l
-10 1 m 10 0 l
-10 0 m 10 0 l
-10 1 m 10 0 l
-10 1 m 10 -1 l
-10 1 m 10 0 l
-10 1 m 10 0 l
-10 1 m 10 -1 l
-10 1 m 10 0 l
-10 1 m 10 0 l
-10 1 m 10 -1 l
-7 1 m 7 0 l
0 -8 m 11 0 l
-11 1 m 11 0 l
-11 1 m 11 0 l
-11 0 m 11 0 l
-11 1 m 11 0 l
-11 0 m 11 0 l
-11 1 m 11 0 l
-11 1 m 11 0 l
-11 0 m 11 0 l
-11 1 m 11 0 l
-11 1 m 11 -1 l
-11 1 m 11 0 l
-11 1 m 11 0 l
0 -8 m 10 0 l
-10 1 m 10 0 l
-10 1 m 10 0 l
-10 0 m 10 0 l
-10 1 m 10 0 l
-10 0 m 10 0 l
-10 1 m 10 0 l
-10 1 m 10 0 l
-10 0 m 10 0 l
-10 1 m 10 0 l
-10 0 m 10 0 l
-10 1 m 10 0 l
-10 1 m 10 -1 l
-4 1 m 4 0 l
0 -8 m 10 0 l
-10 1 m 10 0 l
-10 1 m 10 0 l
-10 0 m 10 0 l
-10 1 m 10 0 l
-10 0 m 10 0 l
-10 1 m 10 0 l
-10 1 m 10 -1 l
-10 1 m 10 0 l
-10 1 m 10 0 l
-10 0 m 10 0 l
-10 1 m 10 0 l
-10 0 m 10 0 l
-10 1 m 10 0 l
CS M
0 -8 m 10 0 l
-10 1 m 10 0 l
-10 1 m 10 -1 l
-10 1 m 10 0 l
-10 1 m 10 0 l
-10 0 m 10 0 l
-10 1 m 10 0 l
-10 0 m 10 0 l
-10 1 m 10 0 l
-10 1 m 10 -1 l
-10 1 m 10 0 l
-10 1 m 10 0 l
-10 0 m 10 0 l
-10 1 m 10 0 l
0 -8 m 10 0 l
-10 1 m 10 0 l
-10 0 m 10 0 l
-10 1 m 10 0 l
-10 1 m 10 0 l
-10 0 m 10 0 l
-10 1 m 10 0 l
-10 0 m 10 0 l
-10 1 m 10 0 l
-10 0 m 10 0 l
-10 1 m 10 0 l
-10 1 m 10 -1 l
-10 1 m 10 0 l
-10 1 m 10 0 l
-3 0 m 3 0 l
0 -8 m 10 0 l
-10 1 m 10 0 l
-10 0 m 10 0 l
-10 1 m 10 0 l
-10 1 m 10 0 l
-10 0 m 10 0 l
-10 1 m 10 0 l
-10 0 m 10 0 l
-10 1 m 10 0 l
-10 0 m 10 0 l
-10 1 m 10 0 l
-10 0 m 10 0 l
-10 1 m 10 0 l
-10 1 m 10 -1 l
-10 1 m 10 0 l
0 -8 m 10 0 l
-10 1 m 10 0 l
-10 0 m 10 0 l
-10 1 m 10 0 l
-10 1 m 10 0 l
-10 0 m 10 0 l
-10 1 m 10 0 l
-10 0 m 10 0 l
-10 1 m 10 0 l
-10 0 m 10 0 l
-10 1 m 10 0 l
-10 0 m 10 0 l
-10 1 m 10 0 l
-10 0 m 10 0 l
-10 1 m 10 0 l
0 -8 m 10 0 l
-10 1 m 10 0 l
-10 0 m 10 0 l
-10 1 m 10 0 l
-10 1 m 10 -1 l
-10 1 m 10 0 l
-10 1 m 10 0 l
-10 0 m 10 0 l
-10 1 m 10 0 l
-10 0 m 10 0 l
-10 1 m 10 0 l
-10 0 m 10 0 l
-10 1 m 10 0 l
-10 0 m 10 0 l
-10 1 m 10 0 l
0 -8 m 10 0 l
-10 1 m 10 0 l
-10 0 m 10 0 l
-10 1 m 10 0 l
-10 0 m 10 1 l
-10 0 m 10 0 l
-10 1 m 10 0 l
-10 0 m 10 0 l
-10 1 m 10 0 l
-10 0 m 10 0 l
-10 1 m 10 0 l
-10 0 m 10 0 l
-10 1 m 10 0 l
-10 0 m 10 0 l
-10 1 m 10 0 l
0 -8 m 10 0 l
-10 1 m 10 0 l
-10 0 m 10 0 l
-10 1 m 10 0 l
-10 1 m 10 0 l
-10 0 m 10 0 l
-10 1 m 10 0 l
-10 0 m 10 0 l
-10 1 m 10 0 l
-10 0 m 10 0 l
-10 1 m 10 0 l
-10 0 m 10 0 l
-10 1 m 10 0 l
-10 0 m 10 0 l
-10 1 m 10 0 l
0 -8 m 10 0 l
-10 1 m 10 0 l
-10 0 m 10 0 l
-10 1 m 10 0 l
-10 1 m 10 0 l
-10 0 m 10 0 l
-10 1 m 10 0 l
-10 0 m 10 0 l
-10 1 m 10 0 l
-10 0 m 10 0 l
-10 1 m 10 0 l
-10 0 m 10 0 l
-10 1 m 10 0 l
-10 0 m 10 1 l
-10 0 m 7 0 l
3 -8 m 10 0 l
-10 1 m 10 0 l
-10 0 m 10 1 l
-10 0 m 10 0 l
-10 1 m 10 0 l
-10 0 m 10 0 l
-10 1 m 10 0 l
-10 0 m 10 0 l
-10 1 m 10 0 l
-10 0 m 10 1 l
-10 0 m 10 0 l
-10 0 m 10 1 l
-10 0 m 10 0 l
-10 1 m 10 0 l
0 -8 m 10 0 l
-10 1 m 10 0 l
-10 1 m 10 0 l
-10 0 m 10 0 l
-10 1 m 10 0 l
-10 0 m 10 0 l
-10 1 m 10 0 l
-10 0 m 10 1 l
-10 0 m 10 0 l
-10 1 m 10 0 l
-10 0 m 10 0 l
-10 1 m 10 0 l
-10 0 m 10 1 l
-10 0 m 9 0 l
1 -8 m 10 0 l
-10 1 m 10 0 l
-10 1 m 10 0 l
-10 0 m 10 0 l
-10 1 m 10 0 l
-10 0 m 10 1 l
-10 0 m 10 0 l
-10 1 m 10 0 l
-10 0 m 10 0 l
-10 1 m 10 0 l
-10 0 m 10 1 l
-10 0 m 10 0 l
-10 1 m 10 0 l
0 -8 m 10 0 l
-10 1 m 10 0 l
-10 1 m 10 0 l
-10 0 m 10 0 l
-10 1 m 10 0 l
-10 1 m 10 0 l
-10 0 m 10 1 l
-10 0 m 10 0 l
-10 0 m 10 1 l
-10 0 m 10 1 l
-10 0 m 10 0 l
-10 0 m 10 1 l
-10 0 m 2 0 l
8 -8 m 10 0 l
-10 1 m 10 0 l
-10 1 m 10 0 l
-10 0 m 10 1 l
-10 0 m 10 0 l
-10 1 m 10 0 l
-10 1 m 10 0 l
-10 0 m 10 1 l
-10 0 m 10 0 l
-10 1 m 10 0 l
-10 0 m 10 1 l
-10 0 m 3 0 l
7 -8 m 10 0 l
-10 1 m 10 0 l
-10 1 m 10 0 l
-10 1 m 10 0 l
-10 0 m 10 1 l
-10 0 m 10 1 l
-10 0 m 10 1 l
-10 0 m 10 0 l
-10 0 m 10 1 l
-10 0 m 10 1 l
-10 0 m 2 0 l
8 -8 m 10 0 l
-10 1 m 10 0 l
-10 1 m 10 0 l
-10 1 m 10 0 l
-10 1 m 10 0 l
-10 1 m 10 1 l
-10 0 m 10 1 l
-10 -1 m 10 2 l
-10 -1 m 7 1 l
3 -8 m 10 0 l
-10 1 m 10 1 l
-10 0 m 10 1 l
-10 0 m 10 1 l
-10 0 m 10 2 l
-10 0 m 10 1 l
-10 0 m 10 1 l
-10 0 m 4 0 l
6 -8 m 10 0 l
-10 2 m 10 0 l
-10 1 m 10 1 l
-10 0 m 10 2 l
-10 0 m 10 2 l
-10 -1 m 6 1 l
4 -8 m 10 0 l
-10 2 m 10 1 l
-10 1 m 10 2 l
-10 0 m 8 2 l
-8 0 m 2 0 l
8 -8 m 10 0 l
-10 3 m 10 4 l
-10 -1 m 4 2 l
16 -10 m -10 2 l
0 7 m 2 1 l
621 1278 M 5 -5 l
6 -5 m -6 5 l
89 5 m 2 -2 l
5 -8 m -5 8 l
56 2 m 4 -7 l
1 -3 m -1 3 l
39 7 m 1 -2 l
3 -8 m -3 8 l
37 -8 m -3 10 l
32 -10 m -2 10 l
28 -10 m -2 10 l
26 -10 m -1 10 l
23 -10 m -1 10 l
23 -10 m -1 10 l
22 -10 m 0 10 l
22 -10 m 1 10 l
23 -10 m 1 10 l
30 -10 m 3 8 l
0 2 l
57 -10 m -4 10 l
26 -10 m -2 10 l
15 -10 m -1 10 l
12 -10 m -1 10 l
18 -10 m -1 10 l
-7 -10 m -1 10 l
16 -10 m -1 10 l
14 -10 m 0 10 l
-6 -10 m -1 10 l
13 -10 m 0 10 l
12 -10 m 0 10 l
-6 -10 m 0 10 l
12 -10 m 1 10 l
7 -10 m 1 10 l
621 1278 M -2 10 l
96 -10 m -1 10 l
59 -10 m -1 10 l
44 -10 m -1 10 l
36 -10 m 0 10 l
30 -10 m 0 10 l
26 -10 m 0 10 l
25 -10 m 0 10 l
22 -10 m 1 10 l
21 -10 m 1 10 l
21 -10 m 1 10 l
22 -10 m 1 10 l
23 -10 m 2 10 l
31 -10 m 5 10 l
48 -10 m -3 10 l
27 -10 m -2 10 l
16 -10 m -1 10 l
12 -10 m -1 10 l
18 -10 m 0 10 l
-8 -10 m -1 10 l
16 -10 m 0 10 l
14 -10 m 0 10 l
-7 -10 m 0 10 l
13 -10 m 0 10 l
12 -10 m 1 10 l
-7 -10 m 0 10 l
13 -10 m 1 10 l
7 -10 m 1 10 l
619 1288 M -2 10 l
97 -10 m -1 10 l
59 -10 m 0 10 l
43 -10 m 0 10 l
36 -10 m -1 10 l
31 -10 m 0 10 l
26 -10 m 1 10 l
24 -10 m 0 10 l
23 -10 m 0 10 l
22 -10 m 0 4 l
CS M
1 6 l
21 -10 m 1 10 l
22 -10 m 1 10 l
24 -10 m 1 2 l
1 8 l
34 -10 m 5 10 l
34 0 m 6 -9 l
0 -1 m 0 1 l
25 -1 m -2 10 l
16 0 m 1 -9 l
0 -1 m 0 1 l
20 9 m 0 -1 l
-9 -9 m -1 10 l
19 -10 m -1 10 l
-8 -10 m 0 9 l
16 -9 m 0 10 l
14 -10 m 0 10 l
-7 -10 m 0 10 l
13 -10 m 0 10 l
13 -10 m 0 10 l
-7 -10 m 1 10 l
13 -10 m 0 10 l
8 -10 m 2 10 l
617 1298 M -1 10 l
97 -10 m -1 10 l
60 -10 m -1 10 l
44 -10 m 0 10 l
35 -10 m 0 10 l
31 -10 m 0 10 l
27 -10 m 0 10 l
24 -10 m 0 10 l
23 -10 m 1 10 l
22 -10 m 0 10 l
22 -10 m 1 10 l
22 -10 m 1 10 l
25 -10 m 2 10 l
37 -10 m 0 0 l
8 10 l
18 0 m 4 -2 l
4 -8 m -4 8 l
33 -8 m -2 10 l
18 -10 m -2 10 l
12 0 m 1 -6 l
10 -4 m -1 10 l
-9 -10 m 0 4 l
18 -4 m 0 10 l
8 -10 m -1 10 l
15 -10 m 0 10 l
-7 -10 m 0 10 l
13 -10 m 0 10 l
13 -10 m 1 10 l
-7 -10 m 0 10 l
13 -10 m 1 10 l
9 -10 m 1 10 l
615 1318 M 1 -10 l
0 0 l
96 0 m 0 10 l
59 -10 m 0 10 l
44 -10 m 0 10 l
35 -10 m 0 10 l
31 -10 m 0 10 l
27 -10 m 0 10 l
24 -10 m 1 10 l
23 -10 m 0 10 l
22 -10 m 1 10 l
22 -10 m 1 10 l
22 -10 m 2 10 l
25 -10 m 2 10 l
43 -10 m 2 2 l
10 3 l
6 -5 m -6 5 l
39 5 m 1 -1 l
1 -9 m -1 9 l
17 -9 m -1 10 l
13 -10 m -1 10 l
11 -10 m -1 10 l
10 -10 m -1 10 l
8 -10 m 0 10 l
15 -10 m 0 10 l
-7 -10 m 0 10 l
13 -10 m 0 10 l
14 -10 m 0 10 l
-7 -10 m 0 10 l
14 -10 m 1 10 l
9 -10 m 1 10 l
615 1318 M -1 10 l
98 -10 m -1 10 l
60 -10 m -1 10 l
45 -10 m -1 10 l
36 -10 m 0 10 l
31 -10 m 0 10 l
27 -10 m 0 10 l
25 -10 m 0 10 l
23 -10 m 1 10 l
22 -10 m 1 10 l
22 -10 m 1 10 l
23 -10 m 1 10 l
26 -10 m 2 10 l
92 -10 m -2 10 l
19 -10 m -2 10 l
14 -10 m -1 10 l
11 -10 m 0 10 l
9 -10 m 0 10 l
8 -10 m 0 10 l
15 -10 m -1 10 l
-6 -10 m -1 10 l
14 -10 m 0 10 l
14 -10 m 0 3 l
-7 -3 m 0 10 l
15 -10 m 0 10 l
-8 -7 m 0 7 l
18 -10 m 2 10 l
614 1328 M -1 10 l
98 -10 m -1 10 l
60 -10 m 0 10 l
44 -10 m 0 10 l
36 -10 m 0 10 l
31 -10 m 0 10 l
27 -10 m 0 10 l
25 -10 m 1 10 l
23 -10 m 0 8 l
0 2 l
23 -10 m 0 10 l
23 -10 m 1 10 l
23 -10 m 0 4 l
1 6 l
27 -10 m 2 10 l
88 -10 m -2 10 l
19 -10 m -1 10 l
14 -10 m -1 10 l
12 -10 m -1 10 l
10 -10 m -1 10 l
9 -10 m -1 10 l
15 -10 m 0 10 l
-7 -10 m 0 10 l
14 -10 m 0 10 l
7 -10 m 1 10 l
14 -10 m 1 10 l
-9 -10 m 1 10 l
19 -10 m 0 4 l
2 6 l
613 1338 M -2 10 l
99 -10 m -1 10 l
61 -10 m -1 10 l
45 -10 m 0 10 l
36 -10 m 0 10 l
31 -10 m 0 10 l
27 -10 m 1 10 l
25 -10 m 0 10 l
23 -10 m 1 10 l
22 -10 m 1 10 l
23 -10 m 1 10 l
23 -10 m 2 10 l
27 -10 m 1 1 l
2 9 l
83 -10 m -3 10 l
21 -10 m -1 10 l
14 -10 m -1 10 l
12 -10 m -1 10 l
10 -10 m -1 10 l
9 -10 m 0 10 l
15 -10 m 0 10 l
-7 -10 m 0 10 l
14 -10 m 1 10 l
7 -10 m 0 10 l
15 -10 m 1 10 l
-9 -10 m 0 10 l
21 -10 m 2 10 l
611 1348 M -1 10 l
99 -10 m 0 10 l
60 -10 m 0 10 l
45 -10 m 0 10 l
36 -10 m 0 10 l
31 -10 m 0 10 l
28 -10 m 0 10 l
25 -10 m 0 10 l
24 -10 m 0 10 l
23 -10 m 1 10 l
23 -10 m 1 10 l
24 -10 m 1 10 l
29 -10 m 3 10 l
77 -10 m -2 10 l
22 -10 m -2 10 l
15 -10 m -1 10 l
12 -10 m -1 10 l
10 -10 m 0 10 l
9 -10 m 0 10 l
15 -10 m 0 10 l
-7 -10 m 0 10 l
15 -10 m 0 10 l
7 -10 m 0 10 l
16 -10 m 0 3 l
-9 -3 m 1 10 l
8 -7 m 1 7 l
13 -10 m 3 10 l
610 1358 M -1 10 l
100 -10 m -1 10 l
61 -10 m 0 10 l
45 -10 m -1 10 l
37 -10 m 0 10 l
31 -10 m 0 10 l
28 -10 m 0 10 l
25 -10 m 1 10 l
23 -10 m 1 10 l
23 -10 m 1 10 l
23 -10 m 1 10 l
24 -10 m 2 10 l
30 -10 m 2 10 l
70 0 m 3 -9 l
0 -1 m 0 1 l
19 9 m 1 -5 l
0 -5 m 0 5 l
14 -5 m -1 10 l
12 -10 m 0 10 l
10 -10 m -1 10 l
10 -10 m -1 10 l
16 -10 m 0 10 l
-7 -10 m -1 10 l
16 -10 m 0 10 l
7 -10 m 0 10 l
8 -10 m 0 10 l
9 -10 m 1 10 l
15 -10 m 2 10 l
609 1368 M -1 11 l
100 -11 m -1 11 l
62 -11 m -1 11 l
45 -11 m 0 11 l
37 -11 m 0 11 l
31 -11 m 0 11 l
28 -11 m 0 11 l
26 -11 m 0 11 l
24 -11 m 0 11 l
24 -11 m 0 11 l
24 -11 m 0 7 l
1 4 l
25 -11 m 1 11 l
31 -11 m 3 9 l
0 2 l
67 -11 m -3 11 l
25 -11 m -2 11 l
16 -11 m -1 11 l
13 -11 m -1 11 l
10 -11 m 0 11 l
9 -11 m 0 11 l
16 -11 m 0 11 l
-8 -11 m 0 11 l
16 -11 m 0 11 l
7 -11 m 1 11 l
7 -11 m 1 11 l
9 -11 m 1 11 l
16 -11 m 1 9 l
1 2 l
608 1379 M -2 10 l
101 -10 m 0 10 l
61 -10 m 0 10 l
45 -10 m 0 10 l
37 -10 m 0 10 l
31 -10 m 0 10 l
28 -10 m 0 10 l
26 -10 m 0 10 l
24 -10 m 1 10 l
23 -10 m 1 10 l
24 -10 m 1 10 l
25 -10 m 2 10 l
32 -10 m 4 10 l
60 -10 m -3 10 l
26 -10 m -1 10 l
16 -10 m -1 10 l
13 -10 m -1 10 l
11 -10 m -1 10 l
10 -10 m -1 10 l
17 -10 m 0 10 l
-8 -10 m 0 10 l
16 -10 m 0 10 l
8 -10 m 0 10 l
8 -10 m 0 10 l
10 -10 m 1 10 l
17 -10 m 3 10 l
605 1399 M 1 -9 l
0 -1 m 0 1 l
100 9 m 1 -8 l
0 -2 m 0 2 l
61 -2 m -1 10 l
46 -10 m 0 10 l
37 -10 m 0 10 l
31 -10 m 0 10 l
28 -10 m 1 10 l
25 -10 m 1 10 l
24 -10 m 1 10 l
23 -10 m 1 10 l
24 -10 m 1 10 l
26 -10 m 1 10 l
35 -10 m 4 10 l
48 0 m 4 -8 l
1 -2 m -1 2 l
26 -2 m -2 10 l
17 -10 m -1 10 l
13 -10 m -1 10 l
11 -10 m 0 10 l
9 -10 m 0 10 l
CS M
17 -10 m 0 10 l
-8 -10 m 0 10 l
16 -10 m 0 10 l
8 -10 m 0 10 l
8 -10 m 1 10 l
10 -10 m 1 10 l
19 -10 m 2 10 l
605 1399 M -1 10 l
102 -10 m -1 10 l
62 -10 m 0 10 l
46 -10 m 0 10 l
37 -10 m 0 10 l
31 -10 m 0 10 l
29 -10 m 0 10 l
26 -10 m 0 10 l
25 -10 m 0 10 l
24 -10 m 1 10 l
24 -10 m 1 10 l
26 -10 m 1 0 l
1 10 l
37 -10 m 2 4 l
3 6 l
43 -10 m -4 10 l
32 -10 m -2 10 l
17 0 m 1 -8 l
0 -2 m 0 2 l
12 -2 m 0 10 l
11 -10 m -1 10 l
10 -10 m 0 10 l
17 -10 m 0 10 l
-8 -10 m -1 10 l
17 -10 m 0 10 l
8 -10 m 0 10 l
9 -10 m 1 10 l
10 -10 m 1 10 l
20 -10 m 2 10 l
604 1409 M -1 10 l
102 -10 m 0 10 l
62 0 m 0 -4 l
0 -6 m 0 6 l
46 -6 m -1 10 l
38 -10 m 0 10 l
31 -10 m 1 10 l
28 -10 m 0 10 l
26 -10 m 1 10 l
24 -10 m 1 10 l
24 -10 m 1 10 l
24 -10 m 1 10 l
27 -10 m 2 10 l
40 -10 m 6 10 l
26 0 m 5 -6 l
2 -4 m -2 4 l
32 -4 m -1 10 l
18 -10 m -1 10 l
14 -10 m -1 10 l
11 -10 m 0 10 l
10 -10 m -1 10 l
18 -10 m 0 10 l
-9 -10 m 0 10 l
17 -10 m 0 10 l
8 -10 m 1 10 l
9 -10 m 0 10 l
11 -10 m 1 10 l
21 -10 m 2 8 l
1 2 l
603 1419 M -1 10 l
103 -10 m -1 10 l
63 -10 m -1 10 l
46 -10 m 0 10 l
38 -10 m -1 10 l
33 -10 m 0 10 l
28 -10 m 0 10 l
27 -10 m 0 10 l
25 -10 m 0 10 l
25 -10 m 0 8 l
0 2 l
25 -10 m 1 10 l
28 -10 m 2 10 l
44 -10 m 1 1 l
10 7 l
10 -2 l
5 -6 m -5 6 l
39 4 m 1 -6 l
1 -4 m -1 4 l
18 -4 m -2 10 l
15 -10 m -1 10 l
12 -10 m -1 10 l
10 -10 m 0 10 l
18 -10 m 0 10 l
-9 -10 m 0 10 l
17 -10 m 0 10 l
9 -10 m 0 10 l
9 -10 m 1 10 l
11 -10 m 1 10 l
23 -10 m 3 10 l
602 1429 M -2 10 l
104 -10 m -1 10 l
63 -10 m 0 10 l
46 -10 m 0 10 l
37 -10 m 0 10 l
33 -10 m 0 10 l
28 -10 m 1 10 l
26 -10 m 0 3 l
0 7 l
25 -10 m 1 10 l
24 -10 m 1 10 l
25 -10 m 2 10 l
28 -10 m 2 10 l
102 -10 m -2 10 l
19 -10 m -1 10 l
14 0 m 1 -10 l
0 0 l
11 0 m -1 10 l
20 0 m 0 -7 l
-9 -3 m 0 10 l
18 -10 m 0 10 l
-9 -10 m 0 3 l
17 -3 m 0 10 l
9 -10 m 0 10 l
10 -10 m 0 10 l
12 -10 m 1 10 l
25 -10 m 2 10 l
600 1439 M -1 10 l
104 -10 m 0 10 l
63 -10 m -1 10 l
47 -10 m 0 10 l
37 -10 m 0 10 l
33 -10 m 0 10 l
29 -10 m 0 10 l
26 -10 m 1 10 l
25 -10 m 1 10 l
24 -10 m 1 10 l
26 -10 m 1 10 l
29 -10 m 2 10 l
98 -10 m -3 10 l
21 -10 m -1 10 l
15 -10 m -1 10 l
12 0 m 0 -1 l
0 -9 m 0 9 l
20 -9 m 0 10 l
-9 -10 m -1 10 l
19 -10 m 0 10 l
8 -10 m 0 10 l
9 -10 m 1 10 l
9 -10 m 1 10 l
12 -10 m 1 10 l
26 -10 m 3 10 l
599 1449 M -1 10 l
105 -10 m -1 10 l
63 -10 m 0 10 l
47 -10 m -1 10 l
38 -10 m 0 10 l
33 -10 m 0 10 l
29 -10 m 0 10 l
27 -10 m 0 10 l
26 -10 m 0 10 l
25 -10 m 1 10 l
26 -10 m 1 10 l
30 -10 m 1 3 l
1 7 l
93 -10 m -2 10 l
22 -10 m -1 10 l
15 -10 m -1 10 l
13 -10 m -1 10 l
11 0 m 0 -6 l
10 -4 m -1 10 l
-9 -10 m 0 4 l
19 -4 m -1 10 l
9 -10 m 0 10 l
10 -10 m 0 10 l
10 -10 m 0 10 l
13 -10 m 0 4 l
1 6 l
28 -10 m 1 7 l
1 3 l
598 1459 M -1 10 l
105 -10 m -1 10 l
64 -10 m 0 10 l
46 -10 m 0 10 l
38 -10 m 0 10 l
33 -10 m 0 10 l
29 -10 m 0 10 l
27 -10 m 1 10 l
25 -10 m 1 10 l
25 -10 m 1 10 l
26 -10 m 0 2 l
2 8 l
30 -10 m 3 10 l
88 -10 m -2 10 l
23 -10 m -2 10 l
16 -10 m -1 10 l
13 -10 m 0 10 l
11 -10 m -1 10 l
10 -10 m 0 10 l
9 -10 m 0 10 l
9 -10 m 1 10 l
9 -10 m 0 10 l
10 -10 m 1 10 l
13 -10 m 1 10 l
29 -10 m 3 10 l
596 1479 M 0 -5 l
1 -5 m -1 5 l
105 -5 m 0 10 l
64 -10 m -1 10 l
47 -10 m 0 10 l
38 -10 m 0 10 l
33 -10 m 0 10 l
29 -10 m 1 10 l
27 -10 m 0 10 l
26 -10 m 1 10 l
25 -10 m 1 10 l
27 -10 m 1 10 l
32 -10 m 2 10 l
82 0 m 2 -8 l
0 -2 m 0 2 l
21 -2 m -1 10 l
16 -10 m -1 10 l
14 -10 m -1 10 l
11 -10 m 0 10 l
10 -10 m 0 10 l
9 -10 m 0 10 l
10 -10 m 0 10 l
9 -10 m 0 10 l
11 -10 m 0 10 l
14 -10 m 1 10 l
31 -10 m 2 10 l
596 1479 M -2 10 l
107 -10 m -1 10 l
64 -10 m 0 10 l
47 -10 m 0 10 l
38 -10 m 0 10 l
33 -10 m 0 10 l
30 -10 m 0 10 l
27 -10 m 1 10 l
26 -10 m 0 10 l
26 -10 m 1 10 l
27 -10 m 1 10 l
33 -10 m 2 10 l
80 -10 m -3 10 l
24 0 m 1 -7 l
0 -3 m 0 3 l
15 -3 m -1 10 l
14 -10 m -1 10 l
12 -10 m -1 10 l
11 -10 m 0 10 l
9 -10 m 0 10 l
10 -10 m 0 10 l
9 -10 m 1 10 l
10 -10 m 1 10 l
14 -10 m 2 10 l
31 -10 m 3 10 l
594 1489 M -1 10 l
107 -10 m -1 10 l
65 -10 m -1 10 l
48 -10 m 0 10 l
38 -10 m 0 10 l
33 -10 m 1 10 l
29 -10 m 0 10 l
28 -10 m 0 10 l
26 -10 m 1 10 l
26 -10 m 1 10 l
27 -10 m 2 10 l
33 -10 m 2 4 l
1 6 l
74 -10 m -3 10 l
27 -10 m -2 10 l
17 -10 m 0 10 l
13 -10 m 0 10 l
11 -10 m 0 10 l
11 -10 m -1 10 l
10 -10 m 0 10 l
10 -10 m 0 10 l
10 -10 m 0 10 l
11 -10 m 1 10 l
15 -10 m 1 10 l
33 -10 m 1 7 l
1 3 l
593 1499 M -1 10 l
107 -10 m 0 10 l
64 -10 m 0 10 l
48 -10 m 0 10 l
38 -10 m 0 10 l
34 -10 m 0 10 l
29 -10 m 1 10 l
27 -10 m 1 10 l
26 -10 m 0 5 l
1 5 l
26 -10 m 1 10 l
28 -10 m 1 10 l
35 -10 m 4 10 l
64 0 m 1 -2 l
2 -8 m -2 8 l
27 -8 m -1 10 l
18 -10 m -1 10 l
14 -10 m -1 10 l
12 -10 m -1 10 l
11 -10 m 0 10 l
10 -10 m 0 10 l
10 -10 m 0 10 l
10 -10 m 0 10 l
CS M
12 -10 m 0 10 l
16 -10 m 1 10 l
34 -10 m 3 10 l
592 1509 M -1 10 l
108 -10 m -1 10 l
65 -10 m 0 10 l
48 -10 m -1 10 l
39 -10 m 0 10 l
34 -10 m 0 10 l
30 -10 m 0 10 l
28 -10 m 0 10 l
27 -10 m 0 10 l
27 -10 m 1 10 l
28 -10 m 2 10 l
37 -10 m 3 10 l
61 -10 m -4 10 l
31 -10 m -2 10 l
19 -10 m -1 10 l
14 -10 m -1 10 l
12 -10 m 0 10 l
11 -10 m 0 10 l
10 -10 m 0 10 l
10 -10 m 0 10 l
10 -10 m 1 10 l
11 -10 m 0 1 l
1 9 l
16 -10 m 1 10 l
36 -10 m 2 10 l
591 1519 M -1 10 l
108 -10 m -1 10 l
66 -10 m -1 10 l
48 -10 m 0 10 l
39 -10 m 0 10 l
34 -10 m 0 10 l
30 -10 m 0 10 l
28 -10 m 1 10 l
26 -10 m 1 10 l
27 -10 m 1 10 l
29 -10 m 1 10 l
39 -10 m 2 4 l
2 6 l
53 -10 m -3 10 l
32 -10 m -1 10 l
19 -10 m -1 10 l
14 -10 m 0 10 l
12 -10 m -1 10 l
12 -10 m -1 10 l
11 -10 m 0 10 l
10 -10 m 0 10 l
11 -10 m 0 10 l
12 -10 m 0 10 l
17 -10 m 1 10 l
37 -10 m 2 10 l
590 1529 M -2 10 l
109 -10 m 0 10 l
65 -10 m 0 10 l
48 -10 m 0 10 l
39 -10 m 0 10 l
34 -10 m 0 10 l
30 -10 m 1 10 l
28 -10 m 0 10 l
27 -10 m 1 10 l
27 -10 m 0 5 l
1 5 l
29 -10 m 0 1 l
2 9 l
41 -10 m 5 10 l
39 0 m 4 -5 l
2 -5 m -2 5 l
33 -5 m -2 10 l
19 0 m 0 -2 l
1 -8 m -1 8 l
15 -8 m -1 10 l
12 -10 m 0 10 l
11 -10 m 0 10 l
11 -10 m 0 10 l
10 -10 m 0 10 l
11 -10 m 0 10 l
12 -10 m 1 10 l
17 -10 m 1 10 l
38 -10 m 2 8 l
1 2 l
588 1539 M -1 10 l
109 0 m 1 -7 l
0 -3 m 0 3 l
65 -3 m -1 10 l
49 -10 m 0 10 l
39 -10 m 0 10 l
34 -10 m 0 10 l
31 -10 m 0 10 l
28 -10 m 1 10 l
27 -10 m 1 10 l
27 -10 m 1 10 l
30 -10 m 2 10 l
44 -10 m 3 5 l
4 5 l
32 -10 m -6 10 l
40 0 m 0 -1 l
1 -9 m -1 9 l
20 -9 m -1 10 l
15 -10 m -1 10 l
13 -10 m 0 10 l
11 -10 m 0 10 l
11 -10 m 0 10 l
10 -10 m 0 10 l
11 -10 m 1 10 l
12 -10 m 1 10 l
17 -10 m 0 3 l
1 7 l
40 -10 m 2 10 l
586 1559 M 0 0 l
1 -10 m -1 10 l
110 -10 m -1 10 l
66 -10 m 0 10 l
49 -10 m 0 10 l
39 -10 m 0 10 l
34 -10 m 0 10 l
31 -10 m 0 10 l
29 -10 m 0 10 l
28 -10 m 0 10 l
28 -10 m 1 10 l
31 -10 m 1 10 l
50 -10 m 6 6 l
10 2 l
10 -7 l
0 -1 m 0 1 l
40 -1 m -2 10 l
21 -10 m -2 10 l
16 -10 m -1 10 l
14 -10 m -1 10 l
12 -10 m 0 10 l
11 -10 m -1 10 l
11 -10 m 0 10 l
12 -10 m 0 10 l
13 -10 m 0 10 l
18 -10 m 1 10 l
41 -10 m 3 10 l
586 1559 M -1 10 l
110 -10 m 0 10 l
66 -10 m 0 10 l
49 -10 m 0 10 l
39 -10 m 0 10 l
34 -10 m 1 10 l
30 -10 m 1 10 l
28 -10 m 1 10 l
27 -10 m 1 10 l
28 -10 m 1 10 l
31 -10 m 2 10 l
112 -10 m -2 10 l
21 -10 m -1 10 l
16 -10 m 0 10 l
13 -10 m 0 10 l
12 -10 m -1 10 l
11 -10 m 0 10 l
11 -10 m 1 10 l
11 -10 m 0 9 l
0 1 l
13 -10 m 1 10 l
18 -10 m 2 10 l
42 -10 m 2 10 l
585 1569 M -1 10 l
111 -10 m -1 10 l
67 -10 m -1 10 l
50 -10 m -1 10 l
40 -10 m 0 10 l
35 -10 m 0 10 l
31 -10 m 0 10 l
29 -10 m 0 10 l
28 -10 m 1 10 l
28 -10 m 1 10 l
32 -10 m 2 10 l
108 -10 m -2 10 l
22 -10 m -1 10 l
17 -10 m -1 10 l
14 -10 m -1 10 l
12 -10 m 0 10 l
11 -10 m 0 10 l
12 -10 m 0 10 l
11 -10 m 0 10 l
14 -10 m 1 10 l
19 -10 m 1 10 l
43 -10 m 2 10 l
584 1579 M -1 10 l
111 -10 m -1 10 l
67 -10 m 0 10 l
49 -10 m 0 10 l
40 -10 m 0 10 l
35 -10 m 0 10 l
31 -10 m 0 10 l
29 -10 m 1 10 l
28 -10 m 1 10 l
28 -10 m 2 10 l
32 -10 m 2 7 l
0 3 l
104 -10 m -2 10 l
23 -10 m -1 10 l
17 -10 m -1 10 l
14 -10 m 0 10 l
12 -10 m 0 10 l
11 -10 m 0 10 l
12 -10 m 0 10 l
11 -10 m 1 10 l
14 -10 m 0 10 l
20 -10 m 1 10 l
44 -10 m 0 0 l
3 10 l
583 1589 M -2 10 l
112 -10 m 0 10 l
67 -10 m 0 10 l
49 -10 m 0 10 l
40 -10 m 0 10 l
35 -10 m 0 10 l
31 -10 m 1 10 l
29 -10 m 0 10 l
29 -10 m 1 10 l
29 -10 m 1 10 l
33 -10 m 2 10 l
100 -10 m -2 10 l
24 -10 m -1 10 l
16 0 m 1 -6 l
0 -4 m 0 4 l
14 -4 m -1 10 l
13 -10 m -1 10 l
12 -10 m 0 10 l
12 -10 m 0 10 l
12 -10 m 0 10 l
14 -10 m 1 10 l
20 -10 m 1 10 l
46 -10 m 2 10 l
581 1599 M -1 10 l
113 -10 m -1 10 l
68 -10 m -1 10 l
50 -10 m 0 10 l
40 -10 m 0 10 l
35 -10 m 0 10 l
32 -10 m 0 10 l
29 -10 m 1 10 l
29 -10 m 0 10 l
30 -10 m 1 10 l
34 -10 m 3 10 l
93 0 m 2 -8 l
0 -2 m 0 2 l
23 -2 m -1 10 l
17 -10 m 0 10 l
14 -10 m 0 10 l
12 -10 m 0 10 l
12 -10 m 0 10 l
12 -10 m 0 10 l
12 -10 m 0 10 l
15 -10 m 0 10 l
21 -10 m 1 10 l
47 -10 m 2 10 l
580 1609 M -1 10 l
113 -10 m 0 10 l
67 -10 m 0 10 l
50 -10 m 0 10 l
40 -10 m 0 10 l
35 -10 m 1 10 l
31 -10 m 1 10 l
29 -10 m 1 10 l
28 -10 m 1 10 l
30 -10 m 1 10 l
36 -10 m 2 10 l
91 -10 m -3 10 l
27 -10 m -1 10 l
18 -10 m -1 10 l
15 -10 m -1 10 l
13 -10 m 0 10 l
12 -10 m 0 10 l
12 -10 m 0 10 l
12 -10 m 1 10 l
14 -10 m 1 10 l
21 -10 m 1 10 l
48 -10 m 3 10 l
579 1619 M -1 10 l
114 -10 m -1 10 l
68 -10 m 0 10 l
50 -10 m 0 10 l
40 -10 m 0 10 l
36 -10 m 0 10 l
32 -10 m 0 10 l
30 -10 m 0 10 l
29 -10 m 1 10 l
30 -10 m 0 1 l
2 9 l
36 -10 m 2 10 l
86 -10 m -2 10 l
26 0 m 1 -4 l
1 -6 m -1 6 l
18 -6 m -1 10 l
15 -10 m -1 10 l
14 -10 m -1 10 l
13 -10 m 0 10 l
12 -10 m 0 10 l
13 -10 m 0 10 l
15 -10 m 1 10 l
21 -10 m 1 10 l
50 -10 m 0 4 l
2 6 l
578 1629 M -1 10 l
CS M
114 -10 m -1 10 l
69 -10 m -1 10 l
51 -10 m 0 10 l
40 -10 m 0 10 l
36 -10 m 0 10 l
32 -10 m 0 7 l
0 3 l
30 -10 m 0 2 l
1 8 l
29 -10 m 0 4 l
1 6 l
31 -10 m 1 10 l
37 -10 m 1 1 l
2 9 l
81 -10 m -3 10 l
29 -10 m -1 10 l
19 -10 m -1 10 l
15 -10 m 0 10 l
13 -10 m 0 10 l
13 -10 m 0 10 l
12 -10 m 0 10 l
13 -10 m 0 10 l
16 -10 m 0 10 l
22 -10 m 0 2 l
1 8 l
51 -10 m 2 10 l
576 1649 M 0 -4 l
1 -6 m -1 6 l
114 -6 m 0 10 l
68 -10 m 0 10 l
51 -10 m -1 10 l
41 -10 m 1 10 l
35 -10 m 0 10 l
32 -10 m 1 10 l
30 -10 m 0 10 l
30 -10 m 1 10 l
31 -10 m 1 10 l
39 -10 m 3 10 l
72 0 m 3 -7 l
0 -3 m 0 3 l
28 -3 m -2 10 l
20 -10 m -1 10 l
16 -10 m -1 10 l
14 -10 m 0 10 l
13 -10 m -1 10 l
13 -10 m 0 10 l
13 -10 m 1 10 l
15 -10 m 1 10 l
22 -10 m 1 10 l
52 -10 m 2 10 l
576 1649 M -2 10 l
116 -10 m -1 10 l
69 -10 m 0 10 l
50 -10 m 0 10 l
42 -10 m 0 10 l
35 -10 m 0 10 l
33 -10 m 0 10 l
30 -10 m 1 10 l
30 -10 m 1 10 l
31 -10 m 2 10 l
40 -10 m 3 10 l
69 -10 m -3 10 l
32 -10 m -1 10 l
20 -10 m -1 10 l
16 0 m 0 -1 l
0 -9 m 0 9 l
14 -9 m -1 10 l
13 -10 m 0 10 l
13 -10 m 0 10 l
14 -10 m 0 10 l
16 -10 m 0 10 l
23 -10 m 2 10 l
52 -10 m 2 10 l
574 1659 M -1 10 l
116 -10 m -1 10 l
70 -10 m -1 10 l
51 -10 m 0 10 l
42 -10 m 0 10 l
35 -10 m 1 10 l
32 -10 m 0 10 l
31 -10 m 1 10 l
30 -10 m 1 10 l
32 -10 m 1 10 l
42 -10 m 2 5 l
2 5 l
62 -10 m -3 10 l
34 -10 m -1 10 l
20 -10 m -1 10 l
17 -10 m -1 10 l
14 -10 m 0 10 l
13 -10 m 0 10 l
13 -10 m 0 10 l
14 -10 m 0 10 l
16 -10 m 1 10 l
24 -10 m 1 10 l
53 -10 m 2 9 l
1 1 l
573 1669 M -1 10 l
116 -10 m 0 10 l
69 -10 m 0 10 l
51 -10 m 0 10 l
42 -10 m 0 10 l
36 -10 m 0 10 l
32 -10 m 1 10 l
31 -10 m 0 10 l
31 -10 m 1 10 l
32 -10 m 2 10 l
44 -10 m 4 10 l
50 0 m 4 -7 l
1 -3 m -1 3 l
34 -3 m -2 10 l
21 -10 m -1 10 l
17 -10 m 0 10 l
14 -10 m 0 10 l
13 -10 m 0 10 l
13 -10 m 0 10 l
14 -10 m 1 10 l
16 -10 m 0 5 l
0 5 l
25 -10 m 1 10 l
55 -10 m 2 10 l
572 1679 M -1 10 l
117 -10 m -1 10 l
70 0 m 0 0 l
0 -10 m 0 10 l
51 -10 m 0 10 l
42 -10 m 0 10 l
36 -10 m 0 10 l
33 -10 m 0 10 l
31 -10 m 1 10 l
31 -10 m 1 10 l
33 -10 m 1 10 l
47 -10 m 4 9 l
1 1 l
45 -10 m -4 10 l
40 -10 m -1 10 l
21 -10 m 0 10 l
17 -10 m -1 10 l
15 -10 m -1 10 l
14 -10 m 0 10 l
13 -10 m 0 10 l
15 -10 m 0 10 l
16 -10 m 1 10 l
25 -10 m 1 10 l
56 -10 m 2 10 l
571 1689 M -1 10 l
117 -10 m 0 10 l
70 -10 m -1 10 l
52 -10 m 0 10 l
42 -10 m 0 10 l
36 -10 m 0 10 l
33 -10 m 1 10 l
31 -10 m 1 10 l
31 -10 m 1 10 l
33 -10 m 0 2 l
2 8 l
50 -10 m 7 10 l
27 0 m 5 -6 l
2 -4 m -2 4 l
39 6 m 1 -3 l
1 -7 m -1 7 l
22 -7 m -1 10 l
17 -10 m -1 10 l
15 -10 m 0 10 l
14 -10 m 0 10 l
13 -10 m 0 10 l
15 -10 m 0 10 l
17 -10 m 1 10 l
25 -10 m 1 10 l
57 -10 m 2 10 l
570 1699 M -1 10 l
117 0 m 0 -6 l
1 -4 m -1 4 l
70 -4 m 0 10 l
52 -10 m 0 10 l
42 -10 m 0 10 l
36 -10 m 1 10 l
33 -10 m 0 10 l
32 -10 m 0 10 l
32 -10 m 1 10 l
34 -10 m 2 10 l
55 -10 m 2 3 l
10 6 l
10 -3 l
5 -6 m -5 6 l
49 -6 m -1 10 l
22 0 m 0 0 l
1 -10 m -1 10 l
17 -10 m 0 10 l
15 -10 m 0 10 l
14 -10 m 0 10 l
13 -10 m 0 10 l
15 -10 m 0 10 l
18 -10 m 0 10 l
26 -10 m 1 10 l
58 -10 m 2 10 l
569 1709 M -1 10 l
118 -10 m -1 10 l
71 -10 m 0 10 l
52 -10 m 0 10 l
42 -10 m 0 10 l
37 -10 m 0 10 l
33 -10 m 1 10 l
31 -10 m 1 10 l
32 -10 m 1 10 l
35 -10 m 1 10 l
124 -10 m -2 10 l
24 -10 m -1 10 l
18 -10 m -1 10 l
16 -10 m -1 10 l
15 -10 m -1 10 l
14 -10 m 0 10 l
15 -10 m 1 10 l
17 -10 m 1 10 l
26 -10 m 1 10 l
59 -10 m 1 6 l
1 4 l
568 1719 M -1 10 l
118 -10 m 0 10 l
71 -10 m -1 10 l
53 -10 m -1 10 l
43 -10 m 0 10 l
37 -10 m 0 5 l
0 5 l
34 -10 m 0 10 l
32 -10 m 1 10 l
32 -10 m 1 10 l
35 -10 m 2 10 l
120 -10 m -2 10 l
25 -10 m -1 10 l
18 -10 m -1 10 l
16 -10 m 0 10 l
14 -10 m 0 10 l
14 -10 m 1 10 l
15 -10 m 0 10 l
18 -10 m 1 10 l
26 -10 m 0 3 l
1 7 l
60 -10 m 2 10 l
565 1740 M 1 -7 l
1 -4 m -1 4 l
119 -4 m -1 11 l
71 -11 m 0 11 l
52 -11 m 0 11 l
43 -11 m 0 11 l
37 -11 m 0 11 l
34 -11 m 1 11 l
32 -11 m 0 11 l
33 -11 m 0 7 l
1 4 l
36 -11 m 2 11 l
116 -11 m -2 11 l
26 -11 m -1 11 l
18 -11 m 0 11 l
16 -11 m 0 11 l
14 -11 m 0 11 l
15 -11 m 0 11 l
15 -11 m 0 11 l
19 -11 m 0 11 l
27 -11 m 1 11 l
61 -11 m 3 11 l
565 1740 M -1 10 l
120 -10 m 0 10 l
71 -10 m 0 10 l
52 -10 m 0 10 l
43 -10 m 0 10 l
37 -10 m 1 10 l
34 -10 m 0 10 l
32 -10 m 1 10 l
33 -10 m 1 10 l
37 -10 m 1 9 l
1 1 l
112 -10 m -1 10 l
26 -10 m -1 10 l
19 -10 m -1 10 l
17 -10 m -1 10 l
15 -10 m 0 10 l
15 -10 m 0 10 l
15 -10 m 1 10 l
18 -10 m 1 10 l
27 -10 m 1 10 l
63 -10 m 2 10 l
564 1750 M -1 10 l
121 -10 m -1 10 l
72 -10 m -1 10 l
53 -10 m 0 10 l
43 -10 m 0 10 l
38 -10 m 0 10 l
34 -10 m 1 10 l
32 -10 m 1 10 l
33 -10 m 1 10 l
38 -10 m 2 10 l
107 0 m 1 -6 l
1 -4 m -1 4 l
26 -4 m -1 10 l
19 -10 m 0 10 l
16 0 m 0 -6 l
0 -4 m 0 4 l
15 -4 m 0 10 l
15 -10 m 0 10 l
CS M
16 -10 m 0 10 l
19 -10 m 0 10 l
28 -10 m 1 10 l
64 -10 m 2 10 l
563 1760 M -1 10 l
121 -10 m -1 10 l
72 -10 m 0 10 l
53 -10 m 0 10 l
43 -10 m 0 10 l
38 -10 m 0 10 l
35 -10 m 0 10 l
33 -10 m 1 10 l
33 -10 m 1 10 l
39 -10 m 2 10 l
105 -10 m -3 10 l
29 -10 m -2 10 l
21 -10 m -1 10 l
17 -10 m -1 10 l
16 -10 m 0 10 l
15 -10 m 0 10 l
16 -10 m 0 10 l
19 -10 m 1 10 l
28 -10 m 1 10 l
65 -10 m 0 4 l
2 6 l
562 1770 M -1 10 l
121 -10 m 0 10 l
72 -10 m 0 10 l
53 -10 m 0 10 l
43 -10 m 1 10 l
37 -10 m 1 10 l
34 -10 m 0 10 l
34 -10 m 0 9 l
0 1 l
34 -10 m 1 10 l
40 -10 m 2 10 l
100 -10 m -2 10 l
29 -10 m -1 10 l
21 -10 m -1 10 l
17 -10 m 0 10 l
16 -10 m -1 10 l
16 -10 m 0 10 l
16 -10 m 0 10 l
20 -10 m 1 10 l
28 -10 m 1 10 l
66 -10 m 2 10 l
561 1780 M -1 10 l
122 -10 m -1 10 l
73 -10 m 0 10 l
53 -10 m 0 10 l
44 -10 m 0 10 l
38 -10 m 0 10 l
34 -10 m 1 10 l
33 -10 m 1 10 l
34 -10 m 1 10 l
41 -10 m 2 10 l
96 -10 m -2 10 l
30 -10 m -1 10 l
21 -10 m -1 10 l
18 -10 m -1 10 l
16 -10 m 0 10 l
16 -10 m 0 10 l
16 -10 m 1 10 l
20 -10 m 0 10 l
29 -10 m 2 10 l
66 -10 m 2 10 l
560 1790 M -1 10 l
122 -10 m 0 10 l
73 -10 m -1 10 l
54 -10 m 0 10 l
44 -10 m 0 10 l
38 -10 m 0 10 l
35 -10 m 0 10 l
34 -10 m 1 10 l
34 -10 m 2 10 l
41 -10 m 2 5 l
1 5 l
91 -10 m -2 10 l
31 -10 m -1 10 l
21 -10 m 0 10 l
17 -10 m 0 10 l
16 -10 m 0 10 l
16 -10 m 0 10 l
17 -10 m 0 10 l
20 -10 m 1 10 l
30 -10 m 0 10 l
68 -10 m 2 10 l
559 1800 M -2 10 l
124 -10 m -1 10 l
73 -10 m 0 10 l
54 0 m 0 -8 l
0 -2 m 0 2 l
44 -2 m 0 10 l
38 -10 m 0 10 l
35 -10 m 1 10 l
34 -10 m 1 10 l
35 -10 m 1 10 l
43 -10 m 3 10 l
83 0 m 3 -10 l
0 0 l
29 10 m 1 -8 l
0 -2 m 0 2 l
21 -2 m -1 10 l
18 -10 m 0 10 l
16 -10 m 0 10 l
16 -10 m 0 10 l
17 -10 m 0 10 l
21 -10 m 0 10 l
30 -10 m 1 10 l
69 -10 m 1 10 l
557 1810 M -1 10 l
124 -10 m 0 10 l
73 -10 m 0 10 l
54 -10 m 0 10 l
44 -10 m 0 10 l
38 -10 m 1 10 l
35 -10 m 1 10 l
34 -10 m 0 10 l
36 -10 m 1 10 l
45 -10 m 2 10 l
81 -10 m -3 10 l
35 -10 m -1 10 l
21 0 m 1 -9 l
0 -1 m 0 1 l
18 -1 m -1 10 l
17 -10 m -1 10 l
17 -10 m 0 10 l
17 -10 m 0 10 l
21 -10 m 1 10 l
30 -10 m 1 8 l
0 2 l
69 -10 m 1 5 l
1 5 l
555 1830 M 1 -8 l
0 -2 m 0 2 l
124 -2 m -1 10 l
74 -10 m -1 10 l
55 -10 m 0 10 l
44 -10 m 0 10 l
39 -10 m 0 10 l
36 -10 m 0 10 l
34 -10 m 1 10 l
36 -10 m 0 1 l
2 9 l
45 -10 m 3 10 l
75 -10 m -3 10 l
37 -10 m -2 10 l
23 -10 m -1 10 l
19 -10 m 0 10 l
16 -10 m 0 10 l
17 -10 m 0 10 l
17 -10 m 1 10 l
21 -10 m 0 10 l
31 -10 m 2 10 l
69 -10 m 3 10 l
555 1830 M -1 10 l
125 -10 m -1 10 l
74 -10 m 0 10 l
55 -10 m 0 10 l
44 -10 m 0 10 l
39 -10 m 0 10 l
36 -10 m 1 10 l
34 -10 m 1 10 l
37 -10 m 1 10 l
47 -10 m 1 1 l
3 9 l
65 0 m 2 -5 l
1 -5 m -1 5 l
36 -5 m -1 10 l
23 -10 m 0 10 l
19 -10 m -1 10 l
17 -10 m 0 10 l
17 -10 m 0 10 l
18 -10 m 0 10 l
21 -10 m 1 10 l
32 -10 m 1 10 l
71 -10 m 1 10 l
554 1840 M -1 10 l
125 -10 m 0 10 l
74 -10 m 0 10 l
55 -10 m -1 10 l
45 -10 m 0 10 l
39 -10 m 1 10 l
36 -10 m 0 10 l
0 0 l
35 -10 m 1 10 l
37 -10 m 1 10 l
50 -10 m 4 10 l
61 -10 m -4 10 l
41 -10 m -1 10 l
24 -10 m -1 10 l
19 -10 m 0 10 l
17 -10 m 0 10 l
17 -10 m 0 10 l
18 -10 m 0 10 l
22 -10 m 0 9 l
0 1 l
33 -10 m 1 10 l
71 -10 m 2 10 l
553 1850 M -1 10 l
126 -10 m -1 10 l
75 -10 m -1 10 l
55 -10 m 0 10 l
45 -10 m 0 10 l
40 -10 m 0 10 l
36 -10 m 1 10 l
35 -10 m 1 10 l
37 -10 m 2 10 l
52 -10 m 3 7 l
1 3 l
53 -10 m -4 10 l
44 -10 m -2 10 l
25 -10 m -1 10 l
20 -10 m -1 10 l
18 -10 m 0 10 l
17 -10 m 0 10 l
18 -10 m 0 10 l
22 -10 m 1 10 l
33 -10 m 1 10 l
72 -10 m 2 10 l
552 1860 M -1 10 l
126 -10 m 0 10 l
74 -10 m 0 10 l
55 -10 m 0 10 l
45 -10 m 1 10 l
39 -10 m 0 10 l
37 -10 m 0 10 l
36 -10 m 1 10 l
38 -10 m 1 10 l
55 -10 m 6 10 l
37 0 m 6 -10 l
0 0 l
42 0 m -1 10 l
25 -10 m -1 10 l
20 -10 m 0 10 l
18 -10 m -1 10 l
18 -10 m 0 10 l
18 -10 m 0 10 l
23 -10 m 0 10 l
34 -10 m 1 10 l
73 -10 m 2 7 l
0 3 l
551 1870 M -1 10 l
126 0 m 0 -4 l
1 -6 m -1 6 l
75 -6 m 0 10 l
55 -10 m 0 10 l
46 -10 m 0 10 l
39 -10 m 1 10 l
36 -10 m 1 10 l
36 -10 m 1 10 l
38 -10 m 2 10 l
59 -10 m 3 5 l
5 5 l
21 0 m 4 -3 l
4 -7 m -4 7 l
50 3 m 0 -2 l
1 -8 m -1 8 l
25 -8 m -1 10 l
21 -10 m -1 10 l
18 -10 m 0 10 l
18 -10 m 0 10 l
18 -10 m 1 10 l
22 -10 m 1 10 l
34 -10 m 1 10 l
74 -10 m 2 10 l
550 1880 M -1 10 l
127 -10 m 0 10 l
75 -10 m 0 10 l
55 -10 m 0 10 l
46 -10 m 0 10 l
40 -10 m 0 10 l
37 -10 m 1 10 l
36 -10 m 1 10 l
39 -10 m 1 10 l
66 -10 m 5 4 l
10 1 l
6 -5 m -6 5 l
60 -5 m -2 10 l
26 -10 m -1 10 l
21 -10 m 0 10 l
18 -10 m 0 10 l
18 -10 m 0 10 l
19 -10 m 0 10 l
23 -10 m 0 10 l
35 -10 m 0 10 l
76 -10 m 2 10 l
549 1890 M -1 10 l
128 -10 m -1 10 l
76 -10 m -1 10 l
56 -10 m 0 10 l
46 -10 m 0 10 l
40 -10 m 0 10 l
38 -10 m 0 10 l
37 -10 m 0 8 l
1 2 l
39 -10 m 0 1 l
2 9 l
137 -10 m -2 10 l
27 -10 m 0 10 l
CS M
21 -10 m -1 10 l
19 -10 m 0 10 l
18 -10 m 0 10 l
19 -10 m 0 10 l
23 -10 m 1 10 l
34 -10 m 1 10 l
77 -10 m 2 10 l
548 1900 M -2 10 l
129 -10 m 0 10 l
75 -10 m 0 10 l
56 -10 m 0 10 l
46 -10 m 0 10 l
40 -10 m 1 10 l
37 -10 m 1 10 l
37 -10 m 0 10 l
41 -10 m 1 10 l
134 -10 m -1 10 l
28 -10 m -1 10 l
21 -10 m 0 10 l
19 -10 m -1 10 l
19 -10 m 0 10 l
19 -10 m 0 10 l
24 -10 m 1 10 l
34 -10 m 1 10 l
78 -10 m 1 10 l
545 1920 M 1 -6 l
0 -4 m 0 4 l
129 -4 m -1 10 l
76 -10 m 0 10 l
56 -10 m 0 10 l
46 -10 m 0 10 l
41 -10 m 0 10 l
38 -10 m 0 10 l
37 -10 m 1 10 l
41 -10 m 2 10 l
131 -10 m -2 10 l
29 -10 m -1 10 l
22 -10 m -1 10 l
19 -10 m 0 10 l
19 -10 m 0 10 l
19 -10 m 1 10 l
24 -10 m 0 10 l
35 -10 m 1 10 l
78 -10 m 2 10 l
545 1920 M -1 10 l
130 -10 m -1 10 l
77 -10 m 0 10 l
56 -10 m 0 10 l
46 -10 m 0 10 l
41 -10 m 1 10 l
37 -10 m 1 10 l
37 -10 m 1 10 l
42 -10 m 2 10 l
127 -10 m -2 10 l
30 -10 m -1 10 l
22 -10 m 0 10 l
19 -10 m 0 10 l
19 -10 m 0 10 l
20 -10 m 0 10 l
24 -10 m 1 10 l
35 -10 m 0 1 l
1 9 l
79 -10 m 1 2 l
1 8 l
544 1930 M -1 10 l
130 -10 m 0 10 l
77 -10 m -1 10 l
57 -10 m 0 10 l
46 -10 m 1 10 l
41 -10 m 0 10 l
38 -10 m 1 10 l
37 -10 m 1 10 l
43 -10 m 2 10 l
123 -10 m -1 10 l
29 0 m 1 -9 l
0 -1 m 0 1 l
22 -1 m -1 10 l
20 -10 m -1 10 l
20 -10 m 0 10 l
20 -10 m 0 10 l
25 -10 m 0 10 l
36 -10 m 1 10 l
80 -10 m 2 10 l
543 1940 M -1 10 l
131 -10 m -1 10 l
77 -10 m 0 10 l
57 -10 m 0 10 l
47 -10 m 0 10 l
41 -10 m 0 10 l
39 -10 m 0 10 l
38 -10 m 1 10 l
44 -10 m 1 9 l
1 1 l
118 0 m 2 -10 l
0 0 l
29 0 m -1 10 l
23 -10 m -1 10 l
20 -10 m 0 10 l
20 -10 m -1 10 l
21 -10 m 0 7 l
0 3 l
25 -10 m 1 10 l
36 -10 m 1 10 l
81 -10 m 2 10 l
542 1950 M -1 10 l
131 -10 m 0 10 l
77 -10 m 0 10 l
57 -10 m 0 10 l
47 -10 m 0 10 l
41 -10 m 1 10 l
38 -10 m 1 10 l
38 -10 m 1 10 l
45 -10 m 2 10 l
116 -10 m -2 10 l
32 -10 m -1 10 l
23 0 m 0 -1 l
0 -9 m 0 9 l
20 1 m 0 -3 l
0 -7 m 0 7 l
19 -7 m 0 10 l
21 -10 m 0 10 l
26 -10 m 0 10 l
37 -10 m 1 10 l
82 -10 m 2 10 l
541 1960 M -1 10 l
132 -10 m -1 10 l
78 -10 m 0 10 l
57 -10 m 0 10 l
47 -10 m 0 10 l
42 -10 m 0 10 l
39 -10 m 1 10 l
38 -10 m 2 10 l
45 -10 m 2 10 l
112 -10 m -2 10 l
33 -10 m -1 10 l
24 -10 m -1 10 l
21 -10 m 0 10 l
19 -10 m 0 10 l
21 -10 m 1 10 l
25 -10 m 1 10 l
37 -10 m 1 10 l
83 -10 m 1 10 l
540 1970 M -1 10 l
132 -10 m 0 10 l
78 -10 m -1 10 l
58 -10 m 0 10 l
47 -10 m 0 10 l
42 -10 m 1 10 l
39 -10 m 0 10 l
40 -10 m 1 10 l
46 -10 m 2 10 l
108 -10 m -2 10 l
34 -10 m -1 10 l
24 -10 m 0 10 l
21 -10 m -1 10 l
20 -10 m 0 10 l
22 -10 m 0 10 l
26 -10 m 0 10 l
38 -10 m 1 10 l
83 -10 m 2 8 l
0 2 l
539 1980 M -1 10 l
133 -10 m -1 10 l
78 -10 m 0 10 l
58 -10 m 0 10 l
47 -10 m 1 10 l
42 -10 m 0 10 l
39 -10 m 1 10 l
40 -10 m 1 10 l
47 -10 m 2 10 l
102 0 m 0 0 l
2 -10 m -2 10 l
35 -10 m -1 10 l
25 -10 m -1 10 l
21 -10 m 0 10 l
20 -10 m 0 10 l
22 -10 m 0 10 l
26 -10 m 0 10 l
39 -10 m 1 10 l
84 -10 m 2 10 l
538 1990 M -1 10 l
133 -10 m 0 10 l
78 -10 m 0 10 l
58 -10 m 0 10 l
48 -10 m 0 10 l
42 -10 m 0 10 l
40 -10 m 1 10 l
40 -10 m 0 5 l
1 5 l
48 -10 m 1 6 l
1 4 l
100 -10 m -3 10 l
37 -10 m -1 10 l
25 -10 m -1 10 l
22 -10 m 0 10 l
20 -10 m 0 10 l
22 -10 m 0 10 l
26 -10 m 1 10 l
39 -10 m 1 10 l
85 -10 m 2 10 l
536 2010 M 0 -3 l
1 -7 m -1 7 l
134 -7 m -1 10 l
79 -10 m 0 10 l
58 -10 m 0 10 l
48 -10 m 0 10 l
42 -10 m 1 10 l
40 -10 m 0 9 l
0 1 l
41 -10 m 1 10 l
49 -10 m 3 10 l
94 -10 m -2 10 l
38 -10 m -1 10 l
25 -10 m 0 10 l
22 -10 m -1 10 l
21 -10 m 0 10 l
22 -10 m 0 10 l
27 -10 m 0 10 l
40 -10 m 1 10 l
86 -10 m 1 10 l
536 2010 M -1 10 l
134 -10 m 0 10 l
79 -10 m -1 10 l
59 -10 m 0 10 l
48 -10 m 0 10 l
43 -10 m 0 8 l
0 2 l
40 -10 m 1 10 l
41 -10 m 1 10 l
51 -10 m 3 10 l
89 -10 m -3 10 l
40 -10 m -1 10 l
26 -10 m -1 10 l
22 -10 m 0 10 l
21 -10 m 0 10 l
22 -10 m 0 10 l
27 -10 m 1 10 l
40 -10 m 0 10 l
87 -10 m 2 10 l
535 2020 M -1 10 l
135 -10 m -1 10 l
79 -10 m 0 10 l
59 -10 m 0 10 l
48 -10 m 0 10 l
43 -10 m 1 10 l
40 -10 m 1 10 l
41 -10 m 1 10 l
53 -10 m 3 10 l
80 0 m 1 -1 l
2 -9 m -2 9 l
40 1 m 0 -2 l
1 -8 m -1 8 l
26 -8 m -1 10 l
23 -10 m 0 10 l
21 -10 m 0 10 l
22 -10 m 1 10 l
27 -10 m 0 10 l
40 -10 m 1 10 l
88 -10 m 2 10 l
534 2030 M -2 10 l
136 -10 m 0 10 l
79 -10 m 0 10 l
59 -10 m 0 10 l
48 -10 m 1 10 l
43 -10 m 0 10 l
41 -10 m 1 10 l
41 -10 m 2 10 l
54 -10 m 1 4 l
2 6 l
77 -10 m -3 10 l
44 -10 m -2 10 l
27 -10 m 0 10 l
23 -10 m -1 10 l
22 -10 m 0 10 l
23 -10 m 0 10 l
27 -10 m 1 10 l
40 -10 m 0 1 l
1 9 l
89 -10 m 1 7 l
0 3 l
532 2040 M -1 10 l
137 -10 m -1 10 l
80 -10 m 0 10 l
59 -10 m 0 10 l
49 -10 m 0 10 l
43 -10 m 1 10 l
41 -10 m 0 10 l
43 -10 m 1 10 l
56 -10 m 3 10 l
71 -10 m -3 10 l
45 -10 m -1 10 l
28 -10 m -1 10 l
23 -10 m 0 10 l
22 -10 m 0 10 l
23 -10 m 0 10 l
28 -10 m 0 10 l
41 -10 m 1 10 l
89 -10 m 2 10 l
531 2050 M -1 10 l
137 -10 m 0 10 l
CS M
80 0 m 0 -1 l
0 -9 m 0 9 l
59 -9 m 0 10 l
49 -10 m 0 10 l
44 -10 m 0 10 l
41 -10 m 1 10 l
43 -10 m 1 10 l
58 -10 m 4 10 l
60 0 m 1 -1 l
3 -9 m -3 9 l
47 -9 m -1 10 l
28 -10 m -1 10 l
24 -10 m -1 10 l
23 -10 m 0 10 l
23 -10 m 0 10 l
28 -10 m 0 1 l
1 9 l
41 -10 m 1 10 l
90 -10 m 2 10 l
530 2060 M -1 10 l
137 0 m 0 -6 l
1 -4 m -1 4 l
81 -4 m -1 10 l
60 -10 m 0 10 l
49 -10 m 0 10 l
44 -10 m 0 10 l
42 -10 m 1 10 l
43 -10 m 2 10 l
60 -10 m 1 2 l
4 8 l
55 -10 m -5 10 l
52 -10 m -1 10 l
28 -10 m 0 10 l
23 -10 m 0 10 l
23 -10 m 0 10 l
23 -10 m 0 10 l
29 -10 m 0 10 l
42 -10 m 1 10 l
91 -10 m 1 10 l
529 2070 M -1 11 l
138 -11 m 0 11 l
80 -11 m 0 11 l
60 -11 m 0 11 l
49 -11 m 1 11 l
43 -11 m 1 11 l
42 -11 m 1 11 l
44 -11 m 0 7 l
1 4 l
64 -11 m 5 11 l
40 0 m 1 -1 l
4 -10 m -4 10 l
55 -10 m -2 11 l
30 -11 m -1 11 l
24 -11 m 0 11 l
23 -11 m -1 11 l
24 -11 m 0 11 l
29 -11 m 1 11 l
42 -11 m 1 11 l
91 -11 m 2 11 l
528 2081 M -1 10 l
139 -10 m -1 10 l
81 -10 m 0 10 l
60 -10 m 0 10 l
50 -10 m 0 10 l
44 -10 m 0 10 l
43 -10 m 0 10 l
45 -10 m 1 10 l
68 -10 m 1 1 l
7 9 l
32 -10 m -8 10 l
62 -10 m -1 10 l
30 -10 m -1 10 l
25 -10 m -1 10 l
23 -10 m 0 10 l
24 -10 m 1 10 l
29 -10 m 0 10 l
43 -10 m 1 10 l
92 -10 m 2 10 l
527 2091 M -1 10 l
139 -10 m 0 10 l
81 -10 m 0 10 l
60 -10 m 0 10 l
50 -10 m 0 10 l
44 -10 m 1 10 l
42 -10 m 1 10 l
45 -10 m 2 10 l
74 -10 m 3 2 l
10 4 l
10 -5 l
1 -1 m -1 1 l
62 -1 m -1 10 l
30 -10 m 0 10 l
24 -10 m 0 10 l
23 -10 m 0 10 l
25 -10 m 0 10 l
29 -10 m 0 10 l
44 -10 m 0 10 l
94 -10 m 1 6 l
0 4 l
525 2111 M 1 -9 l
0 -1 m 0 1 l
139 -1 m -1 10 l
82 -10 m 0 10 l
60 -10 m 0 10 l
50 -10 m 0 10 l
45 -10 m 0 10 l
43 -10 m 1 10 l
46 -10 m 1 10 l
155 0 m 1 -4 l
1 -6 m -1 6 l
30 4 m 0 -1 l
1 -9 m -1 9 l
25 -9 m 0 10 l
23 -10 m 0 10 l
25 -10 m 0 10 l
29 -10 m 1 10 l
43 -10 m 1 10 l
94 -10 m 2 10 l
525 2111 M -1 10 l
140 -10 m 0 10 l
82 -10 m -1 10 l
61 -10 m 0 10 l
50 -10 m 1 10 l
44 -10 m 1 10 l
43 -10 m 1 10 l
46 -10 m 2 10 l
153 -10 m -1 10 l
32 -10 m -1 10 l
26 -10 m -1 10 l
24 -10 m 0 10 l
25 -10 m 0 10 l
30 -10 m 0 10 l
44 -10 m 1 10 l
95 -10 m 1 10 l
524 2121 M -1 10 l
141 -10 m -1 10 l
82 -10 m 0 10 l
61 -10 m 0 10 l
51 -10 m 0 10 l
45 -10 m 0 10 l
44 -10 m 1 10 l
47 -10 m 1 10 l
151 -10 m -2 10 l
33 -10 m -1 10 l
26 -10 m 0 10 l
24 -10 m 0 10 l
25 -10 m 0 10 l
30 -10 m 1 10 l
44 -10 m 1 10 l
95 -10 m 2 10 l
523 2131 M -1 10 l
141 -10 m 0 10 l
82 -10 m 0 10 l
61 -10 m 0 10 l
51 -10 m 0 6 l
0 4 l
45 -10 m 1 10 l
44 -10 m 0 6 l
1 4 l
47 -10 m 2 10 l
147 -10 m -1 10 l
33 -10 m -1 10 l
27 -10 m -1 10 l
25 -10 m 0 10 l
25 -10 m 0 10 l
31 -10 m 0 10 l
45 -10 m 1 10 l
96 -10 m 2 10 l
522 2141 M -1 10 l
142 -10 m -1 10 l
83 -10 m 0 10 l
61 -10 m 0 10 l
51 -10 m 0 10 l
46 -10 m 0 10 l
45 -10 m 0 10 l
49 -10 m 0 4 l
1 6 l
145 -10 m -2 10 l
34 -10 m 0 10 l
26 -10 m 0 10 l
25 -10 m -1 10 l
26 -10 m 0 10 l
31 -10 m 1 10 l
45 -10 m 0 8 l
0 2 l
98 -10 m 1 10 l
521 2151 M -1 10 l
142 -10 m 0 10 l
83 -10 m 0 10 l
61 -10 m 0 10 l
51 -10 m 1 10 l
45 -10 m 1 10 l
44 -10 m 1 10 l
49 -10 m 2 10 l
141 -10 m -1 10 l
35 -10 m -1 10 l
27 -10 m -1 10 l
25 -10 m 0 10 l
26 -10 m 0 10 l
32 -10 m 0 10 l
45 -10 m 1 10 l
98 -10 m 2 9 l
0 1 l
520 2161 M -1 10 l
143 -10 m -1 10 l
84 -10 m -1 10 l
62 -10 m 0 10 l
52 -10 m 0 10 l
46 -10 m 0 10 l
45 -10 m 1 10 l
50 -10 m 2 10 l
138 -10 m -2 10 l
36 -10 m -1 10 l
27 -10 m 0 10 l
25 -10 m 0 10 l
26 -10 m 1 10 l
31 -10 m 0 10 l
46 -10 m 1 10 l
99 -10 m 1 10 l
519 2171 M -1 10 l
143 -10 m 0 10 l
83 -10 m 0 10 l
62 -10 m 0 10 l
52 -10 m 0 10 l
46 -10 m 1 10 l
45 -10 m 1 10 l
51 -10 m 2 10 l
132 0 m 2 -8 l
0 -2 m 0 2 l
35 -2 m -1 10 l
28 -10 m 0 10 l
25 -10 m 0 10 l
27 -10 m 0 10 l
31 -10 m 1 10 l
46 -10 m 1 10 l
99 -10 m 2 10 l
518 2181 M -1 10 l
144 -10 m -1 10 l
84 -10 m 0 10 l
62 -10 m 0 10 l
52 -10 m 0 10 l
47 -10 m 1 10 l
45 -10 m 1 10 l
52 -10 m 2 10 l
130 -10 m -2 10 l
38 -10 m -1 10 l
29 -10 m -1 10 l
26 -10 m 0 10 l
27 -10 m 0 10 l
32 -10 m 0 10 l
47 -10 m 1 10 l
100 -10 m 2 10 l
516 2201 M 0 -1 l
1 -9 m -1 9 l
144 -9 m 0 10 l
84 -10 m 0 10 l
62 -10 m 0 10 l
52 -10 m 1 10 l
47 -10 m 0 10 l
46 -10 m 1 10 l
53 -10 m 1 10 l
127 -10 m -2 10 l
39 -10 m -1 10 l
29 -10 m 0 10 l
26 -10 m 0 10 l
27 -10 m 0 10 l
32 -10 m 1 10 l
47 -10 m 1 10 l
101 -10 m 1 10 l
516 2201 M -1 10 l
145 -10 m -1 10 l
85 -10 m 0 10 l
62 -10 m 1 10 l
52 -10 m 0 10 l
47 -10 m 1 10 l
46 -10 m 1 10 l
53 -10 m 0 0 l
2 10 l
123 -10 m -1 10 l
39 -10 m -1 10 l
30 -10 m -1 10 l
27 -10 m -1 10 l
28 -10 m 0 10 l
33 -10 m 0 10 l
48 -10 m 0 10 l
102 -10 m 2 10 l
515 2211 M -1 10 l
145 -10 m 0 10 l
85 -10 m -1 10 l
64 -10 m 0 10 l
52 -10 m 0 10 l
48 -10 m 0 6 l
0 4 l
47 -10 m 1 10 l
54 -10 m 3 10 l
119 -10 m -2 10 l
40 -10 m 0 10 l
29 0 m 0 -7 l
0 -3 m 0 3 l
26 -3 m 0 10 l
CS M
28 -10 m 0 10 l
33 -10 m 0 10 l
48 -10 m 1 10 l
103 -10 m 1 10 l
514 2221 M -1 10 l
146 -10 m -1 10 l
85 -10 m 0 10 l
64 -10 m 0 10 l
52 -10 m 1 10 l
47 -10 m 1 10 l
47 -10 m 1 10 l
56 -10 m 2 10 l
113 0 m 1 -5 l
1 -5 m -1 5 l
40 5 m 0 -2 l
1 -8 m -1 8 l
30 -8 m -1 10 l
27 -10 m 0 10 l
28 -10 m 0 10 l
33 -10 m 1 10 l
48 -10 m 1 10 l
103 -10 m 1 4 l
1 6 l
513 2231 M -1 10 l
146 -10 m 0 10 l
85 -10 m 0 10 l
64 -10 m 0 10 l
53 -10 m 0 10 l
48 -10 m 1 10 l
47 -10 m 1 10 l
57 -10 m 2 10 l
111 -10 m -3 10 l
44 -10 m -1 10 l
30 -10 m 0 10 l
27 -10 m 0 10 l
28 -10 m 0 10 l
34 -10 m 0 10 l
49 -10 m 1 10 l
104 -10 m 1 10 l
512 2241 M -1 10 l
147 -10 m -1 10 l
86 -10 m 0 10 l
64 -10 m 0 10 l
53 -10 m 0 10 l
49 -10 m 0 10 l
48 -10 m 0 2 l
1 8 l
58 -10 m 1 7 l
1 3 l
106 -10 m -2 10 l
45 -10 m -1 10 l
31 -10 m -1 10 l
28 -10 m 0 10 l
28 -10 m 0 10 l
34 -10 m 0 10 l
50 -10 m 0 10 l
105 -10 m 2 10 l
511 2251 M -1 10 l
147 -10 m 0 10 l
86 -10 m 0 10 l
64 -10 m 0 0 l
0 10 l
53 -10 m 1 10 l
48 -10 m 1 10 l
48 -10 m 1 10 l
59 -10 m 3 10 l
101 -10 m -2 10 l
46 -10 m -1 10 l
31 -10 m 0 10 l
28 -10 m -1 10 l
29 -10 m 0 10 l
34 -10 m 1 10 l
49 -10 m 1 10 l
106 -10 m 1 10 l
 0 0 0 C
-186 -1003 m 0 0 l
10 0 l
10 0 l
10 0 l
10 0 l
10 0 l
10 0 l
10 0 l
10 0 l
10 0 l
10 0 l
10 0 l
11 0 l
10 0 l
10 0 l
10 0 l
10 0 l
10 0 l
10 0 l
10 0 l
10 0 l
10 0 l
10 0 l
10 0 l
10 0 l
10 0 l
10 0 l
10 0 l
10 0 l
10 0 l
10 0 l
10 0 l
10 0 l
10 0 l
10 0 l
10 0 l
10 0 l
10 0 l
10 0 l
10 0 l
10 0 l
10 0 l
10 0 l
10 0 l
10 0 l
10 0 l
10 0 l
10 0 l
11 0 l
10 0 l
10 0 l
10 0 l
10 0 l
10 0 l
10 0 l
10 0 l
10 0 l
10 0 l
10 0 l
10 0 l
10 0 l
10 0 l
10 0 l
10 0 l
10 0 l
10 0 l
10 0 l
10 0 l
10 0 l
10 0 l
10 0 l
10 0 l
10 0 l
10 0 l
10 0 l
10 0 l
10 0 l
10 0 l
10 0 l
10 0 l
10 0 l
10 0 l
11 0 l
10 0 l
10 0 l
10 0 l
10 0 l
10 0 l
10 0 l
10 0 l
10 0 l
10 0 l
10 0 l
10 0 l
10 0 l
10 0 l
10 0 l
10 0 l
10 0 l
10 0 l
10 0 l
255 1260 M 10 1 l
10 0 l
10 0 l
10 0 l
10 0 l
10 0 l
10 0 l
11 0 l
10 0 l
10 0 l
10 0 l
10 -1 l
10 0 l
10 0 l
10 0 l
10 0 l
10 0 l
10 0 l
10 0 l
10 0 l
10 0 l
10 0 l
10 0 l
10 0 l
10 0 l
10 0 l
10 0 l
10 0 l
10 0 l
10 0 l
10 0 l
10 0 l
10 0 l
10 0 l
10 0 l
10 0 l
10 0 l
10 0 l
10 0 l
10 0 l
10 0 l
10 0 l
10 0 l
11 0 l
10 0 l
10 0 l
10 0 l
10 0 l
10 0 l
10 0 l
10 0 l
10 0 l
10 0 l
10 0 l
10 0 l
10 0 l
10 0 l
10 0 l
10 0 l
10 0 l
10 0 l
10 0 l
10 0 l
10 0 l
10 0 l
10 0 l
10 0 l
10 0 l
10 0 l
10 0 l
10 0 l
10 0 l
10 0 l
10 0 l
10 0 l
10 0 l
10 0 l
11 0 l
10 0 l
10 0 l
10 0 l
10 0 l
10 0 l
10 0 l
10 0 l
10 0 l
10 0 l
10 0 l
10 0 l
10 0 l
10 0 l
10 0 l
10 0 l
10 0 l
10 0 l
10 0 l
10 0 l
10 0 l
10 0 l
10 -2 m -10 2 l
 0 0 0 C
CS [] 0 setdash M
1120 2362 M 0 -51 l
2 51 m 0 -51 l
-9 51 m 16 0 l
-16 -51 m 16 0 l
17 34 m 0 -34 l
3 34 m 0 -34 l
0 27 m 4 4 l
8 3 l
4 0 l
8 -3 l
2 -4 l
0 -27 l
-10 34 m 5 -3 l
3 -4 l
0 -27 l
2 27 m 5 4 l
7 3 l
5 0 l
7 -3 l
3 -4 l
0 -27 l
-10 34 m 5 -3 l
2 -4 l
0 -27 l
-60 34 m 10 0 l
CS M
-10 -34 m 17 0 l
9 0 m 17 0 l
10 0 m 17 0 l
14 60 m 0 -77 l
3 77 m 0 -77 l
-3 77 m 17 0 l
-17 -77 m 17 0 l
12 51 m 5 0 l
5 -3 l
2 -4 l
12 -36 l
3 -5 l
2 -3 l
-24 51 m 2 -3 l
3 -4 l
12 -36 l
2 -5 l
5 -3 l
5 0 l
2 51 m -2 -5 l
-5 -7 l
-24 -27 l
-5 -7 l
-2 -5 l
46 19 m 2 -2 l
-2 -1 l
-1 1 l
0 2 l
1 2 l
2 2 l
4 1 l
6 0 l
4 -1 l
2 -2 l
1 -2 l
0 -3 l
-1 -3 l
-5 -3 l
-7 -3 l
-3 -1 l
-3 -3 l
-1 -5 l
0 -4 l
13 30 m 3 -1 l
1 -2 l
2 -2 l
0 -3 l
-2 -3 l
-4 -3 l
-6 -3 l
-7 -10 m 1 1 l
3 0 l
7 -3 l
5 0 l
3 2 l
1 1 l
-16 0 m 7 -4 l
6 0 l
2 1 l
1 3 l
0 3 l
31 76 m -5 -4 l
-5 -8 l
-4 -9 l
-3 -12 l
0 -10 l
3 -12 l
4 -10 l
5 -7 l
5 -5 l
-5 73 m -5 -10 l
-2 -7 l
-2 -12 l
0 -10 l
2 -12 l
2 -7 l
5 -10 l
22 46 m 14 -34 l
-12 34 m 12 -29 l
15 29 m -15 -34 l
-5 -9 l
-4 -5 l
-5 -3 l
-3 0 l
-2 3 l
2 2 l
3 -2 l
-5 48 m 14 0 l
10 0 m 15 0 l
9 26 m 5 -4 l
5 -8 l
5 -9 l
2 -12 l
0 -10 l
-2 -12 l
-5 -10 l
-5 -7 l
-5 -5 l
5 73 m 5 -10 l
2 -7 l
3 -12 l
0 -10 l
-3 -12 l
-2 -7 l
-5 -10 l
43 72 m 0 -77 l
3 77 m 0 -77 l
-17 77 m 17 0 l
-17 -77 m 17 0 l
CS [] 0 setdash M
1258 255 M 0 2006 l
255 1258 M 2006 0 l
CS [] 0 setdash M
255 255 M 2006 0 l
0 2006 l
255 2261 L
255 255 L
2006 0 l
255 255 M 2006 0 l
255 255 M 0 52 l
-79 -146 m 9 22 m 44 0 l
24 19 m 5 2 l
7 8 l
0 -51 l
-2 48 m 0 -48 l
-10 0 m 22 0 l
33 51 m -7 -3 l
-5 -7 l
-2 -12 l
0 -7 l
2 -12 l
5 -8 l
7 -2 l
5 0 l
7 2 l
5 8 l
2 12 l
0 7 l
-2 12 l
-5 7 l
-7 3 l
-5 0 l
-5 -3 l
-2 -2 l
-2 -5 l
-3 -12 l
0 -7 l
3 -12 l
2 -5 l
2 -3 l
5 -2 l
5 0 m 5 2 l
2 3 l
3 5 l
2 12 l
0 7 l
-2 12 l
-3 5 l
-2 2 l
-5 3 l
43 43 m 0 26 l
100 -26 m 0 26 l
100 -26 m 0 26 l
100 -26 m 0 26 l
101 -26 m 0 52 l
-56 -146 m 10 22 m 43 0 l
22 29 m -5 -25 l
5 5 l
7 3 l
7 0 l
8 -3 l
4 -5 l
3 -7 l
0 -5 l
-3 -7 l
-4 -5 l
-8 -2 l
-7 0 l
-7 2 l
-2 3 l
-3 5 l
0 2 l
3 2 l
2 -2 l
-2 -2 l
16 24 m 5 -3 l
5 -5 l
2 -7 l
0 -5 l
-2 -7 l
-5 -5 l
-5 -2 l
-14 51 m 24 0 l
-24 -3 m 12 0 l
12 3 l
57 43 m 0 26 l
100 -26 m 0 26 l
101 -26 m 0 26 l
100 -26 m 0 26 l
100 -26 m 0 52 l
-24 -146 m 22 51 m -7 -3 l
-5 -7 l
-3 -12 l
0 -7 l
3 -12 l
5 -8 l
7 -2 l
5 0 l
7 2 l
5 8 l
2 12 l
0 7 l
-2 12 l
-5 7 l
-7 3 l
-5 0 l
-5 -3 l
-2 -2 l
-3 -5 l
-2 -12 l
0 -7 l
2 -12 l
3 -5 l
2 -3 l
5 -2 l
5 0 m 4 2 l
3 3 l
2 5 l
3 12 l
0 7 l
-3 12 l
-2 5 l
-3 2 l
-4 3 l
97 43 m 0 26 l
101 -26 m 0 26 l
100 -26 m 0 26 l
100 -26 m 0 26 l
101 -26 m 0 52 l
-24 -146 m 12 51 m -5 -25 l
5 5 l
7 3 l
7 0 l
7 -3 l
5 -5 l
2 -7 l
0 -5 l
-2 -7 l
-5 -5 l
-7 -2 l
-7 0 l
-7 2 l
-3 3 l
-2 5 l
0 2 l
2 2 l
3 -2 l
-3 -2 l
17 24 m 5 -3 l
5 -5 l
2 -7 l
0 -5 l
-2 -7 l
-5 -5 l
-5 -2 l
-14 51 m 24 0 l
-24 -3 m 12 0 l
12 3 l
88 43 m 0 26 l
100 -26 m 0 26 l
100 -26 m 0 26 l
101 -26 m 0 26 l
100 -26 m 0 52 l
-48 -146 m 14 41 m 5 2 l
7 8 l
0 -51 l
-2 48 m 0 -48 l
-10 0 m 22 0 l
34 51 m -8 -3 l
-4 -7 l
-3 -12 l
0 -7 l
3 -12 l
4 -8 l
8 -2 l
5 0 l
7 2 l
5 8 l
2 12 l
0 7 l
-2 12 l
-5 7 l
-7 3 l
-5 0 l
-5 -3 l
-3 -2 l
-2 -5 l
-2 -12 l
0 -7 l
2 -12 l
2 -5 l
3 -3 l
CS M
5 -2 l
5 0 m 4 2 l
3 3 l
2 5 l
3 12 l
0 7 l
-3 12 l
-2 5 l
-3 2 l
-4 3 l
255 2261 M 2006 0 l
255 2261 M 0 -51 l
101 51 m 0 -26 l
100 26 m 0 -26 l
100 26 m 0 -26 l
100 26 m 0 -26 l
101 26 m 0 -51 l
100 51 m 0 -26 l
100 26 m 0 -26 l
101 26 m 0 -26 l
100 26 m 0 -26 l
100 26 m 0 -51 l
100 51 m 0 -26 l
101 26 m 0 -26 l
100 26 m 0 -26 l
100 26 m 0 -26 l
101 26 m 0 -51 l
100 51 m 0 -26 l
100 26 m 0 -26 l
100 26 m 0 -26 l
101 26 m 0 -26 l
100 26 m 0 -51 l
255 255 M 0 2006 l
255 255 M 52 0 l
101 230 M 9 22 m 44 0 l
24 19 m 5 2 l
7 8 l
0 -51 l
-3 48 m 0 -48 l
-9 0 m 21 0 l
56 126 m 26 0 l
-26 100 m 26 0 l
-26 100 m 26 0 l
-26 100 m 26 0 l
-26 101 m 52 0 l
29 731 M 9 22 m 44 0 l
31 29 m -7 -2 l
-5 -8 l
-3 -12 l
0 -7 l
3 -12 l
5 -7 l
7 -3 l
5 0 l
7 3 l
5 7 l
2 12 l
0 7 l
-2 12 l
-5 8 l
-7 2 l
-5 0 l
-5 -2 l
-2 -3 l
-3 -5 l
-2 -12 l
0 -7 l
2 -12 l
3 -5 l
2 -2 l
5 -3 l
5 0 m 4 3 l
3 2 l
2 5 l
3 12 l
0 7 l
-3 12 l
-2 5 l
-3 3 l
-4 2 l
33 -46 m -2 -2 l
2 -3 l
3 3 l
-3 2 l
24 46 m -4 -24 l
4 5 l
8 2 l
7 0 l
7 -2 l
5 -5 l
2 -7 l
0 -5 l
-2 -7 l
-5 -5 l
-7 -3 l
-7 0 l
-8 3 l
-2 2 l
-2 5 l
0 3 l
2 2 l
2 -2 l
-2 -3 l
17 24 m 5 -2 l
4 -5 l
3 -7 l
0 -5 l
-3 -7 l
-4 -5 l
-5 -3 l
-15 51 m 24 0 l
-24 -2 m 12 0 l
12 2 l
56 75 m 26 0 l
-26 100 m 26 0 l
-26 101 m 26 0 l
-26 100 m 26 0 l
-26 100 m 52 0 l
-144 -25 m 22 50 m -7 -2 l
-5 -7 l
-2 -12 l
0 -7 l
2 -12 l
5 -8 l
7 -2 l
5 0 l
7 2 l
5 8 l
2 12 l
0 7 l
-2 12 l
-5 7 l
-7 2 l
-5 0 l
-5 -2 l
-2 -2 l
-3 -5 l
-2 -12 l
0 -7 l
2 -12 l
3 -5 l
2 -3 l
5 -2 l
5 0 m 5 2 l
2 3 l
2 5 l
3 12 l
0 7 l
-3 12 l
-2 5 l
-2 2 l
-5 2 l
65 75 m 26 0 l
-26 101 m 26 0 l
-26 100 m 26 0 l
-26 100 m 26 0 l
-26 101 m 52 0 l
91 1734 M 22 51 m -7 -3 l
-5 -7 l
-3 -12 l
0 -7 l
3 -12 l
5 -7 l
7 -3 l
5 0 l
7 3 l
5 7 l
2 12 l
0 7 l
-2 12 l
-5 7 l
-7 3 l
-5 0 l
-5 -3 l
-2 -2 l
-3 -5 l
-2 -12 l
0 -7 l
2 -12 l
3 -5 l
2 -2 l
5 -3 l
5 0 m 4 3 l
3 2 l
2 5 l
3 12 l
0 7 l
-3 12 l
-2 5 l
-3 2 l
-4 3 l
33 -46 m -2 -2 l
2 -3 l
3 3 l
-3 2 l
24 46 m -4 -24 l
4 5 l
8 2 l
7 0 l
7 -2 l
5 -5 l
2 -7 l
0 -5 l
-2 -7 l
-5 -5 l
-7 -3 l
-7 0 l
-8 3 l
-2 2 l
-2 5 l
0 2 l
2 3 l
2 -3 l
-2 -2 l
17 24 m 5 -2 l
4 -5 l
3 -7 l
0 -5 l
-3 -7 l
-4 -5 l
-5 -3 l
-15 51 m 24 0 l
-24 -3 m 12 0 l
12 3 l
56 75 m 26 0 l
-26 100 m 26 0 l
-26 100 m 26 0 l
-26 101 m 26 0 l
-26 100 m 52 0 l
-144 -25 m 15 41 m 5 2 l
7 7 l
0 -50 l
-3 48 m 0 -48 l
-9 0 m 21 0 l
2261 255 M 0 2006 l
2261 255 M -51 0 l
51 101 m -26 0 l
26 100 m -26 0 l
26 100 m -26 0 l
26 100 m -26 0 l
26 101 m -51 0 l
51 100 m -26 0 l
26 100 m -26 0 l
26 101 m -26 0 l
26 100 m -26 0 l
26 100 m -51 0 l
51 100 m -26 0 l
26 101 m -26 0 l
26 100 m -26 0 l
26 100 m -26 0 l
26 101 m -51 0 l
51 100 m -26 0 l
26 100 m -26 0 l
26 100 m -26 0 l
26 101 m -26 0 l
26 100 m -51 0 l
CS [] 0 setdash M
CS [] 0 setdash M
1170 74 M 10 42 m 0 -42 l
2 42 m 0 -42 l
-8 42 m 24 0 l
6 -1 l
2 -3 l
2 -4 l
0 -4 l
-2 -4 l
-2 -2 l
-6 -2 l
-16 0 l
16 20 m 4 -1 l
2 -3 l
2 -4 l
0 -4 l
-2 -4 l
-2 -2 l
-4 -2 l
-24 -22 m 14 0 l
4 22 m 4 -2 l
2 -2 l
6 -14 l
2 -2 l
2 0 l
2 2 l
-14 16 m 2 -4 l
4 -14 l
2 -2 l
4 0 l
2 4 l
0 2 l
12 10 m 24 0 l
0 4 l
-2 4 l
-2 2 l
-4 2 l
-6 0 l
-6 -2 l
-4 -4 l
-2 -6 l
0 -4 l
2 -6 l
4 -4 l
6 -2 l
CS M
4 0 l
6 2 l
4 4 l
-2 10 m 0 6 l
-2 4 l
-10 2 m -4 -2 l
-4 -4 l
-2 -6 l
0 -4 l
2 -6 l
4 -4 l
4 -2 l
42 51 m -4 -5 l
-4 -5 l
-4 -9 l
-2 -10 l
0 -8 l
2 -10 l
4 -8 l
4 -6 l
4 -4 l
-4 60 m -4 -8 l
-2 -6 l
-2 -10 l
0 -8 l
2 -10 l
2 -6 l
4 -8 l
18 38 m 12 -28 l
-10 28 m 10 -24 l
12 24 m -12 -28 l
-4 -8 l
-4 -4 l
-4 -2 l
-2 0 l
-2 2 l
2 2 l
2 -2 l
-4 40 m 12 0 l
8 0 m 12 0 l
8 23 m 4 -5 l
4 -5 l
4 -9 l
2 -10 l
0 -8 l
-2 -10 l
-4 -8 l
-4 -6 l
-4 -4 l
4 60 m 4 -8 l
2 -6 l
2 -10 l
0 -8 l
-2 -10 l
-2 -6 l
-4 -8 l
CS [] 0 setdash M
CS [] 0 setdash M
57 1167 M 15 1177 M 42 0 l
15 1179 M 42 0 l
15 1171 M 0 14 l
42 -14 m 0 14 l
-28 14 m 28 0 l
-28 2 m 28 0 l
-22 0 m -4 4 l
-2 6 l
0 4 l
2 6 l
4 2 l
22 0 l
-28 -8 m 2 4 l
4 2 l
22 0 l
-22 2 m -4 4 l
-2 6 l
0 4 l
2 6 l
4 2 l
22 0 l
-28 -8 m 2 4 l
4 2 l
22 0 l
-28 -50 m 0 8 l
28 -8 m 0 14 l
0 8 m 0 14 l
0 8 m 0 14 l
7 1277 M 4 -4 l
6 -4 l
8 -4 l
10 -2 l
8 0 l
10 2 l
8 4 l
6 4 l
4 4 l
11 1273 M 8 -4 l
6 -2 l
10 -2 l
8 0 l
10 2 l
6 2 l
8 4 l
29 1291 M 28 12 l
-28 -10 m 24 10 l
-24 12 m 28 -12 l
8 -4 l
4 -4 l
2 -4 l
0 -2 l
-2 -2 l
-2 2 l
2 2 l
29 1287 M 0 12 l
0 8 m 0 12 l
7 1327 M 4 4 l
6 4 l
8 4 l
10 2 l
8 0 l
10 -2 l
8 -4 l
6 -4 l
4 -4 l
11 1331 M 8 4 l
6 2 l
10 2 l
8 0 l
10 -2 l
6 -2 l
8 -4 l
CS [] 0 setdash M
stroke
grestore
showpage
end
