%!PS-Adobe-2.0 EPSF-2.0
%%Creator: SM
%%BoundingBox: 18 144 592 718
%%DocumentFonts: Helvetica
%%EndComments
 20 dict begin
72 300 div dup scale
1 setlinejoin 0 setlinecap
/Helvetica findfont 55 scalefont setfont 
/B {CS newpath moveto} def
/F {moveto 0 setlinecap} def
/C {CS M 1 1 3 {pop 3 1 roll 255 div} for SET_COLOUR} def
/CS {currentpoint stroke} def
/CF {currentpoint eofill} def
/L {lineto} def /l {rlineto} def /M {moveto} def /m {rmoveto} def
/P {currentpoint 0 1 rlineto stroke moveto} def
/T {currentlinecap exch 1 setlinecap show setlinecap} def
errordict /nocurrentpoint {pop 0 0 M currentpoint} put
/SET_COLOUR statusdict begin /processcolors where
  {pop processcolors 1 gt} {false} ifelse
  {(setrgbcolor)} {(pop pop pop)} ifelse cvx end def
 80 600 translate
gsave
CS [] 0 setdash M
CS M 1 100 mul 72 div dup setlinewidth
/P [ /currentpoint cvx 0 5 -1 roll .05 add dup -2 div 0 exch /rmoveto cvx /rlineto cvx /stroke cvx /moveto cvx ] cvx def
 0 0 0 C
CS M 4 100 mul 72 div dup setlinewidth
/P [ /currentpoint cvx 0 5 -1 roll .05 add dup -2 div 0 exch /rmoveto cvx /rlineto cvx /stroke cvx /moveto cvx ] cvx def
 0 0 255 C
1217 1027 M 1 0 l
2 0 l
-3 0 m -7 11 l
10 -11 m 8 4 l
3 7 l
-25 10 m 2 -7 l
2 -3 m -2 3 l
23 -3 m 4 10 l
-29 0 m -3 10 l
32 -10 m 3 8 l
0 2 l
-35 0 m -3 10 l
38 -10 m 2 10 l
-43 10 m 1 -4 l
2 -6 m -2 6 l
42 -6 m 2 10 l
-45 0 m -2 10 l
47 -10 m 2 10 l
-49 0 m -2 10 l
51 -10 m 2 10 l
-53 0 m -2 10 l
55 -10 m 2 10 l
-57 0 m -1 10 l
26 0 m 2 -4 l
8 4 l
22 -10 m 0 3 l
1 7 l
-61 10 m 0 -1 l
2 -9 m -2 9 l
28 -9 m -7 10 l
17 -10 m 2 1 l
3 9 l
18 -10 m 1 10 l
-62 0 m -2 10 l
20 0 m 2 -8 l
1 -2 m -1 2 l
23 -2 m 4 10 l
15 -10 m 1 10 l
-65 0 m -1 10 l
21 -10 m -3 10 l
32 -10 m 3 9 l
0 1 l
13 -10 m 1 10 l
-67 0 m -1 10 l
19 -10 m -3 10 l
38 -10 m 2 10 l
12 -10 m 1 10 l
-69 0 m -2 10 l
15 0 m 1 -4 l
2 -6 m -2 6 l
42 -6 m 2 10 l
11 -10 m 1 10 l
-72 0 m -1 10 l
16 -10 m -2 10 l
47 -10 m 1 10 l
11 -10 m 1 10 l
-74 0 m -1 10 l
15 -10 m -1 10 l
49 -10 m 2 10 l
10 -10 m 0 10 l
-75 0 m -1 10 l
15 -10 m -2 10 l
21 0 m 5 -9 l
10 4 l
2 5 l
15 -10 m 1 10 l
9 -10 m 1 10 l
-79 10 m 1 -4 l
1 -6 m -1 6 l
14 -6 m -2 10 l
17 0 m 1 -2 l
5 -8 m -5 8 l
22 -8 m 4 10 l
12 -10 m 2 10 l
8 -10 m 0 10 l
-79 0 m -1 10 l
14 -10 m -2 10 l
19 -10 m -2 10 l
29 -10 m 3 10 l
11 -10 m 0 1 l
1 9 l
7 -10 m 1 10 l
-81 0 m -1 10 l
12 0 m 1 -7 l
0 -3 m 0 3 l
17 -3 m -3 10 l
35 -10 m 1 3 l
1 7 l
10 -10 m 1 10 l
7 -10 m 0 10 l
-82 0 m -1 10 l
13 -10 m -1 10 l
16 -10 m -3 10 l
40 -10 m 2 10 l
9 -10 m 1 10 l
6 -10 m 1 10 l
-84 0 m -1 10 l
13 -10 m -2 10 l
13 0 m 1 -4 l
1 -6 m -1 6 l
43 -6 m 2 10 l
8 -10 m 0 10 l
7 -10 m 0 10 l
-85 0 m 3 10 l
8 -10 m 4 7 l
9 -7 m 1 1 l
-10 6 m 2 3 l
8 -9 m 10 8 l
3 1 l
25 0 m 2 -1 l
5 -9 m -5 9 l
13 -9 m -1 10 l
8 -10 m 0 10 l
-82 0 m -3 10 l
11 0 m 4 -7 l
9 7 m 1 -1 l
-8 -9 m -2 3 l
10 6 m 10 -8 l
3 -1 m -3 1 l
28 -1 m 2 1 l
5 9 l
7 -10 m 1 10 l
7 -10 m 0 10 l
-85 0 m 1 10 l
10 -10 m 2 10 l
11 -10 m 1 4 l
1 6 l
44 -10 m -2 10 l
10 -10 m 0 10 l
7 -10 m 0 10 l
-84 0 m 1 10 l
11 -10 m 1 10 l
12 -10 m 3 10 l
39 -10 m -2 10 l
12 -10 m -1 10 l
8 -10 m -1 10 l
-82 0 m 1 10 l
11 -10 m 1 7 l
0 3 l
14 -10 m 3 10 l
32 0 m 1 -2 l
1 -8 m -1 8 l
12 -8 m -1 10 l
8 -10 m 0 10 l
-81 0 m 1 10 l
11 -10 m 2 10 l
15 -10 m 2 10 l
30 -10 m -3 10 l
14 0 m 0 -1 l
1 -9 m -1 9 l
9 -9 m -1 10 l
-79 0 m 1 5 l
1 5 l
11 -10 m 2 10 l
15 -10 m 1 2 l
5 8 l
21 -10 m -4 10 l
18 -10 m -2 10 l
10 -10 m 0 10 l
-77 0 m 1 10 l
12 -10 m 2 10 l
19 -10 m 5 9 l
10 -3 l
2 -6 m -2 6 l
18 -6 m -1 10 l
11 -10 m -1 10 l
-75 0 m 1 10 l
13 -10 m 1 10 l
50 -10 m -2 10 l
12 -10 m 0 10 l
-74 0 m 1 10 l
13 -10 m 2 10 l
46 -10 m -1 10 l
13 -10 m -1 10 l
-72 0 m 2 10 l
13 -10 m 1 4 l
2 6 l
42 -10 m -2 10 l
14 -10 m -1 10 l
-69 0 m 1 10 l
15 -10 m 3 10 l
37 -10 m -2 10 l
15 -10 m -1 10 l
-67 0 m 1 11 l
17 -11 m 3 11 l
29 0 m 3 -9 l
0 -2 m 0 2 l
14 -2 m -1 11 l
-65 0 m 2 10 l
18 -10 m 2 8 l
1 2 l
26 -10 m -4 10 l
20 -10 m -1 10 l
-62 0 m 0 1 l
2 9 l
19 -10 m 7 10 l
10 0 m 2 -2 l
3 -8 m -3 8 l
22 -8 m -1 10 l
-59 0 m 1 10 l
25 -10 m 2 3 l
8 -3 m -8 3 l
30 7 m 0 -3 l
1 -7 m -1 7 l
-57 3 m 2 10 l
55 -10 m -2 10 l
-53 0 m 2 10 l
51 -10 m -2 10 l
-49 0 m 2 10 l
47 -10 m -2 10 l
-45 0 m 1 3 l
2 7 l
42 -10 m -2 10 l
-40 0 m 3 10 l
37 -10 m -2 10 l
-35 0 m 3 10 l
29 0 m 3 -9 l
0 -1 m 0 1 l
-32 9 m 2 6 l
2 4 l
25 -10 m -4 10 l
-21 0 m 7 10 l
3 0 m 8 -3 l
3 -7 m -3 7 l
-11 3 m 1 1 l
2 -1 m -2 1 l
 255 0 0 C
510 255 M -1 10 l
238 -10 m -7 10 l
80 -10 m 7 10 l
0 0 l
107 -10 m 2 10 l
47 -10 m 1 10 l
35 -10 m 0 10 l
30 -10 m 0 10 l
27 -10 m 0 10 l
27 -10 m -1 10 l
27 -10 m 0 10 l
29 0 m 0 -2 l
1 -8 m -1 8 l
40 2 m 0 -2 l
2 -8 m -2 8 l
106 -8 m 1 10 l
90 -10 m 1 10 l
128 -10 m 0 10 l
249 -10 m 0 10 l
509 265 M -1 10 l
227 0 m 2 -4 l
3 -6 m -3 6 l
90 -6 m 6 10 l
103 -10 m 1 10 l
47 -10 m 0 10 l
35 -10 m 1 10 l
29 -10 m 0 10 l
27 -10 m 0 10 l
26 -10 m 0 10 l
27 -10 m -1 10 l
30 -10 m -1 10 l
41 -10 m -2 10 l
109 -10 m 2 10 l
89 -10 m 1 10 l
127 -10 m 1 10 l
248 -10 m 0 10 l
508 275 M -1 10 l
228 -10 m -5 10 l
103 -10 m 4 8 l
1 2 l
99 -10 m 0 3 l
1 7 l
46 -10 m 1 10 l
35 -10 m 0 10 l
29 -10 m 1 10 l
26 -10 m 0 10 l
26 -10 m 0 10 l
26 0 m 0 -3 l
0 -7 m 0 7 l
29 -7 m -1 10 l
40 -10 m -2 10 l
113 -10 m 1 5 l
1 5 l
88 -10 m 0 10 l
128 -10 m 0 10 l
248 -10 m 0 10 l
506 295 M 0 -1 l
1 -9 m -1 9 l
219 1 m 2 -3 l
3 -7 m -3 7 l
111 -7 m 4 10 l
96 -10 m 1 10 l
46 -10 m 1 10 l
34 -10 m 0 10 l
30 -10 m 0 10 l
26 -10 m 0 10 l
26 -10 m 0 10 l
26 -10 m -1 10 l
29 -10 m -1 10 l
39 -10 m -2 10 l
117 -10 m 2 10 l
86 -10 m 1 10 l
127 -10 m 1 10 l
247 -10 m 1 10 l
CS M
506 295 M -1 10 l
220 -10 m -4 10 l
121 -10 m 5 10 l
0 0 l
92 -10 m 1 10 l
46 -10 m 0 10 l
34 -10 m 1 10 l
29 -10 m 0 10 l
26 -10 m 0 10 l
26 -10 m -1 10 l
26 -10 m 0 10 l
28 -10 m -1 10 l
38 -10 m -2 10 l
121 -10 m 2 10 l
85 -10 m 1 4 l
0 6 l
127 -10 m 0 10 l
248 -10 m 0 10 l
505 305 M -1 10 l
217 -10 m -4 10 l
130 -10 m 4 10 l
89 -10 m 2 10 l
44 -10 m 1 10 l
34 -10 m 0 10 l
29 -10 m 0 10 l
26 -10 m 0 10 l
25 -10 m 0 10 l
26 -10 m -1 10 l
28 -10 m -1 10 l
37 -10 m -1 10 l
124 -10 m 1 10 l
85 -10 m 1 10 l
126 -10 m 0 10 l
248 -10 m 0 10 l
504 315 M -1 10 l
211 0 m 3 -7 l
0 -3 m 0 3 l
134 -3 m 4 10 l
87 -10 m 1 10 l
44 -10 m 0 3 l
1 7 l
33 -10 m 1 10 l
28 -10 m 0 10 l
26 -10 m 0 10 l
25 -10 m 0 10 l
25 -10 m 0 10 l
27 -10 m 0 10 l
34 0 m 1 -6 l
1 -4 m -1 4 l
126 -4 m 2 10 l
84 -10 m 1 10 l
125 -10 m 1 10 l
247 -10 m 1 10 l
503 325 M -1 11 l
212 -11 m -4 11 l
145 -11 m 2 6 l
1 5 l
85 -11 m 1 11 l
44 -11 m 1 11 l
33 -11 m 0 11 l
28 -11 m 1 11 l
25 -11 m 0 11 l
25 -11 m 0 11 l
25 -11 m -1 11 l
28 -11 m -1 11 l
35 -11 m -1 11 l
130 -11 m 1 11 l
84 -11 m 0 11 l
126 -11 m 0 11 l
248 -11 m 0 11 l
502 336 M -1 10 l
209 -10 m -3 10 l
151 -10 m 4 10 l
82 -10 m 1 10 l
44 -10 m 0 10 l
33 -10 m 0 10 l
29 -10 m 0 10 l
25 -10 m 0 10 l
25 -10 m -1 10 l
25 -10 m 0 10 l
27 -10 m -1 10 l
35 -10 m -2 10 l
133 -10 m 1 6 l
1 4 l
82 -10 m 1 10 l
125 -10 m 1 10 l
247 -10 m 0 10 l
501 346 M -1 10 l
204 0 m 3 -9 l
0 -1 m 0 1 l
155 -1 m 3 10 l
80 -10 m 1 10 l
43 -10 m 1 10 l
32 -10 m 1 10 l
28 -10 m 0 10 l
25 -10 m 0 10 l
24 -10 m 0 10 l
25 -10 m -1 10 l
27 -10 m -1 10 l
34 -10 m -1 10 l
136 -10 m 1 10 l
82 -10 m 1 10 l
125 -10 m 0 10 l
247 -10 m 0 10 l
500 356 M -1 10 l
205 -10 m -3 10 l
164 -10 m 2 6 l
1 4 l
78 -10 m 1 7 l
0 3 l
43 -10 m 0 10 l
33 -10 m 0 10 l
28 -10 m 0 10 l
25 -10 m 0 10 l
24 -10 m 0 10 l
24 -10 m 0 10 l
26 -10 m 0 10 l
33 -10 m -2 10 l
139 -10 m 1 10 l
82 -10 m 1 10 l
124 -10 m 1 10 l
246 -10 m 1 10 l
499 366 M -1 10 l
203 -10 m -3 10 l
170 -10 m 3 10 l
76 -10 m 2 10 l
41 -10 m 1 10 l
32 -10 m 1 10 l
27 -10 m 0 10 l
25 -10 m 0 10 l
24 -10 m 0 10 l
24 -10 m 0 10 l
26 -10 m -1 10 l
32 -10 m -1 10 l
141 -10 m 2 10 l
81 -10 m 0 10 l
125 -10 m 0 5 l
0 5 l
247 -10 m 0 10 l
498 376 M 0 10 l
198 0 m 1 -4 l
1 -6 m -1 6 l
174 -6 m 3 10 l
75 -10 m 1 10 l
41 -10 m 1 10 l
32 -10 m 0 10 l
27 -10 m 0 10 l
25 -10 m 0 10 l
24 -10 m 0 10 l
24 -10 m -1 10 l
26 -10 m -1 10 l
32 -10 m -2 10 l
145 -10 m 1 10 l
80 -10 m 1 10 l
124 -10 m 1 10 l
246 -10 m 0 10 l
498 386 M -1 10 l
199 -10 m -3 10 l
181 -10 m 3 10 l
0 0 l
73 -10 m 1 10 l
41 -10 m 1 10 l
31 -10 m 0 10 l
27 -10 m 1 10 l
24 -10 m 0 10 l
24 -10 m 0 10 l
23 -10 m 0 10 l
24 0 m 1 -7 l
0 -3 m 0 3 l
29 7 m 1 -8 l
0 -2 m 0 2 l
146 -2 m 1 10 l
80 -10 m 1 10 l
124 -10 m 0 10 l
246 -10 m 0 10 l
496 406 M 0 -1 l
1 -9 m -1 9 l
197 -9 m -3 10 l
187 -10 m 3 10 l
71 -10 m 1 10 l
41 -10 m 0 10 l
31 -10 m 1 10 l
27 -10 m 0 10 l
24 -10 m 0 10 l
24 -10 m -1 10 l
24 -10 m -1 10 l
25 -10 m 0 10 l
30 -10 m -1 10 l
149 -10 m 2 10 l
79 -10 m 0 10 l
124 -10 m 0 10 l
246 -10 m 1 10 l
496 406 M -1 10 l
195 -10 m -2 10 l
192 -10 m 2 10 l
70 -10 m 1 10 l
40 -10 m 1 10 l
31 -10 m 0 10 l
27 -10 m 0 10 l
24 -10 m 0 10 l
23 -10 m 0 10 l
23 -10 m 0 10 l
25 -10 m -1 10 l
30 -10 m -1 10 l
152 -10 m 1 10 l
78 -10 m 1 10 l
123 -10 m 1 10 l
246 -10 m 0 10 l
495 416 M -1 10 l
192 0 m 0 -4 l
2 -6 m -2 6 l
196 -6 m 3 10 l
68 -10 m 1 10 l
40 -10 m 1 10 l
30 -10 m 1 10 l
26 -10 m 0 10 l
24 -10 m 0 10 l
23 -10 m 0 10 l
23 -10 m 0 10 l
24 -10 m -1 10 l
30 -10 m -2 10 l
56 0 m 9 -5 l
8 5 l
82 -10 m 0 5 l
1 5 l
78 -10 m 1 10 l
123 -10 m 0 10 l
246 -10 m 0 10 l
494 426 M -1 10 l
193 -10 m -3 10 l
202 -10 m 2 8 l
1 2 l
66 -10 m 1 10 l
40 -10 m 0 10 l
31 -10 m 0 10 l
26 -10 m 0 10 l
24 -10 m 0 10 l
23 -10 m 0 10 l
23 -10 m -1 10 l
24 -10 m 0 10 l
28 -10 m -1 10 l
50 0 m 6 -10 l
1 0 m -1 0 l
18 0 m 2 1 l
5 9 l
76 -10 m 1 10 l
78 -10 m 0 10 l
123 -10 m 1 10 l
245 -10 m 0 10 l
493 436 M -1 10 l
191 -10 m -2 10 l
207 -10 m 2 10 l
65 -10 m 1 10 l
39 -10 m 1 10 l
30 -10 m 1 10 l
25 -10 m 1 10 l
23 -10 m 0 10 l
23 -10 m 0 10 l
22 -10 m 0 10 l
24 -10 m -1 10 l
28 -10 m -1 10 l
46 0 m 1 -4 l
4 -6 m -4 6 l
35 -6 m 5 8 l
1 2 l
71 -10 m 1 10 l
77 -10 m 1 4 l
0 6 l
123 -10 m 0 10 l
245 -10 m 1 10 l
492 446 M 0 10 l
189 -10 m -2 10 l
211 -10 m 2 10 l
64 -10 m 1 8 l
0 2 l
39 -10 m 1 10 l
30 -10 m 0 10 l
26 -10 m 0 10 l
23 -10 m 0 10 l
23 -10 m -1 10 l
23 -10 m -1 10 l
24 -10 m -1 10 l
28 -10 m -1 10 l
47 -10 m -4 10 l
46 -10 m 3 10 l
69 -10 m 1 10 l
77 -10 m 1 10 l
122 -10 m 0 10 l
246 -10 m 0 10 l
492 456 M -1 10 l
188 -10 m -2 10 l
215 -10 m 3 10 l
62 -10 m 1 10 l
39 -10 m 0 10 l
30 -10 m 0 10 l
26 -10 m 0 10 l
23 -10 m 0 10 l
22 -10 m 0 10 l
22 -10 m 0 10 l
23 -10 m 0 10 l
CS M
27 -10 m -1 10 l
44 -10 m -4 10 l
53 -10 m 4 10 l
66 -10 m 1 10 l
77 -10 m 0 10 l
122 -10 m 1 10 l
245 -10 m 0 10 l
491 466 M -1 10 l
185 0 m 1 -9 l
1 -1 m -1 1 l
219 -1 m 2 10 l
0 0 l
61 -10 m 2 10 l
37 -10 m 0 1 l
1 9 l
29 -10 m 0 3 l
1 7 l
25 -10 m 0 10 l
23 -10 m 0 10 l
22 -10 m 0 10 l
22 -10 m 0 10 l
23 -10 m -1 10 l
26 0 m 0 -3 l
1 -7 m -1 7 l
38 3 m 2 -7 l
1 -3 m -1 3 l
58 -3 m 2 7 l
1 3 l
64 -10 m 1 10 l
76 -10 m 1 10 l
122 -10 m 0 10 l
245 -10 m 0 10 l
490 476 M -1 10 l
186 -10 m -2 10 l
224 -10 m 2 10 l
61 -10 m 1 10 l
37 -10 m 1 10 l
29 -10 m 0 10 l
25 -10 m 0 10 l
23 -10 m 0 10 l
22 -10 m 0 10 l
22 -10 m -1 10 l
23 -10 m -1 10 l
27 -10 m -2 10 l
40 -10 m -3 10 l
66 -10 m 2 10 l
63 -10 m 1 10 l
76 -10 m 0 10 l
122 -10 m 1 10 l
244 -10 m 1 10 l
489 486 M -1 10 l
185 -10 m -2 10 l
228 -10 m 2 10 l
60 -10 m 1 10 l
37 -10 m 0 10 l
29 -10 m 1 10 l
24 -10 m 1 10 l
22 -10 m 0 10 l
22 -10 m 0 10 l
21 -10 m 0 10 l
22 -10 m 0 10 l
25 -10 m 0 10 l
37 -10 m -2 10 l
70 -10 m 3 10 l
61 -10 m 1 10 l
75 -10 m 1 10 l
122 -10 m 0 10 l
245 -10 m 0 10 l
488 496 M 0 10 l
183 -10 m -2 10 l
232 -10 m 3 10 l
58 -10 m 1 10 l
36 -10 m 1 10 l
29 -10 m 0 10 l
25 -10 m 0 10 l
22 -10 m 0 10 l
22 0 m 0 -3 l
0 -7 m 0 7 l
21 -7 m 0 10 l
22 -10 m -1 10 l
26 -10 m -1 10 l
36 -10 m -3 10 l
76 -10 m 2 10 l
60 -10 m 1 10 l
75 -10 m 0 10 l
122 -10 m 0 10 l
245 -10 m 0 10 l
488 506 M -1 10 l
182 -10 m -2 10 l
237 -10 m 2 10 l
57 -10 m 1 10 l
36 -10 m 0 10 l
29 -10 m 0 10 l
25 -10 m 0 10 l
22 -10 m 0 10 l
22 -10 m -1 10 l
22 -10 m -1 10 l
22 -10 m 0 10 l
25 -10 m -1 10 l
32 0 m 2 -9 l
0 -1 m 0 1 l
78 -1 m 2 10 l
0 0 l
59 -10 m 1 10 l
74 -10 m 1 10 l
121 -10 m 1 10 l
244 -10 m 0 10 l
487 516 M -1 10 l
179 0 m 1 -8 l
1 -2 m -1 2 l
240 -2 m 1 6 l
1 4 l
56 -10 m 1 10 l
35 -10 m 1 10 l
28 -10 m 1 10 l
24 -10 m 0 10 l
22 -10 m 0 10 l
21 -10 m 0 10 l
21 -10 m 0 10 l
22 -10 m -1 10 l
25 -10 m -1 10 l
33 -10 m -2 10 l
84 -10 m 2 10 l
58 -10 m 0 6 l
1 4 l
74 -10 m 1 10 l
121 -10 m 0 10 l
244 -10 m 1 10 l
485 536 M 1 -7 l
0 -3 m 0 3 l
179 -3 m -2 10 l
245 -10 m 2 10 l
55 -10 m 1 10 l
35 -10 m 1 10 l
28 -10 m 0 10 l
24 -10 m 0 10 l
22 -10 m 0 10 l
21 -10 m 0 10 l
21 0 m 0 -6 l
0 -4 m 0 4 l
21 -4 m -1 10 l
25 -10 m -1 10 l
32 -10 m -2 10 l
88 -10 m 2 10 l
57 -10 m 1 10 l
74 -10 m 0 10 l
121 -10 m 0 10 l
245 -10 m 0 10 l
485 536 M 0 10 l
178 -10 m -2 10 l
249 -10 m 2 10 l
54 -10 m 1 10 l
35 -10 m 0 10 l
28 -10 m 1 10 l
23 -10 m 1 10 l
21 -10 m 0 10 l
21 -10 m 0 10 l
21 -10 m -1 10 l
21 -10 m 0 10 l
24 -10 m -1 10 l
31 -10 m -2 10 l
92 -10 m 2 10 l
56 -10 m 0 10 l
74 -10 m 1 10 l
120 -10 m 1 10 l
244 -10 m 0 0 l
0 10 l
485 546 M -1 10 l
177 -10 m -1 10 l
252 -10 m 2 10 l
53 -10 m 0 4 l
1 6 l
34 -10 m 1 10 l
28 -10 m 0 10 l
24 -10 m 0 10 l
21 -10 m 0 10 l
21 -10 m 0 10 l
20 -10 m 0 10 l
20 0 m 1 -9 l
0 -1 m 0 1 l
23 -1 m -1 10 l
30 -10 m -2 10 l
96 -10 m 1 10 l
55 -10 m 1 10 l
74 -10 m 0 10 l
121 -10 m 0 10 l
244 -10 m 0 10 l
484 556 M -1 10 l
177 -10 m -2 10 l
256 -10 m 2 10 l
52 -10 m 1 10 l
34 -10 m 1 10 l
27 -10 m 0 10 l
24 -10 m 0 10 l
21 -10 m 1 10 l
20 -10 m 0 10 l
20 -10 m 0 10 l
20 -10 m 0 10 l
23 -10 m -1 10 l
28 0 m 1 -8 l
0 -2 m 0 2 l
97 -2 m 2 10 l
54 -10 m 1 10 l
73 -10 m 1 10 l
120 -10 m 0 10 l
244 -10 m 0 10 l
483 566 M -1 10 l
174 0 m 0 -1 l
2 -9 m -2 9 l
260 -9 m 1 7 l
1 3 l
51 -10 m 1 10 l
34 -10 m 0 10 l
27 -10 m 1 10 l
23 -10 m 0 10 l
22 -10 m 0 10 l
20 -10 m 0 10 l
20 -10 m -1 10 l
21 -10 m -1 10 l
23 -10 m -1 10 l
29 -10 m -2 10 l
102 -10 m 1 9 l
0 1 l
54 -10 m 1 10 l
73 -10 m 0 10 l
120 -10 m 1 10 l
243 -10 m 1 10 l
482 576 M 0 10 l
174 -10 m -1 10 l
263 -10 m 1 10 l
51 -10 m 1 10 l
33 -10 m 1 10 l
27 -10 m 0 10 l
23 -10 m 0 10 l
22 -10 m 0 10 l
20 -10 m 0 10 l
19 -10 m 0 10 l
20 -10 m 0 10 l
21 0 m 1 -9 l
0 -1 m 0 1 l
27 -1 m -1 10 l
104 -10 m 2 10 l
53 -10 m 1 10 l
72 -10 m 1 10 l
120 -10 m 0 10 l
244 -10 m 0 10 l
482 586 M -1 10 l
174 -10 m -2 10 l
266 -10 m 2 10 l
50 -10 m 1 10 l
33 -10 m 1 10 l
26 -10 m 0 10 l
23 -10 m 1 10 l
21 -10 m 0 10 l
20 -10 m -1 10 l
20 -10 m 0 10 l
20 -10 m -1 10 l
22 -10 m -1 10 l
28 -10 m -2 10 l
108 -10 m 1 10 l
53 -10 m 0 10 l
73 -10 m 0 10 l
120 -10 m 0 10 l
244 -10 m 0 10 l
481 596 M -1 10 l
173 -10 m -2 10 l
270 -10 m 2 10 l
49 -10 m 1 10 l
33 -10 m 0 10 l
26 -10 m 1 10 l
23 -10 m 0 10 l
21 -10 m 0 10 l
19 -10 m 0 10 l
20 -10 m -1 10 l
20 -10 m 0 10 l
21 -10 m -1 10 l
27 -10 m -1 10 l
110 -10 m 2 10 l
51 -10 m 1 10 l
72 -10 m 1 10 l
119 -10 m 1 10 l
243 -10 m 0 10 l
480 606 M 0 10 l
171 -10 m -1 10 l
273 -10 m 2 10 l
48 -10 m 1 10 l
32 -10 m 1 10 l
26 -10 m 0 10 l
23 -10 m 0 10 l
21 -10 m 0 10 l
19 -10 m 0 10 l
19 -10 m 0 10 l
20 -10 m -1 10 l
21 -10 m 0 10 l
26 -10 m -2 10 l
114 -10 m 1 10 l
51 -10 m 1 10 l
72 -10 m 0 10 l
120 -10 m 0 10 l
243 -10 m 0 10 l
CS M
480 616 M -1 10 l
171 -10 m -2 10 l
277 -10 m 2 10 l
47 -10 m 1 10 l
32 -10 m 0 7 l
1 3 l
25 -10 m 1 10 l
22 -10 m 0 10 l
21 -10 m 0 10 l
19 -10 m 0 10 l
19 -10 m 0 10 l
19 -10 m 0 10 l
21 -10 m -1 10 l
24 0 m 0 -2 l
1 -8 m -1 8 l
116 -8 m 1 10 l
51 -10 m 1 10 l
71 -10 m 1 10 l
119 -10 m 0 10 l
243 -10 m 0 10 l
479 626 M -1 10 l
170 -10 m -1 10 l
280 -10 m 0 2 l
1 8 l
47 -10 m 1 10 l
32 -10 m 0 10 l
26 -10 m 0 10 l
22 -10 m 1 10 l
20 -10 m 0 10 l
19 -10 m 0 10 l
19 -10 m -1 10 l
20 -10 m -1 10 l
21 -10 m -1 10 l
25 -10 m -2 10 l
46 0 m 6 -5 l
10 5 l
0 0 l
57 -10 m 1 10 l
51 -10 m 0 10 l
72 -10 m 0 2 l
0 8 l
119 -10 m 1 10 l
242 -10 m 1 10 l
478 636 M 0 10 l
167 0 m 1 -7 l
1 -3 m -1 3 l
282 -3 m 2 10 l
46 -10 m 1 10 l
31 -10 m 1 10 l
25 -10 m 1 10 l
22 -10 m 0 10 l
20 -10 m 0 10 l
19 -10 m 0 10 l
18 -10 m 0 10 l
19 -10 m 0 10 l
20 -10 m -1 10 l
24 -10 m -1 10 l
40 0 m 3 -6 l
4 -4 m -4 4 l
20 -4 m 6 10 l
52 -10 m 1 10 l
50 -10 m 1 10 l
71 -10 m 0 10 l
120 -10 m 0 10 l
243 -10 m 0 10 l
478 646 M -1 10 l
168 -10 m -1 10 l
286 -10 m 2 10 l
45 -10 m 0 5 l
1 5 l
31 -10 m 0 10 l
26 -10 m 0 10 l
22 -10 m 0 10 l
20 -10 m 0 10 l
19 -10 m 0 10 l
18 -10 m 0 10 l
19 -10 m -1 10 l
20 -10 m 0 10 l
23 -10 m -1 10 l
41 -10 m -5 10 l
34 -10 m 4 9 l
1 1 l
48 -10 m 1 8 l
0 2 l
50 -10 m 0 9 l
1 1 l
70 -10 m 1 10 l
119 -10 m 0 4 l
0 6 l
243 -10 m 0 10 l
477 656 M -1 10 l
168 -10 m -1 10 l
289 -10 m 2 10 l
44 -10 m 1 10 l
30 -10 m 1 10 l
25 -10 m 0 10 l
22 -10 m 0 10 l
20 -10 m 0 10 l
19 -10 m 0 10 l
18 -10 m 0 10 l
18 -10 m 0 10 l
20 -10 m -1 10 l
23 -10 m -1 10 l
33 0 m 2 -6 l
2 -4 m -2 4 l
41 -4 m 3 10 l
46 -10 m 2 10 l
49 -10 m 0 10 l
71 -10 m 0 10 l
119 -10 m 0 10 l
243 -10 m 0 10 l
475 676 M 1 -6 l
0 -4 m 0 4 l
167 -4 m -2 10 l
293 -10 m 1 10 l
44 -10 m 1 10 l
30 -10 m 1 10 l
24 -10 m 1 10 l
21 -10 m 1 10 l
19 -10 m 0 10 l
19 -10 m 0 10 l
18 -10 m -1 10 l
19 -10 m -1 10 l
20 -10 m -1 10 l
23 -10 m -1 10 l
34 -10 m -3 10 l
49 -10 m 3 10 l
45 -10 m 1 10 l
48 -10 m 1 10 l
70 -10 m 1 10 l
118 -10 m 1 10 l
242 -10 m 0 10 l
475 676 M 0 10 l
166 -10 m -1 10 l
295 -10 m 2 10 l
43 -10 m 1 10 l
30 -10 m 0 10 l
25 -10 m 0 10 l
22 -10 m 0 2 l
0 8 l
19 -10 m 0 10 l
19 -10 m -1 10 l
18 -10 m 0 10 l
18 -10 m 0 10 l
19 -10 m -1 10 l
23 -10 m -2 10 l
33 -10 m -3 10 l
55 -10 m 3 10 l
43 -10 m 1 10 l
48 -10 m 0 10 l
71 -10 m 0 10 l
119 -10 m 0 10 l
242 -10 m 0 10 l
475 686 M -1 11 l
166 -11 m -2 11 l
299 -11 m 0 2 l
1 9 l
43 -11 m 1 11 l
29 -11 m 1 11 l
24 -11 m 1 11 l
21 -11 m 0 11 l
19 -11 m 0 11 l
18 -11 m 0 11 l
18 -11 m 0 11 l
18 -11 m -1 11 l
19 -11 m 0 11 l
21 -11 m -1 11 l
29 0 m 0 -2 l
2 -9 m -2 9 l
60 -9 m 0 3 l
2 8 l
42 -11 m 1 11 l
47 -11 m 1 11 l
70 -11 m 1 11 l
118 -11 m 0 11 l
242 -11 m 1 11 l
474 697 M 0 10 l
164 -10 m -1 10 l
301 -10 m 2 10 l
42 -10 m 1 10 l
29 -10 m 1 10 l
24 -10 m 0 10 l
21 -10 m 0 10 l
19 -10 m 0 10 l
18 -10 m 0 10 l
18 -10 m 0 10 l
17 -10 m 0 10 l
19 -10 m -1 10 l
21 -10 m -1 10 l
30 -10 m -2 10 l
64 -10 m 2 10 l
41 -10 m 0 10 l
48 -10 m 1 10 l
70 -10 m 0 10 l
118 -10 m 1 10 l
242 -10 m 0 10 l
474 707 M -1 10 l
163 0 m 0 -6 l
1 -4 m -1 4 l
304 -4 m 2 10 l
41 -10 m 0 10 l
30 -10 m 0 10 l
24 -10 m 0 10 l
21 -10 m 0 10 l
19 -10 m 0 10 l
18 -10 m 0 10 l
18 -10 m -1 10 l
18 -10 m 0 10 l
17 0 m 1 -8 l
0 -2 m 0 2 l
19 8 m 1 -8 l
0 -2 m 0 2 l
28 -2 m -3 10 l
69 -10 m 2 10 l
39 -10 m 1 10 l
48 -10 m 0 10 l
70 -10 m 0 10 l
119 -10 m 0 10 l
242 -10 m 0 10 l
473 717 M -1 10 l
164 -10 m -2 10 l
308 -10 m 1 10 l
40 -10 m 1 10 l
29 -10 m 1 10 l
23 -10 m 1 0 l
0 10 l
20 -10 m 1 10 l
18 -10 m 0 10 l
18 -10 m 0 10 l
17 -10 m 0 10 l
18 -10 m -1 10 l
18 -10 m 0 10 l
20 -10 m -1 10 l
27 -10 m -2 10 l
73 -10 m 2 10 l
38 -10 m 1 10 l
47 -10 m 1 10 l
69 -10 m 1 10 l
118 -10 m 0 10 l
242 -10 m 0 10 l
472 727 M 0 10 l
162 -10 m -1 10 l
310 -10 m 2 10 l
39 -10 m 1 10 l
29 -10 m 0 10 l
24 -10 m 0 10 l
21 -10 m 0 10 l
18 -10 m 1 10 l
17 -10 m 0 10 l
17 -10 m 0 10 l
17 -10 m 0 10 l
18 -10 m -1 10 l
20 -10 m -1 10 l
26 -10 m -2 10 l
77 -10 m 1 10 l
38 -10 m 1 10 l
47 -10 m 0 10 l
70 -10 m 0 10 l
118 -10 m 0 10 l
242 -10 m 0 10 l
472 737 M -1 10 l
162 -10 m -1 10 l
313 -10 m 1 10 l
39 -10 m 1 10 l
28 -10 m 1 10 l
23 -10 m 1 10 l
20 -10 m 0 10 l
19 -10 m 0 4 l
0 6 l
17 -10 m 0 10 l
17 -10 m 0 10 l
17 -10 m -1 10 l
18 -10 m -1 10 l
20 -10 m -1 10 l
23 0 m 1 -3 l
1 -7 m -1 7 l
79 -7 m 1 4 l
1 6 l
37 -10 m 1 10 l
46 -10 m 1 10 l
69 -10 m 0 10 l
118 -10 m 1 10 l
241 -10 m 0 10 l
471 747 M -1 10 l
162 -10 m -1 10 l
179 0 m 7 -5 l
10 -3 l
10 1 l
10 6 l
1 1 l
98 -10 m 1 5 l
1 5 l
38 -10 m 1 10 l
28 -10 m 1 10 l
23 -10 m 0 10 l
20 -10 m 0 10 l
19 -10 m 0 10 l
17 -10 m 0 10 l
17 -10 m -1 10 l
17 -10 m 0 10 l
CS M
17 -10 m 0 10 l
19 -10 m -1 10 l
24 -10 m -1 10 l
83 -10 m 1 10 l
37 -10 m 1 10 l
46 -10 m 0 10 l
69 -10 m 1 10 l
118 -10 m 0 10 l
241 -10 m 1 10 l
470 757 M 0 10 l
161 -10 m -2 10 l
172 0 m 6 -8 l
3 -2 m -3 2 l
41 -2 m 9 9 l
1 1 l
90 -10 m 1 10 l
38 -10 m 0 0 l
1 10 l
28 -10 m 0 10 l
23 -10 m 0 10 l
20 -10 m 1 10 l
18 -10 m 0 10 l
17 -10 m 0 10 l
16 -10 m 0 10 l
16 0 m 1 -7 l
0 -3 m 0 3 l
17 -3 m -1 10 l
19 -10 m -1 10 l
24 -10 m -2 10 l
86 -10 m 2 10 l
36 -10 m 0 8 l
0 2 l
46 -10 m 1 10 l
69 -10 m 0 10 l
118 -10 m 0 10 l
242 -10 m 0 10 l
470 767 M -1 10 l
160 -10 m -1 10 l
165 0 m 4 -6 l
4 -4 m -4 4 l
61 -4 m 7 10 l
84 -10 m 2 10 l
37 -10 m 1 10 l
27 -10 m 1 10 l
22 -10 m 1 10 l
20 -10 m 0 10 l
18 -10 m 0 10 l
17 -10 m 0 10 l
16 -10 m 0 10 l
16 -10 m 0 10 l
17 -10 m 0 10 l
18 -10 m -1 10 l
23 -10 m -1 10 l
89 -10 m 1 10 l
35 -10 m 1 10 l
46 -10 m 0 10 l
69 -10 m 0 10 l
118 -10 m 0 10 l
242 -10 m 0 10 l
469 777 M 0 10 l
159 -10 m -1 10 l
166 -10 m -5 10 l
77 -10 m 2 3 l
4 7 l
80 -10 m 1 10 l
37 -10 m 1 10 l
27 -10 m 0 6 l
1 4 l
22 -10 m 0 10 l
20 -10 m 0 10 l
18 -10 m 0 10 l
17 -10 m 0 10 l
16 -10 m 0 10 l
16 -10 m 0 10 l
17 -10 m -1 10 l
18 -10 m 0 10 l
22 -10 m -2 10 l
92 -10 m 2 10 l
34 -10 m 1 10 l
45 -10 m 1 10 l
68 -10 m 1 10 l
117 -10 m 0 10 l
242 -10 m 0 10 l
469 787 M -1 10 l
158 0 m 0 -5 l
1 -5 m -1 5 l
157 5 m 4 -9 l
1 -1 m -1 1 l
84 -1 m 5 10 l
76 -10 m 2 10 l
36 -10 m 1 10 l
27 -10 m 0 10 l
22 -10 m 1 10 l
19 -10 m 0 10 l
18 -10 m 0 10 l
17 -10 m 0 10 l
16 -10 m 0 10 l
16 -10 m -1 10 l
17 -10 m -1 10 l
19 -10 m -1 10 l
21 -10 m -1 10 l
37 0 m 1 -1 l
10 -3 l
3 4 l
44 -10 m 1 10 l
34 -10 m 1 10 l
45 -10 m 0 10 l
69 -10 m 0 10 l
117 -10 m 1 10 l
241 -10 m 0 10 l
468 797 M -1 10 l
159 -10 m -2 10 l
159 -10 m -5 10 l
98 -10 m 1 1 l
4 9 l
73 -10 m 1 10 l
36 -10 m 1 10 l
26 -10 m 1 10 l
22 -10 m 0 10 l
19 -10 m 1 10 l
17 -10 m 0 10 l
17 -10 m 0 10 l
16 -10 m -1 10 l
16 -10 m 0 10 l
16 -10 m 0 10 l
18 -10 m -1 10 l
21 -10 m -2 10 l
39 -10 m -5 10 l
19 -10 m 7 10 l
0 0 l
38 -10 m 1 10 l
34 -10 m 0 10 l
45 -10 m 1 10 l
68 -10 m 0 10 l
118 -10 m 0 10 l
241 -10 m 0 10 l
467 807 M 0 10 l
157 -10 m -1 10 l
151 0 m 3 -8 l
1 -2 m -1 2 l
104 -2 m 4 10 l
70 -10 m 2 10 l
35 -10 m 1 10 l
26 -10 m 0 10 l
22 -10 m 0 10 l
20 -10 m 0 10 l
17 -10 m 0 10 l
17 -10 m 0 10 l
15 -10 m 0 10 l
16 -10 m 0 10 l
16 -10 m -1 10 l
18 -10 m -1 10 l
19 0 m 1 -7 l
0 -3 m 0 3 l
29 7 m 1 -4 l
4 -6 m -4 6 l
30 -6 m 4 10 l
35 -10 m 1 10 l
33 -10 m 1 10 l
45 -10 m 0 10 l
68 -10 m 1 10 l
117 -10 m 0 10 l
241 -10 m 0 10 l
467 817 M -1 10 l
157 -10 m -1 10 l
152 -10 m -4 10 l
115 -10 m 2 4 l
2 6 l
68 -10 m 0 5 l
1 5 l
35 -10 m 1 10 l
25 -10 m 1 10 l
21 -10 m 1 10 l
19 -10 m 0 10 l
17 -10 m 0 10 l
17 -10 m -1 10 l
16 -10 m 0 10 l
16 -10 m -1 10 l
16 -10 m 0 10 l
16 0 m 1 -10 l
0 0 l
19 0 m -1 10 l
31 -10 m -3 10 l
38 -10 m 3 10 l
33 -10 m 0 2 l
1 8 l
33 -10 m 1 10 l
44 -10 m 1 10 l
68 -10 m 0 10 l
117 -10 m 0 10 l
241 -10 m 0 10 l
466 837 M 0 -3 l
0 -7 m 0 7 l
156 -7 m -1 10 l
145 0 m 1 -1 l
3 -9 m -3 9 l
122 -9 m 4 10 l
65 -10 m 1 10 l
35 -10 m 0 10 l
26 -10 m 1 10 l
21 -10 m 0 10 l
19 -10 m 0 10 l
17 -10 m 0 10 l
16 -10 m 0 10 l
16 -10 m 0 10 l
15 -10 m 0 10 l
16 -10 m -1 10 l
17 -10 m -1 10 l
20 -10 m -1 10 l
29 -10 m -4 10 l
45 -10 m 3 10 l
31 -10 m 1 10 l
33 -10 m 0 10 l
45 -10 m 0 10 l
68 -10 m 0 10 l
117 -10 m 0 10 l
241 -10 m 1 10 l
466 837 M -1 10 l
156 -10 m -1 10 l
146 -10 m -3 10 l
130 -10 m 4 10 l
62 -10 m 2 10 l
33 -10 m 1 10 l
26 -10 m 0 10 l
21 -10 m 1 10 l
18 -10 m 1 10 l
16 -10 m 1 10 l
15 -10 m 0 10 l
16 -10 m 0 10 l
15 -10 m 0 10 l
15 -10 m 0 10 l
16 -10 m 0 10 l
19 -10 m -2 10 l
25 0 m 0 -2 l
2 -8 m -2 8 l
50 -8 m 0 1 l
2 9 l
30 -10 m 1 10 l
32 -10 m 1 10 l
44 -10 m 0 10 l
68 -10 m 1 10 l
116 -10 m 1 10 l
241 -10 m 0 10 l
465 847 M 0 10 l
155 -10 m -1 10 l
144 -10 m -3 10 l
137 -10 m 0 0 l
3 10 l
61 -10 m 1 10 l
33 -10 m 1 10 l
25 -10 m 1 10 l
21 -10 m 0 10 l
19 -10 m 0 10 l
17 -10 m 0 10 l
15 -10 m 0 10 l
16 -10 m 0 10 l
15 -10 m -1 10 l
16 -10 m -1 10 l
17 -10 m -1 10 l
18 -10 m -1 10 l
26 -10 m -3 10 l
55 -10 m 2 10 l
29 -10 m 1 10 l
32 -10 m 0 10 l
44 -10 m 0 3 l
1 7 l
68 -10 m 0 10 l
117 -10 m 0 10 l
241 -10 m 0 10 l
465 857 M -1 10 l
155 -10 m -1 10 l
142 -10 m -3 10 l
143 -10 m 3 10 l
59 -10 m 1 10 l
33 -10 m 1 10 l
25 -10 m 0 10 l
21 -10 m 1 10 l
18 -10 m 0 10 l
17 -10 m 0 10 l
15 -10 m 0 10 l
16 -10 m -1 10 l
15 -10 m 0 10 l
15 -10 m 0 10 l
16 -10 m -1 10 l
18 -10 m -1 10 l
24 -10 m -2 10 l
59 -10 m 2 10 l
28 -10 m 1 10 l
31 -10 m 1 10 l
44 -10 m 0 10 l
68 -10 m 0 10 l
117 -10 m 0 10 l
241 -10 m 0 10 l
464 867 M 0 10 l
154 -10 m -1 10 l
137 0 m 3 -10 l
0 0 l
146 0 m 4 10 l
56 -10 m 2 10 l
32 -10 m 0 2 l
CS M
1 8 l
24 -10 m 1 10 l
21 -10 m 0 10 l
18 -10 m 0 10 l
17 -10 m 0 10 l
15 -10 m 0 10 l
15 -10 m 0 10 l
15 -10 m 0 10 l
15 -10 m -1 10 l
16 -10 m -1 10 l
18 -10 m -1 10 l
23 -10 m -2 10 l
63 -10 m 2 10 l
27 -10 m 1 10 l
31 -10 m 0 10 l
44 -10 m 0 10 l
68 -10 m 0 10 l
117 -10 m 0 10 l
241 -10 m 0 10 l
464 877 M -1 10 l
153 0 m 0 -5 l
1 -5 m -1 5 l
138 -5 m -3 10 l
156 -10 m 0 1 l
3 9 l
55 -10 m 1 10 l
32 -10 m 1 10 l
24 -10 m 1 10 l
20 -10 m 0 10 l
18 -10 m 0 10 l
17 -10 m 0 10 l
15 -10 m 0 10 l
15 -10 m 0 10 l
15 -10 m -1 10 l
15 0 m 0 -2 l
0 -8 m 0 8 l
15 -8 m 0 10 l
17 -10 m -1 10 l
22 -10 m -2 10 l
67 -10 m 1 10 l
27 -10 m 0 10 l
31 -10 m 1 10 l
43 -10 m 1 10 l
67 -10 m 1 10 l
116 -10 m 0 10 l
241 -10 m 0 10 l
463 887 M -1 10 l
154 -10 m -1 10 l
136 -10 m -2 10 l
161 -10 m 2 10 l
54 -10 m 1 9 l
0 1 l
32 -10 m 1 10 l
24 -10 m 0 10 l
20 -10 m 1 10 l
17 -10 m 1 10 l
16 -10 m 0 10 l
15 -10 m 0 10 l
15 -10 m 0 10 l
14 -10 m 0 10 l
15 -10 m -1 10 l
16 -10 m -1 10 l
17 -10 m -1 10 l
19 0 m 1 -3 l
1 -7 m -1 7 l
69 -7 m 1 4 l
1 6 l
25 -10 m 1 10 l
31 -10 m 0 10 l
44 -10 m 0 10 l
68 -10 m 0 10 l
116 -10 m 1 10 l
240 -10 m 0 10 l
462 897 M 0 10 l
153 -10 m -1 10 l
132 0 m 1 -3 l
2 -7 m -2 7 l
165 -7 m 3 10 l
52 -10 m 2 10 l
31 -10 m 1 10 l
23 -10 m 1 10 l
20 -10 m 0 10 l
18 -10 m 0 10 l
16 -10 m 0 10 l
15 -10 m 0 10 l
15 -10 m 0 10 l
14 -10 m 0 10 l
14 -10 m 0 10 l
15 -10 m -1 10 l
16 0 m 1 -10 l
0 0 l
19 0 m -1 10 l
73 -10 m 1 10 l
25 -10 m 1 10 l
30 -10 m 1 10 l
43 -10 m 1 10 l
67 -10 m 0 10 l
117 -10 m 0 10 l
240 -10 m 0 10 l
462 907 M -1 10 l
153 -10 m -1 10 l
133 -10 m -2 10 l
171 -10 m 2 7 l
1 3 l
51 -10 m 1 10 l
31 -10 m 0 10 l
24 -10 m 0 10 l
20 -10 m 1 10 l
17 -10 m 0 10 l
16 -10 m 0 10 l
15 -10 m 0 10 l
15 -10 m 0 10 l
14 -10 m -1 10 l
15 -10 m -1 10 l
15 -10 m 0 10 l
16 -10 m -1 10 l
20 -10 m -2 10 l
76 -10 m 2 10 l
24 -10 m 1 10 l
30 -10 m 0 10 l
44 -10 m 0 10 l
67 -10 m 0 10 l
117 -10 m 0 10 l
240 -10 m 0 10 l
461 917 M 0 10 l
152 -10 m -1 10 l
132 -10 m -3 10 l
177 -10 m 2 10 l
50 -10 m 1 10 l
30 -10 m 1 10 l
23 -10 m 1 10 l
20 -10 m 0 10 l
17 -10 m 1 10 l
15 -10 m 0 10 l
15 -10 m 0 10 l
15 -10 m -1 10 l
14 -10 m 0 10 l
14 -10 m 0 10 l
15 -10 m -1 10 l
16 -10 m -1 10 l
19 -10 m -1 10 l
32 0 m 3 -5 l
10 2 l
2 3 l
32 -10 m 1 10 l
24 -10 m 0 10 l
30 -10 m 1 10 l
43 -10 m 0 10 l
67 -10 m 0 10 l
117 -10 m 0 10 l
240 -10 m 1 10 l
461 927 M -1 10 l
152 -10 m -1 10 l
130 -10 m -2 10 l
181 -10 m 3 10 l
48 -10 m 1 10 l
30 -10 m 1 10 l
23 -10 m 1 10 l
19 -10 m 1 10 l
17 -10 m 0 10 l
15 -10 m 1 10 l
14 -10 m 0 10 l
14 -10 m 0 10 l
14 -10 m 0 10 l
14 -10 m -1 10 l
15 -10 m -1 10 l
16 -10 m -1 10 l
19 -10 m -2 10 l
34 -10 m -7 10 l
22 -10 m 5 10 l
28 -10 m 1 10 l
23 -10 m 1 10 l
30 -10 m 0 10 l
43 -10 m 1 10 l
66 -10 m 1 7 l
0 3 l
116 -10 m 0 10 l
241 -10 m 0 10 l
460 937 M 0 10 l
151 -10 m -1 10 l
129 -10 m -2 10 l
186 -10 m 2 10 l
47 -10 m 2 10 l
29 -10 m 1 10 l
23 -10 m 0 10 l
20 -10 m 0 10 l
17 -10 m 0 10 l
16 -10 m 0 10 l
14 -10 m 0 10 l
14 -10 m 0 10 l
14 -10 m 0 10 l
13 -10 m 0 10 l
14 -10 m 0 10 l
15 -10 m -1 10 l
18 -10 m -1 10 l
25 0 m 3 -10 l
0 0 l
27 0 m 3 7 l
1 3 l
25 -10 m 1 10 l
23 -10 m 0 4 l
1 6 l
29 -10 m 0 2 l
1 8 l
43 -10 m 0 10 l
67 -10 m 0 10 l
116 -10 m 0 10 l
241 -10 m 0 10 l
460 947 M -1 10 l
151 -10 m -1 10 l
126 0 m 2 -9 l
0 -1 m 0 1 l
188 -1 m 2 7 l
1 3 l
46 -10 m 1 10 l
29 -10 m 1 10 l
22 -10 m 0 1 l
1 9 l
19 -10 m 0 10 l
17 -10 m 0 10 l
16 -10 m 0 10 l
14 -10 m 0 10 l
14 -10 m 0 10 l
14 -10 m -1 10 l
14 -10 m 0 10 l
14 -10 m -1 10 l
15 -10 m -1 10 l
18 -10 m -1 10 l
26 -10 m -3 10 l
37 -10 m 2 10 l
24 -10 m 1 10 l
23 -10 m 0 10 l
30 -10 m 0 10 l
43 -10 m 0 10 l
67 -10 m 0 10 l
116 -10 m 0 10 l
241 -10 m 0 10 l
459 957 M 0 10 l
150 -10 m -1 10 l
127 -10 m -2 10 l
195 -10 m 2 10 l
45 -10 m 1 10 l
29 -10 m 1 10 l
22 -10 m 1 10 l
18 -10 m 1 4 l
0 6 l
16 -10 m 1 10 l
15 -10 m 0 10 l
14 -10 m 0 10 l
14 -10 m 0 10 l
13 -10 m 0 10 l
14 -10 m -1 10 l
13 0 m 1 -5 l
0 -5 m 0 5 l
14 -5 m 0 10 l
15 0 m 1 -5 l
1 -5 m -1 5 l
24 -5 m -3 10 l
42 -10 m 3 10 l
22 -10 m 1 10 l
22 -10 m 1 10 l
29 -10 m 1 10 l
42 -10 m 0 10 l
67 -10 m 0 10 l
116 -10 m 1 10 l
240 -10 m 0 10 l
459 967 M -1 10 l
150 -10 m -1 10 l
126 -10 m -3 10 l
200 -10 m 2 10 l
44 -10 m 1 8 l
1 2 l
28 -10 m 1 10 l
22 -10 m 0 10 l
19 -10 m 0 10 l
17 -10 m 0 10 l
15 -10 m 0 10 l
14 -10 m 0 10 l
14 -10 m 0 10 l
13 -10 m 0 10 l
13 -10 m 0 10 l
13 -10 m 0 10 l
15 -10 m -1 10 l
16 -10 m -1 10 l
20 0 m 2 -8 l
1 -2 m -1 2 l
46 -2 m 2 10 l
21 -10 m 1 10 l
22 -10 m 0 10 l
30 -10 m 0 10 l
42 -10 m 1 10 l
66 -10 m 0 10 l
117 -10 m 0 10 l
240 -10 m 0 10 l
458 977 M 0 10 l
148 0 m 0 -3 l
1 -7 m -1 7 l
124 -7 m -2 10 l
204 -10 m 3 10 l
43 -10 m 1 10 l
CS M
28 -10 m 0 10 l
0 0 l
22 -10 m 1 10 l
18 -10 m 1 10 l
16 -10 m 0 10 l
15 -10 m 0 10 l
14 -10 m 0 10 l
14 -10 m 0 10 l
13 -10 m 0 10 l
13 -10 m -1 10 l
14 -10 m -1 10 l
15 -10 m -1 10 l
16 -10 m -1 10 l
21 -10 m -2 10 l
52 -10 m 2 10 l
20 -10 m 0 3 l
1 7 l
21 -10 m 1 10 l
29 -10 m 0 10 l
43 -10 m 0 10 l
66 -10 m 1 10 l
116 -10 m 0 10 l
240 -10 m 0 10 l
458 987 M -1 10 l
149 -10 m -1 10 l
122 0 m 0 0 l
1 -10 m -1 10 l
208 -10 m 2 10 l
42 -10 m 1 10 l
27 -10 m 1 10 l
22 -10 m 0 10 l
19 -10 m 0 10 l
16 -10 m 0 10 l
15 -10 m 0 10 l
14 -10 m 0 10 l
14 0 m 0 -9 l
0 -1 m 0 1 l
13 -1 m -1 10 l
13 -10 m 0 10 l
13 -10 m 0 10 l
14 -10 m -1 10 l
16 -10 m -1 10 l
20 -10 m -2 10 l
56 -10 m 0 0 l
2 10 l
19 -10 m 1 10 l
21 -10 m 0 10 l
29 -10 m 1 10 l
42 -10 m 0 10 l
67 -10 m 0 10 l
116 -10 m 0 10 l
240 -10 m 0 10 l
457 997 M 0 10 l
148 -10 m -1 10 l
123 -10 m -2 10 l
212 -10 m 0 1 l
2 9 l
41 -10 m 1 10 l
27 -10 m 1 10 l
21 -10 m 1 10 l
18 -10 m 0 10 l
16 -10 m 1 10 l
14 -10 m 1 10 l
13 -10 m 0 10 l
14 -10 m -1 10 l
13 -10 m 0 10 l
13 -10 m 0 10 l
13 -10 m -1 10 l
14 -10 m -1 10 l
16 -10 m -1 10 l
19 -10 m -2 10 l
60 -10 m 1 10 l
19 -10 m 0 10 l
21 -10 m 1 10 l
29 -10 m 0 10 l
42 -10 m 0 10 l
67 -10 m 0 10 l
116 -10 m 0 10 l
240 -10 m 0 10 l
457 1007 M 0 10 l
147 -10 m -1 10 l
122 -10 m -2 10 l
216 -10 m 2 10 l
40 -10 m 1 10 l
27 -10 m 1 10 l
21 -10 m 0 10 l
18 -10 m 1 10 l
16 -10 m 0 10 l
15 -10 m 0 10 l
13 -10 m 0 10 l
13 -10 m 0 10 l
13 -10 m 0 10 l
13 -10 m -1 10 l
13 -10 m 0 10 l
13 0 m 0 -3 l
0 -7 m 0 7 l
15 -7 m -1 10 l
18 -10 m -2 10 l
63 -10 m 1 10 l
18 -10 m 1 10 l
21 -10 m 0 10 l
29 -10 m 0 10 l
42 -10 m 1 10 l
66 -10 m 0 10 l
116 -10 m 0 10 l
240 -10 m 0 10 l
457 1017 M -1 10 l
147 -10 m -1 10 l
121 -10 m -2 10 l
220 -10 m 2 10 l
39 -10 m 2 10 l
26 -10 m 1 10 l
20 -10 m 1 10 l
18 -10 m 0 10 l
16 -10 m 0 10 l
15 -10 m 0 10 l
13 -10 m 0 10 l
13 -10 m 0 10 l
13 -10 m 0 10 l
12 -10 m 0 10 l
13 -10 m -1 10 l
14 -10 m -1 10 l
15 -10 m -1 10 l
16 0 m 1 -8 l
0 -2 m 0 2 l
29 8 m 1 0 l
2 0 l
32 -10 m 2 10 l
17 -10 m 1 10 l
20 -10 m 1 10 l
28 -10 m 1 10 l
42 -10 m 0 10 l
66 -10 m 0 10 l
116 -10 m 0 10 l
240 -10 m 0 10 l
456 1038 M 0 -6 l
0 -5 m 0 5 l
146 -5 m -1 11 l
120 -11 m -2 11 l
224 -11 m 2 11 l
39 -11 m 1 11 l
26 -11 m 0 11 l
21 -11 m 1 11 l
17 -11 m 1 11 l
15 -11 m 1 11 l
14 -11 m 0 11 l
13 -11 m 0 11 l
13 -11 m 0 11 l
13 -11 m 0 11 l
12 -11 m 0 11 l
12 -11 m 0 11 l
13 -11 m -1 11 l
15 -11 m -1 11 l
17 -11 m -2 11 l
32 -11 m -7 11 l
10 -11 m 8 4 l
3 7 l
23 -11 m 1 11 l
17 -11 m 1 11 l
20 -11 m 0 11 l
29 -11 m 0 11 l
42 -11 m 0 11 l
66 -11 m 1 11 l
115 -11 m 0 11 l
240 -11 m 0 11 l
456 1038 M -1 10 l
146 -10 m 0 10 l
118 -10 m -1 10 l
227 -10 m 2 9 l
0 1 l
38 -10 m 1 10 l
25 -10 m 1 10 l
21 -10 m 0 10 l
18 -10 m 0 10 l
16 -10 m 0 10 l
14 -10 m 0 10 l
13 -10 m 0 10 l
13 -10 m 0 10 l
13 -10 m -1 10 l
13 -10 m -1 10 l
13 -10 m -1 10 l
13 -10 m -1 10 l
15 -10 m -1 10 l
16 -10 m -1 10 l
22 0 m 2 -7 l
2 -3 m -2 3 l
23 -3 m 4 10 l
20 -10 m 1 10 l
17 -10 m 0 10 l
20 -10 m 1 10 l
28 -10 m 0 10 l
42 -10 m 0 10 l
67 -10 m 0 10 l
115 -10 m 0 10 l
240 -10 m 0 10 l
455 1048 M 0 10 l
146 -10 m -1 10 l
116 0 m 1 -4 l
1 -6 m -1 6 l
230 -6 m 2 10 l
37 -10 m 1 10 l
25 -10 m 1 10 l
20 -10 m 1 10 l
17 -10 m 0 10 l
16 -10 m 0 10 l
14 -10 m 0 10 l
13 -10 m 0 10 l
13 -10 m 0 10 l
12 -10 m 0 10 l
12 -10 m 0 10 l
12 -10 m 0 10 l
12 -10 m 0 10 l
13 0 m 0 -3 l
1 -7 m -1 7 l
16 -7 m -2 10 l
24 -10 m -3 10 l
32 -10 m 3 8 l
0 2 l
18 -10 m 1 10 l
16 -10 m 1 10 l
20 -10 m 0 10 l
28 -10 m 0 10 l
42 -10 m 0 10 l
67 -10 m 0 10 l
115 -10 m 1 10 l
239 -10 m 1 10 l
455 1058 M -1 10 l
146 -10 m -1 10 l
117 -10 m -2 10 l
235 -10 m 2 10 l
36 -10 m 0 1 l
1 9 l
25 -10 m 1 10 l
20 -10 m 0 10 l
17 -10 m 1 10 l
15 -10 m 0 10 l
14 -10 m 0 10 l
13 -10 m 1 10 l
12 -10 m 0 10 l
12 -10 m 0 10 l
12 -10 m 0 10 l
12 -10 m -1 10 l
13 -10 m -1 10 l
14 -10 m -1 10 l
15 -10 m -1 10 l
22 -10 m -3 10 l
38 -10 m 2 10 l
17 -10 m 1 10 l
16 -10 m 0 10 l
20 -10 m 0 10 l
28 -10 m 1 10 l
41 -10 m 1 10 l
66 -10 m 0 10 l
116 -10 m 0 10 l
240 -10 m 0 10 l
454 1068 M 0 10 l
145 -10 m -1 10 l
116 -10 m -1 10 l
238 -10 m 2 10 l
35 -10 m 1 10 l
25 -10 m 1 10 l
19 -10 m 1 10 l
17 -10 m 0 10 l
15 -10 m 1 4 l
0 6 l
13 -10 m 1 10 l
13 -10 m 0 10 l
12 -10 m 0 10 l
12 -10 m 0 10 l
12 -10 m -1 10 l
12 -10 m 0 10 l
12 -10 m -1 10 l
14 -10 m -1 10 l
15 -10 m -1 10 l
17 0 m 1 -4 l
2 -6 m -2 6 l
42 -6 m 2 10 l
16 -10 m 0 0 l
1 10 l
15 -10 m 1 10 l
19 -10 m 1 10 l
28 -10 m 0 10 l
42 -10 m 0 10 l
66 -10 m 0 10 l
116 -10 m 0 10 l
240 -10 m 0 10 l
454 1078 M -1 10 l
145 -10 m -1 10 l
116 -10 m -2 10 l
242 -10 m 2 10 l
34 -10 m 2 10 l
24 -10 m 1 10 l
19 -10 m 1 10 l
16 -10 m 1 10 l
15 -10 m 0 10 l
14 -10 m 0 10 l
13 -10 m 0 10 l
12 -10 m 0 10 l
12 -10 m -1 10 l
12 -10 m 0 10 l
CS M
12 -10 m -1 10 l
12 -10 m 0 10 l
13 -10 m -1 10 l
15 -10 m -2 10 l
19 -10 m -2 10 l
47 -10 m 2 10 l
15 -10 m 1 10 l
15 -10 m 0 10 l
20 -10 m 0 10 l
28 -10 m 0 10 l
42 -10 m 0 10 l
66 -10 m 0 10 l
116 -10 m 0 10 l
240 -10 m 0 10 l
453 1088 M 0 10 l
144 -10 m -1 10 l
115 -10 m -1 10 l
245 -10 m 2 10 l
34 -10 m 1 10 l
24 -10 m 0 10 l
20 -10 m 0 10 l
17 -10 m 0 10 l
15 -10 m 0 10 l
14 -10 m 0 10 l
13 -10 m 0 10 l
12 -10 m 0 10 l
11 -10 m 0 10 l
12 -10 m 0 10 l
11 -10 m 0 10 l
12 -10 m -1 10 l
13 -10 m -1 10 l
13 0 m 1 -7 l
0 -3 m 0 3 l
17 -3 m -2 10 l
51 -10 m 2 10 l
14 -10 m 1 10 l
14 -10 m 1 10 l
19 -10 m 0 10 l
28 -10 m 0 10 l
42 -10 m 0 10 l
66 -10 m 0 10 l
116 -10 m 0 10 l
240 -10 m 0 10 l
453 1098 M 0 10 l
143 0 m 0 -7 l
0 -3 m 0 3 l
114 -3 m -2 10 l
249 -10 m 0 2 l
1 8 l
34 -10 m 1 10 l
23 -10 m 1 10 l
19 -10 m 1 10 l
16 -10 m 1 10 l
14 -10 m 1 10 l
13 -10 m 0 10 l
13 -10 m 0 10 l
12 -10 m 0 10 l
11 -10 m 0 10 l
12 -10 m -1 10 l
12 -10 m -1 10 l
12 -10 m 0 10 l
12 -10 m -1 10 l
14 -10 m -1 10 l
17 -10 m -2 10 l
55 -10 m 2 10 l
13 -10 m 0 10 l
15 -10 m 0 10 l
19 -10 m 1 10 l
27 -10 m 1 10 l
41 -10 m 0 10 l
66 -10 m 0 10 l
116 -10 m 0 10 l
240 -10 m 0 10 l
453 1108 M -1 10 l
144 -10 m -1 10 l
112 0 m 0 0 l
1 -10 m -1 10 l
251 -10 m 2 10 l
33 -10 m 1 10 l
23 -10 m 0 1 l
1 9 l
19 -10 m 1 9 l
0 1 l
16 -10 m 0 10 l
15 -10 m 0 10 l
13 -10 m 0 10 l
13 -10 m 0 10 l
12 -10 m 0 10 l
11 -10 m 0 10 l
11 -10 m 0 10 l
11 -10 m 0 10 l
12 -10 m -1 10 l
12 -10 m 0 10 l
13 -10 m -1 10 l
16 -10 m -1 10 l
58 -10 m 0 3 l
1 7 l
12 -10 m 1 10 l
14 -10 m 0 10 l
20 -10 m 0 10 l
28 -10 m 0 10 l
41 -10 m 0 10 l
66 -10 m 1 10 l
115 -10 m 0 10 l
240 -10 m 0 10 l
452 1118 M 0 10 l
143 -10 m -1 10 l
113 -10 m -2 10 l
140 0 m 2 -2 l
10 -5 l
10 0 l
10 5 l
2 2 l
81 -10 m 2 10 l
32 -10 m 1 10 l
23 -10 m 1 10 l
19 -10 m 0 10 l
16 -10 m 1 10 l
14 -10 m 0 10 l
13 -10 m 0 10 l
13 -10 m 0 10 l
12 -10 m 0 10 l
11 -10 m 0 10 l
11 -10 m 0 10 l
11 -10 m 0 10 l
11 -10 m 0 10 l
12 -10 m -1 10 l
13 -10 m -1 10 l
14 0 m 0 -1 l
2 -9 m -2 9 l
61 -9 m 1 10 l
12 -10 m 1 10 l
13 -10 m 1 10 l
19 -10 m 0 10 l
28 -10 m 0 10 l
41 -10 m 1 10 l
66 -10 m 0 10 l
115 -10 m 0 10 l
240 -10 m 0 10 l
452 1128 M -1 10 l
143 -10 m -1 10 l
112 -10 m -1 10 l
131 0 m 2 -2 l
8 -8 m -8 8 l
42 -8 m 8 7 l
2 3 l
73 -10 m 2 10 l
31 -10 m 1 10 l
23 -10 m 1 10 l
18 -10 m 1 10 l
16 -10 m 0 10 l
14 -10 m 0 10 l
13 -10 m 1 10 l
12 -10 m 0 10 l
12 -10 m 0 10 l
11 0 m 0 -3 l
0 -7 m 0 7 l
11 -7 m -1 10 l
12 -10 m -1 10 l
12 -10 m -1 10 l
12 -10 m -1 10 l
13 -10 m -1 10 l
15 -10 m -2 10 l
64 -10 m 1 10 l
12 -10 m 0 10 l
14 -10 m 0 10 l
19 -10 m 0 10 l
28 -10 m 0 10 l
42 -10 m 0 10 l
66 -10 m 0 10 l
115 -10 m 0 10 l
240 -10 m 0 10 l
451 1138 M 0 10 l
142 -10 m -1 10 l
112 -10 m -2 10 l
133 -10 m -6 10 l
60 -10 m 7 10 l
68 -10 m 1 10 l
31 -10 m 1 10 l
0 0 l
23 -10 m 0 10 l
19 -10 m 0 10 l
16 -10 m 0 10 l
14 -10 m 1 10 l
13 -10 m 0 10 l
12 -10 m 0 10 l
12 -10 m 0 10 l
11 -10 m 0 10 l
10 -10 m 0 10 l
11 -10 m 0 10 l
11 -10 m -1 10 l
12 -10 m -1 10 l
13 -10 m -1 10 l
14 -10 m -1 10 l
66 -10 m 1 10 l
11 -10 m 1 10 l
13 -10 m 0 10 l
19 -10 m 1 10 l
27 -10 m 0 10 l
42 -10 m 0 10 l
66 -10 m 0 10 l
115 -10 m 0 10 l
240 -10 m 0 10 l
451 1148 M -1 10 l
142 -10 m 0 10 l
110 -10 m -1 10 l
122 0 m 4 -8 l
2 -2 m -2 2 l
69 -2 m 1 1 l
5 9 l
63 -10 m 2 10 l
30 -10 m 1 10 l
22 -10 m 1 10 l
18 -10 m 1 10 l
15 -10 m 1 10 l
14 -10 m 0 10 l
13 -10 m 0 10 l
12 -10 m 0 10 l
12 -10 m -1 10 l
12 -10 m -1 10 l
11 -10 m 0 10 l
11 -10 m -1 10 l
11 -10 m 0 10 l
11 -10 m 0 10 l
12 -10 m -1 10 l
14 -10 m -1 10 l
68 -10 m 1 10 l
11 -10 m 0 10 l
13 -10 m 1 10 l
19 -10 m 0 10 l
27 -10 m 0 10 l
42 -10 m 0 10 l
66 -10 m 0 10 l
115 -10 m 0 10 l
240 -10 m 0 10 l
450 1158 M 0 10 l
142 -10 m -1 10 l
110 -10 m -2 10 l
124 -10 m -5 10 l
84 -10 m 5 9 l
1 1 l
59 -10 m 0 1 l
2 9 l
29 -10 m 1 10 l
22 -10 m 1 10 l
18 -10 m 0 10 l
16 -10 m 0 10 l
14 -10 m 0 10 l
13 -10 m 0 10 l
12 -10 m 0 10 l
11 -10 m 0 10 l
11 -10 m 0 10 l
11 0 m 0 -1 l
0 -9 m 0 9 l
10 -9 m 0 10 l
11 -10 m -1 10 l
12 -10 m -1 10 l
12 -10 m -1 10 l
14 -10 m -2 10 l
71 -10 m 1 10 l
10 -10 m 1 10 l
13 -10 m 0 10 l
19 -10 m 0 10 l
27 -10 m 0 10 l
42 -10 m 0 10 l
66 -10 m 0 10 l
115 -10 m 0 10 l
240 -10 m 0 10 l
450 1168 M 0 10 l
141 -10 m -1 10 l
109 -10 m -1 10 l
115 0 m 4 -8 l
1 -2 m -1 2 l
91 -2 m 4 10 l
57 -10 m 1 10 l
29 -10 m 2 10 l
21 -10 m 1 10 l
17 -10 m 1 10 l
15 -10 m 1 10 l
13 -10 m 1 10 l
12 -10 m 0 10 l
12 -10 m 0 10 l
11 -10 m 0 10 l
11 -10 m 0 10 l
11 -10 m -1 10 l
11 0 m 0 -3 l
0 -7 m 0 7 l
10 -7 m 0 10 l
11 -10 m -1 10 l
12 -10 m -1 10 l
13 -10 m -1 10 l
73 -10 m 1 10 l
10 -10 m 0 10 l
13 -10 m 0 10 l
19 -10 m 0 10 l
27 -10 m 1 10 l
41 -10 m 0 10 l
66 -10 m 0 10 l
115 -10 m 0 10 l
240 -10 m 0 10 l
CS M
450 1178 M -1 10 l
141 -10 m -1 10 l
109 -10 m -1 10 l
116 -10 m -4 10 l
103 -10 m 4 10 l
54 -10 m 2 10 l
29 -10 m 1 10 l
21 -10 m 1 10 l
17 -10 m 1 10 l
15 -10 m 0 10 l
14 -10 m 0 10 l
12 -10 m 1 10 l
11 -10 m 0 10 l
11 -10 m 0 10 l
11 -10 m 0 10 l
10 -10 m 0 10 l
11 -10 m -1 10 l
10 0 m 1 -9 l
10 9 m 0 -5 l
-10 -5 m 0 1 l
10 -1 m 0 5 l
11 -5 m -1 10 l
13 -10 m -1 10 l
75 -10 m 0 10 l
10 -10 m 0 10 l
13 -10 m 0 9 l
0 1 l
19 -10 m 0 10 l
28 -10 m 0 10 l
41 -10 m 0 10 l
66 -10 m 0 10 l
115 -10 m 0 10 l
240 -10 m 0 10 l
449 1188 M 0 10 l
140 -10 m 0 10 l
106 0 m 2 -9 l
0 -1 m 0 1 l
109 9 m 1 -4 l
2 -6 m -2 6 l
109 -6 m 1 1 l
3 9 l
52 -10 m 2 10 l
28 -10 m 1 10 l
21 -10 m 0 10 l
18 -10 m 0 10 l
15 -10 m 1 8 l
0 2 l
13 -10 m 0 10 l
13 -10 m 0 10 l
11 -10 m 0 10 l
11 -10 m 0 10 l
11 -10 m 0 10 l
10 -10 m 0 10 l
10 -10 m 0 10 l
10 -10 m 0 10 l
11 -10 m -1 10 l
10 0 m 1 -7 l
0 -3 m 0 3 l
12 -3 m -1 10 l
76 -10 m 1 10 l
9 -10 m 1 10 l
12 -10 m 0 10 l
19 -10 m 0 10 l
28 -10 m 0 10 l
41 -10 m 0 10 l
66 -10 m 0 10 l
115 -10 m 0 10 l
240 -10 m 0 10 l
449 1198 M -1 10 l
141 -10 m -1 10 l
107 -10 m -1 10 l
112 -10 m -4 10 l
118 -10 m 4 10 l
50 -10 m 1 10 l
28 -10 m 1 10 l
20 -10 m 1 10 l
17 -10 m 1 10 l
15 -10 m 0 10 l
13 -10 m 1 10 l
12 -10 m 0 10 l
11 -10 m 1 10 l
10 -10 m 0 10 l
11 -10 m 0 10 l
10 -10 m 0 10 l
10 -10 m 0 10 l
10 -10 m -1 10 l
11 -10 m -1 10 l
11 -10 m 0 10 l
10 0 m 1 -4 l
1 -6 m -1 6 l
78 -6 m 0 10 l
10 -10 m 0 10 l
12 -10 m 1 10 l
18 -10 m 0 10 l
28 -10 m 0 10 l
41 -10 m 0 10 l
66 -10 m 0 10 l
115 -10 m 0 10 l
240 -10 m 0 10 l
448 1208 M 0 10 l
140 -10 m -1 10 l
107 -10 m -2 10 l
110 -10 m -4 10 l
126 -10 m 3 8 l
1 2 l
47 -10 m 2 10 l
27 -10 m 1 10 l
20 -10 m 1 10 l
17 -10 m 0 10 l
15 -10 m 1 10 l
13 -10 m 0 10 l
12 -10 m 0 10 l
12 -10 m 0 10 l
10 -10 m 0 10 l
11 -10 m 0 10 l
10 -10 m 0 10 l
10 -10 m -1 10 l
10 -10 m 0 10 l
10 -10 m 0 10 l
11 -10 m -1 10 l
11 -10 m -1 10 l
80 -10 m 1 10 l
9 -10 m 0 10 l
13 -10 m 0 10 l
18 -10 m 0 10 l
28 -10 m 0 10 l
41 -10 m 0 10 l
66 -10 m 0 10 l
115 -10 m 0 10 l
240 -10 m 0 10 l
448 1218 M -1 10 l
139 0 m 0 -3 l
1 -7 m -1 7 l
106 -7 m -1 10 l
103 0 m 3 -6 l
1 -4 m -1 4 l
131 -4 m 3 10 l
46 -10 m 0 2 l
2 8 l
26 -10 m 1 10 l
20 -10 m 1 10 l
16 -10 m 1 10 l
15 -10 m 0 10 l
13 -10 m 0 10 l
12 -10 m 0 10 l
12 -10 m 0 10 l
10 -10 m 0 10 l
11 -10 m 0 10 l
10 -10 m -1 10 l
10 -10 m 0 10 l
10 -10 m 0 10 l
10 -10 m -1 10 l
11 -10 m -1 10 l
11 -10 m -1 10 l
82 -10 m 0 10 l
9 -10 m 0 10 l
13 -10 m 0 10 l
18 -10 m 0 10 l
28 -10 m 0 10 l
41 -10 m 0 10 l
66 -10 m 0 10 l
115 -10 m 0 10 l
240 -10 m 0 10 l
447 1228 M -1 10 l
140 -10 m -2 10 l
107 -10 m -3 10 l
106 -10 m -5 10 l
142 -10 m 5 10 l
43 -10 m 2 10 l
25 -10 m 1 9 l
1 1 l
19 -10 m 0 5 l
1 5 l
16 -10 m 1 10 l
14 -10 m 1 10 l
12 -10 m 1 10 l
11 -10 m 1 10 l
11 -10 m 0 10 l
10 -10 m 0 10 l
11 -10 m -1 10 l
10 -10 m 0 10 l
10 -10 m 0 10 l
10 -10 m -1 10 l
10 -10 m 0 10 l
10 -10 m -1 10 l
11 -10 m -1 10 l
83 -10 m 1 10 l
8 -10 m 0 10 l
13 -10 m 0 10 l
18 -10 m 0 10 l
28 -10 m 0 10 l
41 -10 m 0 10 l
66 -10 m 0 10 l
115 -10 m 0 10 l
240 -10 m 0 10 l
445 1248 M 1 -7 l
0 -3 m 0 3 l
138 -3 m -3 10 l
101 0 m 4 -8 l
2 -2 m -2 2 l
90 8 m 1 0 l
10 -8 l
2 -2 m -2 2 l
149 -2 m 1 1 l
10 9 l
34 -10 m 5 10 l
22 -10 m 3 10 l
17 -10 m 2 10 l
15 -10 m 2 10 l
13 -10 m 1 10 l
12 -10 m 0 10 l
12 -10 m 0 10 l
11 -10 m 0 10 l
10 -10 m 1 10 l
9 -10 m 1 10 l
9 -10 m 0 10 l
10 -10 m -1 10 l
10 -10 m 0 10 l
10 -10 m -1 10 l
10 -10 m -1 10 l
11 -10 m -1 10 l
85 -10 m 0 10 l
8 -10 m 1 10 l
12 -10 m 0 10 l
18 -10 m 0 10 l
28 -10 m 0 10 l
41 -10 m 0 10 l
66 -10 m 0 10 l
115 -10 m 0 10 l
240 -10 m 0 10 l
445 1248 M 1 0 l
10 7 l
6 3 l
119 -10 m 5 2 l
10 3 l
10 3 l
10 2 l
66 -10 m 4 1 l
11 2 l
10 2 l
10 1 l
10 1 l
10 2 l
10 1 l
6 0 l
23 -10 m 1 0 l
10 1 l
10 1 l
10 1 l
10 0 l
10 1 l
10 0 l
10 0 l
10 1 l
10 -1 l
10 0 l
10 0 l
10 0 l
6 6 m 4 0 l
-10 -6 m 10 -1 l
0 7 m 10 -1 l
-10 -6 m 10 0 l
0 6 m 10 -1 l
-10 -5 m 10 -1 l
0 6 m 10 -1 l
-10 -5 m 10 -1 l
0 6 m 10 -1 l
0 -6 m -10 1 l
10 5 m 10 -1 l
3 5 m 7 -1 l
-10 -4 m 10 -2 l
0 6 m 10 -2 l
-10 -4 m 10 -1 l
0 5 m 10 -2 l
-1 -5 m -9 2 l
15 8 m 5 -1 l
-10 -4 m 10 -2 l
0 6 m 10 -2 l
-10 -4 m 10 -2 l
9 9 m 1 0 l
-10 -3 m 10 -3 l
-6 -4 m -4 1 l
10 9 m 10 -3 l
-10 -3 m 10 -3 l
9 9 m 2 0 l
-11 -3 m 11 -3 l
-8 -4 m -3 1 l
11 9 m 10 -4 l
-1 -6 m -9 4 l
15 6 m 5 -2 l
-10 -2 m 10 -4 l
0 6 m 10 -5 l
-7 -3 m -3 2 l
10 8 m 10 -5 l
-5 -5 m -5 3 l
14 7 m 6 -3 l
-3 -7 m -7 5 l
17 5 m 3 -2 l
-2 -8 m -8 7 l
19 3 m 1 -1 l
CS M
-1 -9 m -9 8 l
19 -8 m -9 9 l
18 -9 m -7 10 l
16 -10 m -5 10 l
15 -10 m -4 10 l
13 -10 m -2 10 l
11 -10 m 1 10 l
9 -10 m 3 10 l
82 -10 m 0 10 l
9 -10 m 0 10 l
12 -10 m 0 10 l
18 -10 m 0 10 l
28 -10 m 0 10 l
41 -10 m 0 10 l
66 -10 m 0 10 l
115 -10 m 0 10 l
240 -10 m 0 10 l
445 1268 M 1 0 l
10 -6 l
6 -4 m -6 4 l
125 6 m 5 -2 l
10 -3 l
10 -3 l
10 -2 m -10 2 l
76 8 m 4 -1 l
11 -2 l
10 -1 l
10 -2 l
10 -1 l
10 -1 l
10 -1 l
6 -1 m -6 1 l
29 9 m 1 0 l
10 -1 l
10 -1 l
10 -1 l
10 0 l
10 -1 l
10 0 l
10 0 l
10 0 l
10 0 l
10 0 l
10 0 l
10 1 l
6 -7 m 4 0 l
-10 7 m 10 0 l
0 -7 m 10 1 l
-10 6 m 10 1 l
0 -7 m 10 1 l
-10 6 m 10 0 l
0 -6 m 10 1 l
-10 5 m 10 1 l
0 -6 m 10 1 l
-10 5 m 10 1 l
0 -6 m 10 2 l
3 -6 m 7 1 l
-10 5 m 10 1 l
0 -6 m 10 2 l
-10 4 m 10 2 l
0 -6 m 10 2 l
-10 4 m 9 1 l
6 -10 m 5 1 l
-10 4 m 10 2 l
0 -6 m 10 3 l
-10 3 m 10 2 l
9 -9 m 1 0 l
-10 4 m 10 2 l
-10 3 m 4 1 l
6 -10 m 10 3 l
-10 3 m 10 3 l
9 -9 m 2 1 l
-11 2 m 11 4 l
-11 2 m 3 1 l
8 -9 m 10 3 l
-10 3 m 9 3 l
6 -10 m 5 2 l
-10 2 m 10 5 l
0 -7 m 10 5 l
-10 2 m 3 1 l
7 -10 m 10 5 l
-10 2 m 5 3 l
9 -10 m 6 4 l
-10 1 m 7 5 l
10 -10 m 3 2 l
-10 2 m 8 6 l
11 -10 m 1 1 l
-10 1 m 9 8 l
1 -9 m 9 9 l
2 -10 m 7 10 l
4 -10 m 5 10 l
6 -10 m 4 10 l
7 -10 m 2 10 l
10 -10 m -1 10 l
13 -10 m -3 10 l
85 -10 m 0 10 l
9 -10 m 0 10 l
12 -10 m 0 10 l
18 -10 m 0 10 l
28 -10 m 0 10 l
41 -10 m 0 10 l
66 -10 m 0 10 l
115 -10 m 0 10 l
240 -10 m 0 10 l
445 1268 M 1 8 l
0 2 l
135 -10 m 3 10 l
98 -10 m 4 8 l
2 2 l
88 -10 m 1 1 l
10 8 l
2 1 l
147 0 m 1 -1 l
10 -9 m -10 9 l
49 -9 m -5 10 l
30 -10 m -3 10 l
22 -10 m -2 10 l
19 -10 m -2 10 l
16 -10 m -1 10 l
13 -10 m 0 10 l
12 -10 m 0 10 l
11 -10 m 0 10 l
11 -10 m -1 10 l
11 -10 m -1 10 l
10 -10 m 0 10 l
9 -10 m 1 10 l
9 -10 m 0 10 l
9 -10 m 1 10 l
8 -10 m 1 10 l
9 -10 m 1 10 l
84 -10 m 0 10 l
9 -10 m -1 10 l
13 -10 m 0 10 l
18 -10 m 0 10 l
28 -10 m 0 10 l
41 -10 m 0 10 l
66 -10 m 0 10 l
115 -10 m 0 10 l
240 -10 m 0 10 l
446 1278 M 1 10 l
137 -10 m 2 10 l
102 -10 m 3 10 l
98 -10 m 5 10 l
142 -10 m -5 10 l
50 -10 m -2 10 l
27 0 m 1 -9 l
1 -1 m -1 1 l
20 9 m 0 -4 l
1 -6 m -1 6 l
18 -6 m -1 10 l
16 -10 m -1 10 l
14 -10 m -1 10 l
13 -10 m -1 10 l
12 -10 m 0 10 l
10 -10 m 0 10 l
10 -10 m 1 10 l
9 -10 m 0 10 l
10 -10 m 0 10 l
9 -10 m 1 10 l
9 -10 m 0 10 l
9 -10 m 1 10 l
9 -10 m 1 10 l
83 -10 m -1 10 l
9 -10 m 0 10 l
13 -10 m 0 10 l
18 -10 m 0 10 l
28 -10 m 0 10 l
41 -10 m 0 10 l
66 -10 m 0 10 l
115 -10 m 0 10 l
240 -10 m 0 10 l
447 1288 M 1 10 l
138 -10 m 0 4 l
1 6 l
104 -10 m 1 10 l
102 -10 m 3 7 l
1 3 l
133 -10 m -3 10 l
49 0 m 0 -2 l
2 -8 m -2 8 l
29 -8 m -1 10 l
22 -10 m -1 10 l
18 -10 m -1 10 l
16 -10 m 0 10 l
13 -10 m 0 10 l
12 -10 m 0 10 l
12 -10 m 0 10 l
10 -10 m 0 10 l
11 -10 m 0 10 l
9 -10 m 1 10 l
9 -10 m 0 10 l
10 -10 m 0 10 l
9 -10 m 1 10 l
9 -10 m 1 10 l
9 -10 m 1 10 l
81 -10 m 0 10 l
9 -10 m 0 10 l
13 -10 m 0 10 l
18 -10 m 0 10 l
28 -10 m 0 10 l
41 -10 m 0 10 l
66 -10 m 0 10 l
115 -10 m 0 10 l
240 -10 m 0 10 l
448 1298 M 0 10 l
139 -10 m 1 10 l
104 -10 m 2 10 l
104 -10 m 4 10 l
122 0 m 3 -7 l
1 -3 m -1 3 l
50 -3 m -2 10 l
30 -10 m -1 10 l
22 -10 m -1 10 l
18 -10 m 0 10 l
16 -10 m -1 10 l
14 -10 m 0 10 l
12 -10 m 0 10 l
12 -10 m 0 10 l
10 -10 m 0 10 l
11 -10 m 0 10 l
10 -10 m 0 10 l
9 -10 m 1 10 l
9 -10 m 0 10 l
10 -10 m 0 10 l
10 -10 m 1 10 l
9 -10 m 1 10 l
80 -10 m -1 10 l
10 -10 m 0 10 l
13 -10 m 0 10 l
18 -10 m 0 10 l
28 -10 m 0 10 l
41 -10 m 0 10 l
66 -10 m 0 10 l
115 -10 m 0 10 l
240 -10 m 0 10 l
448 1308 M 1 10 l
139 -10 m 1 10 l
105 -10 m 1 10 l
107 -10 m 4 10 l
118 -10 m -4 10 l
55 -10 m -1 10 l
30 -10 m -1 10 l
22 -10 m -1 10 l
19 -10 m -1 10 l
16 -10 m 0 10 l
14 -10 m -1 10 l
13 -10 m 0 10 l
12 -10 m -1 10 l
11 -10 m 0 10 l
11 -10 m 0 10 l
10 -10 m 0 10 l
10 -10 m 0 10 l
9 -10 m 1 10 l
9 -10 m 1 10 l
10 -10 m 0 10 l
10 -10 m 1 5 l
1 5 l
77 -10 m 0 10 l
10 -10 m 0 10 l
13 -10 m -1 10 l
19 -10 m 0 10 l
28 -10 m 0 10 l
41 -10 m 0 10 l
66 -10 m 0 10 l
115 -10 m 0 10 l
240 -10 m 0 10 l
449 1318 M 0 10 l
140 -10 m 0 10 l
106 -10 m 2 9 l
0 1 l
109 -10 m 1 4 l
2 6 l
107 0 m 1 -1 l
3 -9 m -3 9 l
57 -9 m -2 10 l
31 -10 m -1 10 l
22 -10 m 0 10 l
18 -10 m 0 10 l
15 0 m 1 -7 l
0 -3 m 0 3 l
13 -3 m 0 10 l
13 -10 m 0 10 l
11 -10 m 0 10 l
11 -10 m 0 10 l
11 -10 m 0 10 l
10 -10 m 0 10 l
10 -10 m 0 10 l
10 -10 m 0 10 l
10 -10 m 1 10 l
9 -10 m 1 7 l
0 3 l
11 -10 m 1 10 l
76 -10 m -1 10 l
11 -10 m -1 10 l
13 -10 m 0 10 l
19 -10 m 0 10 l
28 -10 m 0 10 l
41 -10 m 0 10 l
66 -10 m 0 10 l
115 -10 m 0 10 l
CS M
240 -10 m 0 10 l
449 1328 M 1 10 l
139 -10 m 1 10 l
107 -10 m 1 10 l
111 -10 m 4 10 l
103 -10 m -4 10 l
60 -10 m -2 10 l
32 -10 m -1 10 l
23 -10 m -1 10 l
19 -10 m -1 10 l
16 -10 m 0 10 l
14 -10 m 0 10 l
13 -10 m -1 10 l
12 -10 m 0 10 l
11 -10 m 0 10 l
11 -10 m 0 10 l
10 -10 m 0 10 l
10 -10 m 1 10 l
9 -10 m 1 10 l
10 -10 m 0 5 l
-10 5 m 0 0 l
10 -5 m 0 5 l
10 -10 m 1 10 l
11 -10 m 1 10 l
74 -10 m 0 10 l
10 -10 m 0 10 l
13 0 m 0 -9 l
0 -1 m 0 1 l
19 -1 m 0 10 l
28 -10 m 0 10 l
41 -10 m 0 10 l
66 -10 m 0 10 l
115 -10 m 0 10 l
240 -10 m 0 10 l
450 1338 M 0 10 l
140 -10 m 1 10 l
107 -10 m 1 10 l
114 -10 m 4 9 l
1 1 l
94 -10 m -4 10 l
62 -10 m -1 10 l
32 -10 m -2 10 l
24 -10 m -1 10 l
19 -10 m -1 10 l
17 -10 m -1 10 l
15 -10 m -1 10 l
13 -10 m 0 10 l
12 -10 m 0 10 l
11 -10 m 0 10 l
11 -10 m 0 10 l
10 -10 m 1 10 l
10 -10 m 0 3 l
0 7 l
10 -10 m 0 10 l
10 -10 m 1 10 l
10 -10 m 1 10 l
11 -10 m 1 10 l
73 -10 m -1 10 l
11 -10 m 0 10 l
13 -10 m 0 10 l
19 -10 m 0 10 l
28 -10 m -1 10 l
42 -10 m 0 10 l
66 -10 m 0 10 l
115 -10 m 0 10 l
240 -10 m 0 10 l
450 1348 M 0 10 l
141 -10 m 1 10 l
107 -10 m 2 10 l
117 -10 m 5 10 l
79 0 m 5 -9 l
1 -1 m -1 1 l
60 9 m 0 0 l
2 -10 m -2 10 l
32 -10 m -1 10 l
24 -10 m -1 10 l
19 -10 m 0 10 l
16 -10 m 0 10 l
14 -10 m 0 10 l
13 -10 m 0 10 l
12 -10 m 0 10 l
11 -10 m 0 10 l
11 -10 m 0 10 l
11 -10 m 0 1 l
0 9 l
10 -10 m 0 10 l
10 -10 m 1 10 l
10 -10 m 1 10 l
10 -10 m 1 10 l
11 -10 m 2 10 l
70 -10 m -1 10 l
12 -10 m -1 10 l
14 -10 m 0 10 l
19 -10 m 0 10 l
27 -10 m 0 10 l
42 -10 m 0 10 l
66 -10 m 0 10 l
115 -10 m 0 10 l
240 -10 m 0 10 l
450 1358 M 1 10 l
141 -10 m 0 10 l
109 -10 m 1 10 l
121 -10 m 4 8 l
2 2 l
67 0 m 1 -1 l
5 -9 m -5 9 l
70 -9 m -2 10 l
33 -10 m -1 10 l
24 -10 m -1 10 l
20 -10 m -1 10 l
17 -10 m -1 10 l
15 -10 m 0 10 l
13 -10 m 0 10 l
12 -10 m 0 10 l
11 -10 m 1 10 l
10 -10 m 1 10 l
10 -10 m 0 10 l
10 -10 m 1 10 l
10 -10 m 0 10 l
11 -10 m 0 10 l
11 -10 m 1 10 l
12 -10 m 1 10 l
68 -10 m -1 10 l
12 -10 m 0 10 l
14 -10 m -1 10 l
20 -10 m 0 10 l
27 -10 m 0 10 l
42 -10 m 0 10 l
66 -10 m 0 10 l
115 -10 m 0 10 l
240 -10 m 0 10 l
451 1368 M 0 11 l
141 -11 m 1 11 l
109 -11 m 2 11 l
125 -11 m 6 11 l
61 -11 m -7 11 l
76 -11 m -1 11 l
32 0 m 1 -10 l
0 -1 m 0 1 l
23 -1 m 0 11 l
19 -11 m 0 11 l
16 -11 m 0 11 l
15 -11 m -1 11 l
14 -11 m 0 11 l
12 -11 m 0 11 l
12 -11 m 0 11 l
11 -11 m 0 11 l
10 -11 m 0 11 l
11 -11 m 0 11 l
10 -11 m 1 11 l
10 -11 m 1 11 l
11 -11 m 1 11 l
12 -11 m 1 11 l
66 -11 m -1 11 l
13 -11 m -1 11 l
14 -11 m 0 11 l
20 -11 m -1 11 l
28 -11 m 0 11 l
42 -11 m 0 11 l
66 -11 m 0 11 l
115 -11 m 0 11 l
240 -11 m 0 11 l
451 1379 M 1 10 l
141 -10 m 1 10 l
110 -10 m 1 10 l
130 -10 m 2 1 l
8 9 l
34 0 m 8 -8 l
2 -2 m -2 2 l
77 -2 m -2 10 l
34 -10 m -1 10 l
25 -10 m -1 10 l
20 -10 m -1 10 l
17 -10 m 0 10 l
14 -10 m 0 10 l
14 -10 m -1 10 l
13 -10 m 0 10 l
12 -10 m 0 10 l
11 -10 m 0 2 l
0 8 l
10 -10 m 1 10 l
10 -10 m 1 10 l
10 -10 m 1 10 l
10 -10 m 1 10 l
11 -10 m 1 10 l
12 -10 m 2 10 l
63 -10 m -1 10 l
13 -10 m 0 10 l
14 -10 m 0 10 l
19 -10 m 0 10 l
28 -10 m 0 10 l
42 -10 m 0 10 l
66 -10 m 0 10 l
115 -10 m 0 10 l
240 -10 m 0 10 l
452 1389 M 0 10 l
142 -10 m 1 10 l
110 -10 m 2 10 l
138 -10 m 2 1 l
10 5 l
10 0 l
10 -5 l
2 -1 m -2 1 l
85 -1 m -2 10 l
35 -10 m -1 10 l
25 -10 m -1 10 l
20 -10 m 0 10 l
17 -10 m -1 10 l
15 -10 m 0 10 l
13 -10 m 0 10 l
13 -10 m 0 10 l
12 -10 m 0 10 l
11 -10 m 0 10 l
11 -10 m 0 10 l
11 -10 m 0 10 l
11 -10 m 0 10 l
11 -10 m 1 10 l
11 -10 m 1 10 l
13 -10 m 0 1 l
2 9 l
60 -10 m -1 10 l
14 -10 m -1 10 l
15 -10 m -1 10 l
20 -10 m 0 10 l
28 -10 m 0 10 l
42 -10 m -1 10 l
67 -10 m 0 10 l
115 -10 m 0 10 l
240 -10 m 0 10 l
452 1399 M 1 10 l
142 -10 m 1 10 l
111 -10 m 0 0 l
1 10 l
252 -10 m -2 10 l
36 -10 m -1 10 l
24 0 m 0 -2 l
1 -8 m -1 8 l
20 2 m 1 -9 l
0 -1 m 0 1 l
16 -1 m 0 10 l
15 -10 m 0 10 l
13 -10 m 0 10 l
13 -10 m 0 10 l
12 -10 m 0 10 l
11 -10 m 0 10 l
11 -10 m 0 10 l
11 -10 m 0 10 l
11 -10 m 1 10 l
11 -10 m 0 10 l
12 -10 m 1 10 l
14 -10 m 1 10 l
57 0 m 0 -3 l
1 -7 m -1 7 l
14 -7 m -1 10 l
15 -10 m 0 10 l
20 -10 m 0 10 l
28 -10 m 0 10 l
41 -10 m 0 10 l
67 -10 m -1 10 l
116 -10 m 0 10 l
240 -10 m 0 10 l
453 1409 M 0 10 l
143 -10 m 0 7 l
0 3 l
112 -10 m 2 10 l
247 0 m 0 -3 l
1 -7 m -1 7 l
36 -7 m -1 10 l
25 -10 m -1 10 l
21 -10 m -1 10 l
18 -10 m -1 10 l
16 -10 m -1 10 l
14 -10 m 0 10 l
13 -10 m 0 10 l
12 -10 m 0 10 l
11 -10 m 0 10 l
11 -10 m 1 10 l
10 -10 m 1 10 l
11 -10 m 0 10 l
11 -10 m 1 10 l
12 -10 m 1 10 l
14 -10 m 2 10 l
55 -10 m -2 10 l
15 -10 m 0 10 l
15 -10 m 0 10 l
20 -10 m -1 10 l
29 -10 m -1 10 l
42 -10 m 0 10 l
66 -10 m 0 10 l
116 -10 m 0 10 l
240 -10 m 0 10 l
453 1419 M 0 10 l
143 -10 m 1 10 l
113 -10 m 1 10 l
246 -10 m -2 10 l
37 -10 m -1 10 l
25 -10 m 0 10 l
20 -10 m 0 10 l
17 -10 m 0 10 l
15 -10 m 0 10 l
CS M
14 -10 m 0 10 l
13 -10 m 0 10 l
12 -10 m 0 10 l
11 -10 m 0 10 l
12 -10 m 0 10 l
11 -10 m 0 10 l
11 -10 m 1 10 l
11 -10 m 1 10 l
12 -10 m 1 6 l
0 4 l
15 -10 m 2 10 l
51 -10 m -2 10 l
17 -10 m -1 10 l
16 -10 m -1 10 l
20 -10 m 0 10 l
28 -10 m 0 10 l
42 -10 m 0 10 l
66 -10 m 0 10 l
116 -10 m 0 10 l
240 -10 m 0 10 l
453 1429 M 1 10 l
143 -10 m 1 10 l
113 -10 m 2 10 l
242 -10 m -2 10 l
38 -10 m -2 10 l
27 -10 m -1 10 l
21 -10 m -1 10 l
18 -10 m -1 10 l
16 -10 m 0 10 l
14 -10 m 0 10 l
13 -10 m 0 10 l
12 -10 m 0 10 l
11 -10 m 1 10 l
11 -10 m 0 10 l
11 -10 m 1 10 l
11 -10 m 0 10 l
12 -10 m 1 10 l
12 -10 m 2 10 l
15 -10 m 2 10 l
47 -10 m -2 10 l
18 -10 m -1 10 l
16 -10 m 0 10 l
20 -10 m 0 10 l
28 -10 m 0 10 l
42 -10 m 0 10 l
66 -10 m 0 10 l
116 -10 m 0 10 l
240 -10 m 0 10 l
454 1439 M 0 10 l
144 -10 m 1 10 l
114 -10 m 1 10 l
239 -10 m -2 10 l
38 -10 m -1 10 l
27 -10 m -1 10 l
21 -10 m -1 10 l
18 -10 m 0 10 l
15 0 m 1 -5 l
0 -5 m 0 5 l
14 -5 m -1 10 l
14 -10 m 0 10 l
12 -10 m 0 10 l
12 -10 m 0 10 l
11 -10 m 1 10 l
11 -10 m 0 10 l
11 -10 m 1 10 l
12 -10 m 1 10 l
13 -10 m 1 10 l
16 -10 m 1 3 l
2 7 l
42 -10 m -2 10 l
18 0 m 0 0 l
1 -10 m -1 10 l
17 -10 m -1 10 l
21 -10 m -1 10 l
29 -10 m 0 10 l
42 -10 m 0 10 l
66 -10 m 0 10 l
116 -10 m 0 10 l
240 -10 m 0 10 l
454 1449 M 1 10 l
144 -10 m 1 10 l
114 -10 m 2 10 l
235 -10 m -2 10 l
38 0 m 0 -1 l
1 -9 m -1 9 l
27 -9 m -1 10 l
21 -10 m 0 10 l
18 -10 m -1 10 l
16 -10 m 0 10 l
14 -10 m 0 10 l
14 -10 m -1 10 l
13 -10 m 0 10 l
12 -10 m 0 10 l
12 -10 m 0 10 l
11 -10 m 1 10 l
11 -10 m 1 10 l
12 -10 m 1 10 l
13 -10 m 1 10 l
18 -10 m 3 10 l
37 -10 m -2 10 l
20 -10 m -1 10 l
17 -10 m 0 10 l
20 -10 m 0 10 l
29 -10 m -1 10 l
43 -10 m -1 10 l
67 -10 m 0 10 l
116 -10 m 0 10 l
240 -10 m 0 10 l
455 1459 M 0 10 l
145 -10 m 1 10 l
115 -10 m 1 4 l
1 6 l
231 -10 m -2 10 l
40 -10 m -1 10 l
27 -10 m -1 10 l
22 -10 m -1 10 l
18 -10 m 0 10 l
16 -10 m 0 10 l
14 -10 m 0 10 l
13 -10 m 0 10 l
13 -10 m 0 10 l
12 -10 m 0 10 l
12 -10 m 0 10 l
12 -10 m 0 10 l
12 -10 m 0 10 l
13 -10 m 0 3 l
1 7 l
13 -10 m 2 10 l
19 -10 m 3 10 l
29 0 m 3 -9 l
0 -1 m 0 1 l
19 -1 m -1 10 l
18 -10 m -1 10 l
21 -10 m 0 10 l
28 -10 m 0 10 l
42 -10 m 0 10 l
67 -10 m 0 10 l
116 -10 m -1 10 l
241 -10 m -1 10 l
455 1469 M 1 10 l
145 -10 m 0 10 l
117 -10 m 1 10 l
226 0 m 2 -10 l
0 0 l
39 0 m -1 10 l
27 -10 m -1 10 l
22 -10 m 0 10 l
18 -10 m 0 10 l
16 -10 m 0 10 l
14 -10 m 0 10 l
13 -10 m 0 10 l
13 -10 m 0 10 l
12 -10 m 1 10 l
11 -10 m 1 10 l
11 -10 m 1 10 l
11 -10 m 1 10 l
13 -10 m 1 10 l
14 -10 m 1 10 l
21 -10 m 2 6 l
2 4 l
25 -10 m -4 10 l
25 -10 m -1 10 l
18 -10 m 0 10 l
21 -10 m -1 10 l
29 -10 m 0 10 l
42 -10 m 0 10 l
67 -10 m 0 10 l
115 -10 m 0 10 l
240 -10 m 0 10 l
456 1479 M 0 5 l
0 5 l
145 -10 m 1 10 l
117 -10 m 2 10 l
224 -10 m -2 10 l
42 -10 m -1 10 l
27 -10 m 0 10 l
22 -10 m -1 10 l
19 -10 m -1 10 l
17 -10 m -1 10 l
15 -10 m 0 10 l
13 -10 m 0 10 l
13 -10 m 0 10 l
13 -10 m 0 10 l
12 -10 m 0 10 l
12 -10 m 0 10 l
12 -10 m 1 10 l
13 -10 m 1 10 l
14 -10 m 2 10 l
23 -10 m 7 10 l
3 0 m 8 -3 l
3 -7 m -3 7 l
27 -7 m -1 10 l
19 -10 m -1 10 l
21 -10 m 0 10 l
29 -10 m 0 10 l
42 -10 m 0 10 l
67 -10 m -1 10 l
116 -10 m 0 10 l
240 -10 m 0 10 l
456 1489 M 1 10 l
145 -10 m 1 10 l
118 -10 m 2 10 l
220 -10 m -2 10 l
43 -10 m -2 10 l
29 -10 m -1 10 l
22 -10 m -1 10 l
19 -10 m 0 10 l
16 -10 m 0 10 l
15 -10 m 0 10 l
13 -10 m 0 10 l
13 -10 m 0 10 l
13 -10 m 0 10 l
12 -10 m 0 10 l
12 -10 m 1 10 l
12 -10 m 1 10 l
13 -10 m 1 10 l
15 -10 m 1 8 l
0 2 l
29 -10 m 1 1 l
2 -1 m -2 1 l
36 -1 m -2 10 l
20 -10 m -1 10 l
22 -10 m -1 10 l
30 -10 m -1 10 l
43 -10 m 0 10 l
66 -10 m 0 10 l
116 -10 m 0 10 l
240 -10 m 0 10 l
457 1499 M 0 10 l
146 -10 m 1 10 l
119 -10 m 2 10 l
216 -10 m -2 10 l
43 -10 m -1 10 l
29 -10 m -1 10 l
22 -10 m 0 10 l
19 -10 m -1 10 l
17 -10 m 0 10 l
15 -10 m 0 10 l
13 -10 m 0 10 l
13 -10 m 0 10 l
13 -10 m 0 10 l
12 -10 m 1 10 l
12 -10 m 0 10 l
13 -10 m 0 4 l
0 6 l
14 -10 m 1 10 l
15 -10 m 2 10 l
62 -10 m -1 10 l
20 -10 m -1 10 l
22 -10 m 0 10 l
29 -10 m 0 10 l
43 -10 m -1 10 l
67 -10 m 0 10 l
116 -10 m 0 10 l
240 -10 m 0 10 l
457 1509 M 0 10 l
147 -10 m 1 10 l
120 -10 m 2 10 l
210 0 m 0 -1 l
2 -9 m -2 9 l
44 -9 m -1 10 l
29 -10 m -1 10 l
23 -10 m -1 10 l
19 -10 m 0 10 l
17 -10 m -1 10 l
16 -10 m -1 10 l
14 -10 m 0 10 l
13 -10 m 1 10 l
12 -10 m 0 10 l
13 -10 m 0 10 l
12 -10 m 1 10 l
12 -10 m 1 10 l
14 -10 m 1 10 l
16 -10 m 2 10 l
59 -10 m -1 10 l
20 -10 m 0 10 l
22 -10 m -1 10 l
30 -10 m 0 10 l
42 -10 m 0 10 l
67 -10 m 0 10 l
116 -10 m 0 10 l
240 -10 m 0 10 l
457 1519 M 1 10 l
147 -10 m 1 10 l
121 -10 m 0 0 l
1 10 l
209 -10 m -2 10 l
45 -10 m -1 10 l
29 -10 m -1 10 l
23 -10 m 0 10 l
19 -10 m 0 10 l
16 -10 m 0 10 l
15 -10 m 0 10 l
14 -10 m 0 10 l
14 -10 m 0 9 l
0 1 l
12 -10 m 1 10 l
12 -10 m 0 10 l
13 -10 m 0 10 l
13 -10 m 1 10 l
CS M
14 -10 m 1 10 l
17 -10 m 2 10 l
54 0 m 0 0 l
2 -10 m -2 10 l
22 -10 m -1 10 l
22 -10 m 0 10 l
30 -10 m -1 10 l
43 -10 m 0 10 l
67 -10 m 0 10 l
116 -10 m 0 10 l
240 -10 m 0 10 l
458 1529 M 0 10 l
148 -10 m 0 3 l
1 7 l
121 -10 m 2 10 l
205 -10 m -3 10 l
47 -10 m -1 10 l
29 0 m 0 -9 l
0 -1 m 0 1 l
23 -1 m -1 10 l
20 -10 m -1 10 l
17 -10 m 0 10 l
15 -10 m 0 10 l
14 -10 m 0 10 l
14 -10 m 0 10 l
13 -10 m 0 10 l
12 -10 m 1 10 l
12 -10 m 1 10 l
13 -10 m 1 10 l
14 -10 m 1 10 l
18 -10 m 2 10 l
52 -10 m -2 10 l
22 0 m 0 -3 l
1 -7 m -1 7 l
23 -7 m -1 10 l
30 -10 m 0 10 l
43 -10 m 0 10 l
67 -10 m -1 10 l
117 -10 m 0 10 l
240 -10 m 0 10 l
458 1539 M 1 10 l
148 -10 m 1 10 l
122 -10 m 3 10 l
199 -10 m -2 10 l
46 0 m 1 -7 l
1 -3 m -1 3 l
30 -3 m -1 10 l
23 -10 m 0 10 l
19 -10 m 0 10 l
17 -10 m 0 10 l
15 -10 m 0 10 l
14 -10 m 0 10 l
14 -10 m 0 10 l
13 -10 m 0 10 l
13 -10 m 0 10 l
13 -10 m 0 10 l
14 -10 m 1 10 l
14 -10 m 1 10 l
19 -10 m 2 8 l
1 2 l
47 -10 m -2 10 l
24 -10 m -1 10 l
23 -10 m 0 10 l
30 -10 m 0 10 l
43 -10 m -1 10 l
67 -10 m 0 10 l
117 -10 m 0 10 l
240 -10 m 0 10 l
459 1549 M 0 10 l
149 -10 m 1 10 l
124 -10 m 2 10 l
195 -10 m -2 10 l
48 -10 m -1 10 l
31 -10 m -1 10 l
24 -10 m -1 10 l
19 0 m 1 -4 l
0 -6 m 0 6 l
17 -6 m -1 10 l
16 -10 m 0 10 l
14 -10 m 0 10 l
14 -10 m 0 10 l
13 -10 m 0 10 l
13 -10 m 1 10 l
12 -10 m 1 6 l
0 4 l
14 -10 m 0 10 l
15 -10 m 1 5 l
1 5 l
20 -10 m 3 10 l
42 -10 m -3 10 l
26 -10 m -1 10 l
24 -10 m -1 10 l
31 -10 m -1 10 l
43 -10 m 0 10 l
67 -10 m 0 10 l
117 -10 m -1 10 l
241 -10 m 0 10 l
459 1559 M 1 10 l
149 -10 m 1 10 l
125 -10 m 2 10 l
0 0 l
188 0 m 2 -6 l
1 -4 m -1 4 l
48 -4 m -1 10 l
31 -10 m -1 10 l
23 0 m 0 -1 l
1 -9 m -1 9 l
20 -9 m 0 10 l
17 -10 m 0 10 l
16 -10 m 0 10 l
14 -10 m 0 10 l
14 -10 m 0 10 l
13 -10 m 1 10 l
13 -10 m 0 10 l
13 -10 m 1 10 l
13 -10 m 1 10 l
16 -10 m 1 10 l
22 -10 m 3 10 l
36 -10 m -2 10 l
27 -10 m -1 10 l
24 -10 m 0 10 l
30 -10 m 0 10 l
43 -10 m 0 10 l
67 -10 m 0 10 l
116 -10 m 0 10 l
241 -10 m 0 10 l
460 1569 M 0 10 l
150 -10 m 1 10 l
126 -10 m 2 10 l
186 -10 m -2 10 l
51 -10 m -2 10 l
32 -10 m -1 10 l
24 -10 m 0 10 l
20 -10 m 0 10 l
17 -10 m 0 10 l
16 -10 m 0 10 l
14 -10 m 0 10 l
14 -10 m 0 10 l
14 -10 m 0 10 l
13 -10 m 0 10 l
14 -10 m 0 10 l
14 -10 m 1 10 l
16 -10 m 1 10 l
24 -10 m 3 10 l
0 0 l
27 0 m 3 -7 l
1 -3 m -1 3 l
27 -3 m -1 10 l
24 0 m 0 -4 l
1 -6 m -1 6 l
30 4 m 0 -1 l
1 -9 m -1 9 l
44 -9 m 0 10 l
67 -10 m 0 10 l
116 -10 m 0 10 l
241 -10 m 0 10 l
460 1579 M 1 10 l
150 -10 m 1 10 l
127 -10 m 2 10 l
182 -10 m -3 10 l
52 -10 m -1 10 l
32 -10 m -1 10 l
25 -10 m -1 10 l
21 -10 m -1 10 l
18 -10 m 0 10 l
16 -10 m -1 10 l
15 -10 m 0 10 l
14 -10 m 0 10 l
14 -10 m 0 10 l
13 -10 m 1 10 l
13 -10 m 1 10 l
14 -10 m 1 10 l
16 -10 m 2 10 l
25 -10 m 7 10 l
20 -10 m -5 10 l
34 -10 m -1 10 l
25 -10 m -1 10 l
31 -10 m 0 10 l
44 -10 m -1 10 l
67 0 m 1 -7 l
0 -3 m 0 3 l
116 -3 m 0 10 l
241 -10 m 0 10 l
461 1589 M 0 10 l
151 -10 m 1 10 l
128 -10 m 3 10 l
176 -10 m -2 10 l
53 -10 m -1 10 l
32 -10 m -1 10 l
25 -10 m -1 10 l
21 -10 m 0 10 l
18 -10 m -1 10 l
16 -10 m 0 10 l
15 -10 m 0 10 l
14 -10 m 1 10 l
13 -10 m 0 10 l
14 -10 m 0 10 l
14 -10 m 1 10 l
14 -10 m 1 10 l
17 -10 m 1 10 l
31 -10 m 3 5 l
10 -2 l
2 -3 m -2 3 l
35 -3 m -1 10 l
25 -10 m 0 10 l
31 -10 m -1 10 l
44 -10 m 0 10 l
67 -10 m 0 10 l
117 -10 m 0 10 l
241 -10 m -1 10 l
461 1599 M 1 10 l
151 -10 m 1 10 l
130 -10 m 2 10 l
169 0 m 2 -7 l
1 -3 m -1 3 l
53 -3 m -1 10 l
32 -10 m 0 10 l
24 -10 m 0 10 l
21 -10 m -1 10 l
18 -10 m 0 10 l
16 -10 m 0 10 l
15 -10 m 0 10 l
15 -10 m 0 10 l
13 -10 m 1 10 l
13 -10 m 1 10 l
14 -10 m 0 10 l
15 -10 m 1 10 l
17 -10 m 2 10 l
76 -10 m -2 10 l
27 -10 m -1 10 l
31 -10 m 0 10 l
44 -10 m 0 10 l
67 -10 m 0 10 l
117 -10 m 0 10 l
240 -10 m 0 10 l
462 1609 M 0 10 l
152 -10 m 1 10 l
131 -10 m 1 3 l
2 7 l
166 -10 m -3 10 l
57 -10 m -2 10 l
34 -10 m -1 10 l
25 -10 m -1 10 l
21 -10 m 0 10 l
18 -10 m 0 10 l
16 -10 m 0 10 l
15 -10 m 0 10 l
15 -10 m 0 10 l
14 -10 m 0 10 l
14 -10 m 0 10 l
14 -10 m 1 10 l
15 -10 m 1 10 l
0 0 l
18 -10 m 1 10 l
73 -10 m -1 10 l
27 -10 m -1 10 l
32 -10 m -1 10 l
45 -10 m -1 10 l
68 -10 m 0 10 l
117 -10 m 0 10 l
240 -10 m 0 10 l
462 1619 M 1 10 l
152 -10 m 1 10 l
133 -10 m 2 10 l
161 -10 m -2 10 l
56 0 m 1 -8 l
0 -2 m 0 2 l
33 -2 m -1 10 l
25 -10 m 0 10 l
21 -10 m -1 10 l
19 -10 m -1 10 l
17 -10 m 0 10 l
15 -10 m 0 10 l
15 -10 m 0 10 l
14 -10 m 0 10 l
14 -10 m 1 10 l
14 -10 m 1 10 l
15 -10 m 1 10 l
18 -10 m 1 3 l
1 7 l
68 0 m 1 -4 l
1 -6 m -1 6 l
27 -6 m -1 10 l
32 -10 m 0 10 l
44 -10 m 0 10 l
68 -10 m 0 10 l
117 -10 m -1 10 l
241 -10 m 0 10 l
463 1629 M 1 10 l
152 -10 m 0 5 l
1 5 l
134 -10 m 3 10 l
153 0 m 0 -1 l
3 -9 m -3 9 l
59 -9 m -1 10 l
34 -10 m -1 10 l
26 -10 m -1 10 l
21 -10 m 0 10 l
18 -10 m 0 10 l
17 -10 m 0 10 l
CS M
15 -10 m 0 10 l
15 -10 m 0 10 l
14 -10 m 1 10 l
14 -10 m 0 2 l
0 8 l
15 -10 m 0 10 l
16 -10 m 1 10 l
19 -10 m 2 10 l
66 -10 m -1 10 l
28 -10 m 0 10 l
32 -10 m -1 10 l
45 -10 m -1 10 l
69 -10 m -1 10 l
117 -10 m 0 10 l
241 -10 m 0 10 l
464 1639 M 0 10 l
153 -10 m 1 10 l
136 -10 m 3 10 l
0 0 l
150 -10 m -4 10 l
62 -10 m -2 10 l
34 0 m 0 -2 l
1 -8 m -1 8 l
26 -8 m -1 10 l
22 -10 m 0 10 l
18 -10 m 0 10 l
17 -10 m 0 10 l
15 -10 m 0 10 l
15 -10 m 0 10 l
15 -10 m 0 10 l
14 -10 m 1 10 l
14 -10 m 1 10 l
16 -10 m 1 10 l
20 -10 m 2 10 l
63 -10 m -2 10 l
30 -10 m -1 10 l
32 -10 m 0 10 l
44 -10 m 0 10 l
68 -10 m 0 10 l
117 -10 m 0 10 l
241 -10 m 0 10 l
464 1649 M 1 10 l
153 -10 m 1 10 l
138 -10 m 3 10 l
143 -10 m -3 10 l
63 -10 m -1 10 l
35 -10 m -1 10 l
26 -10 m 0 10 l
22 -10 m -1 10 l
19 -10 m 0 10 l
17 -10 m 0 10 l
15 -10 m 0 10 l
15 -10 m 1 10 l
14 -10 m 0 10 l
15 -10 m 0 10 l
15 -10 m 1 10 l
16 -10 m 1 10 l
21 -10 m 2 10 l
59 -10 m -2 10 l
31 -10 m -1 10 l
33 -10 m -1 10 l
45 -10 m 0 10 l
68 -10 m 0 10 l
117 -10 m 0 10 l
241 -10 m 0 10 l
465 1659 M 0 10 l
154 -10 m 1 10 l
140 -10 m 3 10 l
134 0 m 0 0 l
3 -10 m -3 10 l
65 -10 m -1 10 l
35 -10 m -1 10 l
27 -10 m -1 10 l
22 -10 m 0 10 l
19 -10 m 0 10 l
17 -10 m 0 10 l
15 -10 m 0 10 l
16 -10 m 0 10 l
14 -10 m 1 10 l
14 -10 m 1 10 l
15 -10 m 1 10 l
16 -10 m 1 10 l
22 -10 m 3 10 l
54 -10 m -2 10 l
32 -10 m -1 10 l
33 -10 m 0 10 l
44 0 m 0 -2 l
1 -8 m -1 8 l
69 -8 m 0 10 l
117 -10 m 0 10 l
241 -10 m 0 10 l
465 1669 M 1 10 l
154 -10 m 1 10 l
142 -10 m 3 10 l
131 -10 m -4 10 l
68 -10 m -2 10 l
36 -10 m -1 10 l
27 -10 m 0 10 l
22 -10 m -1 10 l
20 -10 m -1 10 l
18 -10 m -1 10 l
16 -10 m 0 10 l
16 -10 m 0 10 l
15 -10 m 0 10 l
15 -10 m 0 10 l
16 -10 m 0 10 l
17 -10 m 2 10 l
23 -10 m 0 2 l
2 8 l
48 0 m 0 0 l
2 -10 m -2 10 l
33 -10 m -1 10 l
34 -10 m -1 10 l
45 -10 m 0 10 l
69 -10 m -1 10 l
118 -10 m -1 10 l
242 -10 m 0 10 l
466 1679 M 0 3 l
0 7 l
155 -10 m 1 10 l
144 -10 m 1 1 l
3 9 l
123 -10 m -4 10 l
70 -10 m -1 10 l
36 -10 m 0 10 l
27 -10 m -1 10 l
22 -10 m 0 10 l
19 -10 m 0 10 l
17 -10 m 0 10 l
16 -10 m 0 10 l
16 -10 m 0 10 l
15 -10 m 0 10 l
15 -10 m 1 10 l
15 -10 m 1 10 l
18 -10 m 1 10 l
24 -10 m 4 10 l
44 -10 m -3 10 l
35 -10 m -1 10 l
34 -10 m 0 10 l
45 -10 m 0 10 l
68 -10 m 0 10 l
117 -10 m 0 10 l
242 -10 m -1 10 l
466 1689 M 1 10 l
155 -10 m 1 10 l
147 -10 m 4 10 l
111 0 m 2 -3 l
2 -7 m -2 7 l
70 3 m 0 -4 l
1 -6 m -1 6 l
37 -6 m -1 10 l
27 -10 m -1 10 l
23 -10 m -1 10 l
20 -10 m 0 10 l
17 -10 m 0 10 l
16 -10 m 1 10 l
15 -10 m 0 10 l
15 -10 m 1 10 l
15 -10 m 0 10 l
16 -10 m 1 10 l
0 0 l
18 -10 m 1 10 l
27 -10 m 3 10 l
38 -10 m -3 10 l
36 0 m 0 -2 l
1 -8 m -1 8 l
35 -8 m -1 10 l
46 -10 m -1 10 l
69 -10 m 0 10 l
117 -10 m 0 10 l
241 -10 m 0 10 l
467 1699 M 0 10 l
156 -10 m 1 10 l
150 -10 m 3 8 l
1 2 l
107 -10 m -4 10 l
76 -10 m -2 10 l
38 -10 m -1 10 l
27 -10 m 0 10 l
22 -10 m 0 10 l
20 -10 m 0 10 l
17 -10 m 0 10 l
17 -10 m 0 10 l
15 -10 m 0 10 l
16 -10 m 0 10 l
15 -10 m 1 10 l
16 -10 m 1 10 l
18 -10 m 1 7 l
0 3 l
29 -10 m 1 4 l
4 6 l
30 -10 m -4 10 l
40 -10 m -1 10 l
35 -10 m -1 10 l
46 -10 m 0 10 l
69 -10 m -1 10 l
118 -10 m 0 10 l
241 -10 m 0 10 l
467 1709 M 1 10 l
156 -10 m 2 10 l
152 -10 m 5 10 l
93 0 m 1 -1 l
4 -9 m -4 9 l
78 -9 m -1 10 l
38 -10 m -1 10 l
28 -10 m -1 10 l
23 -10 m 0 10 l
20 -10 m -1 10 l
18 -10 m 0 10 l
17 -10 m 0 10 l
15 -10 m 1 10 l
15 -10 m 0 10 l
16 -10 m 0 10 l
17 -10 m 1 10 l
18 -10 m 2 10 l
32 -10 m 5 10 l
14 0 m 7 -9 l
0 -1 m 0 1 l
39 -1 m -1 10 l
35 -10 m 0 10 l
46 -10 m -1 10 l
69 -10 m 0 10 l
118 -10 m 0 10 l
241 -10 m 0 10 l
468 1719 M 1 10 l
157 -10 m 0 6 l
1 4 l
156 -10 m 4 9 l
1 1 l
88 -10 m -5 10 l
83 -10 m -2 10 l
39 -10 m -1 10 l
28 -10 m 0 10 l
23 -10 m -1 10 l
20 -10 m 0 10 l
18 -10 m 0 10 l
17 -10 m 0 10 l
16 -10 m 0 10 l
15 -10 m 1 10 l
15 -10 m 1 10 l
17 -10 m 1 10 l
19 -10 m 1 10 l
36 -10 m 1 2 l
10 2 l
3 -4 m -3 4 l
48 -4 m -1 10 l
36 -10 m -1 10 l
46 -10 m 0 10 l
69 -10 m 0 10 l
118 -10 m -1 10 l
242 -10 m 0 10 l
469 1729 M 0 11 l
158 -11 m 1 11 l
160 -11 m 5 11 l
72 0 m 2 -4 l
4 -7 m -4 7 l
85 -7 m -1 11 l
39 -11 m -1 11 l
28 0 m 0 -7 l
1 -4 m -1 4 l
23 -4 m 0 11 l
20 -11 m 0 11 l
18 -11 m 0 11 l
17 -11 m 0 11 l
16 -11 m 0 11 l
16 -11 m 0 11 l
16 -11 m 1 11 l
17 -11 m 0 11 l
20 -11 m 2 11 l
92 -11 m -2 11 l
37 -11 m -1 11 l
47 -11 m -1 11 l
70 -11 m -1 11 l
118 -11 m 0 11 l
242 -11 m 0 11 l
469 1740 M 1 10 l
158 -10 m 1 10 l
164 -10 m 4 5 l
4 5 l
64 -10 m -7 10 l
93 -10 m -2 10 l
40 -10 m -1 10 l
29 -10 m -1 10 l
24 -10 m -1 10 l
21 -10 m 0 10 l
18 -10 m 0 10 l
17 -10 m 0 10 l
16 -10 m 0 10 l
16 -10 m 0 10 l
17 -10 m 0 10 l
17 -10 m 1 10 l
21 -10 m 1 10 l
89 -10 m -1 10 l
37 -10 m -1 10 l
47 -10 m 0 10 l
69 -10 m 0 10 l
118 -10 m 0 10 l
242 -10 m 0 10 l
470 1750 M 0 10 l
159 -10 m 2 10 l
CS M
170 -10 m 6 7 l
3 3 l
38 0 m 9 -10 l
1 0 m -1 0 l
92 0 m -1 10 l
39 0 m 0 -1 l
1 -9 m -1 9 l
29 -9 m 0 10 l
23 -10 m 0 10 l
21 -10 m -1 10 l
19 -10 m 0 10 l
17 -10 m 0 10 l
16 -10 m 0 10 l
16 -10 m 1 6 l
0 4 l
16 -10 m 1 10 l
17 -10 m 1 10 l
21 -10 m 2 10 l
86 -10 m -2 10 l
38 0 m 0 -9 l
0 -1 m 0 1 l
47 -1 m -1 10 l
70 -10 m 0 10 l
118 -10 m 0 10 l
242 -10 m 0 10 l
470 1760 M 1 10 l
160 -10 m 1 10 l
178 -10 m 7 4 l
10 3 l
10 -1 l
10 -6 l
1 0 m -1 0 l
99 10 m 1 -6 l
1 -4 m -1 4 l
40 -4 m -1 10 l
30 -10 m -1 10 l
24 -10 m 0 10 l
20 -10 m 0 10 l
19 -10 m 0 10 l
17 -10 m 0 10 l
16 -10 m 1 10 l
16 -10 m 0 10 l
17 -10 m 0 10 l
18 -10 m 1 10 l
22 -10 m 1 10 l
83 -10 m -1 10 l
39 -10 m -1 10 l
47 -10 m 0 10 l
70 -10 m -1 10 l
119 -10 m 0 10 l
242 -10 m -1 10 l
471 1770 M 1 10 l
160 -10 m 1 10 l
313 -10 m -1 10 l
41 -10 m -1 10 l
30 -10 m -1 10 l
25 -10 m -1 10 l
21 -10 m 0 10 l
19 0 m 0 -5 l
0 -5 m 0 5 l
17 -5 m 0 10 l
17 -10 m 0 10 l
16 -10 m 1 10 l
16 -10 m 1 10 l
18 -10 m 1 10 l
22 -10 m 1 2 l
1 8 l
78 0 m 1 -5 l
1 -5 m -1 5 l
39 -5 m -1 10 l
48 -10 m -1 10 l
70 -10 m 0 10 l
119 -10 m -1 10 l
242 -10 m 0 10 l
472 1780 M 0 10 l
161 -10 m 1 10 l
311 -10 m -2 10 l
42 -10 m -1 10 l
30 -10 m 0 10 l
24 -10 m 0 10 l
21 -10 m 0 10 l
19 -10 m -1 10 l
18 -10 m 0 10 l
17 -10 m 0 10 l
17 -10 m 0 10 l
17 -10 m 1 10 l
18 -10 m 1 10 l
23 -10 m 2 10 l
76 -10 m -1 10 l
40 -10 m -1 10 l
48 -10 m 0 10 l
70 -10 m 0 10 l
118 -10 m 0 10 l
242 -10 m 0 10 l
472 1790 M 1 10 l
161 -10 m 2 10 l
307 -10 m -1 10 l
42 -10 m -1 10 l
31 -10 m -1 10 l
24 0 m 1 -1 l
0 -9 m 0 9 l
21 -9 m -1 10 l
19 -10 m 0 10 l
18 -10 m 0 10 l
17 -10 m 0 10 l
17 -10 m 1 10 l
17 -10 m 0 10 l
19 -10 m 1 10 l
24 -10 m 2 10 l
73 -10 m -2 10 l
41 -10 m -1 10 l
49 -10 m -1 10 l
71 -10 m -1 10 l
119 -10 m 0 10 l
242 -10 m 0 10 l
473 1800 M 1 10 l
162 -10 m 0 5 l
1 5 l
305 -10 m -2 10 l
43 -10 m 0 10 l
30 -10 m 0 10 l
24 -10 m 0 10 l
21 -10 m 0 10 l
19 -10 m 0 10 l
18 -10 m 0 10 l
17 -10 m 1 10 l
17 -10 m 0 10 l
17 -10 m 1 7 l
0 3 l
19 -10 m 1 7 l
0 3 l
25 -10 m 3 10 l
68 -10 m -2 10 l
42 -10 m -1 10 l
49 -10 m 0 10 l
70 -10 m 0 10 l
119 -10 m 0 10 l
242 -10 m 0 10 l
474 1810 M 0 10 l
163 -10 m 1 10 l
302 -10 m -2 10 l
45 -10 m -1 10 l
31 -10 m -1 10 l
25 -10 m 0 10 l
21 -10 m 0 10 l
19 -10 m 0 10 l
18 -10 m 0 10 l
18 -10 m 0 10 l
17 -10 m 0 10 l
18 -10 m 1 10 l
19 -10 m 1 10 l
27 -10 m 2 10 l
64 -10 m -2 10 l
43 -10 m 0 10 l
49 -10 m -1 10 l
71 -10 m 0 10 l
119 -10 m -1 10 l
243 -10 m 0 10 l
474 1820 M 1 10 l
163 -10 m 2 10 l
297 0 m 0 -2 l
1 -8 m -1 8 l
45 -8 m -1 10 l
31 -10 m -1 10 l
26 -10 m -1 10 l
22 -10 m 0 10 l
19 -10 m 0 10 l
18 -10 m 0 10 l
18 -10 m 0 10 l
17 -10 m 1 10 l
18 -10 m 0 10 l
20 -10 m 1 10 l
28 -10 m 0 1 l
2 9 l
58 0 m 0 -2 l
2 -8 m -2 8 l
45 -8 m -1 10 l
49 -10 m -1 10 l
72 -10 m -1 10 l
119 -10 m 0 10 l
243 -10 m -1 10 l
475 1830 M 0 10 l
165 -10 m 1 10 l
296 -10 m -2 10 l
46 -10 m -1 10 l
31 -10 m 0 10 l
25 -10 m 0 10 l
22 0 m 0 -2 l
0 -8 m 0 8 l
19 -8 m 0 10 l
18 -10 m 1 10 l
17 -10 m 0 10 l
18 -10 m 0 10 l
18 -10 m 1 10 l
20 -10 m 2 10 l
28 -10 m 3 10 l
55 -10 m -3 10 l
47 -10 m -1 10 l
49 -10 m 0 10 l
71 -10 m 0 10 l
119 -10 m 0 10 l
242 -10 m 0 10 l
475 1840 M 1 6 l
0 4 l
165 -10 m 2 10 l
292 -10 m -1 10 l
46 -10 m -1 10 l
32 -10 m -1 10 l
26 -10 m -1 10 l
23 -10 m -1 10 l
20 -10 m 0 10 l
19 -10 m 0 10 l
17 -10 m 1 10 l
17 -10 m 1 10 l
18 -10 m 1 10 l
21 -10 m 1 10 l
30 -10 m 3 10 l
49 -10 m -3 10 l
49 -10 m -1 10 l
50 -10 m -1 10 l
72 -10 m -1 10 l
120 -10 m -1 10 l
243 -10 m 0 10 l
476 1850 M 1 10 l
166 -10 m 1 10 l
290 -10 m -2 10 l
47 -10 m -1 10 l
32 -10 m -1 10 l
26 -10 m 0 10 l
22 -10 m 0 10 l
20 -10 m 0 10 l
19 -10 m 0 10 l
18 -10 m 0 10 l
18 -10 m 0 10 l
19 -10 m 1 10 l
21 -10 m 1 10 l
32 -10 m 2 6 l
2 4 l
42 -10 m -3 10 l
51 -10 m -2 10 l
51 -10 m 0 10 l
71 -10 m 0 10 l
119 -10 m 0 10 l
243 -10 m 0 10 l
477 1860 M 1 10 l
166 -10 m 1 10 l
287 -10 m -2 10 l
47 0 m 0 -4 l
1 -6 m -1 6 l
32 -6 m 0 10 l
26 -10 m 0 10 l
22 -10 m 0 10 l
20 -10 m 0 10 l
19 -10 m 0 10 l
18 -10 m 0 10 l
18 -10 m 1 10 l
19 -10 m 0 10 l
22 -10 m 1 10 l
35 -10 m 5 10 l
29 0 m 4 -9 l
1 -1 m -1 1 l
49 9 m 1 -8 l
0 -2 m 0 2 l
50 8 m 0 -8 l
1 -2 m -1 2 l
72 -2 m -1 10 l
120 0 m 0 -4 l
0 -6 m 0 6 l
243 -6 m 0 10 l
478 1870 M 0 10 l
167 -10 m 1 7 l
1 3 l
283 -10 m -2 10 l
49 -10 m -1 10 l
33 -10 m -1 10 l
27 -10 m -1 10 l
23 -10 m 0 10 l
20 -10 m 0 10 l
19 -10 m 0 10 l
18 -10 m 0 10 l
19 -10 m 0 10 l
19 -10 m 1 10 l
22 -10 m 1 10 l
39 -10 m 3 7 l
4 3 l
22 -10 m -6 10 l
59 -10 m -1 10 l
52 -10 m -1 10 l
72 -10 m 0 10 l
120 -10 m 0 10 l
243 -10 m 0 10 l
478 1880 M 1 10 l
168 -10 m 1 10 l
279 0 m 0 -2 l
1 -8 m -1 8 l
49 -8 m -1 10 l
33 -10 m 0 10 l
26 -10 m 0 10 l
23 -10 m -1 10 l
21 -10 m 0 10 l
CS M
19 -10 m 0 10 l
18 -10 m 1 10 l
18 -10 m 1 10 l
19 -10 m 1 10 l
22 -10 m 2 10 l
44 -10 m 6 5 l
10 -5 l
0 0 l
58 0 m -1 10 l
52 -10 m 0 10 l
72 0 m 0 -2 l
0 -8 m 0 8 l
120 -8 m -1 10 l
244 -10 m -1 10 l
479 1890 M 1 10 l
168 -10 m 2 10 l
277 -10 m -2 10 l
50 -10 m -1 10 l
33 0 m 0 -6 l
1 -4 m -1 4 l
27 -4 m -1 10 l
23 -10 m 0 10 l
21 -10 m 0 10 l
19 -10 m 0 10 l
19 -10 m 0 10 l
19 -10 m 0 10 l
20 -10 m 1 10 l
23 -10 m 0 2 l
1 8 l
116 -10 m -1 10 l
53 -10 m -1 10 l
73 -10 m -1 10 l
120 -10 m 0 10 l
243 -10 m 0 10 l
480 1900 M 0 10 l
170 -10 m 1 10 l
274 -10 m -2 10 l
51 -10 m -1 10 l
34 -10 m -1 10 l
27 -10 m 0 10 l
23 -10 m 0 10 l
21 -10 m 0 10 l
19 -10 m 0 10 l
19 -10 m 0 10 l
19 -10 m 1 10 l
20 -10 m 0 10 l
24 -10 m 2 10 l
113 -10 m -1 10 l
53 -10 m -1 10 l
73 -10 m 0 10 l
120 -10 m 0 10 l
243 -10 m 0 10 l
480 1910 M 1 10 l
170 -10 m 2 10 l
270 -10 m -2 10 l
52 -10 m -1 10 l
34 -10 m 0 10 l
27 -10 m -1 10 l
24 -10 m 0 10 l
21 -10 m 0 10 l
19 -10 m 0 10 l
19 -10 m 1 10 l
19 -10 m 0 10 l
20 -10 m 1 10 l
25 -10 m 1 10 l
111 -10 m -2 10 l
54 -10 m -1 10 l
74 -10 m -1 10 l
121 -10 m -1 10 l
244 -10 m 0 10 l
481 1920 M 1 10 l
171 -10 m 2 10 l
266 -10 m -2 10 l
53 -10 m -1 10 l
35 -10 m -1 10 l
27 -10 m 0 10 l
24 -10 m -1 10 l
22 -10 m 0 10 l
19 -10 m 1 10 l
19 -10 m 0 10 l
19 -10 m 1 10 l
20 -10 m 1 10 l
25 -10 m 2 10 l
107 -10 m -1 10 l
54 -10 m 0 10 l
73 -10 m 0 10 l
120 -10 m 0 10 l
244 -10 m 0 10 l
482 1930 M 0 10 l
173 -10 m 1 10 l
263 -10 m -1 10 l
53 -10 m -1 10 l
35 -10 m -1 10 l
28 -10 m 0 10 l
23 -10 m 0 10 l
22 -10 m 0 10 l
20 -10 m 0 10 l
19 -10 m 0 10 l
20 -10 m 0 10 l
21 -10 m 1 9 l
0 1 l
26 -10 m 1 10 l
105 -10 m -2 10 l
56 -10 m -1 10 l
74 -10 m -1 10 l
121 -10 m 0 10 l
244 -10 m 0 10 l
482 1940 M 1 10 l
173 -10 m 0 1 l
2 9 l
258 0 m 1 -7 l
1 -3 m -1 3 l
53 -3 m -1 10 l
35 -10 m 0 10 l
28 -10 m -1 10 l
24 -10 m 0 10 l
22 -10 m 0 10 l
20 -10 m 0 10 l
19 -10 m 1 10 l
19 -10 m 1 10 l
21 -10 m 1 10 l
26 -10 m 2 10 l
100 0 m 1 -8 l
0 -2 m 0 2 l
55 -2 m -1 10 l
74 -10 m 0 10 l
121 -10 m -1 10 l
245 -10 m -1 10 l
483 1950 M 1 10 l
174 -10 m 2 10 l
256 -10 m -2 10 l
55 -10 m -1 10 l
36 -10 m -1 10 l
28 -10 m 0 10 l
24 -10 m 0 10 l
22 -10 m -1 10 l
21 -10 m 0 10 l
20 -10 m 0 10 l
20 -10 m 0 10 l
22 -10 m 1 10 l
27 -10 m 1 8 l
0 2 l
99 -10 m -2 10 l
57 -10 m -1 10 l
75 -10 m -1 10 l
121 -10 m 0 10 l
244 -10 m 0 10 l
484 1960 M 1 10 l
175 -10 m 1 10 l
253 -10 m -2 10 l
55 0 m 0 -3 l
1 -7 m -1 7 l
36 -7 m -1 10 l
29 -10 m 0 10 l
24 -10 m 0 10 l
21 -10 m 0 10 l
21 -10 m 0 10 l
20 -10 m 0 10 l
20 -10 m 1 9 l
0 1 l
22 -10 m 1 10 l
27 -10 m 2 10 l
95 -10 m -1 10 l
57 -10 m -1 10 l
75 -10 m 0 10 l
121 -10 m 0 10 l
244 -10 m 0 10 l
485 1970 M 0 10 l
176 -10 m 2 10 l
249 -10 m -2 10 l
57 -10 m -1 10 l
36 -10 m 0 10 l
29 -10 m -1 10 l
25 -10 m -1 10 l
22 -10 m 0 10 l
21 -10 m 0 10 l
20 -10 m 1 10 l
20 -10 m 0 10 l
23 -10 m 1 10 l
28 -10 m 2 10 l
92 -10 m -2 10 l
58 -10 m 0 10 l
75 -10 m -1 10 l
122 -10 m -1 10 l
245 0 m 0 0 l
0 -10 m 0 10 l
485 1980 M 1 7 l
0 3 l
177 -10 m 2 10 l
245 -10 m -2 10 l
58 -10 m -1 10 l
37 -10 m -1 10 l
29 -10 m 0 10 l
24 -10 m 0 10 l
22 -10 m 0 10 l
21 -10 m 0 10 l
21 -10 m 0 6 l
0 4 l
20 -10 m 1 10 l
23 -10 m 1 10 l
29 -10 m 2 10 l
88 -10 m -2 10 l
60 -10 m -1 10 l
75 -10 m 0 10 l
121 -10 m 0 10 l
245 -10 m 0 10 l
486 1990 M 1 10 l
178 -10 m 1 8 l
1 2 l
239 0 m 1 -6 l
1 -4 m -1 4 l
58 -4 m -1 10 l
37 -10 m -1 10 l
30 -10 m -1 10 l
25 -10 m 0 10 l
22 -10 m 0 10 l
21 -10 m 0 10 l
21 -10 m 0 10 l
21 -10 m 1 10 l
23 -10 m 1 10 l
30 -10 m 2 10 l
84 -10 m -2 10 l
60 0 m 0 -6 l
1 -4 m -1 4 l
76 -4 m -1 10 l
122 -10 m 0 10 l
245 -10 m -1 10 l
487 2000 M 1 10 l
179 -10 m 2 10 l
237 -10 m -2 10 l
60 -10 m -1 10 l
37 -10 m 0 10 l
29 -10 m 0 10 l
25 -10 m 0 10 l
22 -10 m 0 10 l
21 -10 m 1 10 l
20 -10 m 1 10 l
21 -10 m 0 10 l
24 -10 m 1 10 l
31 -10 m 2 9 l
0 1 l
78 0 m 2 -10 l
0 0 l
60 0 m -1 10 l
76 -10 m -1 10 l
123 -10 m -1 10 l
245 -10 m 0 10 l
488 2010 M 0 10 l
181 -10 m 2 10 l
233 -10 m -3 10 l
62 -10 m -1 10 l
38 -10 m -1 10 l
30 -10 m 0 10 l
25 -10 m 0 10 l
22 -10 m 0 10 l
22 -10 m 0 3 l
0 7 l
21 -10 m 0 10 l
21 -10 m 1 10 l
24 -10 m 1 10 l
32 -10 m 3 10 l
75 -10 m -2 10 l
63 -10 m -1 10 l
76 -10 m 0 10 l
122 -10 m 0 10 l
245 -10 m 0 10 l
488 2020 M 1 10 l
182 -10 m 2 10 l
228 -10 m -2 10 l
63 -10 m -1 10 l
38 -10 m 0 10 l
30 -10 m -1 10 l
26 -10 m -1 10 l
23 -10 m 0 10 l
22 -10 m 0 10 l
21 -10 m 0 10 l
22 -10 m 0 10 l
25 -10 m 0 10 l
35 -10 m 2 10 l
71 -10 m -3 10 l
65 -10 m -1 10 l
77 -10 m -1 10 l
123 -10 m 0 10 l
245 -10 m 0 10 l
489 2030 M 1 10 l
183 -10 m 2 10 l
224 -10 m -2 10 l
64 -10 m -1 10 l
39 -10 m -1 10 l
30 -10 m 0 10 l
25 -10 m 0 10 l
23 -10 m 0 10 l
22 -10 m 0 10 l
21 -10 m 1 10 l
21 -10 m 1 10 l
24 -10 m 2 10 l
35 -10 m 3 10 l
65 -10 m -2 10 l
66 -10 m -1 10 l
77 -10 m 0 10 l
CS M
123 -10 m -1 10 l
246 -10 m -1 10 l
490 2040 M 1 10 l
184 -10 m 1 9 l
1 1 l
218 0 m 2 -10 l
0 0 l
63 0 m -2 10 l
39 0 m 0 -1 l
1 -9 m -1 9 l
30 1 m 0 -2 l
1 -8 m -1 8 l
26 -8 m 0 10 l
23 -10 m 0 10 l
22 -10 m 0 10 l
22 -10 m 0 10 l
22 -10 m 1 10 l
25 -10 m 0 4 l
1 6 l
37 -10 m 2 8 l
1 2 l
57 0 m 2 -7 l
1 -3 m -1 3 l
66 -3 m -1 10 l
78 -10 m -1 10 l
123 -10 m 0 10 l
245 -10 m 0 10 l
491 2050 M 1 10 l
185 -10 m 2 10 l
216 -10 m -3 10 l
66 -10 m -1 10 l
40 -10 m 0 10 l
30 -10 m 0 10 l
26 -10 m 0 10 l
23 -10 m 0 10 l
22 -10 m 0 10 l
22 -10 m 0 10 l
23 -10 m 0 10 l
26 -10 m 1 10 l
39 -10 m 4 10 l
53 -10 m -4 10 l
71 -10 m -1 10 l
78 -10 m 0 10 l
123 -10 m -1 10 l
246 -10 m 0 10 l
492 2060 M 0 10 l
187 -10 m 2 10 l
211 -10 m -2 10 l
66 0 m 1 -8 l
0 -2 m 0 2 l
40 -2 m -1 10 l
31 -10 m 0 10 l
26 -10 m 0 10 l
23 -10 m 0 10 l
22 -10 m 1 10 l
21 -10 m 1 10 l
22 -10 m 1 10 l
26 -10 m 1 10 l
42 -10 m 4 10 l
45 -10 m -3 10 l
73 -10 m -1 10 l
79 -10 m -1 10 l
123 -10 m 0 10 l
246 -10 m 0 10 l
492 2070 M 1 11 l
188 -11 m 2 11 l
207 -11 m -2 11 l
68 -11 m -1 11 l
41 -11 m -1 11 l
32 -11 m -1 11 l
27 -11 m -1 11 l
24 -11 m 0 11 l
23 -11 m 0 11 l
22 -11 m 0 11 l
23 -11 m 1 11 l
26 -11 m 1 11 l
45 -11 m 1 4 l
4 7 l
31 0 m 5 -9 l
1 -2 m -1 2 l
73 -2 m -1 11 l
78 0 m 1 -5 l
0 -6 m 0 6 l
123 -6 m 0 11 l
246 -11 m -1 11 l
493 2081 M 1 10 l
189 -10 m 3 10 l
199 0 m 2 -8 l
1 -2 m -1 2 l
68 -2 m -1 10 l
41 -10 m 0 10 l
31 -10 m 0 10 l
26 -10 m 0 10 l
24 -10 m 0 10 l
23 -10 m 0 10 l
22 -10 m 1 10 l
23 -10 m 0 10 l
27 -10 m 1 10 l
49 -10 m 6 9 l
1 1 l
17 0 m 2 -2 l
5 -8 m -5 8 l
82 -8 m -1 10 l
79 -10 m 0 10 l
124 -10 m -1 10 l
246 -10 m 0 10 l
494 2091 M 1 10 l
191 -10 m 0 3 l
2 7 l
197 -10 m -3 10 l
72 -10 m -1 10 l
42 -10 m -1 10 l
32 -10 m -1 10 l
27 -10 m 0 10 l
24 -10 m 0 10 l
23 -10 m 0 10 l
23 -10 m 0 10 l
23 -10 m 1 10 l
27 -10 m 2 10 l
54 -10 m 9 4 l
8 -4 m -8 4 l
90 6 m 0 -6 l
1 -4 m -1 4 l
80 -4 m -1 10 l
124 -10 m 0 10 l
246 -10 m 0 10 l
495 2101 M 1 10 l
192 -10 m 2 10 l
192 -10 m -2 10 l
73 -10 m -1 10 l
42 -10 m -1 10 l
32 -10 m 0 10 l
27 -10 m 0 10 l
24 -10 m 0 10 l
23 -10 m 0 10 l
23 -10 m 0 10 l
24 -10 m 1 10 l
28 -10 m 1 10 l
152 -10 m -1 10 l
80 -10 m -1 10 l
125 -10 m -1 10 l
247 -10 m 0 10 l
496 2111 M 0 1 l
1 9 l
193 -10 m 3 10 l
187 -10 m -3 10 l
75 -10 m -1 10 l
42 -10 m 0 10 l
32 -10 m -1 10 l
28 -10 m 0 10 l
24 -10 m 0 10 l
23 -10 m 1 10 l
22 -10 m 1 10 l
24 -10 m 0 10 l
29 -10 m 1 10 l
150 -10 m -2 10 l
81 -10 m 0 10 l
124 -10 m 0 10 l
247 -10 m -1 10 l
497 2121 M 1 10 l
195 -10 m 3 10 l
178 0 m 3 -10 l
0 0 l
74 0 m -1 10 l
43 -10 m -1 10 l
32 -10 m 0 10 l
28 -10 m -1 10 l
25 -10 m 0 10 l
24 -10 m 0 10 l
23 -10 m 0 10 l
24 -10 m 1 6 l
0 4 l
29 -10 m 1 7 l
0 3 l
147 -10 m -1 10 l
82 -10 m -1 10 l
125 -10 m 0 10 l
246 -10 m 0 10 l
498 2131 M 0 10 l
198 -10 m 1 3 l
1 7 l
176 -10 m -3 10 l
79 -10 m -1 10 l
43 -10 m -1 10 l
33 -10 m 0 10 l
27 -10 m 0 10 l
25 -10 m 0 10 l
24 -10 m 0 10 l
23 -10 m 1 10 l
24 -10 m 1 10 l
29 -10 m 2 10 l
144 -10 m -1 10 l
82 -10 m -1 10 l
126 -10 m -1 10 l
247 -10 m 0 10 l
498 2141 M 1 10 l
199 -10 m 3 10 l
170 -10 m -3 10 l
81 -10 m -2 10 l
44 -10 m -1 10 l
34 -10 m -1 10 l
28 -10 m 0 10 l
25 -10 m 0 10 l
24 -10 m 0 10 l
24 -10 m 0 10 l
25 -10 m 1 10 l
30 -10 m 1 10 l
142 -10 m -2 10 l
83 -10 m 0 10 l
125 0 m 0 -5 l
0 -5 m 0 5 l
247 -5 m 0 10 l
499 2151 M 1 10 l
201 -10 m 3 10 l
161 0 m 2 -6 l
1 -4 m -1 4 l
79 6 m 1 -8 l
0 -2 m 0 2 l
43 -2 m 0 10 l
33 -10 m 0 10 l
28 -10 m 0 10 l
25 -10 m 0 10 l
24 -10 m 0 10 l
24 -10 m 0 10 l
26 -10 m 0 10 l
31 -10 m 2 10 l
138 -10 m -1 10 l
84 -10 m -1 10 l
126 -10 m -1 10 l
248 -10 m -1 10 l
500 2161 M 1 10 l
203 -10 m 3 8 l
0 2 l
158 -10 m -3 10 l
84 -10 m -1 10 l
45 -10 m -1 10 l
34 -10 m -1 10 l
29 -10 m 0 10 l
25 -10 m 0 10 l
24 -10 m 0 10 l
24 -10 m 1 10 l
25 -10 m 1 10 l
32 -10 m 1 10 l
136 -10 m -1 10 l
84 -10 m -1 10 l
126 -10 m 0 10 l
247 -10 m 0 10 l
501 2171 M 1 10 l
205 -10 m 3 10 l
152 -10 m -4 10 l
87 -10 m -1 10 l
45 -10 m 0 10 l
33 -10 m 0 10 l
29 -10 m 0 10 l
25 -10 m 0 10 l
24 -10 m 1 10 l
24 -10 m 0 10 l
26 -10 m 1 10 l
32 -10 m 2 10 l
131 0 m 1 -7 l
1 -3 m -1 3 l
84 -3 m -1 10 l
127 -10 m -1 10 l
248 -10 m 0 10 l
502 2181 M 1 10 l
207 -10 m 4 10 l
141 0 m 2 -6 l
1 -4 m -1 4 l
87 -4 m -1 10 l
46 -10 m -1 10 l
34 -10 m 0 10 l
29 -10 m -1 10 l
26 -10 m 0 10 l
25 -10 m 0 10 l
24 -10 m 1 10 l
26 -10 m 1 10 l
33 -10 m 1 10 l
130 -10 m -1 10 l
85 -10 m 0 10 l
126 -10 m 0 10 l
248 -10 m 0 10 l
503 2191 M 1 10 l
210 -10 m 3 8 l
0 2 l
138 -10 m -4 10 l
92 -10 m -1 10 l
45 0 m 0 -3 l
1 -7 m -1 7 l
35 -7 m -1 10 l
29 -10 m 0 10 l
26 -10 m 0 10 l
25 -10 m 0 10 l
25 -10 m 0 10 l
27 -10 m 0 10 l
34 -10 m 1 6 l
1 4 l
127 -10 m -2 10 l
87 -10 m -1 10 l
127 -10 m -1 10 l
249 -10 m -1 10 l
CS M
504 2201 M 1 10 l
212 -10 m 4 10 l
130 -10 m -4 10 l
95 -10 m -2 10 l
47 -10 m -1 10 l
35 -10 m 0 10 l
29 -10 m 0 10 l
26 -10 m 0 10 l
25 -10 m 0 10 l
25 -10 m 1 10 l
26 -10 m 1 10 l
35 -10 m 1 10 l
124 -10 m -1 10 l
87 -10 m -1 10 l
127 -10 m 0 10 l
248 -10 m 0 10 l
505 2211 M 1 10 l
215 -10 m 4 10 l
117 0 m 5 -10 l
0 0 l
93 0 m -1 10 l
47 -10 m 0 10 l
35 -10 m -1 10 l
30 -10 m 0 10 l
26 -10 m 0 10 l
25 -10 m 1 10 l
25 -10 m 0 10 l
27 -10 m 1 10 l
35 -10 m 2 10 l
121 -10 m -2 10 l
87 0 m 1 -4 l
0 -6 m 0 6 l
127 -6 m 0 10 l
248 -10 m 0 10 l
506 2221 M 0 1 l
1 9 l
218 -10 m 2 3 l
3 7 l
112 -10 m -4 10 l
101 -10 m -1 10 l
48 -10 m -1 10 l
35 -10 m 0 10 l
30 -10 m 0 10 l
26 -10 m 0 10 l
26 -10 m 0 10 l
25 -10 m 1 10 l
27 -10 m 1 10 l
36 -10 m 2 10 l
117 -10 m -2 10 l
89 -10 m -1 10 l
129 -10 m -1 10 l
249 -10 m -1 10 l
507 2231 M 1 10 l
222 -10 m 5 10 l
98 0 m 4 -8 l
1 -2 m -1 2 l
100 8 m 0 -3 l
1 -7 m -1 7 l
48 -7 m -1 10 l
36 -10 m 0 10 l
30 -10 m -1 10 l
27 -10 m 0 10 l
26 -10 m 0 10 l
26 -10 m 0 3 l
0 7 l
28 -10 m 1 10 l
37 -10 m 2 10 l
111 0 m 1 -4 l
1 -6 m -1 6 l
89 -6 m 0 10 l
128 -10 m 0 10 l
248 -10 m 0 10 l
508 2241 M 1 10 l
226 -10 m 2 4 l
3 6 l
93 -10 m -6 10 l
110 -10 m -1 10 l
48 -10 m 0 10 l
36 -10 m -1 10 l
30 -10 m 0 10 l
27 -10 m 0 10 l
26 -10 m 0 10 l
26 -10 m 1 10 l
28 -10 m 1 10 l
38 -10 m 2 10 l
109 -10 m -2 10 l
92 -10 m -1 10 l
129 -10 m -1 10 l
249 -10 m 0 10 l
509 2251 M 1 10 l
230 -10 m 7 10 l
73 0 m 7 -9 l
0 -1 m 0 1 l
109 -1 m -2 10 l
50 -10 m -1 10 l
36 -10 m 0 10 l
30 -10 m 0 10 l
27 -10 m 0 10 l
26 -10 m 1 10 l
26 -10 m 0 10 l
29 -10 m 0 2 l
1 8 l
39 -10 m 0 2 l
2 8 l
105 -10 m -1 10 l
92 -10 m -1 10 l
129 -10 m 0 10 l
249 -10 m 0 10 l
 0 0 0 C
1217 1027 M 1 0 l
2 0 l
-3 0 m -7 11 l
10 -11 m 8 4 l
3 7 l
-25 10 m 2 -7 l
2 -3 m -2 3 l
23 -3 m 4 10 l
-29 0 m -3 10 l
32 -10 m 3 8 l
0 2 l
-35 0 m -3 10 l
38 -10 m 2 10 l
-43 10 m 1 -4 l
2 -6 m -2 6 l
42 -6 m 2 10 l
-45 0 m -2 10 l
47 -10 m 2 10 l
-49 0 m -2 10 l
51 -10 m 2 10 l
-53 0 m -2 10 l
55 -10 m 2 10 l
-57 0 m -1 10 l
58 -10 m 0 3 l
1 7 l
-61 10 m 0 -1 l
2 -9 m -2 9 l
61 -9 m 1 10 l
-62 0 m -2 10 l
64 -10 m 1 10 l
-65 0 m -1 10 l
66 -10 m 1 10 l
-67 0 m -1 10 l
68 -10 m 1 10 l
-69 0 m -2 10 l
71 -10 m 1 10 l
-72 0 m -1 10 l
73 -10 m 1 10 l
-74 0 m -1 10 l
75 -10 m 0 10 l
-75 0 m -1 10 l
76 -10 m 1 10 l
-79 10 m 1 -4 l
1 -6 m -1 6 l
78 -6 m 0 10 l
-79 0 m -1 10 l
80 -10 m 1 10 l
-81 0 m -1 10 l
82 -10 m 0 10 l
-82 0 m -1 10 l
83 -10 m 1 10 l
-84 0 m -1 10 l
85 -10 m 0 10 l
-85 0 m 3 10 l
82 -10 m 0 10 l
-82 0 m -3 10 l
85 -10 m 0 10 l
-85 0 m 1 10 l
84 -10 m 0 10 l
-84 0 m 1 10 l
83 -10 m -1 10 l
-82 0 m 1 10 l
81 -10 m 0 10 l
-81 0 m 1 10 l
80 -10 m -1 10 l
-79 0 m 1 5 l
1 5 l
77 -10 m 0 10 l
-77 0 m 1 10 l
76 -10 m -1 10 l
-75 0 m 1 10 l
74 -10 m 0 10 l
-74 0 m 1 10 l
73 -10 m -1 10 l
-72 0 m 2 10 l
70 -10 m -1 10 l
-69 0 m 1 10 l
68 -10 m -1 10 l
-67 0 m 1 11 l
66 -11 m -1 11 l
-65 0 m 2 10 l
63 -10 m -1 10 l
-62 0 m 0 1 l
2 9 l
60 -10 m -1 10 l
-59 0 m 1 10 l
57 0 m 0 -3 l
1 -7 m -1 7 l
-57 3 m 2 10 l
55 -10 m -2 10 l
-53 0 m 2 10 l
51 -10 m -2 10 l
-49 0 m 2 10 l
47 -10 m -2 10 l
-45 0 m 1 3 l
2 7 l
42 -10 m -2 10 l
-40 0 m 3 10 l
37 -10 m -2 10 l
-35 0 m 3 10 l
29 0 m 3 -9 l
0 -1 m 0 1 l
-32 9 m 2 6 l
2 4 l
25 -10 m -4 10 l
-21 0 m 7 10 l
3 0 m 8 -3 l
3 -7 m -3 7 l
-11 3 m 1 1 l
2 -1 m -2 1 l
 0 0 0 C
CS [] 0 setdash M
1120 2362 M 0 -51 l
2 51 m 0 -51 l
-9 51 m 28 0 l
8 -3 l
2 -2 l
2 -5 l
0 -5 l
-2 -5 l
-2 -2 l
-8 -2 l
-19 0 l
19 24 m 5 -3 l
3 -2 l
2 -5 l
0 -5 l
-2 -5 l
-3 -2 l
-5 -2 l
-28 -27 m 16 0 l
5 27 m 5 -3 l
2 -2 l
8 -17 l
2 -2 l
2 0 l
3 2 l
-17 19 m 2 -5 l
5 -16 l
3 -3 l
4 0 l
3 5 l
0 2 l
14 12 m 29 0 l
0 5 l
-2 5 l
-3 2 l
-4 3 l
-8 0 l
-7 -3 l
-5 -4 l
-2 -8 l
0 -4 l
2 -8 l
5 -4 l
7 -3 l
5 0 l
7 3 l
5 4 l
-2 12 m 0 8 l
-3 4 l
-12 3 m -5 -3 l
-4 -4 l
-3 -8 l
0 -4 l
3 -8 l
4 -4 l
5 -3 l
34 60 m 0 -77 l
2 77 m 0 -77 l
-2 77 m 17 0 l
-17 -77 m 17 0 l
12 51 m 5 0 l
5 -3 l
2 -4 l
12 -36 l
2 -5 l
3 -3 l
-24 51 m 2 -3 l
3 -4 l
12 -36 l
2 -5 l
5 -3 l
5 0 l
2 51 m -2 -5 l
-5 -7 l
-24 -27 l
-5 -7 l
-3 -5 l
47 19 m 2 -2 l
-2 -1 l
-1 1 l
0 2 l
1 2 l
CS M
2 2 l
4 1 l
6 0 l
4 -1 l
1 -2 l
2 -2 l
0 -3 l
-2 -3 l
-4 -3 l
-7 -3 l
-3 -1 l
-3 -3 l
-1 -5 l
0 -4 l
13 30 m 3 -1 l
1 -2 l
1 -2 l
0 -3 l
-1 -3 l
-4 -3 l
-6 -3 l
-7 -10 m 1 1 l
3 0 l
7 -3 l
5 0 l
2 2 l
2 1 l
-16 0 m 7 -4 l
6 0 l
1 1 l
2 3 l
0 3 l
31 76 m -5 -4 l
-5 -8 l
-5 -9 l
-2 -12 l
0 -10 l
2 -12 l
5 -10 l
5 -7 l
5 -5 l
-5 73 m -5 -10 l
-2 -7 l
-3 -12 l
0 -10 l
3 -12 l
2 -7 l
5 -10 l
22 46 m 14 -34 l
-12 34 m 12 -29 l
14 29 m -14 -34 l
-5 -9 l
-5 -5 l
-4 -3 l
-3 0 l
-2 3 l
2 2 l
3 -2 l
-5 48 m 14 0 l
10 0 m 14 0 l
10 26 m 5 -4 l
5 -8 l
4 -9 l
3 -12 l
0 -10 l
-3 -12 l
-4 -10 l
-5 -7 l
-5 -5 l
5 73 m 5 -10 l
2 -7 l
2 -12 l
0 -10 l
-2 -12 l
-2 -7 l
-5 -10 l
43 72 m 0 -77 l
2 77 m 0 -77 l
-16 77 m 16 0 l
-16 -77 m 16 0 l
CS [] 0 setdash M
1258 255 M 0 2006 l
255 1258 M 2006 0 l
CS [] 0 setdash M
255 255 M 2006 0 l
0 2006 l
255 2261 L
255 255 L
2006 0 l
255 255 M 2006 0 l
255 255 M 0 52 l
-79 -146 m 9 22 m 44 0 l
24 19 m 5 2 l
7 8 l
0 -51 l
-2 48 m 0 -48 l
-10 0 m 22 0 l
33 51 m -7 -3 l
-5 -7 l
-2 -12 l
0 -7 l
2 -12 l
5 -8 l
7 -2 l
5 0 l
7 2 l
5 8 l
2 12 l
0 7 l
-2 12 l
-5 7 l
-7 3 l
-5 0 l
-5 -3 l
-2 -2 l
-2 -5 l
-3 -12 l
0 -7 l
3 -12 l
2 -5 l
2 -3 l
5 -2 l
5 0 m 5 2 l
2 3 l
3 5 l
2 12 l
0 7 l
-2 12 l
-3 5 l
-2 2 l
-5 3 l
43 43 m 0 26 l
100 -26 m 0 26 l
100 -26 m 0 26 l
100 -26 m 0 26 l
101 -26 m 0 52 l
-56 -146 m 10 22 m 43 0 l
22 29 m -5 -25 l
5 5 l
7 3 l
7 0 l
8 -3 l
4 -5 l
3 -7 l
0 -5 l
-3 -7 l
-4 -5 l
-8 -2 l
-7 0 l
-7 2 l
-2 3 l
-3 5 l
0 2 l
3 2 l
2 -2 l
-2 -2 l
16 24 m 5 -3 l
5 -5 l
2 -7 l
0 -5 l
-2 -7 l
-5 -5 l
-5 -2 l
-14 51 m 24 0 l
-24 -3 m 12 0 l
12 3 l
57 43 m 0 26 l
100 -26 m 0 26 l
101 -26 m 0 26 l
100 -26 m 0 26 l
100 -26 m 0 52 l
-24 -146 m 22 51 m -7 -3 l
-5 -7 l
-3 -12 l
0 -7 l
3 -12 l
5 -8 l
7 -2 l
5 0 l
7 2 l
5 8 l
2 12 l
0 7 l
-2 12 l
-5 7 l
-7 3 l
-5 0 l
-5 -3 l
-2 -2 l
-3 -5 l
-2 -12 l
0 -7 l
2 -12 l
3 -5 l
2 -3 l
5 -2 l
5 0 m 4 2 l
3 3 l
2 5 l
3 12 l
0 7 l
-3 12 l
-2 5 l
-3 2 l
-4 3 l
97 43 m 0 26 l
101 -26 m 0 26 l
100 -26 m 0 26 l
100 -26 m 0 26 l
101 -26 m 0 52 l
-24 -146 m 12 51 m -5 -25 l
5 5 l
7 3 l
7 0 l
7 -3 l
5 -5 l
2 -7 l
0 -5 l
-2 -7 l
-5 -5 l
-7 -2 l
-7 0 l
-7 2 l
-3 3 l
-2 5 l
0 2 l
2 2 l
3 -2 l
-3 -2 l
17 24 m 5 -3 l
5 -5 l
2 -7 l
0 -5 l
-2 -7 l
-5 -5 l
-5 -2 l
-14 51 m 24 0 l
-24 -3 m 12 0 l
12 3 l
88 43 m 0 26 l
100 -26 m 0 26 l
100 -26 m 0 26 l
101 -26 m 0 26 l
100 -26 m 0 52 l
-48 -146 m 14 41 m 5 2 l
7 8 l
0 -51 l
-2 48 m 0 -48 l
-10 0 m 22 0 l
34 51 m -8 -3 l
-4 -7 l
-3 -12 l
0 -7 l
3 -12 l
4 -8 l
8 -2 l
5 0 l
7 2 l
5 8 l
2 12 l
0 7 l
-2 12 l
-5 7 l
-7 3 l
-5 0 l
-5 -3 l
-3 -2 l
-2 -5 l
-2 -12 l
0 -7 l
2 -12 l
2 -5 l
3 -3 l
5 -2 l
5 0 m 4 2 l
3 3 l
2 5 l
3 12 l
0 7 l
-3 12 l
-2 5 l
-3 2 l
-4 3 l
255 2261 M 2006 0 l
255 2261 M 0 -51 l
101 51 m 0 -26 l
100 26 m 0 -26 l
100 26 m 0 -26 l
100 26 m 0 -26 l
101 26 m 0 -51 l
100 51 m 0 -26 l
100 26 m 0 -26 l
101 26 m 0 -26 l
100 26 m 0 -26 l
100 26 m 0 -51 l
100 51 m 0 -26 l
101 26 m 0 -26 l
100 26 m 0 -26 l
100 26 m 0 -26 l
101 26 m 0 -51 l
100 51 m 0 -26 l
100 26 m 0 -26 l
CS M
100 26 m 0 -26 l
101 26 m 0 -26 l
100 26 m 0 -51 l
255 255 M 0 2006 l
255 255 M 52 0 l
101 230 M 9 22 m 44 0 l
24 19 m 5 2 l
7 8 l
0 -51 l
-3 48 m 0 -48 l
-9 0 m 21 0 l
56 126 m 26 0 l
-26 100 m 26 0 l
-26 100 m 26 0 l
-26 100 m 26 0 l
-26 101 m 52 0 l
29 731 M 9 22 m 44 0 l
31 29 m -7 -2 l
-5 -8 l
-3 -12 l
0 -7 l
3 -12 l
5 -7 l
7 -3 l
5 0 l
7 3 l
5 7 l
2 12 l
0 7 l
-2 12 l
-5 8 l
-7 2 l
-5 0 l
-5 -2 l
-2 -3 l
-3 -5 l
-2 -12 l
0 -7 l
2 -12 l
3 -5 l
2 -2 l
5 -3 l
5 0 m 4 3 l
3 2 l
2 5 l
3 12 l
0 7 l
-3 12 l
-2 5 l
-3 3 l
-4 2 l
33 -46 m -2 -2 l
2 -3 l
3 3 l
-3 2 l
24 46 m -4 -24 l
4 5 l
8 2 l
7 0 l
7 -2 l
5 -5 l
2 -7 l
0 -5 l
-2 -7 l
-5 -5 l
-7 -3 l
-7 0 l
-8 3 l
-2 2 l
-2 5 l
0 3 l
2 2 l
2 -2 l
-2 -3 l
17 24 m 5 -2 l
4 -5 l
3 -7 l
0 -5 l
-3 -7 l
-4 -5 l
-5 -3 l
-15 51 m 24 0 l
-24 -2 m 12 0 l
12 2 l
56 75 m 26 0 l
-26 100 m 26 0 l
-26 101 m 26 0 l
-26 100 m 26 0 l
-26 100 m 52 0 l
-144 -25 m 22 50 m -7 -2 l
-5 -7 l
-2 -12 l
0 -7 l
2 -12 l
5 -8 l
7 -2 l
5 0 l
7 2 l
5 8 l
2 12 l
0 7 l
-2 12 l
-5 7 l
-7 2 l
-5 0 l
-5 -2 l
-2 -2 l
-3 -5 l
-2 -12 l
0 -7 l
2 -12 l
3 -5 l
2 -3 l
5 -2 l
5 0 m 5 2 l
2 3 l
2 5 l
3 12 l
0 7 l
-3 12 l
-2 5 l
-2 2 l
-5 2 l
65 75 m 26 0 l
-26 101 m 26 0 l
-26 100 m 26 0 l
-26 100 m 26 0 l
-26 101 m 52 0 l
91 1734 M 22 51 m -7 -3 l
-5 -7 l
-3 -12 l
0 -7 l
3 -12 l
5 -7 l
7 -3 l
5 0 l
7 3 l
5 7 l
2 12 l
0 7 l
-2 12 l
-5 7 l
-7 3 l
-5 0 l
-5 -3 l
-2 -2 l
-3 -5 l
-2 -12 l
0 -7 l
2 -12 l
3 -5 l
2 -2 l
5 -3 l
5 0 m 4 3 l
3 2 l
2 5 l
3 12 l
0 7 l
-3 12 l
-2 5 l
-3 2 l
-4 3 l
33 -46 m -2 -2 l
2 -3 l
3 3 l
-3 2 l
24 46 m -4 -24 l
4 5 l
8 2 l
7 0 l
7 -2 l
5 -5 l
2 -7 l
0 -5 l
-2 -7 l
-5 -5 l
-7 -3 l
-7 0 l
-8 3 l
-2 2 l
-2 5 l
0 2 l
2 3 l
2 -3 l
-2 -2 l
17 24 m 5 -2 l
4 -5 l
3 -7 l
0 -5 l
-3 -7 l
-4 -5 l
-5 -3 l
-15 51 m 24 0 l
-24 -3 m 12 0 l
12 3 l
56 75 m 26 0 l
-26 100 m 26 0 l
-26 100 m 26 0 l
-26 101 m 26 0 l
-26 100 m 52 0 l
-144 -25 m 15 41 m 5 2 l
7 7 l
0 -50 l
-3 48 m 0 -48 l
-9 0 m 21 0 l
2261 255 M 0 2006 l
2261 255 M -51 0 l
51 101 m -26 0 l
26 100 m -26 0 l
26 100 m -26 0 l
26 100 m -26 0 l
26 101 m -51 0 l
51 100 m -26 0 l
26 100 m -26 0 l
26 101 m -26 0 l
26 100 m -26 0 l
26 100 m -51 0 l
51 100 m -26 0 l
26 101 m -26 0 l
26 100 m -26 0 l
26 100 m -26 0 l
26 101 m -51 0 l
51 100 m -26 0 l
26 100 m -26 0 l
26 100 m -26 0 l
26 101 m -26 0 l
26 100 m -51 0 l
CS [] 0 setdash M
CS [] 0 setdash M
1170 74 M 10 42 m 0 -42 l
2 42 m 0 -42 l
-8 42 m 24 0 l
6 -1 l
2 -3 l
2 -4 l
0 -4 l
-2 -4 l
-2 -2 l
-6 -2 l
-16 0 l
16 20 m 4 -1 l
2 -3 l
2 -4 l
0 -4 l
-2 -4 l
-2 -2 l
-4 -2 l
-24 -22 m 14 0 l
4 22 m 4 -2 l
2 -2 l
6 -14 l
2 -2 l
2 0 l
2 2 l
-14 16 m 2 -4 l
4 -14 l
2 -2 l
4 0 l
2 4 l
0 2 l
12 10 m 24 0 l
0 4 l
-2 4 l
-2 2 l
-4 2 l
-6 0 l
-6 -2 l
-4 -4 l
-2 -6 l
0 -4 l
2 -6 l
4 -4 l
6 -2 l
4 0 l
6 2 l
4 4 l
-2 10 m 0 6 l
-2 4 l
-10 2 m -4 -2 l
-4 -4 l
-2 -6 l
0 -4 l
2 -6 l
4 -4 l
4 -2 l
42 51 m -4 -5 l
-4 -5 l
-4 -9 l
-2 -10 l
0 -8 l
2 -10 l
4 -8 l
4 -6 l
4 -4 l
-4 60 m -4 -8 l
-2 -6 l
-2 -10 l
0 -8 l
2 -10 l
2 -6 l
4 -8 l
18 38 m 12 -28 l
CS M
-10 28 m 10 -24 l
12 24 m -12 -28 l
-4 -8 l
-4 -4 l
-4 -2 l
-2 0 l
-2 2 l
2 2 l
2 -2 l
-4 40 m 12 0 l
8 0 m 12 0 l
8 23 m 4 -5 l
4 -5 l
4 -9 l
2 -10 l
0 -8 l
-2 -10 l
-4 -8 l
-4 -6 l
-4 -4 l
4 60 m 4 -8 l
2 -6 l
2 -10 l
0 -8 l
-2 -10 l
-2 -6 l
-4 -8 l
CS [] 0 setdash M
CS [] 0 setdash M
57 1167 M 15 1177 M 42 0 l
15 1179 M 42 0 l
15 1171 M 0 14 l
42 -14 m 0 14 l
-28 14 m 28 0 l
-28 2 m 28 0 l
-22 0 m -4 4 l
-2 6 l
0 4 l
2 6 l
4 2 l
22 0 l
-28 -8 m 2 4 l
4 2 l
22 0 l
-22 2 m -4 4 l
-2 6 l
0 4 l
2 6 l
4 2 l
22 0 l
-28 -8 m 2 4 l
4 2 l
22 0 l
-28 -50 m 0 8 l
28 -8 m 0 14 l
0 8 m 0 14 l
0 8 m 0 14 l
7 1277 M 4 -4 l
6 -4 l
8 -4 l
10 -2 l
8 0 l
10 2 l
8 4 l
6 4 l
4 4 l
11 1273 M 8 -4 l
6 -2 l
10 -2 l
8 0 l
10 2 l
6 2 l
8 4 l
29 1291 M 28 12 l
-28 -10 m 24 10 l
-24 12 m 28 -12 l
8 -4 l
4 -4 l
2 -4 l
0 -2 l
-2 -2 l
-2 2 l
2 2 l
29 1287 M 0 12 l
0 8 m 0 12 l
7 1327 M 4 4 l
6 4 l
8 4 l
10 2 l
8 0 l
10 -2 l
8 -4 l
6 -4 l
4 -4 l
11 1331 M 8 4 l
6 2 l
10 2 l
8 0 l
10 -2 l
6 -2 l
8 -4 l
CS [] 0 setdash M
stroke
grestore
showpage
end
