%!PS-Adobe-2.0 EPSF-2.0
%%Creator: SM
%%BoundingBox: 18 144 592 718
%%DocumentFonts: Helvetica
%%EndComments
 20 dict begin
72 300 div dup scale
1 setlinejoin 0 setlinecap
/Helvetica findfont 55 scalefont setfont 
/B {CS newpath moveto} def
/F {moveto 0 setlinecap} def
/C {CS M 1 1 3 {pop 3 1 roll 255 div} for SET_COLOUR} def
/CS {currentpoint stroke} def
/CF {currentpoint eofill} def
/L {lineto} def /l {rlineto} def /M {moveto} def /m {rmoveto} def
/P {currentpoint 0 1 rlineto stroke moveto} def
/T {currentlinecap exch 1 setlinecap show setlinecap} def
errordict /nocurrentpoint {pop 0 0 M currentpoint} put
/SET_COLOUR statusdict begin /processcolors where
  {pop processcolors 1 gt} {false} ifelse
  {(setrgbcolor)} {(pop pop pop)} ifelse cvx end def
 80 600 translate
gsave
CS [] 0 setdash M
CS M 1 100 mul 72 div dup setlinewidth
/P [ /currentpoint cvx 0 5 -1 roll .05 add dup -2 div 0 exch /rmoveto cvx /rlineto cvx /stroke cvx /moveto cvx ] cvx def
 0 0 0 C
CS M 4 100 mul 72 div dup setlinewidth
/P [ /currentpoint cvx 0 5 -1 roll .05 add dup -2 div 0 exch /rmoveto cvx /rlineto cvx /stroke cvx /moveto cvx ] cvx def
CS [32 24] 0 setdash M
301 2261 M 0 -8 l
2 -27 l
2 -25 l
2 -24 l
2 -24 l
2 -22 l
2 -22 l
2 -21 l
2 -20 l
2 -19 l
2 -19 l
2 -18 l
2 -18 l
2 -17 l
2 -17 l
2 -16 l
2 -16 l
2 -16 l
2 -14 l
2 -15 l
2 -14 l
2 -14 l
3 -14 l
1 -13 l
3 -13 l
1 -13 l
3 -12 l
1 -12 l
3 -12 l
2 -12 l
2 -11 l
2 -12 l
2 -11 l
2 -10 l
2 -11 l
2 -10 l
2 -11 l
2 -10 l
2 -9 l
2 -10 l
2 -10 l
2 -9 l
2 -9 l
2 -9 l
2 -9 l
2 -9 l
2 -9 l
2 -8 l
2 -9 l
2 -8 l
2 -8 l
2 -9 l
2 -8 l
2 -7 l
2 -8 l
2 -8 l
2 -7 l
2 -8 l
2 -7 l
2 -8 l
2 -7 l
2 -7 l
2 -7 l
2 -7 l
2 -7 l
2 -6 l
2 -7 l
2 -7 l
2 -6 l
2 -7 l
2 -6 l
2 -7 l
2 -6 l
2 -6 l
2 -6 l
2 -7 l
2 -6 l
2 -6 l
2 -6 l
2 -5 l
2 -6 l
2 -6 l
2 -6 l
2 -5 l
2 -6 l
2 -6 l
2 -5 l
2 -6 l
2 -5 l
2 -5 l
2 -6 l
2 -5 l
2 -5 l
2 -5 l
2 -6 l
2 -5 l
2 -5 l
2 -5 l
2 -5 l
2 -5 l
2 -5 l
2 -4 l
2 -5 l
2 -5 l
2 -5 l
2 -5 l
2 -4 l
2 -5 l
2 -5 l
2 -4 l
2 -5 l
2 -4 l
2 -5 l
2 -4 l
2 -5 l
2 -4 l
2 -4 l
2 -5 l
2 -4 l
2 -4 l
2 -5 l
2 -4 l
2 -4 l
2 -4 l
2 -5 l
2 -4 l
2 -4 l
2 -4 l
2 -4 l
2 -4 l
2 -4 l
2 -4 l
2 -4 l
2 -4 l
2 -4 l
2 -4 l
2 -3 l
2 -4 l
2 -4 l
2 -4 l
2 -4 l
2 -4 l
2 -3 l
2 -4 l
2 -4 l
2 -3 l
2 -4 l
2 -4 l
2 -3 l
2 -4 l
2 -4 l
2 -3 l
2 -4 l
2 -3 l
2 -4 l
2 -3 l
2 -4 l
2 -3 l
2 -4 l
2 -3 l
2 -3 l
2 -4 l
2 -3 l
2 -3 l
2 -4 l
2 -3 l
2 -3 l
2 -4 l
2 -3 l
2 -3 l
2 -3 l
2 -4 l
2 -3 l
2 -3 l
2 -3 l
2 -3 l
2 -4 l
2 -3 l
2 -3 l
2 -3 l
2 -3 l
2 -3 l
2 -3 l
2 -3 l
2 -3 l
2 -3 l
2 -3 l
2 -3 l
2 -3 l
2 -3 l
2 -3 l
2 -3 l
2 -3 l
2 -3 l
2 -3 l
2 -3 l
3 -3 l
1 -3 l
3 -2 l
1 -3 l
3 -3 l
1 -3 l
3 -3 l
2 -3 l
2 -2 l
2 -3 l
2 -3 l
2 -3 l
2 -2 l
2 -3 l
2 -3 l
2 -2 l
2 -3 l
2 -3 l
2 -3 l
2 -2 l
2 -3 l
2 -3 l
2 -2 l
2 -3 l
2 -2 l
2 -3 l
2 -3 l
2 -2 l
2 -3 l
2 -2 l
2 -3 l
2 -2 l
2 -3 l
2 -3 l
2 -2 l
2 -3 l
2 -2 l
2 -3 l
2 -2 l
2 -2 l
2 -3 l
2 -2 l
2 -3 l
2 -2 l
2 -3 l
2 -2 l
2 -3 l
2 -2 l
2 -2 l
2 -3 l
2 -2 l
2 -2 l
2 -3 l
2 -2 l
2 -3 l
2 -2 l
2 -2 l
2 -2 l
2 -3 l
2 -2 l
2 -2 l
2 -3 l
2 -2 l
2 -2 l
2 -2 l
2 -3 l
2 -2 l
2 -2 l
2 -2 l
2 -3 l
2 -2 l
2 -2 l
2 -2 l
2 -2 l
2 -3 l
2 -2 l
2 -2 l
2 -2 l
2 -2 l
2 -3 l
2 -2 l
2 -2 l
2 -2 l
2 -2 l
2 -2 l
2 -2 l
2 -2 l
2 -3 l
2 -2 l
2 -2 l
2 -2 l
2 -2 l
2 -2 l
2 -2 l
2 -2 l
2 -2 l
2 -2 l
2 -2 l
2 -2 l
2 -2 l
2 -2 l
2 -2 l
2 -2 l
2 -2 l
CS M
2 -2 l
2 -2 l
2 -2 l
2 -2 l
2 -2 l
2 -2 l
2 -2 l
2 -2 l
2 -2 l
2 -2 l
2 -2 l
2 -2 l
2 -2 l
2 -2 l
2 -2 l
2 -1 l
2 -2 l
2 -2 l
2 -2 l
2 -2 l
2 -2 l
2 -2 l
2 -2 l
2 -1 l
2 -2 l
2 -2 l
2 -2 l
2 -2 l
2 -2 l
2 -2 l
2 -1 l
2 -2 l
2 -2 l
2 -2 l
2 -2 l
2 -1 l
2 -2 l
2 -2 l
2 -2 l
2 -2 l
2 -1 l
2 -2 l
2 -2 l
2 -2 l
2 -1 l
2 -2 l
2 -2 l
2 -2 l
2 -1 l
2 -2 l
2 -2 l
2 -2 l
2 -1 l
2 -2 l
2 -2 l
2 -1 l
2 -2 l
2 -2 l
2 -2 l
2 -1 l
2 -2 l
2 -2 l
2 -1 l
2 -2 l
2 -2 l
2 -1 l
2 -2 l
2 -2 l
2 -1 l
2 -2 l
3 -2 l
1 -1 l
3 -2 l
1 -2 l
3 -1 l
2 -2 l
2 -1 l
2 -2 l
2 -2 l
2 -1 l
2 -2 l
2 -2 l
2 -1 l
2 -2 l
2 -1 l
2 -2 l
2 -1 l
2 -2 l
2 -2 l
2 -1 l
2 -2 l
2 -1 l
2 -2 l
2 -1 l
2 -2 l
2 -2 l
2 -1 l
2 -2 l
2 -1 l
2 -2 l
2 -1 l
2 -2 l
2 -1 l
2 -2 l
2 -1 l
2 -2 l
2 -1 l
2 -2 l
2 -1 l
2 -2 l
2 -1 l
2 -2 l
2 -1 l
2 -2 l
2 -1 l
2 -2 l
2 -1 l
2 -2 l
2 -1 l
2 -2 l
2 -1 l
2 -2 l
2 -1 l
2 -1 l
2 -2 l
2 -1 l
2 -2 l
2 -1 l
2 -2 l
2 -1 l
2 -2 l
2 -1 l
2 -1 l
2 -2 l
2 -1 l
2 -2 l
2 -1 l
2 -2 l
2 -1 l
2 -1 l
2 -2 l
2 -1 l
2 -2 l
2 -1 l
2 -1 l
2 -2 l
2 -1 l
2 -1 l
2 -2 l
2 -1 l
2 -2 l
2 -1 l
2 -1 l
2 -2 l
2 -1 l
2 -1 l
2 -2 l
2 -1 l
2 -1 l
2 -2 l
2 -1 l
2 -1 l
2 -2 l
2 -1 l
2 -2 l
2 -1 l
2 -1 l
2 -1 l
2 -2 l
2 -1 l
2 -1 l
2 -2 l
2 -1 l
2 -1 l
2 -2 l
2 -1 l
2 -1 l
2 -2 l
2 -1 l
2 -1 l
2 -1 l
2 -2 l
2 -1 l
2 -1 l
2 -2 l
2 -1 l
2 -1 l
2 -1 l
2 -2 l
2 -1 l
2 -1 l
2 -2 l
2 -1 l
2 -1 l
2 -1 l
2 -2 l
2 -1 l
2 -1 l
2 -1 l
2 -2 l
2 -1 l
2 -1 l
2 -1 l
2 -1 l
2 -2 l
2 -1 l
2 -1 l
2 -1 l
2 -2 l
2 -1 l
2 -1 l
2 -1 l
2 -1 l
2 -2 l
2 -1 l
2 -1 l
2 -1 l
2 -2 l
2 -1 l
2 -1 l
2 -1 l
2 -1 l
2 -2 l
2 -1 l
2 -1 l
2 -1 l
2 -1 l
2 -2 l
2 -1 l
2 -1 l
2 -1 l
2 -1 l
2 -1 l
2 -2 l
2 -1 l
2 -1 l
2 -1 l
3 -1 l
1 -1 l
3 -2 l
1 -1 l
3 -1 l
2 -1 l
2 -1 l
2 -1 l
2 -1 l
2 -2 l
2 -1 l
2 -1 l
2 -1 l
2 -1 l
2 -1 l
2 -1 l
2 -1 l
2 -2 l
2 -1 l
2 -1 l
2 -1 l
2 -1 l
2 -1 l
2 -1 l
0 -1 l
CS [80 24] 0 setdash M
273 2261 M 0 -16 l
2 -46 l
2 -42 l
2 -38 l
2 -35 l
2 -32 l
2 -31 l
2 -28 l
2 -26 l
2 -25 l
2 -24 l
2 -23 l
2 -21 l
2 -21 l
2 -19 l
2 -19 l
2 -18 l
2 -17 l
2 -17 l
2 -16 l
2 -15 l
2 -15 l
2 -15 l
2 -14 l
2 -14 l
2 -13 l
2 -13 l
2 -12 l
2 -13 l
2 -12 l
2 -11 l
2 -12 l
2 -11 l
2 -11 l
2 -10 l
2 -11 l
3 -10 l
1 -10 l
CS M
3 -9 l
1 -10 l
3 -9 l
1 -10 l
3 -9 l
2 -8 l
2 -9 l
2 -9 l
2 -8 l
2 -9 l
2 -8 l
2 -8 l
2 -8 l
2 -7 l
2 -8 l
2 -8 l
2 -7 l
2 -8 l
2 -7 l
2 -7 l
2 -7 l
2 -7 l
2 -7 l
2 -7 l
2 -6 l
2 -7 l
2 -7 l
2 -6 l
2 -7 l
2 -6 l
2 -6 l
2 -6 l
2 -7 l
2 -6 l
2 -6 l
2 -6 l
2 -6 l
2 -5 l
2 -6 l
2 -6 l
2 -5 l
2 -6 l
2 -6 l
2 -5 l
2 -6 l
2 -5 l
2 -5 l
2 -6 l
2 -5 l
2 -5 l
2 -6 l
2 -5 l
2 -5 l
2 -5 l
2 -5 l
2 -5 l
2 -5 l
2 -5 l
2 -5 l
2 -4 l
2 -5 l
2 -5 l
2 -5 l
2 -5 l
2 -4 l
2 -5 l
2 -5 l
2 -4 l
2 -5 l
2 -4 l
2 -5 l
2 -4 l
2 -4 l
2 -5 l
2 -4 l
2 -5 l
2 -4 l
2 -4 l
2 -5 l
2 -4 l
2 -4 l
2 -4 l
2 -4 l
2 -5 l
2 -4 l
2 -4 l
2 -4 l
2 -4 l
2 -4 l
2 -4 l
2 -4 l
2 -4 l
2 -4 l
2 -4 l
2 -4 l
2 -4 l
2 -3 l
2 -4 l
2 -4 l
2 -4 l
2 -4 l
2 -3 l
2 -4 l
2 -4 l
2 -4 l
2 -3 l
2 -4 l
2 -4 l
2 -3 l
2 -4 l
2 -3 l
2 -4 l
2 -3 l
2 -4 l
2 -4 l
2 -3 l
2 -4 l
2 -3 l
2 -3 l
2 -4 l
2 -3 l
2 -4 l
2 -3 l
2 -4 l
2 -3 l
2 -3 l
2 -4 l
2 -3 l
2 -3 l
2 -4 l
2 -3 l
2 -3 l
2 -3 l
2 -4 l
2 -3 l
2 -3 l
2 -3 l
2 -3 l
2 -4 l
2 -3 l
2 -3 l
2 -3 l
2 -3 l
2 -3 l
2 -3 l
2 -3 l
2 -3 l
2 -3 l
2 -4 l
2 -3 l
2 -3 l
2 -3 l
2 -3 l
2 -3 l
2 -3 l
2 -2 l
2 -3 l
2 -3 l
2 -3 l
2 -3 l
2 -3 l
2 -3 l
2 -3 l
2 -3 l
2 -3 l
2 -2 l
2 -3 l
2 -3 l
2 -3 l
2 -3 l
2 -2 l
2 -3 l
3 -3 l
1 -3 l
3 -2 l
1 -3 l
3 -3 l
1 -3 l
3 -2 l
2 -3 l
2 -3 l
2 -2 l
2 -3 l
2 -3 l
2 -2 l
2 -3 l
2 -2 l
2 -3 l
2 -3 l
2 -2 l
2 -3 l
2 -2 l
2 -3 l
2 -3 l
2 -2 l
2 -3 l
2 -2 l
2 -3 l
2 -2 l
2 -3 l
2 -2 l
2 -3 l
2 -2 l
2 -3 l
2 -2 l
2 -3 l
2 -2 l
2 -2 l
2 -3 l
2 -2 l
2 -3 l
2 -2 l
2 -2 l
2 -3 l
2 -2 l
2 -3 l
2 -2 l
2 -2 l
2 -3 l
2 -2 l
2 -2 l
2 -3 l
2 -2 l
2 -2 l
2 -3 l
2 -2 l
2 -2 l
2 -2 l
2 -3 l
2 -2 l
2 -2 l
2 -2 l
2 -3 l
2 -2 l
2 -2 l
2 -2 l
2 -3 l
2 -2 l
2 -2 l
2 -2 l
2 -2 l
2 -2 l
2 -3 l
2 -2 l
2 -2 l
2 -2 l
2 -2 l
2 -2 l
2 -3 l
2 -2 l
2 -2 l
2 -2 l
2 -2 l
2 -2 l
2 -2 l
2 -2 l
2 -2 l
2 -2 l
2 -2 l
2 -2 l
2 -3 l
2 -2 l
2 -2 l
2 -2 l
2 -2 l
2 -2 l
2 -2 l
2 -2 l
2 -2 l
2 -2 l
2 -2 l
2 -2 l
2 -2 l
2 -2 l
2 -2 l
2 -2 l
2 -2 l
2 -2 l
2 -1 l
2 -2 l
2 -2 l
2 -2 l
2 -2 l
2 -2 l
2 -2 l
2 -2 l
2 -2 l
2 -2 l
2 -2 l
2 -1 l
2 -2 l
2 -2 l
2 -2 l
2 -2 l
2 -2 l
2 -2 l
2 -2 l
2 -1 l
2 -2 l
2 -2 l
CS M
2 -2 l
2 -2 l
2 -2 l
2 -1 l
2 -2 l
2 -2 l
2 -2 l
2 -2 l
2 -1 l
2 -2 l
2 -2 l
2 -2 l
2 -1 l
2 -2 l
2 -2 l
2 -2 l
2 -2 l
2 -1 l
2 -2 l
2 -2 l
2 -2 l
2 -1 l
2 -2 l
2 -2 l
2 -1 l
2 -2 l
2 -2 l
2 -2 l
2 -1 l
2 -2 l
2 -2 l
2 -1 l
2 -2 l
2 -2 l
2 -1 l
2 -2 l
2 -2 l
2 -1 l
2 -2 l
2 -2 l
2 -1 l
2 -2 l
2 -2 l
2 -1 l
2 -2 l
2 -2 l
3 -1 l
1 -2 l
3 -1 l
1 -2 l
3 -2 l
2 -1 l
2 -2 l
2 -1 l
2 -2 l
2 -2 l
2 -1 l
2 -2 l
2 -1 l
2 -2 l
2 -2 l
2 -1 l
2 -2 l
2 -1 l
2 -2 l
2 -1 l
2 -2 l
2 -2 l
2 -1 l
2 -2 l
2 -1 l
2 -2 l
2 -1 l
2 -2 l
2 -1 l
2 -2 l
2 -1 l
2 -2 l
2 -1 l
2 -2 l
2 -1 l
2 -2 l
2 -1 l
2 -2 l
2 -1 l
2 -2 l
2 -1 l
2 -2 l
2 -1 l
2 -2 l
2 -1 l
2 -2 l
2 -1 l
2 -2 l
2 -1 l
2 -1 l
2 -2 l
2 -1 l
2 -2 l
2 -1 l
2 -2 l
2 -1 l
2 -2 l
2 -1 l
2 -1 l
2 -2 l
2 -1 l
2 -2 l
2 -1 l
2 -1 l
2 -2 l
2 -1 l
2 -2 l
2 -1 l
1 -1 l
CS [] 0 setdash M
258 255 M 1 89 l
2 89 l
2 62 l
2 49 l
2 39 l
2 34 l
2 29 l
2 25 l
2 23 l
2 21 l
2 19 l
2 17 l
2 16 l
2 15 l
2 14 l
2 13 l
2 12 l
2 12 l
2 11 l
2 10 l
2 10 l
2 10 l
2 9 l
2 9 l
2 8 l
2 8 l
2 8 l
2 7 l
2 7 l
2 7 l
2 7 l
2 6 l
2 6 l
2 6 l
2 6 l
2 6 l
2 5 l
2 6 l
2 5 l
2 5 l
2 5 l
2 4 l
2 5 l
3 5 l
1 4 l
3 4 l
1 5 l
3 4 l
1 4 l
3 3 l
2 4 l
2 4 l
2 4 l
2 3 l
2 4 l
2 3 l
2 3 l
2 4 l
2 3 l
2 3 l
2 3 l
2 3 l
2 3 l
2 3 l
2 3 l
2 2 l
2 3 l
2 3 l
2 2 l
2 3 l
2 2 l
2 3 l
2 2 l
2 2 l
2 3 l
2 2 l
2 2 l
2 2 l
2 3 l
2 2 l
2 2 l
2 2 l
2 2 l
2 2 l
2 2 l
2 1 l
2 2 l
2 2 l
2 2 l
2 2 l
2 1 l
2 2 l
2 2 l
2 1 l
2 2 l
2 2 l
2 1 l
2 2 l
2 1 l
2 2 l
2 1 l
2 1 l
2 2 l
2 1 l
2 2 l
2 1 l
2 1 l
2 1 l
2 2 l
2 1 l
2 1 l
2 1 l
2 2 l
2 1 l
2 1 l
2 1 l
2 1 l
2 1 l
2 1 l
2 1 l
2 1 l
2 1 l
2 1 l
2 1 l
2 1 l
2 1 l
2 1 l
2 1 l
2 1 l
2 1 l
2 1 l
2 0 l
2 1 l
2 1 l
2 1 l
2 1 l
2 1 l
2 0 l
2 1 l
2 1 l
2 1 l
2 0 l
2 1 l
2 1 l
2 0 l
2 1 l
2 1 l
2 0 l
2 1 l
2 1 l
2 0 l
2 1 l
2 1 l
2 0 l
2 1 l
2 0 l
2 1 l
2 0 l
2 1 l
2 1 l
2 0 l
2 1 l
2 0 l
2 1 l
2 0 l
2 1 l
2 0 l
2 1 l
2 0 l
2 1 l
2 0 l
2 0 l
2 1 l
2 0 l
2 1 l
2 0 l
2 1 l
2 0 l
2 0 l
2 1 l
2 0 l
2 1 l
2 0 l
2 0 l
2 1 l
CS M
2 0 l
2 0 l
2 1 l
2 0 l
2 0 l
2 1 l
2 0 l
2 0 l
2 1 l
2 0 l
2 0 l
2 1 l
2 0 l
2 0 l
2 1 l
2 0 l
2 0 l
2 0 l
2 1 l
2 0 l
2 0 l
2 1 l
2 0 l
2 0 l
2 0 l
2 1 l
2 0 l
2 0 l
2 0 l
2 1 l
2 0 l
2 0 l
3 0 l
1 0 l
3 1 l
1 0 l
3 0 l
1 0 l
3 1 l
2 0 l
2 0 l
2 0 l
2 0 l
2 1 l
2 0 l
2 0 l
2 0 l
2 0 l
2 1 l
2 0 l
2 0 l
2 0 l
2 0 l
2 0 l
2 1 l
2 0 l
2 0 l
2 0 l
2 0 l
2 0 l
2 0 l
2 1 l
2 0 l
2 0 l
2 0 l
2 0 l
2 0 l
2 1 l
2 0 l
2 0 l
2 0 l
2 0 l
2 0 l
2 0 l
2 1 l
2 0 l
2 0 l
2 0 l
2 0 l
2 0 l
2 0 l
2 0 l
2 1 l
2 0 l
2 0 l
2 0 l
2 0 l
2 0 l
2 0 l
2 0 l
2 0 l
2 1 l
2 0 l
2 0 l
2 0 l
2 0 l
2 0 l
2 0 l
2 0 l
2 0 l
2 1 l
2 0 l
2 0 l
2 0 l
2 0 l
2 0 l
2 0 l
2 0 l
2 0 l
2 0 l
2 0 l
2 0 l
2 1 l
2 0 l
2 0 l
2 0 l
2 0 l
2 0 l
2 0 l
2 0 l
2 0 l
2 0 l
2 0 l
2 0 l
2 1 l
2 0 l
2 0 l
2 0 l
2 0 l
2 0 l
2 0 l
2 0 l
2 0 l
2 0 l
2 0 l
2 0 l
2 0 l
2 1 l
2 0 l
2 0 l
2 0 l
2 0 l
2 0 l
2 0 l
2 0 l
2 0 l
2 0 l
2 0 l
2 0 l
2 0 l
2 0 l
2 0 l
2 0 l
2 0 l
2 1 l
2 0 l
2 0 l
2 0 l
2 0 l
2 0 l
2 0 l
2 0 l
2 0 l
2 0 l
2 0 l
2 0 l
2 0 l
2 0 l
2 0 l
2 0 l
2 0 l
2 0 l
2 0 l
2 1 l
2 0 l
2 0 l
2 0 l
2 0 l
2 0 l
2 0 l
2 0 l
2 0 l
2 0 l
2 0 l
2 0 l
2 0 l
2 0 l
2 0 l
2 0 l
2 0 l
2 0 l
2 0 l
2 0 l
2 0 l
2 1 l
2 0 l
2 0 l
2 0 l
2 0 l
2 0 l
2 0 l
2 0 l
2 0 l
2 0 l
2 0 l
2 0 l
3 0 l
1 0 l
3 0 l
1 0 l
3 0 l
2 0 l
2 0 l
2 0 l
2 0 l
2 0 l
2 0 l
2 0 l
2 0 l
2 0 l
2 0 l
2 0 l
2 1 l
2 0 l
2 0 l
2 0 l
2 0 l
2 0 l
2 0 l
2 0 l
2 0 l
2 0 l
2 0 l
2 0 l
2 0 l
2 0 l
2 0 l
2 0 l
2 0 l
2 0 l
2 0 l
2 0 l
2 0 l
2 0 l
2 0 l
2 0 l
2 0 l
2 0 l
2 0 l
2 0 l
2 0 l
2 0 l
2 0 l
2 0 l
2 0 l
2 0 l
2 0 l
2 1 l
2 0 l
2 0 l
2 0 l
2 0 l
2 0 l
2 0 l
2 0 l
2 0 l
2 0 l
2 0 l
2 0 l
2 0 l
2 0 l
2 0 l
2 0 l
2 0 l
2 0 l
2 0 l
2 0 l
2 0 l
2 0 l
2 0 l
2 0 l
2 0 l
2 0 l
2 0 l
2 0 l
2 0 l
2 0 l
2 0 l
2 0 l
2 0 l
2 0 l
2 0 l
2 0 l
2 0 l
2 0 l
2 0 l
2 0 l
2 0 l
2 0 l
2 0 l
CS M
2 0 l
2 0 l
2 0 l
2 1 l
2 0 l
2 0 l
2 0 l
2 0 l
2 0 l
2 0 l
2 0 l
2 0 l
2 0 l
2 0 l
2 0 l
2 0 l
2 0 l
2 0 l
2 0 l
2 0 l
2 0 l
2 0 l
2 0 l
2 0 l
2 0 l
2 0 l
2 0 l
2 0 l
2 0 l
2 0 l
2 0 l
2 0 l
2 0 l
2 0 l
2 0 l
2 0 l
2 0 l
2 0 l
2 0 l
2 0 l
2 0 l
2 0 l
2 0 l
2 0 l
2 0 l
2 0 l
2 0 l
2 0 l
2 0 l
2 0 l
2 0 l
2 0 l
2 0 l
2 0 l
2 0 l
2 0 l
2 0 l
2 0 l
2 0 l
2 0 l
2 0 l
2 0 l
2 1 l
2 0 l
2 0 l
2 0 l
2 0 l
2 0 l
2 0 l
2 0 l
2 0 l
2 0 l
2 0 l
3 0 l
1 0 l
3 0 l
1 0 l
3 0 l
2 0 l
2 0 l
2 0 l
2 0 l
2 0 l
2 0 l
2 0 l
2 0 l
2 0 l
2 0 l
2 0 l
2 0 l
2 0 l
2 0 l
2 0 l
2 0 l
2 0 l
2 0 l
2 0 l
2 0 l
2 0 l
2 0 l
2 0 l
2 0 l
2 0 l
2 0 l
2 0 l
2 0 l
2 0 l
2 0 l
2 0 l
2 0 l
2 0 l
2 0 l
2 0 l
2 0 l
2 0 l
2 0 l
2 0 l
2 0 l
2 0 l
2 0 l
2 0 l
2 0 l
2 0 l
2 0 l
2 0 l
2 0 l
2 0 l
2 0 l
2 0 l
2 0 l
2 0 l
2 0 l
2 0 l
2 0 l
2 0 l
2 0 l
2 0 l
2 0 l
2 0 l
2 0 l
2 0 l
2 0 l
2 0 l
2 0 l
2 0 l
2 0 l
2 0 l
2 0 l
2 0 l
2 0 l
2 0 l
2 0 l
2 0 l
2 0 l
2 0 l
2 0 l
2 0 l
2 0 l
2 0 l
2 1 l
2 0 l
2 0 l
2 0 l
2 0 l
2 0 l
2 0 l
2 0 l
2 0 l
2 0 l
2 0 l
2 0 l
2 0 l
2 0 l
2 0 l
2 0 l
2 0 l
2 0 l
2 0 l
2 0 l
2 0 l
2 0 l
2 0 l
2 0 l
2 0 l
2 0 l
2 0 l
2 0 l
2 0 l
2 0 l
2 0 l
2 0 l
2 0 l
2 0 l
2 0 l
2 0 l
2 0 l
2 0 l
2 0 l
2 0 l
2 0 l
2 0 l
2 0 l
2 0 l
2 0 l
2 0 l
2 0 l
2 0 l
2 0 l
2 0 l
2 0 l
2 0 l
2 0 l
2 0 l
2 0 l
2 0 l
2 0 l
2 0 l
2 0 l
2 0 l
2 0 l
2 0 l
2 0 l
2 0 l
2 0 l
2 0 l
2 0 l
2 0 l
2 0 l
2 0 l
2 0 l
2 0 l
2 0 l
2 0 l
2 0 l
2 0 l
2 0 l
2 0 l
2 0 l
2 0 l
2 0 l
2 0 l
2 0 l
2 0 l
2 0 l
2 0 l
3 0 l
1 0 l
3 0 l
1 0 l
3 0 l
1 0 l
3 0 l
2 0 l
2 0 l
2 0 l
2 0 l
2 0 l
2 0 l
2 0 l
2 0 l
2 0 l
2 0 l
2 0 l
2 0 l
2 0 l
2 0 l
2 0 l
2 0 l
2 0 l
2 0 l
2 0 l
2 0 l
2 0 l
2 0 l
2 0 l
2 0 l
2 0 l
2 0 l
2 0 l
2 0 l
2 0 l
2 0 l
2 0 l
2 0 l
2 0 l
2 0 l
2 0 l
2 0 l
2 0 l
2 0 l
2 0 l
2 0 l
2 0 l
2 0 l
2 0 l
2 0 l
2 0 l
2 0 l
2 0 l
2 0 l
CS M
2 0 l
2 0 l
2 0 l
2 0 l
2 0 l
2 0 l
2 0 l
2 0 l
2 0 l
2 0 l
2 0 l
2 0 l
2 0 l
2 0 l
2 0 l
2 0 l
2 0 l
2 0 l
2 0 l
2 0 l
2 0 l
2 0 l
2 0 l
2 0 l
2 0 l
2 0 l
2 0 l
2 0 l
2 0 l
2 0 l
2 0 l
2 0 l
2 0 l
2 0 l
2 0 l
2 0 l
2 0 l
2 0 l
2 0 l
2 1 l
2 0 l
2 0 l
2 0 l
2 0 l
2 0 l
2 0 l
2 0 l
2 0 l
2 0 l
2 0 l
2 0 l
2 0 l
2 0 l
2 0 l
2 0 l
2 0 l
2 0 l
2 0 l
2 0 l
2 0 l
2 0 l
2 0 l
2 0 l
2 0 l
2 0 l
2 0 l
2 0 l
2 0 l
2 0 l
2 0 l
2 0 l
2 0 l
2 0 l
2 0 l
2 0 l
2 0 l
2 0 l
2 0 l
2 0 l
2 0 l
2 0 l
2 0 l
2 0 l
2 0 l
2 0 l
2 0 l
2 0 l
2 0 l
2 0 l
2 0 l
2 0 l
2 0 l
2 0 l
2 0 l
2 0 l
2 0 l
2 0 l
2 0 l
2 0 l
2 0 l
2 0 l
2 0 l
2 0 l
2 0 l
2 0 l
2 0 l
2 0 l
2 0 l
2 0 l
2 0 l
2 0 l
2 0 l
2 0 l
2 0 l
2 0 l
2 0 l
2 0 l
2 0 l
2 0 l
3 0 l
1 0 l
3 0 l
1 0 l
3 0 l
1 0 l
3 0 l
2 0 l
2 0 l
2 0 l
2 0 l
2 0 l
2 0 l
2 0 l
2 0 l
2 0 l
2 0 l
2 0 l
2 0 l
2 0 l
2 0 l
2 0 l
2 0 l
2 0 l
2 0 l
2 0 l
2 0 l
2 0 l
2 0 l
2 0 l
2 0 l
2 0 l
2 0 l
2 0 l
2 0 l
2 0 l
2 0 l
2 0 l
2 0 l
2 0 l
2 0 l
2 0 l
2 0 l
2 0 l
2 0 l
2 0 l
2 0 l
2 0 l
2 0 l
2 0 l
2 0 l
2 0 l
2 0 l
2 0 l
2 0 l
2 0 l
2 0 l
2 0 l
2 0 l
2 0 l
2 0 l
2 0 l
2 0 l
2 0 l
2 0 l
2 0 l
2 0 l
2 0 l
2 0 l
2 0 l
2 0 l
2 0 l
2 0 l
2 0 l
2 0 l
2 0 l
2 0 l
2 0 l
2 0 l
2 0 l
2 0 l
2 0 l
2 0 l
2 0 l
2 0 l
2 0 l
2 0 l
2 0 l
2 0 l
2 0 l
2 0 l
2 0 l
2 0 l
2 0 l
1058 1308 M CS [] 0 setdash M
1108 1359 M 0 -51 l
3 51 m 0 -51 l
28 51 m 0 -51 l
3 51 m 0 -51 l
-41 51 m 17 0 l
14 0 m 17 0 l
-38 -24 m 28 0 l
-38 -27 m 17 0 l
14 0 m 17 0 l
24 -6 m 1 3 l
0 -5 l
-1 2 l
-2 2 l
-3 1 l
-6 0 l
-2 -1 l
-2 -2 l
0 -2 l
2 -2 l
2 -1 l
8 -3 l
3 -2 l
1 -1 l
-16 10 m 2 -1 l
2 -2 l
8 -3 l
3 -1 l
1 -2 l
0 -4 l
-1 -1 l
-3 -2 l
-6 0 l
-3 2 l
-1 1 l
-2 3 l
0 -6 l
2 3 l
37 14 m 2 3 l
0 -5 l
-2 2 l
-1 2 l
-3 1 l
-6 0 l
-3 -1 l
-1 -2 l
0 -2 l
1 -2 l
3 -1 l
7 -3 l
3 -2 l
2 -1 l
-16 10 m 1 -1 l
3 -2 l
7 -3 l
3 -1 l
2 -2 l
0 -4 l
-2 -1 l
-3 -2 l
-6 0 l
-2 2 l
-2 1 l
-1 3 l
0 -6 l
1 3 l
45 80 m -4 -4 l
-5 -8 l
-5 -9 l
-2 -12 l
0 -10 l
2 -12 l
5 -10 l
5 -7 l
4 -5 l
-4 73 m -5 -10 l
-3 -7 l
-2 -12 l
0 -10 l
2 -12 l
3 -7 l
5 -10 l
19 46 m 14 -34 l
-12 34 m 12 -29 l
15 29 m -15 -34 l
-19 34 m 14 0 l
10 0 m 14 0 l
51 26 m -43 -77 l
CS M
55 51 m 15 -34 l
-13 34 m 13 -29 l
14 29 m -14 -34 l
-20 34 m 15 0 l
9 0 m 15 0 l
9 -27 m 0 -24 l
2 -4 l
3 -2 l
3 0 l
2 2 l
2 2 l
-10 26 m 0 -24 l
1 -4 l
2 -2 l
-9 20 m 12 0 l
26 -3 m 1 3 l
0 -5 l
-1 2 l
-2 2 l
-3 1 l
-6 0 l
-2 -1 l
-2 -2 l
0 -2 l
2 -2 l
2 -1 l
8 -3 l
3 -2 l
1 -1 l
-16 10 m 2 -1 l
2 -2 l
8 -3 l
3 -1 l
1 -2 l
0 -4 l
-1 -1 l
-3 -2 l
-6 0 l
-3 2 l
-1 1 l
-2 3 l
0 -6 l
2 3 l
26 80 m 4 -4 l
5 -8 l
5 -9 l
2 -12 l
0 -10 l
-2 -12 l
-5 -10 l
-5 -7 l
-4 -5 l
4 73 m 5 -10 l
3 -7 l
2 -12 l
0 -10 l
-2 -12 l
-3 -7 l
-5 -10 l
22 12 m CS [] 0 setdash M
1058 556 M CS [] 0 setdash M
1072 590 M -5 -34 l
7 34 m -2 -15 l
-2 -12 l
-3 -7 l
32 34 m -3 -10 l
-5 -9 l
10 19 m -2 -7 l
-3 -5 l
-5 -7 l
-5 -5 l
-7 -5 l
-5 -2 l
-7 -3 l
-2 34 m 9 0 l
37 -45 m 18 0 l
0 2 l
-2 3 l
-1 2 l
-3 1 l
-4 0 l
-5 -1 l
-3 -3 l
-1 -4 l
0 -3 l
1 -5 l
3 -3 l
5 -1 l
3 0 l
4 1 l
3 3 l
-2 8 m 0 4 l
-1 3 l
-7 1 m -3 -1 l
-3 -3 l
-2 -4 l
0 -3 l
2 -5 l
3 -3 l
3 -1 l
41 83 m -5 -4 l
-5 -8 l
-5 -9 l
-2 -12 l
0 -10 l
2 -12 l
5 -10 l
5 -7 l
5 -5 l
-5 73 m -5 -10 l
-2 -7 l
-3 -12 l
0 -10 l
3 -12 l
2 -7 l
5 -10 l
19 46 m 15 -34 l
-13 34 m 13 -29 l
14 29 m -14 -34 l
-20 34 m 15 0 l
9 0 m 15 0 l
9 26 m 5 -4 l
5 -8 l
5 -9 l
2 -12 l
0 -10 l
-2 -12 l
-5 -10 l
-5 -7 l
-5 -5 l
5 73 m 5 -10 l
2 -7 l
3 -12 l
0 -10 l
-3 -12 l
-2 -7 l
-5 -10 l
70 72 m -43 -77 l
62 51 m -5 -34 l
8 34 m -3 -15 l
-2 -12 l
-3 -7 l
32 34 m -3 -10 l
-4 -9 l
9 19 m -2 -7 l
-3 -5 l
-4 -7 l
-5 -5 l
-8 -5 l
-4 -2 l
-8 -3 l
-2 34 m 10 0 l
37 -45 m 17 0 l
0 2 l
-1 3 l
-2 2 l
-3 1 l
-4 0 l
-4 -1 l
-3 -3 l
-2 -4 l
0 -3 l
2 -5 l
3 -3 l
4 -1 l
3 0 l
4 1 l
3 3 l
-1 8 m 0 4 l
-2 3 l
-7 1 m -3 -1 l
-3 -3 l
-1 -4 l
0 -3 l
1 -5 l
3 -3 l
3 -1 l
22 30 m -2 -1 l
2 -2 l
1 2 l
-1 1 l
0 -10 m 0 -20 l
1 20 m 0 -20 l
-6 20 m 6 0 l
-6 -20 m 10 0 l
3 23 m CS [] 0 setdash M
456 556 M CS [] 0 setdash M
470 590 M -5 -34 l
8 34 m -3 -15 l
-2 -12 l
-3 -7 l
32 34 m -3 -10 l
-4 -9 l
9 19 m -2 -7 l
-3 -5 l
-4 -7 l
-5 -5 l
-7 -5 l
-5 -2 l
-8 -3 l
-2 34 m 10 0 l
38 -27 m -1 -1 l
1 -2 l
2 2 l
-2 1 l
0 -10 m 0 -20 l
2 20 m 0 -20 l
-6 20 m 6 0 l
-6 -20 m 10 0 l
29 83 m -5 -4 l
-4 -8 l
-5 -9 l
-3 -12 l
0 -10 l
3 -12 l
5 -10 l
4 -7 l
5 -5 l
-5 73 m -4 -10 l
-3 -7 l
-2 -12 l
0 -10 l
2 -12 l
3 -7 l
4 -10 l
20 46 m 14 -34 l
-12 34 m 12 -29 l
15 29 m -15 -34 l
-19 34 m 14 0 l
10 0 m 14 0 l
10 26 m 5 -4 l
5 -8 l
5 -9 l
2 -12 l
0 -10 l
-2 -12 l
-5 -10 l
-5 -7 l
-5 -5 l
5 73 m 5 -10 l
2 -7 l
3 -12 l
0 -10 l
-3 -12 l
-2 -7 l
-5 -10 l
70 72 m -44 -77 l
63 51 m -5 -34 l
7 34 m -2 -15 l
-2 -12 l
-3 -7 l
31 34 m -2 -10 l
-5 -9 l
10 19 m -3 -7 l
-2 -5 l
-5 -7 l
-5 -5 l
-7 -5 l
-5 -2 l
-7 -3 l
-2 34 m 9 0 l
39 -27 m -2 -1 l
2 -2 l
1 2 l
-1 1 l
0 -10 m 0 -20 l
1 20 m 0 -20 l
-6 20 m 6 0 l
-6 -20 m 11 0 l
10 30 m -2 -1 l
2 -2 l
1 2 l
-1 1 l
0 -10 m 0 -20 l
1 20 m 0 -20 l
-6 20 m 6 0 l
-6 -20 m 10 0 l
4 23 m CS [] 0 setdash M
CS M 2 100 mul 72 div dup setlinewidth
/P [ /currentpoint cvx 0 5 -1 roll .05 add dup -2 div 0 exch /rmoveto cvx /rlineto cvx /stroke cvx /moveto cvx ] cvx def
CS [] 0 setdash M
1110 36 M 10 33 m 26 -33 l
-24 33 m 26 -33 l
0 33 m -28 -33 l
-5 33 m 14 0 l
10 0 m 14 0 l
-38 -33 m 14 0 l
10 0 m 14 0 l
15 29 m 43 0 l
-43 -15 m 43 0 l
17 19 m 14 -33 l
-12 33 m 12 -28 l
15 28 m -15 -33 l
-19 33 m 14 0 l
10 0 m 15 0 l
50 27 m 1269 19 L
55 50 m 15 -33 l
-12 33 m 12 -28 l
14 28 m -14 -33 l
-20 33 m 15 0 l
9 0 m 15 0 l
9 -26 m 1367 18 L
2 -4 l
3 -1 l
3 0 l
2 1 l
2 3 l
-10 26 m 1369 18 L
CS M
1 -4 l
2 -1 l
-9 20 m 12 0 l
26 -3 m 1 3 l
0 -6 l
-1 3 l
-2 1 l
-3 2 l
-6 0 l
-2 -2 l
-2 -1 l
0 -3 l
2 -1 l
2 -2 l
8 -3 l
3 -1 l
1 -2 l
-16 10 m 2 -1 l
2 -1 l
8 -3 l
3 -2 l
1 -1 l
0 -5 l
-1 -1 l
-3 -1 l
-6 0 l
-3 1 l
-1 1 l
-2 3 l
0 -5 l
2 2 l
CS [] 0 setdash M
CS [] 0 setdash M
67 1185 M 19 1209 M 3 -3 l
2 3 l
-2 2 l
-3 0 l
-2 -2 l
0 -5 l
2 -5 l
5 -2 l
43 0 l
17 1204 M 2 -2 l
5 -3 l
43 0 l
-33 -9 m 0 19 l
33 -19 m 0 16 l
7 1242 M 5 -4 l
7 -5 l
10 -5 l
12 -2 l
10 0 l
12 2 l
9 5 l
8 5 l
4 4 l
12 1238 M 10 -5 l
7 -3 l
12 -2 l
10 0 l
12 2 l
7 3 l
10 5 l
34 1259 M 33 27 l
-33 -24 m 33 26 l
-33 0 m 33 -29 l
-33 -4 m 0 14 l
0 10 m 0 14 l
33 -38 m 0 14 l
0 10 m 0 14 l
7 1305 M 5 5 l
7 5 l
10 5 l
12 2 l
10 0 l
12 -2 l
9 -5 l
8 -5 l
4 -5 l
12 1310 M 10 5 l
7 2 l
12 3 l
10 0 l
12 -3 l
7 -2 l
10 -5 l
CS [] 0 setdash M
CS [] 0 setdash M
255 255 M 2006 0 l
0 2006 l
255 2261 L
255 255 L
2006 0 l
255 255 M 2006 0 l
255 255 M 0 43 l
-20 -121 m 18 42 m -6 -2 l
-4 -6 l
-2 -10 l
0 -6 l
2 -10 l
4 -6 l
6 -2 l
4 0 l
6 2 l
4 6 l
2 10 l
0 6 l
-2 10 l
-4 6 l
-6 2 l
-4 0 l
-4 -2 l
-2 -2 l
-2 -4 l
-2 -10 l
0 -6 l
2 -10 l
2 -4 l
2 -2 l
4 -2 l
4 0 m 4 2 l
2 2 l
2 4 l
2 10 l
0 6 l
-2 10 l
-2 4 l
-2 2 l
-4 2 l
99 36 m 0 22 l
100 -22 m 0 22 l
100 -22 m 0 22 l
100 -22 m 0 43 l
-20 -121 m 8 34 m 2 -2 l
-2 -2 l
-2 2 l
0 2 l
2 4 l
2 2 l
6 2 l
8 0 l
6 -2 l
2 -2 l
2 -4 l
0 -4 l
-2 -4 l
-6 -4 l
-10 -4 l
-4 -2 l
-4 -4 l
-2 -6 l
0 -6 l
18 42 m 4 -2 l
2 -2 l
2 -4 l
0 -4 l
-2 -4 l
-6 -4 l
-8 -4 l
-10 -14 m 2 2 l
4 0 l
10 -4 l
6 0 l
4 2 l
2 2 l
-22 0 m 10 -6 l
8 0 l
2 2 l
2 4 l
0 4 l
87 68 m 0 22 l
100 -22 m 0 22 l
100 -22 m 0 22 l
101 -22 m 0 43 l
-20 -121 m 24 38 m 0 -38 l
2 42 m 0 -42 l
0 42 m -22 -30 l
32 0 l
-18 -12 m 14 0 l
88 78 m 0 22 l
100 -22 m 0 22 l
100 -22 m 0 22 l
101 -22 m 0 43 l
-20 -121 m 30 36 m -2 -2 l
2 -2 l
2 2 l
0 2 l
-2 4 l
-4 2 l
-6 0 l
-6 -2 l
-4 -4 l
-2 -4 l
-2 -8 l
0 -12 l
2 -6 l
4 -4 l
6 -2 l
4 0 l
6 2 l
4 4 l
2 6 l
0 2 l
-2 6 l
-4 4 l
-6 2 l
-2 0 l
-6 -2 l
-4 -4 l
-2 -6 l
12 28 m -4 -2 l
-4 -4 l
-2 -4 l
-2 -8 l
0 -12 l
2 -6 l
4 -4 l
4 -2 l
4 0 m 4 2 l
4 4 l
2 6 l
0 2 l
-2 6 l
-4 4 l
-4 2 l
98 52 m 0 22 l
100 -22 m 0 22 l
101 -22 m 0 22 l
100 -22 m 0 43 l
-20 -121 m 16 42 m -6 -2 l
-2 -4 l
0 -6 l
2 -4 l
6 -2 l
8 0 l
6 2 l
2 4 l
0 6 l
-2 4 l
-6 2 l
-8 0 l
-4 -2 l
-2 -4 l
0 -6 l
2 -4 l
4 -2 l
8 0 m 4 2 l
2 4 l
0 6 l
-2 4 l
-4 2 l
-8 -18 m -6 -2 l
-2 -2 l
-2 -4 l
0 -8 l
2 -4 l
2 -2 l
6 -2 l
8 0 l
6 2 l
2 2 l
2 4 l
0 8 l
-2 4 l
-2 2 l
-6 2 l
-8 0 m -4 -2 l
-2 -2 l
-2 -4 l
0 -8 l
2 -4 l
2 -2 l
4 -2 l
8 0 m 4 2 l
2 2 l
2 4 l
0 8 l
-2 4 l
-2 2 l
-4 2 l
96 54 m 0 22 l
100 -22 m 0 22 l
101 -22 m 0 22 l
100 -22 m 0 43 l
-40 -121 m 12 34 m 4 2 l
6 6 l
0 -42 l
-2 40 m 0 -40 l
-8 0 m 18 0 l
28 42 m -6 -2 l
-4 -6 l
-2 -10 l
0 -6 l
2 -10 l
4 -6 l
6 -2 l
4 0 l
6 2 l
4 6 l
2 10 l
0 6 l
-2 10 l
-4 6 l
-6 2 l
CS M
-4 0 l
-4 -2 l
-2 -2 l
-2 -4 l
-2 -10 l
0 -6 l
2 -10 l
2 -4 l
2 -2 l
4 -2 l
4 0 m 4 2 l
2 2 l
2 4 l
2 10 l
0 6 l
-2 10 l
-2 4 l
-2 2 l
-4 2 l
255 2261 M 2006 0 l
255 2261 M 0 -43 l
101 43 m 0 -21 l
100 21 m 0 -21 l
100 21 m 0 -21 l
100 21 m 0 -43 l
101 43 m 0 -21 l
100 21 m 0 -21 l
100 21 m 0 -21 l
101 21 m 0 -43 l
100 43 m 0 -21 l
100 21 m 0 -21 l
100 21 m 0 -21 l
101 21 m 0 -43 l
100 43 m 0 -21 l
100 21 m 0 -21 l
101 21 m 0 -21 l
100 21 m 0 -43 l
100 43 m 0 -21 l
100 21 m 0 -21 l
101 21 m 0 -21 l
100 21 m 0 -43 l
255 255 M 0 2006 l
255 255 M 43 0 l
78 234 M 18 42 m -6 -2 l
-4 -6 l
-2 -10 l
0 -6 l
2 -10 l
4 -6 l
6 -2 l
4 0 l
6 2 l
4 6 l
2 10 l
0 6 l
-2 10 l
-4 6 l
-6 2 l
-4 0 l
-4 -2 l
-2 -2 l
-2 -4 l
-2 -10 l
0 -6 l
2 -10 l
2 -4 l
2 -2 l
4 -2 l
4 0 m 4 2 l
2 2 l
2 4 l
2 10 l
0 6 l
-2 10 l
-2 4 l
-2 2 l
-4 2 l
29 -38 m -2 -2 l
2 -2 l
2 2 l
-2 2 l
28 38 m -6 -2 l
-4 -6 l
-2 -10 l
0 -6 l
2 -10 l
4 -6 l
6 -2 l
4 0 l
6 2 l
4 6 l
2 10 l
0 6 l
-2 10 l
-4 6 l
-6 2 l
-4 0 l
-4 -2 l
-2 -2 l
-2 -4 l
-2 -10 l
0 -6 l
2 -10 l
2 -4 l
2 -2 l
4 -2 l
4 0 m 4 2 l
2 2 l
2 4 l
2 10 l
0 6 l
-2 10 l
-2 4 l
-2 2 l
-4 2 l
30 -8 m 4 2 l
6 6 l
0 -42 l
-2 40 m 0 -40 l
-8 0 m 18 0 l
46 172 m 22 0 l
-22 89 m 22 0 l
-22 62 m 22 0 l
-22 49 m 22 0 l
-22 39 m 22 0 l
-22 34 m 22 0 l
-22 29 m 22 0 l
-22 26 m 22 0 l
-22 23 m 43 0 l
119 736 M 18 42 m -6 -2 l
-4 -6 l
-2 -10 l
0 -6 l
2 -10 l
4 -6 l
6 -2 l
4 0 l
6 2 l
4 6 l
2 10 l
0 6 l
-2 10 l
-4 6 l
-6 2 l
-4 0 l
-4 -2 l
-2 -2 l
-2 -4 l
-2 -10 l
0 -6 l
2 -10 l
2 -4 l
2 -2 l
4 -2 l
4 0 m 4 2 l
2 2 l
2 4 l
2 10 l
0 6 l
-2 10 l
-2 4 l
-2 2 l
-4 2 l
28 -38 m -2 -2 l
2 -2 l
2 2 l
-2 2 l
22 30 m 4 2 l
6 6 l
0 -42 l
-2 40 m 0 -40 l
-8 0 m 18 0 l
46 172 m 22 0 l
-22 88 m 22 0 l
-22 63 m 22 0 l
-22 48 m 22 0 l
-22 40 m 22 0 l
-22 33 m 22 0 l
-22 30 m 22 0 l
-22 25 m 22 0 l
-22 23 m 43 0 l
-119 -21 m 12 34 m 4 2 l
6 6 l
0 -42 l
-2 40 m 0 -40 l
-8 0 m 18 0 l
46 172 m 22 0 l
-22 88 m 22 0 l
-22 63 m 22 0 l
-22 49 m 22 0 l
-22 39 m 22 0 l
-22 34 m 22 0 l
-22 29 m 22 0 l
-22 26 m 22 0 l
-22 23 m 43 0 l
139 1739 M 12 34 m 4 2 l
6 6 l
0 -42 l
-2 40 m 0 -40 l
-8 0 m 18 0 l
28 42 m -6 -2 l
-4 -6 l
-2 -10 l
0 -6 l
2 -10 l
4 -7 l
6 -1 l
4 0 l
6 1 l
4 7 l
2 10 l
0 6 l
-2 10 l
-4 6 l
-6 2 l
-4 0 l
-4 -2 l
-2 -2 l
-2 -4 l
-2 -10 l
0 -6 l
2 -10 l
2 -4 l
2 -3 l
4 -1 l
4 0 m 4 1 l
2 3 l
2 4 l
2 10 l
0 6 l
-2 10 l
-2 4 l
-2 2 l
-4 2 l
54 130 m 22 0 l
-22 88 m 22 0 l
-22 62 m 22 0 l
-22 49 m 22 0 l
-22 40 m 22 0 l
-22 33 m 22 0 l
-22 29 m 22 0 l
-22 26 m 22 0 l
-22 23 m 43 0 l
98 2240 M 12 34 m 5 2 l
5 6 l
0 -42 l
-1 40 m 0 -40 l
-9 0 m 19 0 l
28 42 m -6 -2 l
-4 -6 l
-2 -10 l
0 -6 l
2 -10 l
4 -6 l
6 -2 l
4 0 l
6 2 l
4 6 l
2 10 l
0 6 l
-2 10 l
-4 6 l
-6 2 l
-4 0 l
-4 -2 l
-2 -2 l
-2 -4 l
-2 -10 l
0 -6 l
2 -10 l
2 -4 l
2 -2 l
4 -2 l
4 0 m 4 2 l
2 2 l
2 4 l
2 10 l
0 6 l
-2 10 l
-2 4 l
-2 2 l
-4 2 l
36 0 m -6 -2 l
-4 -6 l
-2 -10 l
0 -6 l
2 -10 l
4 -6 l
6 -2 l
4 0 l
6 2 l
4 6 l
2 10 l
0 6 l
-2 10 l
-4 6 l
-6 2 l
-4 0 l
-4 -2 l
-2 -2 l
CS M
-2 -4 l
-2 -10 l
0 -6 l
2 -10 l
2 -4 l
2 -2 l
4 -2 l
4 0 m 4 2 l
2 2 l
2 4 l
2 10 l
0 6 l
-2 10 l
-2 4 l
-2 2 l
-4 2 l
2261 255 M 0 2006 l
2261 255 M -43 0 l
43 151 m -21 0 l
21 89 m -21 0 l
21 62 m -21 0 l
21 49 m -21 0 l
21 39 m -21 0 l
21 34 m -21 0 l
21 29 m -21 0 l
21 26 m -21 0 l
21 23 m -43 0 l
43 151 m -21 0 l
21 88 m -21 0 l
21 63 m -21 0 l
21 48 m -21 0 l
21 40 m -21 0 l
21 33 m -21 0 l
21 30 m -21 0 l
21 25 m -21 0 l
21 23 m -43 0 l
43 151 m -21 0 l
21 88 m -21 0 l
21 63 m -21 0 l
21 49 m -21 0 l
21 39 m -21 0 l
21 34 m -21 0 l
21 29 m -21 0 l
21 26 m -21 0 l
21 23 m -43 0 l
43 151 m -21 0 l
21 88 m -21 0 l
21 62 m -21 0 l
21 49 m -21 0 l
21 40 m -21 0 l
21 33 m -21 0 l
21 29 m -21 0 l
21 26 m -21 0 l
21 23 m -43 0 l
CS [] 0 setdash M
stroke
grestore
showpage
end
