%!PS-Adobe-2.0 EPSF-2.0
%%Creator: SM
%%BoundingBox: 18 144 592 718
%%DocumentFonts: Helvetica
%%EndComments
 20 dict begin
72 300 div dup scale
1 setlinejoin 0 setlinecap
/Helvetica findfont 55 scalefont setfont 
/B {CS newpath moveto} def
/F {moveto 0 setlinecap} def
/C {CS M 1 1 3 {pop 3 1 roll 255 div} for SET_COLOUR} def
/CS {currentpoint stroke} def
/CF {currentpoint eofill} def
/L {lineto} def /l {rlineto} def /M {moveto} def /m {rmoveto} def
/P {currentpoint 0 1 rlineto stroke moveto} def
/T {currentlinecap exch 1 setlinecap show setlinecap} def
errordict /nocurrentpoint {pop 0 0 M currentpoint} put
/SET_COLOUR statusdict begin /processcolors where
  {pop processcolors 1 gt} {false} ifelse
  {(setrgbcolor)} {(pop pop pop)} ifelse cvx end def
 80 600 translate
gsave
CS [] 0 setdash M
CS M 1 100 mul 72 div dup setlinewidth
/P [ /currentpoint cvx 0 5 -1 roll .05 add dup -2 div 0 exch /rmoveto cvx /rlineto cvx /stroke cvx /moveto cvx ] cvx def
 0 0 0 C
CS M 4 100 mul 72 div dup setlinewidth
/P [ /currentpoint cvx 0 5 -1 roll .05 add dup -2 div 0 exch /rmoveto cvx /rlineto cvx /stroke cvx /moveto cvx ] cvx def
 0 0 0 C
CS [] 0 setdash M
CS [] 0 setdash M
CS [] 0 setdash M
CS [6 12] 0 setdash M
CS [] 0 setdash M
310 1122 M 10 -10 m 0 20 l
-20 0 l
0 -20 l
20 0 l
172 -3 m 10 -10 m 0 19 l
-19 0 l
0 -19 l
19 0 l
173 10 m 10 -10 m 0 19 l
-20 0 l
0 -19 l
20 0 l
172 14 m 10 -10 m 0 20 l
-20 0 l
0 -20 l
20 0 l
172 31 m 10 -10 m 0 20 l
-19 0 l
0 -20 l
19 0 l
173 -230 m 10 -10 m 0 20 l
-20 0 l
0 -20 l
20 0 l
172 -435 m 10 -10 m 0 20 l
-20 0 l
0 -20 l
20 0 l
173 297 m 9 -10 m 0 20 l
-19 0 l
0 -20 l
19 0 l
173 386 m 10 -10 m 0 20 l
-20 0 l
0 -20 l
20 0 l
172 350 m 10 -10 m 0 20 l
-20 0 l
0 -20 l
20 0 l
173 384 m 9 -10 m 0 20 l
-19 0 l
0 -20 l
19 0 l
CS [32 24] 0 setdash M
310 1122 M 182 -13 l
183 0 l
182 4 l
182 21 l
183 -240 l
182 -445 l
183 287 l
182 376 l
182 340 l
183 374 l
CS [] 0 setdash M
CS [] 0 setdash M
CS [6 12] 0 setdash M
CS [] 0 setdash M
310 1798 M 10 -10 m 0 20 l
-20 0 l
0 -20 l
20 0 l
172 9 m 10 -10 m 0 20 l
-19 0 l
0 -20 l
19 0 l
173 1 m 10 -9 m 0 19 l
-20 0 l
0 -19 l
20 0 l
172 -13 m 10 -9 m 0 19 l
-20 0 l
0 -19 l
20 0 l
172 -153 m 10 -10 m 0 20 l
-19 0 l
0 -20 l
19 0 l
173 -398 m 10 -10 m 0 20 l
-20 0 l
0 -20 l
20 0 l
172 -518 m 10 -10 m 0 20 l
-20 0 l
0 -20 l
20 0 l
173 -47 m 9 -10 m 0 20 l
-19 0 l
0 -20 l
19 0 l
173 448 m 10 -10 m 0 20 l
-20 0 l
0 -20 l
20 0 l
172 348 m 10 -10 m 0 20 l
-20 0 l
0 -20 l
20 0 l
173 354 m 9 -10 m 0 20 l
-19 0 l
0 -20 l
19 0 l
CS [32 24] 0 setdash M
255 1798 M 55 0 l
182 -1 l
183 -9 l
182 -22 l
182 -162 l
183 -408 l
182 -528 l
183 -57 l
182 438 l
182 338 l
183 344 l
CS [] 0 setdash M
CS [] 0 setdash M
CS [6 12] 0 setdash M
CS [] 0 setdash M
255 523 M 10 -10 m 0 20 l
-10 0 l
0 -20 m 10 0 l
173 10 m 9 -10 m 0 20 l
-19 0 l
0 -20 l
19 0 l
173 10 m 10 -10 m 0 20 l
-20 0 l
0 -20 l
20 0 l
172 21 m 10 -10 m 0 20 l
-20 0 l
0 -20 l
20 0 l
173 87 m 9 -10 m 0 20 l
-19 0 l
0 -20 l
19 0 l
173 261 m 10 -10 m 0 19 l
-20 0 l
0 -19 l
20 0 l
172 348 m 10 -10 m 0 20 l
-20 0 l
0 -20 l
20 0 l
173 -348 m 10 -10 m 0 20 l
-20 0 l
0 -20 l
20 0 l
172 102 m 10 -10 m 0 20 l
-20 0 l
0 -20 l
20 0 l
172 319 m 10 -10 m 0 19 l
-20 0 l
0 -19 l
20 0 l
173 520 m 10 -10 m 0 19 l
-20 0 l
0 -19 l
20 0 l
CS [32 24] 0 setdash M
255 523 M 183 0 l
182 0 l
182 11 l
183 77 l
182 251 l
182 338 l
183 -358 l
182 92 l
182 309 l
183 510 l
301 1860 M CS [] 0 setdash M
322 1894 M -5 -2 l
-3 -3 l
-4 -7 l
-1 -4 l
-2 -7 l
-1 -10 l
-2 -12 l
18 45 m -3 -2 l
-4 -3 l
-3 -7 l
-2 -4 l
-1 -7 l
-2 -10 l
-1 -12 l
16 45 m 3 0 l
3 -2 l
2 -2 l
0 -4 l
-2 -4 l
-1 -1 l
-5 -2 l
-7 0 l
10 15 m 3 -4 l
0 -4 l
-1 -4 l
-2 -1 l
-3 -2 l
-7 0 m 7 -1 l
3 -4 l
2 -3 l
0 -5 l
-2 -3 l
-2 -2 l
-4 -1 l
-4 0 l
-3 1 l
-2 2 l
-1 5 l
6 11 m 5 -1 l
3 -4 l
2 -3 l
0 -5 l
-2 -3 l
-1 -2 l
-3 -1 l
20 5 m -1 -1 l
1 -1 l
1 1 l
-1 1 l
0 -7 m 0 -14 l
1 14 m 0 -14 l
-4 14 m 4 0 l
-4 -14 m 7 0 l
9 35 m 28 0 l
-28 -9 m 28 0 l
16 17 m 4 2 l
5 5 l
0 -34 l
-2 32 m 0 -32 l
-7 0 m 15 0 l
22 34 m -4 -2 l
-4 -5 l
-1 -8 l
0 -5 l
1 -8 l
4 -5 l
4 -1 l
4 0 l
4 1 l
4 5 l
1 8 l
0 5 l
-1 8 l
-4 5 l
-4 2 l
-4 0 l
-3 -2 l
-1 -2 l
-2 -3 l
-2 -8 l
0 -5 l
2 -8 l
2 -3 l
1 -2 l
3 -1 l
4 0 m 3 1 l
1 2 l
2 3 l
2 8 l
0 5 l
-2 8 l
-2 3 l
-1 2 l
-3 2 l
28 0 m -4 -2 l
-4 -5 l
-1 -8 l
0 -5 l
1 -8 l
4 -5 l
4 -1 l
4 0 l
5 1 l
3 5 l
1 8 l
0 5 l
-1 8 l
-3 5 l
-5 2 l
-4 0 l
-3 -2 l
-1 -2 l
-2 -3 l
-2 -8 l
0 -5 l
2 -8 l
2 -3 l
1 -2 l
3 -1 l
4 0 m 3 1 l
2 2 l
1 3 l
2 8 l
0 5 l
-2 8 l
-1 3 l
-2 2 l
-3 2 l
22 -34 m -1 1 l
1 2 l
2 -2 l
0 -3 l
-2 -3 l
-1 -2 l
49 41 m 0 -34 l
2 34 m 0 -34 l
-11 34 m -2 -10 l
0 10 l
CS M
24 0 l
0 -10 l
-1 10 l
-17 -34 m 12 0 l
14 5 m -1 -1 l
1 -1 l
1 1 l
-1 1 l
0 -7 m 0 -14 l
1 14 m 0 -14 l
-4 14 m 4 0 l
-4 -14 m 7 0 l
34 56 m -29 -51 l
47 45 m 0 -34 l
1 34 m 0 -34 l
-11 34 m -2 -10 l
0 10 l
24 0 l
0 -10 l
-1 10 l
-16 -34 m 11 0 l
14 -8 m 11 0 l
0 2 l
-1 2 l
-1 1 l
-2 1 l
-3 0 l
-3 -1 l
-1 -2 l
-1 -3 l
0 -2 l
1 -3 l
1 -2 l
3 -1 l
2 0 l
3 1 l
2 2 l
-1 5 m 0 3 l
-1 2 l
-5 1 m -2 -1 l
-1 -2 l
-1 -3 l
0 -2 l
1 -3 l
1 -2 l
2 -1 l
16 35 m 29 0 l
-29 -9 m 29 0 l
16 17 m 3 2 l
5 5 l
0 -34 l
-1 32 m 0 -32 l
-7 0 m 15 0 l
22 34 m -5 -2 l
-3 -5 l
-1 -8 l
0 -5 l
1 -8 l
3 -5 l
5 -1 l
3 0 l
5 1 l
3 5 l
2 8 l
0 5 l
-2 8 l
-3 5 l
-5 2 l
-3 0 l
-3 -2 l
-2 -2 l
-1 -3 l
-2 -8 l
0 -5 l
2 -8 l
1 -3 l
2 -2 l
3 -1 l
3 0 m 4 1 l
1 2 l
2 3 l
1 8 l
0 5 l
-1 8 l
-2 3 l
-1 2 l
-4 2 l
29 0 m -5 -2 l
-3 -5 l
-1 -8 l
0 -5 l
1 -8 l
3 -5 l
5 -1 l
3 0 l
5 1 l
4 5 l
1 8 l
0 5 l
-1 8 l
-4 5 l
-5 2 l
-3 0 l
-3 -2 l
-2 -2 l
-1 -3 l
-2 -8 l
0 -5 l
2 -8 l
1 -3 l
2 -2 l
3 -1 l
3 0 m 4 1 l
1 2 l
2 3 l
2 8 l
0 5 l
-2 8 l
-2 3 l
-1 2 l
-4 2 l
23 -34 m -2 1 l
2 2 l
2 -2 l
0 -3 l
-2 -3 l
-2 -2 l
44 41 m 0 -34 l
1 34 m 0 -34 l
16 22 m -16 -16 l
8 7 m 10 -13 l
-11 13 m 9 -13 l
-22 34 m 6 0 l
12 -12 m 9 0 l
-27 -22 m 11 0 l
7 0 m 9 0 l
6 -16 m 18 0 l
-9 0 m 0 19 l
18 5 m 1 -5 l
2 -2 l
3 -1 l
3 0 l
5 1 l
3 5 l
2 5 l
0 5 l
-2 3 l
-1 2 l
-3 1 l
-4 0 l
-4 -1 l
-4 -5 l
-1 -5 l
-7 -22 l
16 11 m 4 1 l
3 5 l
1 5 l
0 7 l
-1 3 l
-7 1 m -3 -1 l
-3 -5 l
-2 -5 l
-6 -22 l
34 16 m -1 -1 l
1 -1 l
1 1 l
-1 1 l
0 -7 m 0 -14 l
1 14 m 0 -14 l
-4 14 m 4 0 l
-4 -14 m 6 0 l
9 35 m 29 0 l
-29 -9 m 29 0 l
16 17 m 3 2 l
5 5 l
0 -34 l
-2 32 m 0 -32 l
-6 0 m 14 0 l
16 3 m -1 -2 l
1 -1 l
2 1 l
-2 2 l
23 31 m -5 -2 l
-3 -5 l
-2 -8 l
0 -5 l
2 -8 l
3 -5 l
5 -1 l
3 0 l
5 1 l
3 5 l
2 8 l
0 5 l
-2 8 l
-3 5 l
-5 2 l
-3 0 l
-3 -2 l
-2 -2 l
-2 -3 l
-1 -8 l
0 -5 l
1 -8 l
2 -3 l
2 -2 l
3 -1 l
3 0 m 3 1 l
2 2 l
1 3 l
2 8 l
0 5 l
-2 8 l
-1 3 l
-2 2 l
-3 2 l
14 -34 m CS [32 24] 0 setdash M
301 1191 M CS [] 0 setdash M
322 1225 M -5 -2 l
-3 -3 l
-4 -6 l
-1 -5 l
-2 -6 l
-1 -10 l
-2 -13 l
18 45 m -3 -2 l
-4 -3 l
-3 -6 l
-2 -5 l
-1 -6 l
-2 -10 l
-1 -13 l
16 45 m 3 0 l
3 -2 l
2 -1 l
0 -5 l
-2 -3 l
-1 -2 l
-5 -1 l
-7 0 l
10 14 m 3 -3 l
0 -5 l
-1 -3 l
-2 -2 l
-3 -1 l
-7 0 m 7 -2 l
3 -3 l
2 -3 l
0 -5 l
-2 -4 l
-2 -1 l
-4 -2 l
-4 0 l
-3 2 l
-2 1 l
-1 5 l
6 12 m 5 -2 l
3 -3 l
2 -3 l
0 -5 l
-2 -4 l
-1 -1 l
-3 -2 l
20 5 m -1 -1 l
1 -1 l
1 1 l
-1 1 l
0 -7 m 0 -13 l
1 13 m 0 -13 l
-4 13 m 4 0 l
-4 -13 m 7 0 l
9 35 m 28 0 l
-28 -10 m 28 0 l
16 18 m 4 1 l
5 5 l
0 -34 l
-2 32 m 0 -32 l
-7 0 m 15 0 l
22 34 m -4 -2 l
-4 -4 l
-1 -8 l
0 -5 l
1 -8 l
4 -5 l
4 -2 l
4 0 l
4 2 l
4 5 l
1 8 l
0 5 l
-1 8 l
-4 4 l
-4 2 l
-4 0 l
-3 -2 l
-1 -1 l
-2 -3 l
-2 -8 l
0 -5 l
2 -8 l
2 -4 l
1 -1 l
CS M
3 -2 l
4 0 m 3 2 l
1 1 l
2 4 l
2 8 l
0 5 l
-2 8 l
-2 3 l
-1 1 l
-3 2 l
28 0 m -4 -2 l
-4 -4 l
-1 -8 l
0 -5 l
1 -8 l
4 -5 l
4 -2 l
4 0 l
5 2 l
3 5 l
1 8 l
0 5 l
-1 8 l
-3 4 l
-5 2 l
-4 0 l
-3 -2 l
-1 -1 l
-2 -3 l
-2 -8 l
0 -5 l
2 -8 l
2 -4 l
1 -1 l
3 -2 l
4 0 m 3 2 l
2 1 l
1 4 l
2 8 l
0 5 l
-2 8 l
-1 3 l
-2 1 l
-3 2 l
22 -34 m -1 2 l
1 1 l
2 -1 l
0 -3 l
-2 -4 l
-1 -1 l
49 40 m 0 -34 l
2 34 m 0 -34 l
-11 34 m -2 -10 l
0 10 l
24 0 l
0 -10 l
-1 10 l
-17 -34 m 12 0 l
14 5 m -1 -1 l
1 -1 l
1 1 l
-1 1 l
0 -7 m 0 -13 l
1 13 m 0 -13 l
-4 13 m 4 0 l
-4 -13 m 7 0 l
34 55 m -29 -51 l
47 45 m 0 -34 l
1 34 m 0 -34 l
-11 34 m -2 -10 l
0 10 l
24 0 l
0 -10 l
-1 10 l
-16 -34 m 11 0 l
14 -7 m 11 0 l
0 1 l
-1 2 l
-1 1 l
-2 1 l
-3 0 l
-3 -1 l
-1 -2 l
-1 -2 l
0 -2 l
1 -3 l
1 -2 l
3 -1 l
2 0 l
3 1 l
2 2 l
-1 5 m 0 2 l
-1 2 l
-5 1 m -2 -1 l
-1 -2 l
-1 -2 l
0 -2 l
1 -3 l
1 -2 l
2 -1 l
16 35 m 29 0 l
-29 -10 m 29 0 l
16 18 m 3 1 l
5 5 l
0 -34 l
-1 32 m 0 -32 l
-7 0 m 15 0 l
22 34 m -5 -2 l
-3 -4 l
-1 -8 l
0 -5 l
1 -8 l
3 -5 l
5 -2 l
3 0 l
5 2 l
3 5 l
2 8 l
0 5 l
-2 8 l
-3 4 l
-5 2 l
-3 0 l
-3 -2 l
-2 -1 l
-1 -3 l
-2 -8 l
0 -5 l
2 -8 l
1 -4 l
2 -1 l
3 -2 l
3 0 m 4 2 l
1 1 l
2 4 l
1 8 l
0 5 l
-1 8 l
-2 3 l
-1 1 l
-4 2 l
29 0 m -5 -2 l
-3 -4 l
-1 -8 l
0 -5 l
1 -8 l
3 -5 l
5 -2 l
3 0 l
5 2 l
4 5 l
1 8 l
0 5 l
-1 8 l
-4 4 l
-5 2 l
-3 0 l
-3 -2 l
-2 -1 l
-1 -3 l
-2 -8 l
0 -5 l
2 -8 l
1 -4 l
2 -1 l
3 -2 l
3 0 m 4 2 l
1 1 l
2 4 l
2 8 l
0 5 l
-2 8 l
-2 3 l
-1 1 l
-4 2 l
23 -34 m -2 2 l
2 1 l
2 -1 l
0 -3 l
-2 -4 l
-2 -1 l
44 40 m 0 -34 l
1 34 m 0 -34 l
16 23 m -16 -16 l
8 6 m 10 -13 l
-11 13 m 9 -13 l
-22 34 m 6 0 l
12 -11 m 9 0 l
-27 -23 m 11 0 l
7 0 m 9 0 l
6 -15 m 18 0 l
-9 0 m 0 18 l
18 5 m 1 -5 l
2 -1 l
3 -2 l
3 0 l
5 2 l
3 5 l
2 5 l
0 4 l
-2 4 l
-1 1 l
-3 2 l
-4 0 l
-4 -2 l
-4 -5 l
-1 -4 l
-7 -23 l
16 11 m 4 2 l
3 5 l
1 5 l
0 6 l
-1 3 l
-7 2 m -3 -2 l
-3 -5 l
-2 -4 l
-6 -23 l
34 16 m -1 -1 l
1 -1 l
1 1 l
-1 1 l
0 -7 m 0 -13 l
1 13 m 0 -13 l
-4 13 m 4 0 l
-4 -13 m 6 0 l
9 35 m 29 0 l
-29 -10 m 29 0 l
13 18 m 1 -2 l
-1 -2 l
-2 2 l
0 2 l
2 3 l
1 1 l
5 2 l
6 0 l
5 -2 l
2 -1 l
1 -3 l
0 -4 l
-1 -3 l
-5 -3 l
-8 -3 l
-3 -2 l
-3 -3 l
-2 -5 l
0 -5 l
14 34 m 4 -2 l
1 -1 l
2 -3 l
0 -4 l
-2 -3 l
-5 -3 l
-6 -3 l
-8 -12 m 2 2 l
3 0 l
8 -3 l
5 0 l
3 1 l
1 2 l
-17 0 m 8 -5 l
6 0 l
2 2 l
1 3 l
0 3 l
13 -5 m -1 -1 l
1 -2 l
2 2 l
-2 1 l
23 31 m -5 -2 l
-3 -4 l
-2 -8 l
0 -5 l
2 -8 l
3 -5 l
5 -2 l
3 0 l
5 2 l
3 5 l
2 8 l
0 5 l
-2 8 l
-3 4 l
-5 2 l
-3 0 l
-3 -2 l
-2 -1 l
-2 -3 l
-1 -8 l
0 -5 l
1 -8 l
2 -4 l
2 -1 l
3 -2 l
3 0 m 3 2 l
2 1 l
1 4 l
2 8 l
0 5 l
-2 8 l
-1 3 l
CS M
-2 1 l
-3 2 l
14 -34 m CS [32 24] 0 setdash M
301 422 M CS [] 0 setdash M
322 456 M -5 -2 l
-3 -3 l
-4 -6 l
-1 -5 l
-2 -6 l
-1 -10 l
-2 -13 l
18 45 m -3 -2 l
-4 -3 l
-3 -6 l
-2 -5 l
-1 -6 l
-2 -10 l
-1 -13 l
16 45 m 3 0 l
3 -2 l
2 -1 l
0 -5 l
-2 -3 l
-1 -2 l
-5 -1 l
-7 0 l
10 14 m 3 -3 l
0 -5 l
-1 -3 l
-2 -2 l
-3 -1 l
-7 0 m 7 -2 l
3 -3 l
2 -3 l
0 -5 l
-2 -3 l
-2 -2 l
-4 -2 l
-4 0 l
-3 2 l
-2 2 l
-1 4 l
6 12 m 5 -2 l
3 -3 l
2 -3 l
0 -5 l
-2 -3 l
-1 -2 l
-3 -2 l
20 5 m -1 -1 l
1 -1 l
1 1 l
-1 1 l
0 -7 m 0 -13 l
1 13 m 0 -13 l
-4 13 m 4 0 l
-4 -13 m 7 0 l
9 35 m 28 0 l
-28 -10 m 28 0 l
16 18 m 4 1 l
5 5 l
0 -34 l
-2 32 m 0 -32 l
-7 0 m 15 0 l
16 0 m -2 2 l
2 2 l
2 -2 l
0 -3 l
-2 -3 l
-2 -2 l
50 40 m 0 -34 l
2 34 m 0 -34 l
-12 34 m -1 -10 l
0 10 l
24 0 l
0 -10 l
-2 10 l
-16 -34 m 12 0 l
14 5 m -1 -1 l
1 -1 l
1 1 l
-1 1 l
0 -7 m 0 -13 l
1 13 m 0 -13 l
-4 13 m 4 0 l
-4 -13 m 7 0 l
34 55 m -29 -51 l
46 45 m 0 -34 l
2 34 m 0 -34 l
-11 34 m -2 -10 l
0 10 l
24 0 l
0 -10 l
-1 10 l
-16 -34 m 11 0 l
13 -7 m 12 0 l
0 2 l
-1 2 l
-1 0 l
-2 1 l
-3 0 l
-3 -1 l
-2 -1 l
-1 -3 l
0 -2 l
1 -3 l
2 -2 l
3 -1 l
2 0 l
3 1 l
2 2 l
-1 5 m 0 3 l
-1 1 l
-5 1 m -2 -1 l
-2 -1 l
-1 -3 l
0 -2 l
1 -3 l
2 -2 l
2 -1 l
16 35 m 29 0 l
-29 -10 m 29 0 l
16 18 m 3 1 l
5 5 l
0 -34 l
-1 32 m 0 -32 l
-7 0 m 15 0 l
16 0 m -2 2 l
2 2 l
1 -2 l
0 -3 l
-1 -3 l
-2 -2 l
43 40 m 0 -34 l
2 34 m 0 -34 l
16 23 m -16 -16 l
8 6 m 10 -13 l
-12 13 m 10 -13 l
-23 34 m 7 0 l
11 -11 m 10 0 l
-28 -23 m 12 0 l
6 0 m 10 0 l
6 -15 m 17 0 l
-8 0 m 0 18 l
17 5 m 2 -4 l
2 -2 l
3 -2 l
3 0 l
5 2 l
3 5 l
2 5 l
0 4 l
-2 4 l
-2 1 l
-3 2 l
-3 0 l
-5 -2 l
-3 -5 l
-2 -4 l
-6 -23 l
16 11 m 3 2 l
3 5 l
2 5 l
0 6 l
-2 3 l
-6 2 m -3 -2 l
-3 -5 l
-2 -4 l
-6 -23 l
33 16 m -1 -1 l
1 -1 l
1 1 l
-1 1 l
0 -7 m 0 -13 l
1 13 m 0 -13 l
-4 13 m 4 0 l
-4 -13 m 7 0 l
9 35 m 28 0 l
-28 -10 m 28 0 l
16 18 m 4 1 l
4 5 l
0 -34 l
-1 32 m 0 -32 l
-7 0 m 15 0 l
16 4 m -2 -2 l
2 -2 l
2 2 l
-2 2 l
22 30 m -4 -2 l
-4 -4 l
-1 -8 l
0 -5 l
1 -8 l
4 -5 l
4 -2 l
4 0 l
4 2 l
4 5 l
1 8 l
0 5 l
-1 8 l
-4 4 l
-4 2 l
-4 0 l
-3 -2 l
-1 -1 l
-2 -3 l
-2 -8 l
0 -5 l
2 -8 l
2 -3 l
1 -2 l
3 -2 l
4 0 m 3 2 l
1 2 l
2 3 l
2 8 l
0 5 l
-2 8 l
-2 3 l
-1 1 l
-3 2 l
14 -34 m CS [32 24] 0 setdash M
CS M 2 100 mul 72 div dup setlinewidth
/P [ /currentpoint cvx 0 5 -1 roll .05 add dup -2 div 0 exch /rmoveto cvx /rlineto cvx /stroke cvx /moveto cvx ] cvx def
CS [] 0 setdash M
255 1592 M 2006 0 l
CS [] 0 setdash M
359 36 M 12 50 m 371 36 L
2 50 m 373 36 L
0 26 m 5 5 l
7 2 l
5 0 l
7 -2 l
3 -5 l
0 -26 l
-10 33 m 5 -2 l
2 -5 l
0 -26 l
-33 50 m 9 0 l
364 36 M 16 0 l
10 0 m 17 0 l
41 26 m -3 -2 l
3 -3 l
2 3 l
0 2 l
-5 5 l
-4 2 l
-8 0 l
-7 -2 l
-5 -5 l
-2 -7 l
0 -5 l
2 -7 l
5 -5 l
7 -2 l
5 0 l
7 2 l
5 5 l
-17 26 m -4 -2 l
-5 -5 l
-3 -7 l
0 -5 l
3 -7 l
5 -5 l
4 -2 l
39 41 m 5 2 l
7 7 l
484 36 L
-3 48 m 481 36 L
-9 0 m 21 0 l
34 50 m -7 -2 l
-5 -7 l
-2 -12 l
0 -8 l
2 -12 l
5 -7 l
7 -2 l
5 0 l
7 2 l
5 7 l
2 12 l
0 8 l
-2 12 l
-5 7 l
-7 2 l
-5 0 l
-5 -2 l
-2 -3 l
-2 -4 l
-3 -12 l
0 -8 l
3 -12 l
2 -4 l
2 -3 l
5 -2 l
5 0 m 5 2 l
2 3 l
3 4 l
2 12 l
0 8 l
-2 12 l
-3 4 l
-2 3 l
-5 2 l
566 36 M -3 2 l
3 3 l
CS M
2 -3 l
0 -5 l
-2 -5 l
-3 -2 l
29 51 m 5 2 l
7 7 l
604 36 L
-2 48 m 602 36 L
-10 0 m 22 0 l
26 41 m 5 2 l
7 7 l
652 36 L
-2 48 m 650 36 L
-10 0 m 22 0 l
24 0 m -2 2 l
2 3 l
2 -3 l
0 -5 l
-2 -5 l
-2 -2 l
29 51 m 4 2 l
8 7 l
725 36 L
-3 48 m 722 36 L
-9 0 m 21 0 l
22 41 m 2 -3 l
-2 -2 l
-3 2 l
0 3 l
3 4 l
2 3 l
7 2 l
10 0 l
7 -2 l
3 -5 l
0 -7 l
-3 -5 l
-7 -2 l
-7 0 l
7 21 m 5 -2 l
2 -5 l
0 -7 l
-2 -5 l
-5 -2 l
5 -3 l
5 -5 l
2 -4 l
0 -8 l
-2 -4 l
-3 -3 l
-7 -2 l
-10 0 l
-7 2 l
-2 3 l
-3 4 l
0 3 l
3 2 l
2 -2 l
-2 -3 l
26 15 m 3 -7 l
0 -8 l
-3 -4 l
-2 -3 l
-5 -2 l
457 33 m -4 -33 l
7 33 m -3 -14 l
-2 -12 l
-2 -7 l
31 33 m -3 -9 l
-4 -10 l
9 19 m -2 -7 l
-3 -5 l
-4 -7 l
-5 -5 l
-7 -4 l
-5 -3 l
-7 -2 l
-3 33 m 10 0 l
38 -26 m 1273 13 L
2 30 m 1275 13 L
17 30 m 1292 13 L
2 30 m 1294 13 L
-25 30 m 10 0 l
9 0 m 10 0 l
-23 -15 m 17 0 l
1269 13 M 10 0 l
9 0 m 10 0 l
24 15 m -1 -1 l
1 -1 l
2 1 l
0 1 l
-3 3 l
-3 2 l
-4 0 l
-5 -2 l
-2 -3 l
-2 -4 l
0 -3 l
2 -4 l
2 -3 l
5 -1 l
3 0 l
4 1 l
3 3 l
-10 16 m -3 -2 l
-3 -3 l
-1 -4 l
0 -3 l
1 -4 l
3 -3 l
3 -1 l
21 30 m -1 -1 l
1 -2 l
2 2 l
-2 1 l
0 -10 m 1335 13 L
2 20 m 1337 13 L
-6 20 m 6 0 l
1331 13 M 10 0 l
51 83 m 1349 19 L
62 50 m -4 -33 l
7 33 m -3 -14 l
-2 -12 l
-2 -7 l
31 33 m -3 -9 l
-4 -10 l
9 19 m -2 -7 l
-3 -5 l
-4 -7 l
-5 -5 l
-7 -4 l
-5 -3 l
-7 -2 l
-3 33 m 10 0 l
38 -26 m -1 -1 l
1 -2 l
2 2 l
-2 1 l
0 -10 m 1452 13 L
2 20 m 1454 13 L
-6 20 m 6 0 l
1448 13 M 10 0 l
287 56 m -5 -33 l
7 33 m -2 -14 l
-2 -12 l
-3 -7 l
31 33 m -2 -9 l
-5 -10 l
10 19 m -3 -7 l
-2 -5 l
-5 -7 l
-5 -5 l
-7 -4 l
-5 -3 l
-7 -2 l
-2 33 m 9 0 l
39 -26 m 1786 13 L
1 30 m 1787 13 L
18 30 m 1805 13 L
1 30 m 1806 13 L
-25 30 m 11 0 l
8 0 m 10 0 l
-23 -15 m 18 0 l
1781 13 M 11 0 l
8 0 m 10 0 l
25 15 m -2 -1 l
2 -1 l
1 1 l
0 1 l
-3 3 l
-2 2 l
-5 0 l
-4 -2 l
-3 -3 l
-1 -4 l
0 -3 l
1 -4 l
3 -3 l
4 -1 l
3 0 l
4 1 l
3 3 l
-10 16 m -3 -2 l
-2 -3 l
-2 -4 l
0 -3 l
2 -4 l
2 -3 l
3 -1 l
22 30 m -2 -1 l
2 -2 l
1 2 l
-1 1 l
0 -10 m 1848 13 L
1 20 m 1849 13 L
-5 20 m 5 0 l
1844 13 M 10 0 l
51 83 m 1861 19 L
63 50 m -5 -33 l
7 33 m -2 -14 l
-2 -12 l
-3 -7 l
31 33 m -2 -9 l
-5 -10 l
10 19 m -3 -7 l
-2 -5 l
-5 -7 l
-5 -5 l
-7 -4 l
-5 -3 l
-7 -2 l
-2 33 m 9 0 l
39 -26 m 1965 13 L
1 30 m 1966 13 L
18 30 m 1984 13 L
1 30 m 1985 13 L
-25 30 m 11 0 l
8 0 m 10 0 l
-23 -15 m 18 0 l
1960 13 M 11 0 l
8 0 m 10 0 l
25 15 m -2 -1 l
2 -1 l
1 1 l
0 1 l
-3 3 l
-2 2 l
-5 0 l
-4 -2 l
-3 -3 l
-1 -4 l
0 -3 l
1 -4 l
3 -3 l
4 -1 l
3 0 l
4 1 l
3 3 l
-10 16 m -3 -2 l
-3 -3 l
-1 -4 l
0 -3 l
1 -4 l
3 -3 l
3 -1 l
20 11 m 18 0 l
0 3 l
-2 3 l
-1 1 l
-3 2 l
-4 0 l
-5 -2 l
-3 -3 l
-1 -4 l
0 -3 l
1 -4 l
3 -3 l
5 -1 l
3 0 l
4 1 l
3 3 l
-2 7 m 0 4 l
-1 3 l
-7 2 m -3 -2 l
-3 -3 l
-2 -4 l
0 -3 l
2 -4 l
3 -3 l
3 -1 l
24 52 m 43 0 l
-43 -15 m 43 0 l
24 27 m 5 2 l
7 7 l
2136 36 L
-2 48 m 2134 36 L
-10 0 m 22 0 l
CS [] 0 setdash M
CS [] 0 setdash M
67 1180 M -26 2 m -5 5 l
-2 5 l
0 5 l
2 5 l
3 2 l
7 2 l
9 0 l
10 -2 l
19 -7 l
39 1185 M -3 5 l
0 9 l
3 5 l
-5 19 m 7 -2 l
5 -3 l
17 -12 l
12 -7 l
9 -5 l
34 1221 M 7 -3 l
5 -2 l
17 -10 l
7 1276 M 77 -43 l
-41 58 m -4 4 l
-3 8 l
CS M
-2 -3 l
2 -5 l
7 -4 l
8 -3 l
7 0 l
7 3 l
2 2 l
0 5 l
-2 5 l
-7 4 l
-7 3 l
7 -22 m 5 3 l
2 2 l
0 5 l
-2 5 l
-5 4 l
-7 0 m 7 0 l
7 3 l
2 2 l
0 5 l
-2 5 l
-7 5 l
-7 2 l
-8 0 l
-7 -2 l
-2 -3 l
2 -2 l
3 5 l
4 2 l
15 -22 m 5 3 l
2 2 l
0 5 l
-2 5 l
-5 5 l
CS [] 0 setdash M
CS [] 0 setdash M
255 255 M 2006 0 l
0 2006 l
255 2261 L
255 255 L
2006 0 l
255 255 M 2006 0 l
255 255 M 0 36 l
-76 -102 m 16 36 m -5 -2 l
-4 -5 l
-1 -9 l
0 -5 l
1 -8 l
4 -5 l
5 -2 l
3 0 l
5 2 l
3 5 l
2 8 l
0 5 l
-2 9 l
-3 5 l
-5 2 l
-3 0 l
-4 -2 l
-1 -2 l
-2 -3 l
-2 -9 l
0 -5 l
2 -8 l
2 -3 l
1 -2 l
4 -2 l
3 0 m 3 2 l
2 2 l
2 3 l
1 8 l
0 5 l
-1 9 l
-2 3 l
-2 2 l
-3 2 l
24 -32 m -2 -2 l
2 -2 l
1 2 l
-1 2 l
23 32 m -5 -2 l
-3 -5 l
-2 -9 l
0 -5 l
2 -8 l
3 -5 l
5 -2 l
4 0 l
5 2 l
3 5 l
2 8 l
0 5 l
-2 9 l
-3 5 l
-5 2 l
-4 0 l
-3 -2 l
-2 -2 l
-2 -3 l
-1 -9 l
0 -5 l
1 -8 l
2 -3 l
2 -2 l
3 -2 l
4 0 m 3 2 l
2 2 l
1 3 l
2 8 l
0 5 l
-2 9 l
-1 3 l
-2 2 l
-3 2 l
30 0 m -5 -2 l
-4 -5 l
-1 -9 l
0 -5 l
1 -8 l
4 -5 l
5 -2 l
3 0 l
5 2 l
4 5 l
1 8 l
0 5 l
-1 9 l
-4 5 l
-5 2 l
-3 0 l
-4 -2 l
-1 -2 l
-2 -3 l
-2 -9 l
0 -5 l
2 -8 l
2 -3 l
1 -2 l
4 -2 l
3 0 m 4 2 l
1 2 l
2 3 l
2 8 l
0 5 l
-2 9 l
-2 3 l
-1 2 l
-4 2 l
26 -7 m 3 2 l
5 5 l
0 -36 l
-2 34 m 0 -34 l
-6 0 m 15 0 l
-13 66 m 0 18 l
32 -18 m 0 18 l
23 -18 m 0 18 l
18 -18 m 0 18 l
14 -18 m 0 18 l
12 -18 m 0 18 l
11 -18 m 0 18 l
9 -18 m 0 18 l
9 -18 m 0 36 l
-59 -102 m 15 36 m -5 -2 l
-4 -5 l
-1 -9 l
0 -5 l
1 -8 l
4 -5 l
5 -2 l
3 0 l
5 2 l
4 5 l
1 8 l
0 5 l
-1 9 l
-4 5 l
-5 2 l
-3 0 l
-4 -2 l
-1 -2 l
-2 -3 l
-2 -9 l
0 -5 l
2 -8 l
2 -3 l
1 -2 l
4 -2 l
3 0 m 4 2 l
1 2 l
2 3 l
2 8 l
0 5 l
-2 9 l
-2 3 l
-1 2 l
-4 2 l
24 -32 m -2 -2 l
2 -2 l
1 2 l
-1 2 l
23 32 m -5 -2 l
-3 -5 l
-2 -9 l
0 -5 l
2 -8 l
3 -5 l
5 -2 l
4 0 l
5 2 l
3 5 l
2 8 l
0 5 l
-2 9 l
-3 5 l
-5 2 l
-4 0 l
-3 -2 l
-2 -2 l
-1 -3 l
-2 -9 l
0 -5 l
2 -8 l
1 -3 l
2 -2 l
3 -2 l
4 0 m 3 2 l
2 2 l
1 3 l
2 8 l
0 5 l
-2 9 l
-1 3 l
-2 2 l
-3 2 l
25 -7 m 3 2 l
5 5 l
0 -36 l
-1 34 m 0 -34 l
-7 0 m 15 0 l
5 66 m 0 18 l
32 -18 m 0 18 l
22 -18 m 0 18 l
18 -18 m 0 18 l
14 -18 m 0 18 l
13 -18 m 0 18 l
10 -18 m 0 18 l
10 -18 m 0 18 l
8 -18 m 0 36 l
-42 -102 m 15 36 m -5 -2 l
-3 -5 l
-2 -9 l
0 -5 l
2 -8 l
3 -5 l
5 -2 l
3 0 l
5 2 l
4 5 l
1 8 l
0 5 l
-1 9 l
-4 5 l
-5 2 l
-3 0 l
-3 -2 l
-2 -2 l
-2 -3 l
-1 -9 l
0 -5 l
1 -8 l
2 -3 l
2 -2 l
3 -2 l
3 0 m 4 2 l
1 2 l
2 3 l
2 8 l
0 5 l
-2 9 l
-2 3 l
-1 2 l
-4 2 l
24 -32 m -2 -2 l
2 -2 l
2 2 l
-2 2 l
18 25 m 4 2 l
5 5 l
0 -36 l
-2 34 m 0 -34 l
-7 0 m 16 0 l
21 66 m 0 18 l
32 -18 m 0 18 l
23 -18 m 0 18 l
17 -18 m 0 18 l
15 -18 m 0 18 l
12 -18 m 0 18 l
11 -18 m 0 18 l
9 -18 m 0 18 l
8 -18 m 0 36 l
-17 -102 m 11 29 m 3 2 l
CS M
5 5 l
0 -36 l
-2 34 m 0 -34 l
-6 0 m 15 0 l
46 66 m 0 18 l
32 -18 m 0 18 l
23 -18 m 0 18 l
18 -18 m 0 18 l
14 -18 m 0 18 l
12 -18 m 0 18 l
11 -18 m 0 18 l
9 -18 m 0 18 l
9 -18 m 0 36 l
-34 -102 m 10 29 m 3 2 l
5 5 l
0 -36 l
-1 34 m 0 -34 l
-7 0 m 15 0 l
24 36 m -5 -2 l
-4 -5 l
-1 -9 l
0 -5 l
1 -8 l
4 -5 l
5 -2 l
3 0 l
5 2 l
4 5 l
1 8 l
0 5 l
-1 9 l
-4 5 l
-5 2 l
-3 0 l
-4 -2 l
-1 -2 l
-2 -3 l
-2 -9 l
0 -5 l
2 -8 l
2 -3 l
1 -2 l
4 -2 l
3 0 m 4 2 l
1 2 l
2 3 l
2 8 l
0 5 l
-2 9 l
-2 3 l
-1 2 l
-4 2 l
37 30 m 0 18 l
32 -18 m 0 18 l
22 -18 m 0 18 l
18 -18 m 0 18 l
15 -18 m 0 18 l
12 -18 m 0 18 l
10 -18 m 0 18 l
10 -18 m 0 18 l
8 -18 m 0 36 l
-51 -102 m 11 29 m 3 2 l
5 5 l
0 -36 l
-2 34 m 0 -34 l
-6 0 m 15 0 l
23 36 m -5 -2 l
-3 -5 l
-2 -9 l
0 -5 l
2 -8 l
3 -5 l
5 -2 l
4 0 l
5 2 l
3 5 l
2 8 l
0 5 l
-2 9 l
-3 5 l
-5 2 l
-4 0 l
-3 -2 l
-2 -2 l
-1 -3 l
-2 -9 l
0 -5 l
2 -8 l
1 -3 l
2 -2 l
3 -2 l
4 0 m 3 2 l
2 2 l
1 3 l
2 8 l
0 5 l
-2 9 l
-1 3 l
-2 2 l
-3 2 l
30 0 m -5 -2 l
-3 -5 l
-2 -9 l
0 -5 l
2 -8 l
3 -5 l
5 -2 l
3 0 l
5 2 l
4 5 l
1 8 l
0 5 l
-1 9 l
-4 5 l
-5 2 l
-3 0 l
-3 -2 l
-2 -2 l
-2 -3 l
-1 -9 l
0 -5 l
1 -8 l
2 -3 l
2 -2 l
3 -2 l
3 0 m 4 2 l
1 2 l
2 3 l
2 8 l
0 5 l
-2 9 l
-2 3 l
-1 2 l
-4 2 l
20 30 m 0 18 l
32 -18 m 0 18 l
23 -18 m 0 18 l
17 -18 m 0 18 l
15 -18 m 0 18 l
12 -18 m 0 18 l
11 -18 m 0 18 l
9 -18 m 0 18 l
8 -18 m 0 36 l
-67 -102 m 10 29 m 3 2 l
5 5 l
0 -36 l
-1 34 m 0 -34 l
-7 0 m 15 0 l
24 36 m -5 -2 l
-4 -5 l
-1 -9 l
0 -5 l
1 -8 l
4 -5 l
5 -2 l
3 0 l
5 2 l
4 5 l
1 8 l
0 5 l
-1 9 l
-4 5 l
-5 2 l
-3 0 l
-4 -2 l
-1 -2 l
-2 -3 l
-2 -9 l
0 -5 l
2 -8 l
2 -3 l
1 -2 l
4 -2 l
3 0 m 4 2 l
1 2 l
2 3 l
2 8 l
0 5 l
-2 9 l
-2 3 l
-1 2 l
-4 2 l
30 0 m -5 -2 l
-3 -5 l
-2 -9 l
0 -5 l
2 -8 l
3 -5 l
5 -2 l
4 0 l
5 2 l
3 5 l
2 8 l
0 5 l
-2 9 l
-3 5 l
-5 2 l
-4 0 l
-3 -2 l
-2 -2 l
-1 -3 l
-2 -9 l
0 -5 l
2 -8 l
1 -3 l
2 -2 l
3 -2 l
4 0 m 3 2 l
2 2 l
2 3 l
1 8 l
0 5 l
-1 9 l
-2 3 l
-2 2 l
-3 2 l
30 0 m -5 -2 l
-3 -5 l
-2 -9 l
0 -5 l
2 -8 l
3 -5 l
5 -2 l
4 0 l
5 2 l
3 5 l
2 8 l
0 5 l
-2 9 l
-3 5 l
-5 2 l
-4 0 l
-3 -2 l
-2 -2 l
-2 -3 l
-1 -9 l
0 -5 l
1 -8 l
2 -3 l
2 -2 l
3 -2 l
4 0 m 3 2 l
2 2 l
1 3 l
2 8 l
0 5 l
-2 9 l
-1 3 l
-2 2 l
-3 2 l
2 30 m 0 18 l
32 -18 m 0 18 l
23 -18 m 0 18 l
18 -18 m 0 18 l
14 -18 m 0 18 l
12 -18 m 0 18 l
11 -18 m 0 18 l
9 -18 m 0 18 l
9 -18 m 0 36 l
-44 -104 m 10 29 m 3 2 l
5 5 l
0 -36 l
-1 34 m 0 -34 l
-7 0 m 15 0 l
24 36 m -5 -2 l
-4 -5 l
-1 -8 l
0 -6 l
1 -8 l
4 -5 l
5 -2 l
3 0 l
5 2 l
3 5 l
2 8 l
0 6 l
-2 8 l
-3 5 l
-5 2 l
-3 0 l
-4 -2 l
-1 -2 l
-2 -3 l
-2 -8 l
0 -6 l
2 -8 l
2 -3 l
1 -2 l
4 -2 l
3 0 m 3 2 l
2 2 l
2 3 l
1 8 l
0 6 l
-1 8 l
-2 3 l
-2 2 l
-3 2 l
27 0 m 0 -20 l
1 22 m 0 -22 l
CS M
0 22 m -11 -16 l
16 0 l
-9 -6 m 7 0 l
16 52 m 0 18 l
32 -18 m 0 18 l
22 -18 m 0 18 l
18 -18 m 0 18 l
15 -18 m 0 18 l
12 -18 m 0 18 l
10 -18 m 0 18 l
10 -18 m 0 18 l
8 -18 m 0 36 l
-44 -104 m 10 29 m 4 2 l
5 5 l
0 -36 l
-2 34 m 0 -34 l
-7 0 m 15 0 l
24 36 m -5 -2 l
-3 -5 l
-2 -8 l
0 -6 l
2 -8 l
3 -5 l
5 -2 l
3 0 l
5 2 l
4 5 l
1 8 l
0 6 l
-1 8 l
-4 5 l
-5 2 l
-3 0 l
-3 -2 l
-2 -2 l
-2 -3 l
-1 -8 l
0 -6 l
1 -8 l
2 -3 l
2 -2 l
3 -2 l
3 0 m 4 2 l
1 2 l
2 3 l
2 8 l
0 6 l
-2 8 l
-2 3 l
-1 2 l
-4 2 l
21 2 m -2 -10 l
2 2 l
3 1 l
3 0 l
3 -1 l
2 -2 l
1 -3 l
0 -3 l
-1 -3 l
-2 -2 l
-3 -1 l
-3 0 l
-3 1 l
-1 1 l
-1 3 l
0 1 l
1 0 l
1 0 l
-1 -1 l
7 10 m 2 -1 l
2 -2 l
1 -3 l
0 -3 l
-1 -3 l
-2 -2 l
-2 -1 l
-6 22 m 10 0 l
-10 -1 m 5 0 l
5 1 l
16 30 m 0 18 l
32 -18 m 0 18 l
23 -18 m 0 18 l
17 -18 m 0 18 l
15 -18 m 0 18 l
12 -18 m 0 18 l
11 -18 m 0 18 l
9 -18 m 0 18 l
8 -18 m 0 36 l
-43 -104 m 10 29 m 3 2 l
5 5 l
0 -36 l
-2 34 m 0 -34 l
-6 0 m 15 0 l
23 36 m -5 -2 l
-3 -5 l
-2 -8 l
0 -6 l
2 -8 l
3 -5 l
5 -2 l
4 0 l
5 2 l
3 5 l
2 8 l
0 6 l
-2 8 l
-3 5 l
-5 2 l
-4 0 l
-3 -2 l
-2 -2 l
-1 -3 l
-2 -8 l
0 -6 l
2 -8 l
1 -3 l
2 -2 l
3 -2 l
4 0 m 3 2 l
2 2 l
1 3 l
2 8 l
0 6 l
-2 8 l
-1 3 l
-2 2 l
-3 2 l
30 -1 m -1 -1 l
1 -1 l
1 1 l
0 1 l
-1 2 l
-2 1 l
-3 0 l
-3 -1 l
-2 -2 l
-1 -2 l
-1 -4 l
0 -7 l
1 -3 l
2 -2 l
3 -1 l
2 0 l
3 1 l
2 2 l
1 3 l
0 1 l
-1 4 l
-2 2 l
-3 1 l
-1 0 l
-3 -1 l
-2 -2 l
-1 -4 l
6 15 m -2 -1 l
-2 -2 l
-1 -2 l
-1 -4 l
0 -7 l
1 -3 l
2 -2 l
2 -1 l
2 0 m 2 1 l
2 2 l
1 3 l
0 1 l
-1 4 l
-2 2 l
-2 1 l
20 38 m 0 18 l
32 -18 m 0 18 l
23 -18 m 0 18 l
18 -18 m 0 18 l
14 -18 m 0 18 l
12 -18 m 0 18 l
11 -18 m 0 18 l
9 -18 m 0 18 l
9 -18 m 0 36 l
-44 -104 m 10 29 m 3 2 l
5 5 l
0 -36 l
-1 34 m 0 -34 l
-7 0 m 15 0 l
24 36 m -5 -2 l
-4 -5 l
-1 -8 l
0 -6 l
1 -8 l
4 -5 l
5 -2 l
3 0 l
5 2 l
3 5 l
2 8 l
0 6 l
-2 8 l
-3 5 l
-5 2 l
-3 0 l
-4 -2 l
-1 -2 l
-2 -3 l
-2 -8 l
0 -6 l
2 -8 l
2 -3 l
1 -2 l
4 -2 l
3 0 m 3 2 l
2 2 l
2 3 l
1 8 l
0 6 l
-1 8 l
-2 3 l
-2 2 l
-3 2 l
18 2 m 0 -6 l
0 2 m 1 2 l
2 2 l
2 0 l
5 -3 l
2 0 l
1 1 l
1 2 l
-13 -2 m 2 1 l
2 0 l
5 -2 l
4 3 m 0 -3 l
-1 -3 l
-4 -5 l
-1 -2 l
-1 -3 l
0 -6 l
6 16 m -5 -5 l
-1 -2 l
-1 -3 l
0 -6 l
23 52 m 0 18 l
32 -18 m 0 18 l
22 -18 m 0 18 l
18 -18 m 0 18 l
15 -18 m 0 18 l
12 -18 m 0 18 l
10 -18 m 0 18 l
10 -18 m 0 18 l
8 -18 m 0 36 l
-44 -104 m 10 29 m 4 2 l
5 5 l
0 -36 l
-2 34 m 0 -34 l
-7 0 m 15 0 l
24 36 m -5 -2 l
-3 -5 l
-2 -8 l
0 -6 l
2 -8 l
3 -5 l
5 -2 l
3 0 l
5 2 l
4 5 l
2 8 l
0 6 l
-2 8 l
-4 5 l
-5 2 l
-3 0 l
-3 -2 l
-2 -2 l
-2 -3 l
-1 -8 l
0 -6 l
1 -8 l
2 -3 l
2 -2 l
3 -2 l
3 0 m 4 2 l
1 2 l
2 3 l
2 8 l
0 6 l
-2 8 l
-2 3 l
-1 2 l
-4 2 l
24 2 m -3 -1 l
-1 -2 l
0 -3 l
1 -2 l
3 -1 l
4 0 l
3 1 l
1 2 l
0 3 l
-1 2 l
-3 1 l
-4 0 l
-2 -1 l
CS M
-1 -2 l
0 -3 l
1 -2 l
2 -1 l
4 0 m 2 1 l
1 2 l
0 3 l
-1 2 l
-2 1 l
-4 -9 m -3 -1 l
-1 -1 l
-1 -2 l
0 -4 l
1 -3 l
1 -1 l
3 -1 l
4 0 l
3 1 l
1 1 l
1 3 l
0 4 l
-1 2 l
-1 1 l
-3 1 l
-4 0 m -2 -1 l
-1 -1 l
-1 -2 l
0 -4 l
1 -3 l
1 -1 l
2 -1 l
4 0 m 2 1 l
1 1 l
1 3 l
0 4 l
-1 2 l
-1 1 l
-2 1 l
255 2261 M 2006 0 l
255 2261 M 0 -36 l
55 36 m 0 -18 l
32 18 m 0 -18 l
23 18 m 0 -18 l
18 18 m 0 -18 l
14 18 m 0 -18 l
12 18 m 0 -18 l
11 18 m 0 -18 l
9 18 m 0 -18 l
9 18 m 0 -36 l
55 36 m 0 -18 l
32 18 m 0 -18 l
22 18 m 0 -18 l
18 18 m 0 -18 l
14 18 m 0 -18 l
13 18 m 0 -18 l
10 18 m 0 -18 l
10 18 m 0 -18 l
8 18 m 0 -36 l
55 36 m 0 -18 l
32 18 m 0 -18 l
23 18 m 0 -18 l
17 18 m 0 -18 l
15 18 m 0 -18 l
12 18 m 0 -18 l
11 18 m 0 -18 l
9 18 m 0 -18 l
8 18 m 0 -36 l
55 36 m 0 -18 l
32 18 m 0 -18 l
23 18 m 0 -18 l
18 18 m 0 -18 l
14 18 m 0 -18 l
12 18 m 0 -18 l
11 18 m 0 -18 l
9 18 m 0 -18 l
9 18 m 0 -36 l
55 36 m 0 -18 l
32 18 m 0 -18 l
22 18 m 0 -18 l
18 18 m 0 -18 l
15 18 m 0 -18 l
12 18 m 0 -18 l
10 18 m 0 -18 l
10 18 m 0 -18 l
8 18 m 0 -36 l
55 36 m 0 -18 l
32 18 m 0 -18 l
23 18 m 0 -18 l
17 18 m 0 -18 l
15 18 m 0 -18 l
12 18 m 0 -18 l
11 18 m 0 -18 l
9 18 m 0 -18 l
8 18 m 0 -36 l
55 36 m 0 -18 l
32 18 m 0 -18 l
23 18 m 0 -18 l
18 18 m 0 -18 l
14 18 m 0 -18 l
12 18 m 0 -18 l
11 18 m 0 -18 l
9 18 m 0 -18 l
9 18 m 0 -36 l
55 36 m 0 -18 l
32 18 m 0 -18 l
22 18 m 0 -18 l
18 18 m 0 -18 l
15 18 m 0 -18 l
12 18 m 0 -18 l
10 18 m 0 -18 l
10 18 m 0 -18 l
8 18 m 0 -36 l
55 36 m 0 -18 l
32 18 m 0 -18 l
23 18 m 0 -18 l
17 18 m 0 -18 l
15 18 m 0 -18 l
12 18 m 0 -18 l
11 18 m 0 -18 l
9 18 m 0 -18 l
8 18 m 0 -36 l
55 36 m 0 -18 l
32 18 m 0 -18 l
23 18 m 0 -18 l
18 18 m 0 -18 l
14 18 m 0 -18 l
12 18 m 0 -18 l
11 18 m 0 -18 l
9 18 m 0 -18 l
9 18 m 0 -36 l
55 36 m 0 -18 l
32 18 m 0 -18 l
22 18 m 0 -18 l
18 18 m 0 -18 l
15 18 m 0 -18 l
12 18 m 0 -18 l
10 18 m 0 -18 l
10 18 m 0 -18 l
8 18 m 0 -36 l
255 255 M 0 2006 l
255 255 M 36 0 l
107 238 M 15 35 m -5 -2 l
-4 -5 l
-1 -8 l
0 -5 l
1 -9 l
4 -5 l
5 -1 l
3 0 l
5 1 l
4 5 l
1 9 l
0 5 l
-1 8 l
-4 5 l
-5 2 l
-3 0 l
-4 -2 l
-1 -1 l
-2 -4 l
-2 -8 l
0 -5 l
2 -9 l
2 -3 l
1 -2 l
4 -1 l
3 0 m 4 1 l
1 2 l
2 3 l
2 9 l
0 5 l
-2 8 l
-2 4 l
-1 1 l
-4 2 l
24 -32 m -2 -2 l
2 -1 l
1 1 l
-1 2 l
23 32 m -5 -2 l
-3 -5 l
-2 -8 l
0 -5 l
2 -9 l
3 -5 l
5 -1 l
4 0 l
5 1 l
3 5 l
2 9 l
0 5 l
-2 8 l
-3 5 l
-5 2 l
-4 0 l
-3 -2 l
-2 -1 l
-1 -4 l
-2 -8 l
0 -5 l
2 -9 l
1 -3 l
2 -2 l
3 -1 l
4 0 m 3 1 l
2 2 l
1 3 l
2 9 l
0 5 l
-2 8 l
-1 4 l
-2 1 l
-3 2 l
25 -7 m 3 2 l
5 5 l
0 -35 l
-1 33 m 0 -33 l
-7 0 m 15 0 l
39 219 m 18 0 l
-18 117 m 18 0 l
-18 84 m 18 0 l
-18 65 m 18 0 l
-18 53 m 18 0 l
-18 44 m 18 0 l
-18 39 m 18 0 l
-18 34 m 18 0 l
-18 31 m 36 0 l
140 906 M 16 36 m -6 -2 l
-3 -5 l
-2 -9 l
0 -5 l
2 -8 l
3 -5 l
6 -2 l
3 0 l
5 2 l
3 5 l
2 8 l
0 5 l
-2 9 l
-3 5 l
-5 2 l
-3 0 l
-4 -2 l
-2 -2 l
-1 -3 l
-2 -9 l
0 -5 l
2 -8 l
1 -3 l
2 -2 l
4 -2 l
3 0 m 3 2 l
2 2 l
2 3 l
1 8 l
0 5 l
-1 9 l
-2 3 l
-2 2 l
-3 2 l
23 -32 m -1 -2 l
1 -2 l
2 2 l
-2 2 l
19 25 m 3 1 l
5 6 l
0 -36 l
-1 34 m 0 -34 l
-7 0 m 15 0 l
39 219 m 18 0 l
-18 118 m 18 0 l
-18 83 m 18 0 l
-18 65 m 18 0 l
-18 53 m 18 0 l
-18 45 m 18 0 l
-18 39 m 18 0 l
-18 34 m 18 0 l
-18 30 m 36 0 l
-100 -17 m 10 28 m 3 2 l
5 5 l
0 -35 l
-1 33 m 0 -33 l
-7 0 m 15 0 l
39 219 m 18 0 l
-18 117 m 18 0 l
-18 84 m 18 0 l
-18 65 m 18 0 l
-18 53 m 18 0 l
-18 44 m 18 0 l
-18 39 m 18 0 l
-18 34 m 18 0 l
-18 31 m 36 0 l
-134 -18 m 10 29 m 4 2 l
5 5 l
0 -36 l
-2 34 m 0 -34 l
-7 0 m 15 0 l
24 36 m -5 -2 l
-3 -5 l
CS M
-2 -8 l
0 -6 l
2 -8 l
3 -5 l
5 -2 l
3 0 l
6 2 l
3 5 l
2 8 l
0 6 l
-2 8 l
-3 5 l
-6 2 l
-3 0 l
-3 -2 l
-2 -2 l
-2 -3 l
-1 -8 l
0 -6 l
1 -8 l
2 -3 l
2 -2 l
3 -2 l
3 0 m 4 2 l
2 2 l
1 3 l
2 8 l
0 6 l
-2 8 l
-1 3 l
-2 2 l
-4 2 l
2261 255 M 0 2006 l
2261 255 M -36 0 l
36 202 m -18 0 l
18 117 m -18 0 l
18 84 m -18 0 l
18 65 m -18 0 l
18 53 m -18 0 l
18 44 m -18 0 l
18 39 m -18 0 l
18 34 m -18 0 l
18 31 m -36 0 l
36 201 m -18 0 l
18 118 m -18 0 l
18 83 m -18 0 l
18 65 m -18 0 l
18 53 m -18 0 l
18 45 m -18 0 l
18 39 m -18 0 l
18 34 m -18 0 l
18 30 m -36 0 l
36 202 m -18 0 l
18 117 m -18 0 l
18 84 m -18 0 l
18 65 m -18 0 l
18 53 m -18 0 l
18 44 m -18 0 l
18 39 m -18 0 l
18 34 m -18 0 l
18 31 m -36 0 l
CS [] 0 setdash M
stroke
grestore
showpage
end
