%!PS-Adobe-2.0 EPSF-2.0
%%Creator: SM
%%BoundingBox: 18 144 592 718
%%DocumentFonts: Helvetica
%%EndComments
 20 dict begin
72 300 div dup scale
1 setlinejoin 0 setlinecap
/Helvetica findfont 55 scalefont setfont 
/B {CS newpath moveto} def
/F {moveto 0 setlinecap} def
/C {CS M 1 1 3 {pop 3 1 roll 255 div} for SET_COLOUR} def
/CS {currentpoint stroke} def
/CF {currentpoint eofill} def
/L {lineto} def /l {rlineto} def /M {moveto} def /m {rmoveto} def
/P {currentpoint 0 1 rlineto stroke moveto} def
/T {currentlinecap exch 1 setlinecap show setlinecap} def
errordict /nocurrentpoint {pop 0 0 M currentpoint} put
/SET_COLOUR statusdict begin /processcolors where
  {pop processcolors 1 gt} {false} ifelse
  {(setrgbcolor)} {(pop pop pop)} ifelse cvx end def
 80 600 translate
gsave
CS [] 0 setdash M
CS M 1 100 mul 72 div dup setlinewidth
/P [ /currentpoint cvx 0 5 -1 roll .05 add dup -2 div 0 exch /rmoveto cvx /rlineto cvx /stroke cvx /moveto cvx ] cvx def
 0 0 0 C
CS M 4 100 mul 72 div dup setlinewidth
/P [ /currentpoint cvx 0 5 -1 roll .05 add dup -2 div 0 exch /rmoveto cvx /rlineto cvx /stroke cvx /moveto cvx ] cvx def
 0 0 0 C
CS [] 0 setdash M
2136 2093 M 10 -10 m 0 20 l
-20 0 l
0 -20 l
20 0 l
-261 7 m 10 -10 m 0 20 l
-20 0 l
0 -20 l
20 0 l
-261 -9 m 10 -10 m 0 20 l
-20 0 l
0 -20 l
20 0 l
-261 -157 m 10 -10 m 0 20 l
-19 0 l
0 -20 l
19 0 l
-260 -693 m 10 -10 m 0 19 l
-20 0 l
0 -19 l
20 0 l
-261 -531 m 10 -10 m 0 19 l
-20 0 l
0 -19 l
20 0 l
-261 -83 m 10 -10 m 0 20 l
-20 0 l
0 -20 l
20 0 l
-260 1 m 9 -10 m 0 20 l
-19 0 l
0 -20 l
19 0 l
CS [32 24] 0 setdash M
2136 1792 M -251 -795 l
-251 -375 l
-251 -52 l
-250 -6 l
-251 0 l
-251 0 l
-250 0 l
CS [] 0 setdash M
2136 2106 M -251 -1 l
-251 -20 l
-251 -167 l
-250 -710 l
-251 -541 l
-251 -92 l
-250 -10 l
CS M 2 100 mul 72 div dup setlinewidth
/P [ /currentpoint cvx 0 5 -1 roll .05 add dup -2 div 0 exch /rmoveto cvx /rlineto cvx /stroke cvx /moveto cvx ] cvx def
CS [32 24] 0 setdash M
318 479 M 188 0 l
25 -39 m CS [] 0 setdash M
573 482 M 0 -42 l
2 42 m 0 -42 l
-8 42 m 24 0 l
6 -1 l
2 -3 l
2 -4 l
0 -6 l
-2 -4 l
-2 -2 l
-6 -2 l
-16 0 l
16 22 m 4 -1 l
2 -3 l
2 -4 l
0 -6 l
-2 -4 l
-2 -2 l
-4 -2 l
-24 -20 m 14 0 l
33 -2 m -2 -17 l
4 17 m -2 -7 l
-1 -6 l
-1 -4 l
16 17 m -1 -5 l
-3 -5 l
5 10 m -1 -4 l
-1 -2 l
-3 -4 l
-2 -2 l
-4 -2 l
-2 -2 l
-4 -1 l
-1 17 m 5 0 l
19 -13 m 0 -15 l
1 15 m 0 -15 l
8 15 m 0 -15 l
1 15 m 0 -15 l
-12 15 m 5 0 l
4 0 m 5 0 l
-11 -8 m 8 0 l
-11 -7 m 5 0 l
4 0 m 5 0 l
42 81 m -36 -65 l
50 56 m 0 -42 l
2 42 m 0 -42 l
-8 42 m 24 0 l
6 -1 l
2 -3 l
2 -4 l
0 -6 l
-2 -4 l
-2 -2 l
-6 -2 l
-16 0 l
16 22 m 4 -1 l
2 -3 l
2 -4 l
0 -6 l
-2 -4 l
-2 -2 l
-4 -2 l
-24 -20 m 14 0 l
32 6 m 0 -20 l
1 -4 l
3 -1 l
2 0 l
2 1 l
1 3 l
-8 21 m 0 -20 l
1 -4 l
2 -1 l
-8 17 m 10 0 l
17 0 m -4 -1 l
-2 -3 l
-2 -3 l
0 -3 l
2 -3 l
2 -3 l
4 -1 l
2 0 l
4 1 l
2 3 l
1 3 l
0 3 l
-1 3 l
-2 3 l
-4 1 l
-2 0 l
-3 -1 l
-2 -3 l
-1 -3 l
0 -3 l
1 -3 l
2 -3 l
3 -1 l
2 0 m 3 1 l
2 3 l
1 3 l
0 3 l
-1 3 l
-2 3 l
-3 1 l
17 8 m 0 -20 l
1 -4 l
3 -1 l
2 0 l
2 1 l
2 3 l
-9 21 m 0 -20 l
1 -4 l
2 -1 l
-8 17 m 10 0 l
46 26 m 36 0 l
-36 -12 m 36 0 l
84 16 m -4 -28 l
6 28 m -2 -12 l
-2 -10 l
-2 -6 l
26 28 m -1 -8 l
-5 -8 l
9 16 m -3 -6 l
-1 -4 l
-5 -6 l
-4 -4 l
-6 -4 l
-4 -2 l
-6 -2 l
-2 28 m 8 0 l
33 -22 m 0 -25 l
1 25 m 0 -25 l
14 25 m 0 -25 l
1 25 m 0 -25 l
-20 25 m 8 0 l
8 0 m 8 0 l
-19 -12 m 14 0 l
-19 -13 m 8 0 l
8 0 m 8 0 l
44 61 m 0 -42 l
3 42 m 0 -42 l
20 28 m -20 -20 l
10 8 m 12 -16 l
-14 16 m 12 -16 l
-28 42 m 8 0 l
14 -14 m 12 0 l
-34 -28 m 14 0 l
8 0 m 12 0 l
7 -19 m 22 0 l
-11 0 m 0 23 l
0 38 m 0 -22 l
1 25 m 0 -25 l
0 25 m -13 -18 l
19 0 l
-11 -7 m 9 0 l
109 31 m -36 -65 l
62 65 m -4 -5 l
-4 -5 l
-4 -9 l
-2 -10 l
0 -8 l
2 -10 l
4 -8 l
4 -6 l
4 -4 l
-4 60 m -4 -8 l
-2 -6 l
-2 -10 l
0 -8 l
2 -10 l
2 -6 l
4 -8 l
12 32 m 4 4 l
4 2 l
4 0 l
4 -2 l
2 -2 l
2 -6 l
0 -8 l
-2 -8 l
-6 -16 l
-10 38 m 4 2 l
8 0 l
4 -2 l
16 4 m -2 -6 l
-2 -4 l
-10 -14 l
-6 -10 l
-4 -8 l
22 42 m -2 -6 l
-2 -4 l
-8 -14 l
44 32 m 0 -36 l
-18 18 m 36 0 l
52 10 m -4 -28 l
6 28 m -2 -12 l
-2 -10 l
-2 -6 l
26 28 m -2 -8 l
-4 -8 l
9 16 m -3 -6 l
-2 -4 l
-4 -6 l
-4 -4 l
-6 -4 l
-4 -2 l
-6 -2 l
-2 28 m 8 0 l
33 -22 m 0 -25 l
1 25 m 0 -25 l
14 25 m 0 -25 l
1 25 m 0 -25 l
-20 25 m 8 0 l
8 0 m 8 0 l
-19 -12 m 14 0 l
-19 -13 m 8 0 l
8 0 m 8 0 l
44 61 m 0 -42 l
3 42 m 0 -42 l
20 28 m -20 -20 l
10 8 m 12 -16 l
-14 16 m 12 -16 l
-28 42 m 8 0 l
14 -14 m 12 0 l
-34 -28 m 14 0 l
8 0 m 12 0 l
7 -19 m 22 0 l
-11 0 m 0 23 l
0 38 m 0 -22 l
1 25 m 0 -25 l
0 25 m -13 -18 l
19 0 l
-11 -7 m 9 0 l
11 31 m 4 -5 l
4 -5 l
4 -9 l
2 -10 l
0 -8 l
-2 -10 l
-4 -8 l
-4 -6 l
-4 -4 l
4 60 m 4 -8 l
2 -6 l
2 -10 l
0 -8 l
-2 -10 l
-2 -6 l
-4 -8 l
18 10 m CS [32 24] 0 setdash M
CS [] 0 setdash M
318 371 M 188 0 l
25 -39 m CS [] 0 setdash M
573 374 M 0 -42 l
2 42 m 0 -42 l
-8 42 m 24 0 l
6 -2 l
2 -2 l
CS M
2 -4 l
0 -6 l
-2 -4 l
-2 -2 l
-6 -2 l
-16 0 l
16 22 m 4 -2 l
2 -2 l
2 -4 l
0 -6 l
-2 -4 l
-2 -2 l
-4 -2 l
-24 -20 m 14 0 l
33 -2 m -2 -17 l
4 17 m -2 -7 l
-1 -6 l
-1 -4 l
16 17 m -1 -5 l
-3 -5 l
5 10 m -1 -4 l
-1 -2 l
-3 -4 l
-2 -2 l
-4 -2 l
-2 -2 l
-4 -1 l
-1 17 m 5 0 l
19 -13 m 0 -15 l
1 15 m 0 -15 l
8 15 m 0 -15 l
1 15 m 0 -15 l
-12 15 m 5 0 l
4 0 m 5 0 l
-11 -8 m 8 0 l
-11 -7 m 5 0 l
4 0 m 5 0 l
42 80 m -36 -64 l
50 56 m 0 -42 l
2 42 m 0 -42 l
-8 42 m 24 0 l
6 -2 l
2 -2 l
2 -4 l
0 -6 l
-2 -4 l
-2 -2 l
-6 -2 l
-16 0 l
16 22 m 4 -2 l
2 -2 l
2 -4 l
0 -6 l
-2 -4 l
-2 -2 l
-4 -2 l
-24 -20 m 14 0 l
32 6 m 0 -20 l
1 -4 l
3 -1 l
2 0 l
2 1 l
1 3 l
-8 21 m 0 -20 l
1 -4 l
2 -1 l
-8 17 m 10 0 l
17 0 m -4 -1 l
-2 -3 l
-2 -3 l
0 -3 l
2 -3 l
2 -3 l
4 -1 l
2 0 l
4 1 l
2 3 l
1 3 l
0 3 l
-1 3 l
-2 3 l
-4 1 l
-2 0 l
-3 -1 l
-2 -3 l
-1 -3 l
0 -3 l
1 -3 l
2 -3 l
3 -1 l
2 0 m 3 1 l
2 3 l
1 3 l
0 3 l
-1 3 l
-2 3 l
-3 1 l
17 8 m 0 -20 l
1 -4 l
3 -1 l
2 0 l
2 1 l
2 3 l
-9 21 m 0 -20 l
1 -4 l
2 -1 l
-8 17 m 10 0 l
46 26 m 36 0 l
-36 -12 m 36 0 l
62 38 m -4 -4 l
-4 -6 l
-4 -8 l
-2 -10 l
0 -8 l
2 -10 l
4 -8 l
4 -6 l
4 -4 l
-4 60 m -4 -8 l
-2 -6 l
-2 -10 l
0 -8 l
2 -10 l
2 -6 l
4 -8 l
20 38 m 0 -28 l
2 28 m 0 -28 l
0 22 m 4 4 l
6 2 l
4 0 l
6 -2 l
2 -4 l
0 -22 l
-8 28 m 4 -2 l
2 -4 l
0 -22 l
2 22 m 4 4 l
7 2 l
4 0 l
6 -2 l
2 -4 l
0 -22 l
-8 28 m 4 -2 l
2 -4 l
0 -22 l
-51 28 m 8 0 l
-8 -28 m 14 0 l
8 0 m 15 0 l
8 0 m 14 0 l
10 6 m -2 -1 l
2 -1 l
1 1 l
-1 1 l
0 -8 m 0 -17 l
1 17 m 0 -17 l
-5 17 m 5 0 l
-5 -17 m 8 0 l
43 69 m -36 -64 l
50 42 m 0 -28 l
2 28 m 0 -28 l
0 22 m 4 4 l
6 2 l
4 0 l
6 -2 l
2 -4 l
0 -22 l
-8 28 m 4 -2 l
2 -4 l
0 -22 l
2 22 m 4 4 l
6 2 l
4 0 l
6 -2 l
2 -4 l
0 -22 l
-8 28 m 4 -2 l
2 -4 l
0 -22 l
-50 28 m 8 0 l
-8 -28 m 14 0 l
8 0 m 14 0 l
8 0 m 14 0 l
9 -9 m 14 0 l
0 2 l
-1 3 l
-1 1 l
-3 1 l
-3 0 l
-4 -1 l
-2 -3 l
-1 -3 l
0 -3 l
1 -3 l
2 -3 l
4 -1 l
2 0 l
4 1 l
2 3 l
-1 6 m 0 3 l
-1 3 l
-6 1 m -3 -1 l
-2 -3 l
-1 -3 l
0 -3 l
1 -3 l
2 -3 l
3 -1 l
18 69 m 4 -4 l
4 -6 l
4 -8 l
2 -10 l
0 -8 l
-2 -10 l
-4 -8 l
-4 -6 l
-4 -4 l
4 60 m 4 -8 l
2 -6 l
2 -10 l
0 -8 l
-2 -10 l
-2 -6 l
-4 -8 l
62 38 m -4 -28 l
6 28 m -2 -12 l
-2 -10 l
-2 -6 l
26 28 m -2 -8 l
-4 -8 l
8 16 m -2 -6 l
-2 -4 l
-4 -6 l
-4 -4 l
-6 -4 l
-4 -2 l
-6 -2 l
-2 28 m 8 0 l
32 -22 m 0 -25 l
1 25 m 0 -25 l
15 25 m 0 -25 l
1 25 m 0 -25 l
-20 25 m 8 0 l
7 0 m 9 0 l
-20 -12 m 15 0 l
-19 -13 m 8 0 l
7 0 m 9 0 l
44 61 m 0 -42 l
2 42 m 0 -42 l
20 28 m -20 -20 l
10 8 m 12 -16 l
-14 16 m 12 -16 l
-28 42 m 8 0 l
14 -14 m 12 0 l
-34 -28 m 14 0 l
8 0 m 12 0 l
8 -19 m 21 0 l
-10 0 m 0 23 l
0 38 m 0 -22 l
1 25 m 0 -25 l
0 25 m -13 -18 l
19 0 l
-11 -7 m 8 0 l
77 30 m -36 -64 l
63 64 m -4 -4 l
-4 -6 l
-5 -8 l
-1 -10 l
0 -8 l
1 -10 l
5 -8 l
4 -6 l
4 -4 l
-4 60 m -4 -8 l
-2 -6 l
-3 -10 l
0 -8 l
3 -10 l
2 -6 l
4 -8 l
12 32 m 4 4 l
4 2 l
4 0 l
4 -2 l
2 -2 l
2 -6 l
0 -8 l
-2 -8 l
-6 -16 l
-10 38 m 4 2 l
8 0 l
4 -2 l
16 4 m -2 -6 l
-2 -4 l
-10 -14 l
-6 -10 l
-4 -8 l
22 42 m -2 -6 l
-2 -4 l
-8 -14 l
44 32 m 0 -36 l
CS M
-18 18 m 36 0 l
62 32 m -4 -4 l
-4 -6 l
-4 -8 l
-2 -10 l
0 -8 l
2 -10 l
4 -8 l
4 -6 l
4 -4 l
-4 60 m -4 -8 l
-2 -6 l
-2 -10 l
0 -8 l
2 -10 l
2 -6 l
4 -8 l
20 38 m 0 -28 l
2 28 m 0 -28 l
0 22 m 4 4 l
6 2 l
4 0 l
6 -2 l
2 -4 l
0 -22 l
-8 28 m 4 -2 l
2 -4 l
0 -22 l
2 22 m 4 4 l
6 2 l
4 0 l
6 -2 l
2 -4 l
0 -22 l
-8 28 m 4 -2 l
2 -4 l
0 -22 l
-50 28 m 8 0 l
-8 -28 m 14 0 l
8 0 m 14 0 l
8 0 m 14 0 l
10 6 m -1 -1 l
1 -1 l
1 1 l
-1 1 l
0 -8 m 0 -17 l
1 17 m 0 -17 l
-4 17 m 4 0 l
-4 -17 m 8 0 l
42 69 m -36 -64 l
50 42 m 0 -28 l
3 28 m 0 -28 l
0 22 m 4 4 l
6 2 l
4 0 l
6 -2 l
2 -4 l
0 -22 l
-8 28 m 4 -2 l
2 -4 l
0 -22 l
2 22 m 4 4 l
6 2 l
4 0 l
6 -2 l
2 -4 l
0 -22 l
-8 28 m 4 -2 l
2 -4 l
0 -22 l
-50 28 m 8 0 l
-8 -28 m 14 0 l
8 0 m 14 0 l
8 0 m 14 0 l
8 -9 m 15 0 l
0 2 l
-1 3 l
-1 1 l
-3 1 l
-4 0 l
-3 -1 l
-3 -3 l
-1 -3 l
0 -3 l
1 -3 l
3 -3 l
3 -1 l
3 0 l
4 1 l
2 3 l
-1 6 m 0 3 l
-1 3 l
-7 1 m -2 -1 l
-2 -3 l
-2 -3 l
0 -3 l
2 -3 l
2 -3 l
2 -1 l
18 69 m 4 -4 l
4 -6 l
5 -8 l
2 -10 l
0 -8 l
-2 -10 l
-5 -8 l
-4 -6 l
-4 -4 l
4 60 m 4 -8 l
3 -6 l
2 -10 l
0 -8 l
-2 -10 l
-3 -6 l
-4 -8 l
31 38 m -4 -28 l
6 28 m -2 -12 l
-2 -10 l
-2 -6 l
26 28 m -2 -8 l
-4 -8 l
8 16 m -2 -6 l
-2 -4 l
-4 -6 l
-4 -4 l
-6 -4 l
-4 -2 l
-6 -2 l
-2 28 m 8 0 l
32 -22 m 0 -25 l
1 25 m 0 -25 l
14 25 m 0 -25 l
2 25 m 0 -25 l
-21 25 m 8 0 l
8 0 m 8 0 l
-19 -12 m 14 0 l
-19 -13 m 8 0 l
8 0 m 8 0 l
45 61 m 0 -42 l
2 42 m 0 -42 l
20 28 m -20 -20 l
10 8 m 12 -16 l
-14 16 m 12 -16 l
-28 42 m 8 0 l
14 -14 m 12 0 l
-34 -28 m 14 0 l
8 0 m 12 0 l
7 -19 m 22 0 l
-11 0 m 0 23 l
0 38 m 0 -22 l
1 25 m 0 -25 l
0 25 m -13 -18 l
19 0 l
-10 -7 m 8 0 l
11 30 m 4 -4 l
4 -6 l
4 -8 l
2 -10 l
0 -8 l
-2 -10 l
-4 -8 l
-4 -6 l
-4 -4 l
4 60 m 4 -8 l
2 -6 l
2 -10 l
0 -8 l
-2 -10 l
-2 -6 l
-4 -8 l
18 10 m CS [] 0 setdash M
CS M 2 100 mul 72 div dup setlinewidth
/P [ /currentpoint cvx 0 5 -1 roll .05 add dup -2 div 0 exch /rmoveto cvx /rlineto cvx /stroke cvx /moveto cvx ] cvx def
CS [] 0 setdash M
1123 36 M 12 50 m 1135 36 L
2 50 m 1137 36 L
-9 50 m 9 0 l
1128 36 M 17 0 l
26 33 m -7 -2 l
-5 -5 l
-2 -7 l
0 -5 l
2 -7 l
5 -5 l
7 -2 l
5 0 l
7 2 l
5 5 l
2 7 l
0 5 l
-2 7 l
-5 5 l
-7 2 l
-5 0 l
-5 -2 l
-5 -5 l
-2 -7 l
0 -5 l
2 -7 l
5 -5 l
5 -2 l
5 0 m 5 2 l
5 5 l
2 7 l
0 5 l
-2 7 l
-5 5 l
-5 2 l
41 0 m -5 -2 l
-2 -2 l
-3 -5 l
0 -5 l
3 -5 l
2 -2 l
5 -3 l
5 0 l
4 3 l
3 2 l
2 5 l
0 5 l
-2 5 l
-3 2 l
-4 2 l
-5 0 l
-5 -2 m -2 -5 l
0 -9 l
2 -5 l
14 0 m 3 5 l
0 9 l
-3 5 l
3 -2 m 2 2 l
5 2 l
0 -2 l
-5 0 l
-21 -17 m -3 -2 l
-2 -5 l
0 -2 l
2 -5 l
7 -3 l
12 0 l
8 -2 l
2 -3 l
-31 13 m 2 -3 l
7 -2 l
12 0 l
8 -3 l
2 -5 l
0 -2 l
-2 -5 l
-8 -2 l
-14 0 l
-7 2 l
-3 5 l
0 2 l
3 5 l
7 3 l
58 60 m -5 -5 l
-5 -7 l
-5 -10 l
-2 -12 l
0 -9 l
2 -12 l
5 -10 l
5 -7 l
5 -5 l
-5 72 m -5 -10 l
-2 -7 l
-3 -12 l
0 -9 l
3 -12 l
2 -8 l
5 -9 l
26 45 m -4 -33 l
7 33 m -3 -14 l
-2 -12 l
-2 -7 l
31 33 m -3 -9 l
-4 -10 l
9 19 m -2 -7 l
-3 -5 l
-4 -7 l
-5 -5 l
-7 -4 l
-5 -3 l
-7 -2 l
-3 33 m 10 0 l
38 -26 m 1332 13 L
2 30 m 1334 13 L
17 30 m 1351 13 L
2 30 m 1353 13 L
-25 30 m 10 0 l
9 0 m 10 0 l
-23 -15 m 17 0 l
1328 13 M 10 0 l
9 0 m 10 0 l
10 83 m 5 -5 l
5 -7 l
4 -10 l
3 -12 l
0 -9 l
-3 -12 l
-4 -10 l
-5 -7 l
-5 -5 l
CS M
5 72 m 5 -10 l
2 -7 l
2 -12 l
0 -9 l
-2 -12 l
-2 -8 l
-5 -9 l
CS [] 0 setdash M
CS [] 0 setdash M
67 1052 M 17 1064 M 50 0 l
17 1066 M 50 0 l
17 1057 M 0 29 l
2 7 l
3 2 l
4 3 l
8 0 l
5 -3 l
2 -2 l
2 -7 l
0 -20 l
17 1086 M 2 4 l
3 3 l
4 2 l
8 0 l
5 -2 l
2 -3 l
2 -4 l
24 -29 m 0 17 l
12 37 m 0 17 l
-3 0 l
-3 -1 l
-1 -2 l
-2 -3 l
0 -4 l
2 -4 l
3 -3 l
4 -2 l
3 0 l
4 2 l
3 3 l
2 4 l
0 3 l
-2 4 l
-3 3 l
-7 -1 m -4 0 l
-3 -2 l
-2 -7 m 2 -3 l
3 -3 l
4 -1 l
3 0 l
4 1 l
3 3 l
2 3 l
7 1180 M 77 -43 l
7 1212 M 5 -5 l
7 -5 l
10 -5 l
12 -2 l
10 0 l
12 2 l
9 5 l
8 5 l
4 5 l
12 1207 M 10 -5 l
7 -2 l
12 -3 l
10 0 l
12 3 l
7 2 l
10 5 l
17 1231 M 50 0 l
17 1233 M 50 0 l
17 1224 M 0 29 l
2 7 l
3 2 l
4 3 l
8 0 l
5 -3 l
2 -2 l
2 -7 l
0 -20 l
17 1253 M 2 5 l
3 2 l
4 2 l
8 0 l
5 -2 l
2 -2 l
2 -5 l
24 -29 m 0 17 l
-7 38 m 2 -1 l
1 1 l
-1 2 l
-2 -2 l
10 0 m 21 0 l
-21 2 m 21 0 l
-21 -6 m 0 6 l
21 -6 m 0 10 l
24 1319 M 43 0 l
-21 -22 m 0 44 l
17 1362 M 50 0 l
17 1365 M 50 0 l
17 1355 M 0 29 l
2 7 l
3 3 l
4 2 l
8 0 l
5 -2 l
2 -3 l
2 -7 l
0 -19 l
17 1384 M 2 5 l
3 2 l
4 3 l
8 0 l
5 -3 l
2 -2 l
2 -5 l
24 -29 m 0 17 l
12 37 m 0 17 l
-3 0 l
-3 -1 l
-1 -1 l
-2 -3 l
0 -5 l
2 -4 l
3 -3 l
4 -1 l
3 0 l
4 1 l
3 3 l
2 4 l
0 3 l
-2 5 l
-3 2 l
-7 -1 m -4 0 l
-3 -1 l
-2 -8 m 2 -3 l
3 -2 l
4 -2 l
3 0 l
4 2 l
3 2 l
2 3 l
7 1438 M 5 5 l
7 5 l
10 4 l
12 3 l
10 0 l
12 -3 l
9 -4 l
8 -5 l
4 -5 l
12 1443 M 10 5 l
7 2 l
12 2 l
10 0 l
12 -2 l
7 -2 l
10 -5 l
CS [] 0 setdash M
CS [] 0 setdash M
255 255 M 2006 0 l
0 2006 l
255 2261 L
255 255 L
2006 0 l
255 255 M 2006 0 l
281 255 M 0 22 l
24 -22 m 0 22 l
20 -22 m 0 22 l
17 -22 m 0 22 l
14 -22 m 0 22 l
13 -22 m 0 22 l
12 -22 m 0 43 l
-68 -124 m 12 34 m 4 2 l
6 6 l
0 -42 l
-2 40 m 0 -40 l
-8 0 m 18 0 l
28 42 m -6 -2 l
-4 -6 l
-2 -10 l
0 -6 l
2 -10 l
4 -6 l
6 -2 l
4 0 l
6 2 l
4 6 l
2 10 l
0 6 l
-2 10 l
-4 6 l
-6 2 l
-4 0 l
-4 -2 l
-2 -2 l
-2 -4 l
-2 -10 l
0 -6 l
2 -10 l
2 -4 l
2 -2 l
4 -2 l
4 0 m 4 2 l
2 2 l
2 4 l
2 10 l
0 6 l
-2 10 l
-2 4 l
-2 2 l
-4 2 l
23 -12 m 22 0 l
22 11 m -1 -1 l
1 -1 l
2 1 l
0 1 l
-2 3 l
-2 1 l
-4 0 l
-3 -1 l
-3 -3 l
-1 -2 l
-1 -5 l
0 -7 l
1 -4 l
3 -2 l
3 -1 l
3 0 l
3 1 l
3 2 l
1 4 l
0 1 l
-1 4 l
-3 2 l
-3 1 l
-2 0 l
-3 -1 l
-3 -2 l
-1 -4 l
7 17 m -2 -1 l
-2 -3 l
-2 -2 l
-1 -5 l
0 -7 l
1 -4 l
3 -2 l
2 -1 l
3 0 m 2 1 l
2 2 l
2 4 l
0 1 l
-2 4 l
-2 2 l
-2 1 l
18 46 m 0 22 l
44 -22 m 0 22 l
32 -22 m 0 22 l
24 -22 m 0 22 l
20 -22 m 0 22 l
17 -22 m 0 22 l
14 -22 m 0 22 l
13 -22 m 0 22 l
11 -22 m 0 43 l
-67 -124 m 12 34 m 4 2 l
6 6 l
0 -42 l
-2 40 m 0 -40 l
-8 0 m 18 0 l
28 42 m -6 -2 l
-4 -6 l
-2 -10 l
0 -6 l
2 -10 l
4 -6 l
6 -2 l
4 0 l
6 2 l
4 6 l
2 10 l
0 6 l
-2 10 l
-4 6 l
-6 2 l
-4 0 l
-4 -2 l
-2 -2 l
-2 -4 l
-2 -10 l
0 -6 l
2 -10 l
2 -4 l
2 -2 l
4 -2 l
4 0 m 4 2 l
2 2 l
2 4 l
2 10 l
0 6 l
-2 10 l
-2 4 l
-2 2 l
-4 2 l
CS M
23 -12 m 21 0 l
11 15 m -2 -12 l
2 2 l
4 1 l
3 0 l
4 -1 l
2 -2 l
2 -4 l
0 -2 l
-2 -4 l
-2 -2 l
-4 -1 l
-3 0 l
-4 1 l
-1 1 l
-1 2 l
0 2 l
1 1 l
1 -1 l
-1 -2 l
8 12 m 3 -1 l
2 -2 l
1 -4 l
0 -2 l
-1 -4 l
-2 -2 l
-3 -1 l
-7 25 m 12 0 l
-12 -1 m 6 0 l
6 1 l
14 36 m 0 22 l
44 -22 m 0 22 l
31 -22 m 0 22 l
25 -22 m 0 22 l
19 -22 m 0 22 l
17 -22 m 0 22 l
15 -22 m 0 22 l
13 -22 m 0 22 l
11 -22 m 0 43 l
-110 -121 m 18 42 m -6 -2 l
-4 -6 l
-2 -10 l
0 -6 l
2 -10 l
4 -6 l
6 -2 l
4 0 l
6 2 l
4 6 l
2 10 l
0 6 l
-2 10 l
-4 6 l
-6 2 l
-4 0 l
-4 -2 l
-2 -2 l
-2 -4 l
-2 -10 l
0 -6 l
2 -10 l
2 -4 l
2 -2 l
4 -2 l
4 0 m 4 2 l
2 2 l
2 4 l
2 10 l
0 6 l
-2 10 l
-2 4 l
-2 2 l
-4 2 l
28 -38 m -2 -2 l
2 -2 l
2 2 l
-2 2 l
28 38 m -6 -2 l
-4 -6 l
-2 -10 l
0 -6 l
2 -10 l
4 -6 l
6 -2 l
4 0 l
6 2 l
4 6 l
2 10 l
0 6 l
-2 10 l
-4 6 l
-6 2 l
-4 0 l
-4 -2 l
-2 -2 l
-2 -4 l
-2 -10 l
0 -6 l
2 -10 l
2 -4 l
2 -2 l
4 -2 l
4 0 m 4 2 l
2 2 l
2 4 l
2 10 l
0 6 l
-2 10 l
-2 4 l
-2 2 l
-4 2 l
36 0 m -6 -2 l
-4 -6 l
-2 -10 l
0 -6 l
2 -10 l
4 -6 l
6 -2 l
4 0 l
6 2 l
4 6 l
2 10 l
0 6 l
-2 10 l
-4 6 l
-6 2 l
-4 0 l
-4 -2 l
-2 -2 l
-2 -4 l
-2 -10 l
0 -6 l
2 -10 l
2 -4 l
2 -2 l
4 -2 l
4 0 m 4 2 l
2 2 l
2 4 l
2 10 l
0 6 l
-2 10 l
-2 4 l
-2 2 l
-4 2 l
36 0 m -6 -2 l
-4 -6 l
-2 -10 l
0 -6 l
2 -10 l
4 -6 l
6 -2 l
4 0 l
6 2 l
4 6 l
2 10 l
0 6 l
-2 10 l
-4 6 l
-6 2 l
-4 0 l
-4 -2 l
-2 -2 l
-2 -4 l
-2 -10 l
0 -6 l
2 -10 l
2 -4 l
2 -2 l
4 -2 l
4 0 m 4 2 l
2 2 l
2 4 l
2 10 l
0 6 l
-2 10 l
-2 4 l
-2 2 l
-4 2 l
30 -8 m 4 2 l
6 6 l
0 -42 l
-2 40 m 0 -40 l
-8 0 m 18 0 l
-24 78 m 0 22 l
44 -22 m 0 22 l
31 -22 m 0 22 l
24 -22 m 0 22 l
20 -22 m 0 22 l
17 -22 m 0 22 l
14 -22 m 0 22 l
13 -22 m 0 22 l
12 -22 m 0 43 l
-90 -121 m 18 42 m -6 -2 l
-4 -6 l
-2 -10 l
0 -6 l
2 -10 l
4 -6 l
6 -2 l
4 0 l
6 2 l
4 6 l
2 10 l
0 6 l
-2 10 l
-4 6 l
-6 2 l
-4 0 l
-4 -2 l
-2 -2 l
-2 -4 l
-2 -10 l
0 -6 l
2 -10 l
2 -4 l
2 -2 l
4 -2 l
4 0 m 4 2 l
2 2 l
2 4 l
2 10 l
0 6 l
-2 10 l
-2 4 l
-2 2 l
-4 2 l
28 -38 m -2 -2 l
2 -2 l
2 2 l
-2 2 l
28 38 m -6 -2 l
-4 -6 l
-2 -10 l
0 -6 l
2 -10 l
4 -6 l
6 -2 l
4 0 l
6 2 l
4 6 l
2 10 l
0 6 l
-2 10 l
-4 6 l
-6 2 l
-4 0 l
-4 -2 l
-2 -2 l
-2 -4 l
-2 -10 l
0 -6 l
2 -10 l
2 -4 l
2 -2 l
4 -2 l
4 0 m 4 2 l
2 2 l
2 4 l
2 10 l
0 6 l
-2 10 l
-2 4 l
-2 2 l
-4 2 l
36 0 m -6 -2 l
-4 -6 l
-2 -10 l
0 -6 l
2 -10 l
4 -6 l
6 -2 l
4 0 l
6 2 l
4 6 l
2 10 l
0 6 l
-2 10 l
-4 6 l
-6 2 l
-4 0 l
-4 -2 l
-2 -2 l
-2 -4 l
-2 -10 l
0 -6 l
2 -10 l
2 -4 l
2 -2 l
4 -2 l
4 0 m 4 2 l
2 2 l
2 4 l
2 10 l
0 6 l
-2 10 l
-2 4 l
-2 2 l
-4 2 l
30 -8 m 4 2 l
CS M
6 6 l
0 -42 l
-2 40 m 0 -40 l
-8 0 m 18 0 l
-5 78 m 0 22 l
44 -22 m 0 22 l
32 -22 m 0 22 l
24 -22 m 0 22 l
20 -22 m 0 22 l
17 -22 m 0 22 l
14 -22 m 0 22 l
13 -22 m 0 22 l
12 -22 m 0 43 l
-71 -121 m 18 42 m -6 -2 l
-4 -6 l
-2 -10 l
0 -6 l
2 -10 l
4 -6 l
6 -2 l
4 0 l
6 2 l
4 6 l
2 10 l
0 6 l
-2 10 l
-4 6 l
-6 2 l
-4 0 l
-4 -2 l
-2 -2 l
-2 -4 l
-2 -10 l
0 -6 l
2 -10 l
2 -4 l
2 -2 l
4 -2 l
4 0 m 4 2 l
2 2 l
2 4 l
2 10 l
0 6 l
-2 10 l
-2 4 l
-2 2 l
-4 2 l
28 -38 m -2 -2 l
2 -2 l
2 2 l
-2 2 l
28 38 m -5 -2 l
-4 -6 l
-3 -10 l
0 -6 l
3 -10 l
4 -6 l
5 -2 l
5 0 l
6 2 l
4 6 l
2 10 l
0 6 l
-2 10 l
-4 6 l
-6 2 l
-5 0 l
-4 -2 l
-1 -2 l
-3 -4 l
-1 -10 l
0 -6 l
1 -10 l
3 -4 l
1 -2 l
4 -2 l
5 0 m 4 2 l
2 2 l
2 4 l
2 10 l
0 6 l
-2 10 l
-2 4 l
-2 2 l
-4 2 l
30 -8 m 4 2 l
6 6 l
0 -42 l
-2 40 m 0 -40 l
-8 0 m 18 0 l
15 78 m 0 22 l
44 -22 m 0 22 l
31 -22 m 0 22 l
25 -22 m 0 22 l
20 -22 m 0 22 l
16 -22 m 0 22 l
15 -22 m 0 22 l
13 -22 m 0 22 l
11 -22 m 0 43 l
-50 -121 m 18 42 m -6 -2 l
-4 -6 l
-2 -10 l
0 -6 l
2 -10 l
4 -6 l
6 -2 l
4 0 l
6 2 l
4 6 l
2 10 l
0 6 l
-2 10 l
-4 6 l
-6 2 l
-4 0 l
-4 -2 l
-2 -2 l
-2 -4 l
-2 -10 l
0 -6 l
2 -10 l
2 -4 l
2 -2 l
4 -2 l
4 0 m 4 2 l
2 2 l
2 4 l
2 10 l
0 6 l
-2 10 l
-2 4 l
-2 2 l
-4 2 l
28 -38 m -2 -2 l
2 -2 l
2 2 l
-2 2 l
22 30 m 4 2 l
6 6 l
0 -42 l
-2 40 m 0 -40 l
-8 0 m 18 0 l
36 78 m 0 22 l
44 -22 m 0 22 l
31 -22 m 0 22 l
24 -22 m 0 22 l
20 -22 m 0 22 l
17 -22 m 0 22 l
15 -22 m 0 22 l
12 -22 m 0 22 l
12 -22 m 0 43 l
-20 -121 m 12 34 m 4 2 l
6 6 l
0 -42 l
-2 40 m 0 -40 l
-8 0 m 18 0 l
65 78 m 0 22 l
45 -22 m 0 22 l
31 -22 m 0 22 l
24 -22 m 0 22 l
20 -22 m 0 22 l
17 -22 m 0 22 l
14 -22 m 0 22 l
13 -22 m 0 22 l
12 -22 m 0 43 l
-40 -121 m 12 34 m 4 2 l
6 6 l
0 -42 l
-2 40 m 0 -40 l
-8 0 m 18 0 l
28 42 m -6 -2 l
-4 -6 l
-2 -10 l
0 -6 l
2 -10 l
4 -6 l
6 -2 l
4 0 l
6 2 l
4 6 l
2 10 l
0 6 l
-2 10 l
-4 6 l
-6 2 l
-4 0 l
-4 -2 l
-2 -2 l
-2 -4 l
-2 -10 l
0 -6 l
2 -10 l
2 -4 l
2 -2 l
4 -2 l
4 0 m 4 2 l
2 2 l
2 4 l
2 10 l
0 6 l
-2 10 l
-2 4 l
-2 2 l
-4 2 l
53 36 m 0 22 l
44 -22 m 0 22 l
255 2261 M 2006 0 l
281 2261 M 0 -21 l
24 21 m 0 -21 l
20 21 m 0 -21 l
17 21 m 0 -21 l
14 21 m 0 -21 l
13 21 m 0 -21 l
12 21 m 0 -43 l
75 43 m 0 -21 l
44 21 m 0 -21 l
32 21 m 0 -21 l
24 21 m 0 -21 l
20 21 m 0 -21 l
17 21 m 0 -21 l
14 21 m 0 -21 l
13 21 m 0 -21 l
11 21 m 0 -43 l
76 43 m 0 -21 l
44 21 m 0 -21 l
31 21 m 0 -21 l
25 21 m 0 -21 l
19 21 m 0 -21 l
17 21 m 0 -21 l
15 21 m 0 -21 l
13 21 m 0 -21 l
11 21 m 0 -43 l
76 43 m 0 -21 l
44 21 m 0 -21 l
31 21 m 0 -21 l
24 21 m 0 -21 l
20 21 m 0 -21 l
17 21 m 0 -21 l
14 21 m 0 -21 l
13 21 m 0 -21 l
12 21 m 0 -43 l
75 43 m 0 -21 l
44 21 m 0 -21 l
32 21 m 0 -21 l
24 21 m 0 -21 l
20 21 m 0 -21 l
17 21 m 0 -21 l
14 21 m 0 -21 l
13 21 m 0 -21 l
12 21 m 0 -43 l
75 43 m 0 -21 l
44 21 m 0 -21 l
31 21 m 0 -21 l
25 21 m 0 -21 l
20 21 m 0 -21 l
16 21 m 0 -21 l
15 21 m 0 -21 l
13 21 m 0 -21 l
11 21 m 0 -43 l
76 43 m 0 -21 l
44 21 m 0 -21 l
31 21 m 0 -21 l
24 21 m 0 -21 l
20 21 m 0 -21 l
17 21 m 0 -21 l
15 21 m 0 -21 l
12 21 m 0 -21 l
12 21 m 0 -43 l
75 43 m 0 -21 l
45 21 m 0 -21 l
31 21 m 0 -21 l
24 21 m 0 -21 l
20 21 m 0 -21 l
17 21 m 0 -21 l
14 21 m 0 -21 l
13 21 m 0 -21 l
12 21 m 0 -43 l
75 43 m 0 -21 l
44 21 m 0 -21 l
255 255 M 0 2006 l
255 255 M 22 0 l
-22 155 m 22 0 l
-22 154 m 43 0 l
-119 -21 m 18 42 m -6 -2 l
-4 -6 l
-2 -10 l
0 -6 l
2 -10 l
4 -6 l
6 -2 l
4 0 l
6 2 l
4 6 l
2 10 l
0 6 l
-2 10 l
-4 6 l
-6 2 l
-4 0 l
-4 -2 l
CS M
-2 -2 l
-2 -4 l
-2 -10 l
0 -6 l
2 -10 l
2 -4 l
2 -2 l
4 -2 l
4 0 m 4 2 l
2 2 l
2 4 l
2 10 l
0 6 l
-2 10 l
-2 4 l
-2 2 l
-4 2 l
54 133 m 22 0 l
-22 154 m 22 0 l
-22 155 m 22 0 l
-22 154 m 22 0 l
-22 154 m 43 0 l
119 1314 M 18 42 m -6 -2 l
-4 -6 l
-2 -10 l
0 -6 l
2 -10 l
4 -6 l
6 -2 l
4 0 l
6 2 l
4 6 l
2 10 l
0 6 l
-2 10 l
-4 6 l
-6 2 l
-4 0 l
-4 -2 l
-2 -2 l
-2 -4 l
-2 -10 l
0 -6 l
2 -10 l
2 -4 l
2 -2 l
4 -2 l
4 0 m 4 2 l
2 2 l
2 4 l
2 10 l
0 6 l
-2 10 l
-2 4 l
-2 2 l
-4 2 l
28 -38 m -2 -2 l
2 -2 l
2 2 l
-2 2 l
20 38 m -4 -20 l
4 4 l
6 2 l
6 0 l
6 -2 l
4 -4 l
2 -6 l
0 -4 l
-2 -6 l
-4 -4 l
-6 -2 l
-6 0 l
-6 2 l
-2 2 l
-2 4 l
0 2 l
2 2 l
2 -2 l
-2 -2 l
14 20 m 4 -2 l
4 -4 l
2 -6 l
0 -4 l
-2 -6 l
-4 -4 l
-4 -2 l
-12 42 m 20 0 l
-20 -2 m 10 0 l
10 2 l
46 134 m 22 0 l
-22 154 m 22 0 l
-22 154 m 22 0 l
-22 154 m 22 0 l
-22 155 m 43 0 l
-119 -21 m 12 34 m 4 2 l
6 6 l
0 -42 l
-2 40 m 0 -40 l
-8 0 m 18 0 l
46 175 m 22 0 l
2261 255 M 0 2006 l
2261 255 M -21 0 l
21 155 m -21 0 l
21 154 m -43 0 l
43 154 m -21 0 l
21 154 m -21 0 l
21 155 m -21 0 l
21 154 m -21 0 l
21 154 m -43 0 l
43 155 m -21 0 l
21 154 m -21 0 l
21 154 m -21 0 l
21 154 m -21 0 l
21 155 m -43 0 l
43 154 m -21 0 l
CS [] 0 setdash M
stroke
grestore
showpage
end
