%!PS-Adobe-2.0 EPSF-2.0
%%Creator: SM
%%BoundingBox: 18 144 592 718
%%DocumentFonts: Helvetica
%%EndComments
 20 dict begin
72 300 div dup scale
1 setlinejoin 0 setlinecap
/Helvetica findfont 55 scalefont setfont 
/B {CS newpath moveto} def
/F {moveto 0 setlinecap} def
/C {CS M 1 1 3 {pop 3 1 roll 255 div} for SET_COLOUR} def
/CS {currentpoint stroke} def
/CF {currentpoint eofill} def
/L {lineto} def /l {rlineto} def /M {moveto} def /m {rmoveto} def
/P {currentpoint 0 1 rlineto stroke moveto} def
/T {currentlinecap exch 1 setlinecap show setlinecap} def
errordict /nocurrentpoint {pop 0 0 M currentpoint} put
/SET_COLOUR statusdict begin /processcolors where
  {pop processcolors 1 gt} {false} ifelse
  {(setrgbcolor)} {(pop pop pop)} ifelse cvx end def
 80 600 translate
gsave
CS [] 0 setdash M
CS M 1 100 mul 72 div dup setlinewidth
/P [ /currentpoint cvx 0 5 -1 roll .05 add dup -2 div 0 exch /rmoveto cvx /rlineto cvx /stroke cvx /moveto cvx ] cvx def
 0 0 0 C
CS M 4 100 mul 72 div dup setlinewidth
/P [ /currentpoint cvx 0 5 -1 roll .05 add dup -2 div 0 exch /rmoveto cvx /rlineto cvx /stroke cvx /moveto cvx ] cvx def
 0 0 255 C
CS [] 0 setdash M
 0 0 255 C
 255 0 0 C
255 316 M 0 1 l
1 0 l
0 1 l
0 1 l
0 1 l
0 1 l
0 1 l
1 1 l
0 1 l
0 2 l
0 1 l
0 1 l
1 2 l
0 1 l
0 2 l
0 1 l
0 2 l
0 2 l
1 2 l
0 2 l
0 2 l
0 2 l
0 2 l
0 2 l
1 2 l
0 2 l
0 3 l
0 2 l
0 2 l
0 3 l
1 2 l
0 3 l
0 3 l
0 2 l
0 3 l
1 3 l
0 3 l
0 3 l
0 3 l
0 3 l
0 3 l
1 3 l
0 3 l
0 3 l
0 4 l
0 3 l
0 3 l
1 4 l
0 3 l
0 4 l
0 3 l
0 4 l
0 3 l
1 4 l
0 4 l
0 3 l
0 4 l
0 4 l
1 4 l
0 4 l
0 3 l
0 4 l
0 4 l
0 4 l
1 4 l
0 4 l
0 4 l
0 4 l
0 4 l
0 5 l
1 4 l
0 4 l
0 4 l
0 4 l
0 4 l
0 5 l
1 4 l
0 4 l
0 4 l
0 4 l
0 5 l
1 4 l
0 4 l
0 4 l
0 5 l
0 4 l
0 4 l
1 5 l
0 4 l
0 4 l
0 4 l
0 5 l
0 4 l
1 4 l
0 4 l
0 5 l
0 4 l
0 4 l
0 4 l
1 4 l
0 4 l
0 4 l
0 5 l
0 4 l
1 4 l
0 4 l
0 4 l
0 4 l
0 4 l
0 4 l
1 4 l
0 4 l
0 3 l
0 4 l
0 4 l
0 4 l
1 4 l
0 3 l
0 4 l
0 4 l
0 3 l
1 4 l
0 3 l
0 4 l
0 3 l
0 4 l
0 3 l
1 3 l
0 4 l
0 3 l
0 3 l
0 3 l
0 3 l
1 3 l
0 3 l
0 3 l
0 3 l
0 3 l
0 3 l
1 3 l
0 3 l
0 2 l
0 3 l
0 2 l
1 3 l
0 2 l
0 3 l
0 2 l
0 3 l
0 2 l
1 2 l
0 2 l
0 2 l
0 2 l
0 2 l
0 2 l
1 2 l
0 2 l
0 2 l
0 1 l
0 2 l
1 2 l
0 1 l
0 2 l
0 1 l
0 2 l
0 1 l
1 1 l
0 2 l
0 1 l
0 1 l
0 1 l
0 1 l
1 1 l
0 1 l
0 1 l
0 1 l
0 1 l
0 0 l
1 1 l
0 1 l
0 0 l
0 1 l
0 0 l
1 1 l
0 0 l
0 1 l
0 0 l
0 0 l
0 1 l
1 0 l
0 0 l
0 0 l
0 1 l
0 0 l
0 0 l
1 0 l
0 0 l
0 0 l
0 0 l
0 0 l
1 0 l
0 0 l
0 0 l
0 0 l
0 -1 l
0 0 l
1 0 l
0 0 l
0 0 l
0 0 l
0 0 l
0 -1 l
1 0 l
0 0 l
0 0 l
0 0 l
0 -1 l
0 0 l
1 0 l
0 0 l
0 0 l
0 0 l
0 0 l
1 0 l
0 0 l
0 0 l
0 0 l
0 0 l
0 0 l
1 0 l
0 0 l
0 0 l
0 1 l
0 0 l
0 0 l
1 1 l
0 0 l
0 0 l
0 1 l
0 0 l
1 1 l
0 1 l
0 0 l
0 1 l
0 1 l
0 1 l
1 1 l
0 1 l
0 1 l
0 1 l
0 1 l
0 2 l
1 1 l
0 1 l
0 2 l
0 2 l
0 1 l
0 2 l
1 2 l
0 1 l
0 2 l
0 2 l
0 3 l
1 2 l
0 2 l
0 2 l
0 3 l
0 2 l
0 2 l
1 3 l
0 3 l
0 2 l
0 3 l
0 3 l
0 3 l
1 3 l
0 3 l
0 3 l
0 3 l
0 3 l
1 4 l
0 3 l
0 3 l
0 4 l
0 3 l
0 4 l
1 4 l
0 3 l
0 4 l
0 4 l
0 4 l
0 4 l
1 4 l
0 3 l
0 4 l
0 4 l
0 5 l
0 4 l
1 4 l
CS M
0 4 l
0 4 l
0 4 l
0 5 l
1 4 l
0 4 l
0 4 l
0 5 l
0 4 l
0 4 l
1 5 l
0 4 l
0 4 l
0 5 l
0 4 l
0 5 l
1 4 l
0 4 l
0 5 l
0 4 l
0 5 l
0 4 l
1 4 l
0 5 l
0 4 l
0 4 l
0 5 l
1 4 l
0 4 l
0 5 l
0 4 l
0 4 l
0 4 l
1 4 l
0 5 l
0 4 l
0 4 l
0 4 l
0 4 l
1 4 l
0 4 l
0 4 l
0 3 l
0 4 l
0 4 l
1 4 l
0 4 l
0 3 l
0 4 l
0 3 l
1 4 l
0 3 l
0 4 l
0 3 l
0 4 l
0 3 l
1 3 l
0 3 l
0 3 l
0 4 l
0 3 l
0 3 l
1 2 l
0 3 l
0 3 l
0 3 l
0 3 l
0 2 l
1 3 l
0 2 l
0 3 l
0 2 l
0 3 l
1 2 l
0 2 l
0 2 l
0 2 l
0 2 l
0 2 l
1 2 l
0 2 l
0 2 l
0 2 l
0 1 l
0 2 l
1 2 l
0 1 l
0 2 l
0 1 l
0 1 l
0 2 l
1 1 l
0 1 l
0 1 l
0 1 l
0 1 l
1 1 l
0 1 l
0 1 l
0 1 l
0 0 l
0 1 l
1 1 l
0 0 l
0 1 l
0 0 l
0 1 l
0 0 l
1 1 l
0 0 l
0 0 l
0 1 l
0 0 l
0 0 l
1 0 l
0 0 l
0 0 l
0 0 l
0 0 l
1 0 l
0 0 l
0 0 l
0 0 l
0 0 l
0 -1 l
1 0 l
0 0 l
0 0 l
0 -1 l
0 0 l
0 0 l
1 -1 l
0 0 l
0 0 l
0 -1 l
0 0 l
1 0 l
0 -1 l
0 0 l
0 -1 l
0 0 l
0 0 l
1 -1 l
0 0 l
0 -1 l
0 0 l
0 0 l
0 -1 l
1 0 l
0 0 l
0 -1 l
0 0 l
0 0 l
0 0 l
1 0 l
0 -1 l
0 0 l
0 0 l
0 0 l
1 0 l
0 0 l
0 0 l
0 0 l
0 0 l
0 0 l
1 0 l
0 0 l
0 1 l
0 0 l
0 0 l
0 0 l
1 1 l
0 0 l
0 1 l
0 0 l
0 1 l
1 1 l
0 0 l
0 1 l
0 1 l
0 1 l
0 1 l
1 1 l
0 1 l
0 1 l
0 1 l
0 1 l
0 2 l
1 1 l
0 1 l
0 2 l
0 1 l
0 2 l
0 1 l
1 2 l
0 2 l
0 2 l
0 1 l
0 2 l
1 2 l
0 2 l
0 2 l
0 3 l
0 2 l
0 2 l
1 2 l
0 3 l
0 2 l
0 3 l
0 2 l
0 3 l
1 2 l
0 3 l
0 3 l
0 2 l
0 3 l
1 3 l
0 3 l
0 3 l
0 3 l
0 3 l
0 3 l
1 3 l
0 3 l
0 3 l
0 3 l
0 3 l
0 4 l
1 3 l
0 3 l
0 3 l
0 4 l
0 3 l
0 3 l
1 4 l
0 3 l
0 3 l
0 4 l
0 3 l
1 4 l
0 3 l
0 4 l
0 3 l
0 3 l
0 4 l
1 3 l
0 4 l
0 3 l
0 4 l
0 3 l
0 4 l
1 3 l
0 3 l
0 4 l
0 3 l
0 4 l
1 3 l
0 3 l
0 4 l
0 3 l
0 3 l
0 3 l
1 4 l
0 3 l
0 3 l
0 3 l
0 3 l
0 3 l
1 3 l
0 3 l
0 3 l
0 3 l
0 3 l
0 3 l
1 3 l
0 3 l
0 2 l
0 3 l
0 3 l
1 2 l
0 3 l
0 3 l
0 2 l
0 3 l
0 2 l
1 2 l
0 3 l
0 2 l
0 2 l
0 2 l
0 2 l
1 2 l
0 2 l
0 2 l
0 2 l
0 2 l
1 2 l
0 2 l
0 1 l
0 2 l
CS M
0 2 l
0 1 l
1 2 l
0 1 l
0 2 l
0 1 l
0 1 l
0 1 l
1 2 l
0 1 l
0 1 l
0 1 l
0 1 l
0 1 l
1 0 l
0 1 l
0 1 l
0 1 l
0 0 l
1 1 l
0 1 l
0 0 l
0 1 l
0 0 l
0 0 l
1 1 l
0 0 l
0 0 l
0 0 l
0 0 l
0 1 l
1 0 l
0 0 l
0 0 l
0 0 l
0 -1 l
0 0 l
1 0 l
0 0 l
0 0 l
0 -1 l
0 0 l
1 0 l
0 -1 l
0 0 l
0 0 l
0 -1 l
0 0 l
1 -1 l
0 0 l
0 -1 l
0 0 l
0 -1 l
0 -1 l
1 0 l
0 -1 l
0 0 l
0 -1 l
0 -1 l
0 0 l
1 -1 l
0 -1 l
0 0 l
0 -1 l
0 -1 l
1 0 l
0 -1 l
0 -1 l
0 0 l
0 -1 l
0 -1 l
1 0 l
0 -1 l
0 -1 l
0 0 l
0 -1 l
0 0 l
1 -1 l
0 -1 l
0 0 l
0 -1 l
0 0 l
0 -1 l
1 0 l
0 0 l
0 -1 l
0 0 l
0 0 l
1 -1 l
0 0 l
0 0 l
0 0 l
0 -1 l
0 0 l
1 0 l
0 0 l
0 0 l
0 0 l
0 0 l
0 0 l
1 1 l
0 0 l
0 0 l
0 0 l
0 1 l
0 0 l
1 0 l
0 1 l
0 0 l
0 1 l
0 0 l
1 1 l
0 1 l
0 1 l
0 0 l
0 1 l
0 1 l
1 1 l
0 1 l
0 1 l
0 1 l
0 1 l
0 2 l
1 1 l
0 1 l
0 1 l
0 2 l
0 1 l
0 2 l
1 1 l
0 2 l
0 1 l
0 2 l
0 2 l
1 1 l
0 2 l
0 2 l
0 2 l
0 2 l
0 2 l
1 2 l
0 2 l
0 2 l
0 2 l
0 2 l
0 2 l
1 2 l
0 2 l
0 3 l
0 2 l
0 2 l
1 3 l
0 2 l
0 2 l
0 3 l
0 2 l
0 2 l
1 3 l
0 2 l
0 3 l
0 2 l
0 3 l
0 2 l
1 3 l
0 2 l
0 3 l
0 2 l
0 3 l
0 2 l
1 3 l
0 2 l
0 3 l
0 3 l
0 2 l
1 3 l
0 2 l
0 3 l
0 2 l
0 3 l
0 2 l
1 3 l
0 2 l
0 3 l
0 2 l
0 2 l
0 3 l
1 2 l
0 2 l
0 3 l
0 2 l
0 2 l
0 3 l
1 2 l
0 2 l
0 2 l
0 2 l
0 3 l
1 2 l
0 2 l
0 2 l
0 2 l
0 2 l
0 2 l
1 1 l
0 2 l
0 2 l
0 2 l
0 2 l
0 1 l
1 2 l
0 2 l
0 1 l
0 2 l
0 1 l
1 1 l
0 2 l
0 1 l
0 2 l
0 1 l
0 1 l
1 1 l
0 1 l
0 1 l
0 1 l
0 1 l
0 1 l
1 1 l
0 1 l
0 1 l
0 1 l
0 0 l
0 1 l
1 1 l
0 0 l
0 1 l
0 0 l
0 1 l
1 0 l
0 0 l
0 1 l
0 0 l
0 0 l
0 0 l
1 1 l
0 0 l
0 0 l
0 0 l
0 0 l
0 0 l
1 -1 l
0 0 l
0 0 l
0 0 l
0 0 l
1 -1 l
0 0 l
0 0 l
0 -1 l
0 0 l
0 -1 l
1 0 l
0 -1 l
0 0 l
0 -1 l
0 -1 l
0 0 l
1 -1 l
0 -1 l
0 0 l
0 -1 l
0 -1 l
0 -1 l
1 -1 l
0 0 l
0 -1 l
0 -1 l
0 -1 l
1 -1 l
0 -1 l
0 -1 l
0 -1 l
0 -1 l
0 -1 l
1 -1 l
0 -1 l
0 -1 l
0 0 l
0 -2 l
0 0 l
1 -1 l
0 -1 l
0 -1 l
0 -1 l
0 -1 l
1 -1 l
0 -1 l
0 -1 l
0 -1 l
0 -1 l
0 -1 l
CS M
1 -1 l
0 -1 l
0 -1 l
0 -1 l
0 0 l
0 -1 l
1 -1 l
0 -1 l
0 0 l
0 -1 l
0 -1 l
1 -1 l
0 0 l
0 -1 l
0 0 l
0 -1 l
0 -1 l
1 0 l
0 -1 l
0 0 l
0 0 l
0 -1 l
0 0 l
1 -1 l
0 0 l
0 0 l
0 0 l
0 0 l
0 -1 l
1 0 l
0 0 l
0 0 l
0 0 l
0 0 l
1 0 l
0 1 l
0 0 l
0 0 l
0 0 l
0 1 l
1 0 l
0 0 l
0 1 l
0 0 l
0 1 l
0 0 l
1 1 l
0 1 l
0 0 l
0 1 l
0 1 l
0 0 l
1 1 l
0 1 l
0 1 l
0 1 l
0 1 l
1 1 l
0 1 l
0 1 l
0 1 l
0 1 l
0 2 l
1 1 l
0 1 l
0 1 l
0 2 l
0 1 l
0 1 l
1 2 l
0 1 l
0 2 l
0 1 l
0 2 l
0 1 l
1 2 l
0 1 l
0 2 l
0 1 l
0 2 l
1 2 l
0 1 l
0 2 l
0 2 l
0 1 l
0 2 l
1 2 l
0 1 l
0 2 l
0 2 l
0 1 l
0 2 l
1 2 l
0 2 l
0 1 l
0 2 l
0 2 l
0 2 l
1 1 l
0 2 l
0 2 l
0 2 l
0 1 l
1 2 l
0 2 l
0 1 l
0 2 l
0 1 l
0 2 l
1 2 l
0 1 l
0 2 l
0 1 l
0 2 l
0 2 l
1 1 l
0 2 l
0 1 l
0 1 l
0 2 l
0 1 l
1 1 l
0 2 l
0 1 l
0 1 l
0 2 l
1 1 l
0 1 l
0 1 l
0 1 l
0 1 l
0 1 l
1 1 l
0 1 l
0 1 l
0 1 l
0 1 l
0 1 l
1 1 l
0 0 l
0 1 l
0 1 l
0 0 l
1 1 l
0 0 l
0 1 l
0 0 l
0 1 l
0 0 l
1 1 l
0 0 l
0 0 l
0 1 l
0 0 l
0 0 l
1 0 l
0 0 l
0 0 l
0 0 l
0 0 l
0 0 l
1 0 l
0 0 l
0 0 l
0 -1 l
0 0 l
1 0 l
0 -1 l
0 0 l
0 0 l
0 -1 l
0 0 l
1 -1 l
0 0 l
0 -1 l
0 0 l
0 -1 l
0 -1 l
1 0 l
0 -1 l
0 -1 l
0 -1 l
0 -1 l
0 0 l
1 -1 l
0 -1 l
0 -1 l
0 -1 l
0 -1 l
1 -1 l
0 -1 l
0 -1 l
0 -1 l
0 -1 l
0 -1 l
1 -1 l
0 -1 l
0 -2 l
0 -1 l
0 -1 l
0 -1 l
1 -1 l
0 -2 l
0 -1 l
0 -1 l
0 -1 l
0 -2 l
1 -1 l
0 -1 l
0 -1 l
0 -1 l
0 -2 l
1 -1 l
0 -1 l
0 -1 l
0 -2 l
0 -1 l
0 -1 l
1 -1 l
0 -2 l
0 -1 l
0 -1 l
0 -1 l
0 -1 l
1 -2 l
0 -1 l
0 -1 l
0 -1 l
0 -1 l
1 -1 l
0 -1 l
0 -1 l
0 -1 l
0 -1 l
0 -1 l
1 -1 l
0 -1 l
0 -1 l
0 -1 l
0 -1 l
0 -1 l
1 -1 l
0 0 l
0 -1 l
0 -1 l
0 -1 l
0 0 l
1 -1 l
0 -1 l
0 0 l
0 -1 l
0 0 l
1 -1 l
0 0 l
0 -1 l
0 0 l
0 0 l
0 -1 l
1 0 l
0 0 l
0 -1 l
0 0 l
0 0 l
0 0 l
1 0 l
0 0 l
0 0 l
0 0 l
0 0 l
1 0 l
0 0 l
0 0 l
0 0 l
0 1 l
0 0 l
1 0 l
0 1 l
0 0 l
0 0 l
0 1 l
0 0 l
1 1 l
0 0 l
0 1 l
0 0 l
0 1 l
0 0 l
1 1 l
0 1 l
0 0 l
0 1 l
0 1 l
1 1 l
0 0 l
0 1 l
0 1 l
0 1 l
0 1 l
1 1 l
0 1 l
CS M
0 1 l
0 0 l
0 1 l
0 1 l
1 1 l
0 1 l
0 1 l
0 1 l
0 1 l
1 2 l
0 1 l
0 1 l
0 1 l
0 1 l
0 1 l
1 1 l
0 1 l
0 1 l
0 1 l
0 1 l
0 1 l
1 1 l
0 1 l
0 1 l
0 1 l
0 1 l
0 1 l
1 1 l
0 1 l
0 1 l
0 1 l
0 1 l
1 1 l
0 1 l
0 1 l
0 1 l
0 1 l
0 1 l
1 1 l
0 0 l
0 1 l
0 1 l
0 1 l
0 1 l
1 0 l
0 1 l
0 1 l
0 0 l
0 1 l
1 1 l
0 0 l
0 1 l
0 0 l
0 1 l
0 0 l
1 1 l
0 0 l
0 1 l
0 0 l
0 0 l
0 0 l
1 1 l
0 0 l
0 0 l
0 0 l
0 0 l
0 0 l
1 0 l
0 1 l
0 0 l
0 -1 l
0 0 l
1 0 l
0 0 l
0 0 l
0 0 l
0 0 l
0 -1 l
1 0 l
0 0 l
0 -1 l
0 0 l
0 -1 l
0 0 l
1 -1 l
0 0 l
0 -1 l
0 0 l
0 -1 l
0 -1 l
1 0 l
0 -1 l
0 -1 l
0 -1 l
0 0 l
1 -1 l
0 -1 l
0 -1 l
0 -1 l
0 -1 l
0 -1 l
1 -1 l
0 -1 l
0 -1 l
0 -1 l
0 -1 l
0 -1 l
1 -2 l
0 -1 l
0 -1 l
0 -1 l
0 -1 l
0 -2 l
1 -1 l
0 -1 l
0 -2 l
0 -1 l
0 -1 l
1 -2 l
0 -1 l
0 -1 l
0 -2 l
0 -1 l
0 -1 l
1 -2 l
0 -1 l
0 -2 l
0 -1 l
0 -2 l
0 -1 l
1 -1 l
0 -2 l
0 -1 l
0 -2 l
0 -1 l
0 -2 l
1 -1 l
0 -2 l
0 -1 l
0 -1 l
0 -2 l
1 -1 l
0 -2 l
0 -1 l
0 -2 l
0 -1 l
0 -1 l
1 -2 l
0 -1 l
0 -1 l
0 -2 l
0 -1 l
0 -1 l
1 -2 l
0 -1 l
0 -1 l
0 -1 l
0 -1 l
1 -2 l
0 -1 l
0 -1 l
0 -1 l
0 -1 l
0 -1 l
1 -1 l
0 -1 l
0 -1 l
0 -1 l
0 -1 l
0 -1 l
1 -1 l
0 -1 l
0 -1 l
0 -1 l
0 0 l
0 -1 l
1 -1 l
0 -1 l
0 0 l
0 -1 l
0 -1 l
1 0 l
0 -1 l
0 0 l
0 -1 l
0 0 l
0 -1 l
1 0 l
0 -1 l
0 0 l
0 0 l
0 -1 l
0 0 l
1 0 l
0 0 l
0 0 l
0 -1 l
0 0 l
0 0 l
1 0 l
0 0 l
0 0 l
0 0 l
0 0 l
1 0 l
0 0 l
0 0 l
0 1 l
0 0 l
0 0 l
1 0 l
0 0 l
0 1 l
0 0 l
0 0 l
0 0 l
1 1 l
0 0 l
0 0 l
0 1 l
0 0 l
0 1 l
1 0 l
0 0 l
0 1 l
0 0 l
0 1 l
1 0 l
0 1 l
0 0 l
0 1 l
0 0 l
0 1 l
1 0 l
0 1 l
0 0 l
0 1 l
0 1 l
0 0 l
1 1 l
0 0 l
0 1 l
0 0 l
0 1 l
0 0 l
1 1 l
0 0 l
0 1 l
0 0 l
0 1 l
1 0 l
0 1 l
0 0 l
0 1 l
0 0 l
0 1 l
1 0 l
0 1 l
0 0 l
0 0 l
0 1 l
0 0 l
1 0 l
0 1 l
0 0 l
0 0 l
0 1 l
1 0 l
0 0 l
0 0 l
0 0 l
0 1 l
0 0 l
1 0 l
0 0 l
0 0 l
0 0 l
0 0 l
0 0 l
1 0 l
0 0 l
0 0 l
0 0 l
0 -1 l
0 0 l
1 0 l
0 0 l
0 0 l
0 -1 l
0 0 l
1 0 l
0 -1 l
0 0 l
0 0 l
0 -1 l
0 0 l
1 -1 l
0 0 l
0 -1 l
0 -1 l
CS M
0 0 l
0 -1 l
1 -1 l
0 0 l
0 -1 l
0 -1 l
0 -1 l
1 0 l
0 -1 l
0 -1 l
0 -1 l
0 -1 l
0 -1 l
1 -1 l
0 -1 l
0 -1 l
0 -1 l
0 -1 l
0 -1 l
1 -1 l
0 -1 l
0 -2 l
0 -1 l
0 -1 l
0 -1 l
1 -1 l
0 -2 l
0 -1 l
0 -1 l
0 -2 l
1 -1 l
0 -1 l
0 -2 l
0 -1 l
0 -1 l
0 -2 l
1 -1 l
0 -2 l
0 -1 l
0 -2 l
0 -1 l
0 -2 l
1 -1 l
0 -2 l
0 -1 l
0 -2 l
0 -1 l
1 -2 l
0 -1 l
0 -2 l
0 -1 l
0 -2 l
0 -2 l
1 -1 l
0 -2 l
0 -1 l
0 -2 l
0 -1 l
0 -2 l
1 -1 l
0 -2 l
0 -1 l
0 -2 l
0 -2 l
1 -1 l
0 -2 l
0 -1 l
0 -2 l
0 -1 l
0 -1 l
1 -2 l
0 -1 l
0 -2 l
0 -1 l
0 -2 l
0 -1 l
1 -1 l
0 -2 l
0 -1 l
0 -1 l
0 -2 l
0 -1 l
1 -1 l
0 -1 l
0 -2 l
0 -1 l
0 -1 l
1 -1 l
0 -1 l
0 -1 l
0 -1 l
0 -2 l
0 -1 l
1 -1 l
0 -1 l
0 -1 l
0 0 l
0 -1 l
0 -1 l
1 -1 l
0 -1 l
0 -1 l
0 -1 l
0 0 l
0 -1 l
1 -1 l
0 0 l
0 -1 l
0 -1 l
0 0 l
1 -1 l
0 -1 l
0 0 l
0 -1 l
0 0 l
0 -1 l
1 0 l
0 0 l
0 -1 l
0 0 l
0 0 l
0 -1 l
1 0 l
0 0 l
0 -1 l
0 0 l
0 0 l
0 0 l
1 0 l
0 0 l
0 -1 l
0 0 l
0 0 l
1 0 l
0 0 l
0 0 l
0 0 l
0 0 l
0 0 l
1 0 l
0 0 l
0 0 l
0 0 l
0 0 l
0 1 l
1 0 l
0 0 l
0 0 l
0 0 l
0 0 l
0 0 l
1 1 l
0 0 l
0 0 l
0 0 l
0 0 l
1 0 l
0 1 l
0 0 l
0 0 l
0 0 l
0 0 l
1 1 l
0 0 l
0 0 l
0 0 l
0 0 l
0 0 l
1 1 l
0 0 l
0 0 l
0 0 l
0 0 l
1 0 l
0 1 l
0 0 l
0 0 l
0 0 l
0 0 l
1 0 l
0 0 l
0 0 l
0 0 l
0 0 l
0 0 l
1 0 l
0 0 l
0 0 l
0 0 l
0 0 l
0 0 l
1 0 l
0 -1 l
0 0 l
0 0 l
0 0 l
1 0 l
0 -1 l
0 0 l
0 0 l
0 0 l
0 -1 l
1 0 l
0 0 l
0 -1 l
0 0 l
0 -1 l
0 0 l
1 -1 l
0 0 l
0 -1 l
0 0 l
0 -1 l
0 0 l
1 -1 l
0 -1 l
0 0 l
0 -1 l
0 -1 l
1 -1 l
0 0 l
0 -1 l
0 -1 l
0 -1 l
0 -1 l
1 -1 l
0 -1 l
0 0 l
0 -1 l
0 -1 l
0 -1 l
1 -1 l
0 -2 l
0 -1 l
0 -1 l
0 -1 l
0 -1 l
1 -1 l
0 -1 l
0 -1 l
0 -2 l
0 -1 l
1 -1 l
0 -1 l
0 -2 l
0 -1 l
0 -1 l
0 -2 l
1 -1 l
0 -1 l
0 -2 l
0 -1 l
0 -2 l
0 -1 l
1 -1 l
0 -2 l
0 -1 l
0 -2 l
0 -1 l
0 -2 l
1 -1 l
0 -2 l
0 -1 l
0 -2 l
0 -1 l
1 -2 l
0 -1 l
0 -2 l
0 -1 l
0 -2 l
0 -1 l
1 -2 l
0 -1 l
0 -2 l
0 -1 l
0 -2 l
0 -1 l
1 -2 l
0 -2 l
0 -1 l
0 -2 l
0 -1 l
1 -2 l
0 -1 l
0 -2 l
0 -1 l
0 -2 l
0 -1 l
1 -1 l
0 -2 l
0 -1 l
0 -2 l
0 -1 l
0 -1 l
1 -2 l
0 -1 l
0 -2 l
0 -1 l
0 -1 l
0 -2 l
CS M
1 -1 l
0 -1 l
0 -1 l
0 -2 l
0 -1 l
1 -1 l
0 -1 l
0 -1 l
0 -1 l
0 -2 l
0 -1 l
1 -1 l
0 -1 l
0 -1 l
0 -1 l
0 -1 l
0 -1 l
1 -1 l
0 -1 l
0 -1 l
0 0 l
0 -1 l
1 -1 l
0 -1 l
0 -1 l
0 -1 l
0 0 l
0 -1 l
1 -1 l
0 0 l
0 -1 l
0 -1 l
0 0 l
0 -1 l
1 0 l
0 -1 l
0 0 l
0 -1 l
0 0 l
0 -1 l
1 0 l
0 -1 l
0 0 l
0 0 l
0 -1 l
1 0 l
0 -1 l
0 0 l
0 0 l
0 0 l
0 -1 l
1 0 l
0 0 l
0 0 l
0 0 l
0 -1 l
0 0 l
1 0 l
0 0 l
0 0 l
0 0 l
0 0 l
1 0 l
0 0 l
0 0 l
0 -1 l
0 0 l
0 0 l
1 0 l
0 0 l
0 0 l
0 0 l
0 0 l
0 0 l
1 0 l
0 0 l
0 0 l
0 0 l
0 0 l
0 0 l
1 0 l
0 0 l
0 0 l
0 1 l
0 0 l
1 0 l
0 0 l
0 0 l
0 0 l
0 0 l
0 0 l
1 -1 l
0 0 l
0 0 l
0 0 l
0 0 l
0 0 l
1 0 l
0 0 l
0 0 l
0 0 l
0 0 l
1 0 l
0 0 l
0 -1 l
0 0 l
0 0 l
0 0 l
1 0 l
0 -1 l
0 0 l
0 0 l
0 0 l
0 -1 l
1 0 l
0 0 l
0 -1 l
0 0 l
0 0 l
0 -1 l
1 0 l
0 -1 l
0 0 l
0 -1 l
0 0 l
1 -1 l
0 0 l
0 -1 l
0 0 l
0 -1 l
0 0 l
1 -1 l
0 -1 l
0 0 l
0 -1 l
0 -1 l
0 0 l
1 -1 l
0 -1 l
0 -1 l
0 -1 l
0 0 l
0 -1 l
1 -1 l
0 -1 l
0 -1 l
0 -1 l
0 -1 l
1 -1 l
0 -1 l
0 -1 l
0 -1 l
0 -1 l
0 -1 l
1 -1 l
0 -1 l
0 -1 l
0 -1 l
0 -1 l
0 -1 l
1 -2 l
0 -1 l
0 -1 l
0 -1 l
0 -1 l
1 -2 l
0 -1 l
0 -1 l
0 -1 l
0 -2 l
0 -1 l
1 -1 l
0 -2 l
0 -1 l
0 -1 l
0 -2 l
0 -1 l
1 -1 l
0 -2 l
0 -1 l
0 -1 l
0 -2 l
0 -1 l
1 -1 l
0 -2 l
0 -1 l
0 -2 l
0 -1 l
1 -1 l
0 -2 l
0 -1 l
0 -2 l
0 -1 l
0 -1 l
1 -2 l
0 -1 l
0 -1 l
0 -2 l
0 -1 l
0 -1 l
1 -2 l
0 -1 l
0 -1 l
0 -2 l
0 -1 l
0 -1 l
1 -2 l
0 -1 l
0 -1 l
0 -1 l
0 -2 l
1 -1 l
0 -1 l
0 -1 l
0 -2 l
0 -1 l
0 -1 l
1 -1 l
0 -1 l
0 -1 l
0 -1 l
0 -2 l
0 -1 l
1 -1 l
0 -1 l
0 -1 l
0 -1 l
0 -1 l
0 -1 l
1 -1 l
0 -1 l
0 0 l
0 -1 l
0 -1 l
1 -1 l
0 -1 l
0 -1 l
0 -1 l
0 0 l
0 -1 l
1 -1 l
0 -1 l
0 0 l
0 -1 l
0 -1 l
0 0 l
1 -1 l
0 0 l
0 -1 l
0 0 l
0 -1 l
0 0 l
1 -1 l
0 0 l
0 -1 l
0 0 l
0 -1 l
1 0 l
0 0 l
0 -1 l
0 0 l
0 -1 l
0 0 l
1 0 l
0 0 l
0 -1 l
0 0 l
0 0 l
0 0 l
1 0 l
0 -1 l
0 0 l
0 0 l
0 0 l
0 0 l
1 0 l
0 0 l
0 0 l
0 -1 l
0 0 l
1 0 l
0 0 l
0 0 l
0 0 l
0 0 l
0 0 l
1 0 l
0 0 l
0 0 l
0 0 l
0 0 l
0 0 l
1 0 l
0 0 l
0 0 l
0 0 l
0 0 l
0 0 l
1 0 l
0 0 l
CS M
0 0 l
0 0 l
0 0 l
1 0 l
0 0 l
0 0 l
0 0 l
0 0 l
0 0 l
1 0 l
0 0 l
0 0 l
0 0 l
0 0 l
0 0 l
1 0 l
0 0 l
0 0 l
0 0 l
0 0 l
1 0 l
0 0 l
0 -1 l
0 0 l
0 0 l
0 0 l
1 0 l
0 0 l
0 -1 l
0 0 l
0 0 l
0 0 l
1 0 l
0 -1 l
0 0 l
0 0 l
0 -1 l
0 0 l
1 0 l
0 -1 l
0 0 l
0 -1 l
0 0 l
1 0 l
0 -1 l
0 0 l
0 -1 l
0 0 l
0 -1 l
1 0 l
0 -1 l
0 0 l
0 -1 l
0 -1 l
0 0 l
1 -1 l
0 -1 l
0 0 l
0 -1 l
0 -1 l
1 0 l
0 -1 l
0 -1 l
0 0 l
0 -1 l
0 -1 l
1 -1 l
0 -1 l
0 0 l
0 -1 l
0 -1 l
0 -1 l
1 -1 l
0 -1 l
0 -1 l
0 -1 l
0 -1 l
1 -1 l
0 -1 l
0 -1 l
0 0 l
0 -2 l
0 0 l
1 -1 l
0 -2 l
0 -1 l
0 -1 l
0 -1 l
0 -1 l
1 -1 l
0 -1 l
0 -1 l
0 -1 l
0 -1 l
0 -1 l
1 -1 l
0 -1 l
0 -1 l
0 -1 l
0 -2 l
1 -1 l
0 -1 l
0 -1 l
0 -1 l
0 -1 l
0 -1 l
1 -1 l
0 -1 l
0 -1 l
0 -2 l
0 -1 l
0 -1 l
1 -1 l
0 -1 l
0 -1 l
0 -1 l
0 -1 l
1 -1 l
0 -1 l
0 -1 l
0 -1 l
0 -1 l
0 -1 l
1 -1 l
0 -1 l
0 -1 l
0 -1 l
0 -1 l
0 -1 l
1 -1 l
0 -1 l
0 -1 l
0 -1 l
0 -1 l
0 0 l
1 -1 l
0 -1 l
0 -1 l
0 -1 l
0 -1 l
1 0 l
0 -1 l
0 -1 l
0 0 l
0 -1 l
0 -1 l
1 -1 l
0 0 l
0 -1 l
0 0 l
0 -1 l
0 -1 l
1 0 l
0 -1 l
0 0 l
0 -1 l
0 0 l
0 -1 l
1 0 l
0 -1 l
0 0 l
0 0 l
0 -1 l
1 0 l
0 0 l
0 -1 l
0 0 l
0 0 l
0 -1 l
1 0 l
0 0 l
0 0 l
0 -1 l
0 0 l
0 0 l
1 0 l
0 0 l
0 0 l
0 0 l
0 -1 l
1 0 l
0 0 l
0 0 l
0 0 l
0 0 l
0 0 l
1 0 l
0 0 l
0 0 l
0 0 l
0 0 l
0 0 l
1 0 l
0 0 l
0 1 l
0 0 l
0 0 l
0 0 l
1 0 l
0 0 l
0 0 l
0 0 l
0 1 l
0 0 l
1 0 l
0 0 l
0 0 l
0 0 l
0 1 l
1 0 l
0 0 l
0 0 l
0 0 l
0 0 l
0 1 l
1 0 l
0 0 l
0 0 l
0 0 l
0 0 l
0 1 l
1 0 l
0 0 l
0 0 l
0 0 l
0 0 l
0 0 l
1 1 l
0 0 l
0 0 l
0 0 l
0 0 l
1 0 l
0 0 l
0 0 l
0 0 l
0 0 l
0 0 l
1 1 l
0 0 l
0 0 l
0 0 l
0 0 l
0 0 l
1 0 l
0 0 l
0 -1 l
0 0 l
0 0 l
1 0 l
0 0 l
0 0 l
0 0 l
0 0 l
0 0 l
1 -1 l
0 0 l
0 0 l
0 0 l
0 0 l
0 0 l
1 -1 l
0 0 l
0 0 l
0 -1 l
0 0 l
1 0 l
0 -1 l
0 0 l
0 0 l
0 -1 l
0 0 l
1 0 l
0 -1 l
0 0 l
0 -1 l
0 0 l
0 -1 l
1 0 l
0 -1 l
0 0 l
0 -1 l
0 0 l
0 -1 l
1 0 l
0 -1 l
0 0 l
0 -1 l
0 0 l
1 -1 l
0 -1 l
0 0 l
0 -1 l
0 -1 l
0 0 l
1 -1 l
0 0 l
0 -1 l
0 -1 l
0 -1 l
CS M
0 0 l
1 -1 l
0 -1 l
0 0 l
0 -1 l
0 -1 l
0 0 l
1 -1 l
0 -1 l
0 -1 l
0 0 l
0 -1 l
1 -1 l
0 -1 l
0 0 l
0 -1 l
0 -1 l
0 -1 l
1 0 l
0 -1 l
0 -1 l
0 -1 l
0 0 l
0 -1 l
1 -1 l
0 0 l
0 -1 l
0 -1 l
0 0 l
0 -1 l
1 -1 l
0 -1 l
0 0 l
0 -1 l
0 0 l
1 -1 l
0 -1 l
0 0 l
0 -1 l
0 -1 l
0 0 l
1 -1 l
0 0 l
0 -1 l
0 -1 l
0 0 l
0 -1 l
1 0 l
0 -1 l
0 0 l
0 -1 l
0 0 l
0 -1 l
1 0 l
0 0 l
0 -1 l
0 0 l
0 -1 l
1 0 l
0 0 l
0 -1 l
0 0 l
0 0 l
0 -1 l
1 0 l
0 0 l
0 -1 l
0 0 l
0 0 l
0 0 l
1 0 l
0 0 l
0 -1 l
0 0 l
0 0 l
1 0 l
0 0 l
0 0 l
0 0 l
0 0 l
0 0 l
1 0 l
0 0 l
0 0 l
0 0 l
0 0 l
0 0 l
1 0 l
0 0 l
0 0 l
0 0 l
0 0 l
0 1 l
1 0 l
0 0 l
0 0 l
0 0 l
0 0 l
1 1 l
0 0 l
0 0 l
0 0 l
0 1 l
0 0 l
1 0 l
0 1 l
0 0 l
0 0 l
0 0 l
0 1 l
1 0 l
0 0 l
0 1 l
0 0 l
0 0 l
1 1 l
0 0 l
0 1 l
0 0 l
0 0 l
0 1 l
1 0 l
0 0 l
0 1 l
0 0 l
0 1 l
0 0 l
1 0 l
0 1 l
0 0 l
0 1 l
0 0 l
0 0 l
1 1 l
0 0 l
0 0 l
0 1 l
0 0 l
1 0 l
0 1 l
0 0 l
0 1 l
0 0 l
0 0 l
1 1 l
0 0 l
0 0 l
0 0 l
0 1 l
0 0 l
1 0 l
0 1 l
0 0 l
0 0 l
0 0 l
1 1 l
0 0 l
0 0 l
0 0 l
0 1 l
0 0 l
1 0 l
0 0 l
0 0 l
0 0 l
0 1 l
0 0 l
1 0 l
0 0 l
0 0 l
0 0 l
0 0 l
0 0 l
1 0 l
0 0 l
0 0 l
0 0 l
0 0 l
1 0 l
0 0 l
0 0 l
0 0 l
0 0 l
0 0 l
1 0 l
0 0 l
0 0 l
0 0 l
0 0 l
0 -1 l
1 0 l
0 0 l
0 0 l
0 0 l
0 0 l
0 -1 l
1 0 l
0 0 l
0 0 l
0 -1 l
0 0 l
1 0 l
0 0 l
0 -1 l
0 0 l
0 0 l
0 0 l
1 -1 l
0 0 l
0 0 l
0 -1 l
0 0 l
0 0 l
1 -1 l
0 0 l
0 0 l
0 -1 l
0 0 l
0 -1 l
1 0 l
0 0 l
0 -1 l
0 0 l
0 0 l
1 -1 l
0 0 l
0 -1 l
0 0 l
0 0 l
0 -1 l
1 0 l
0 0 l
0 -1 l
0 0 l
0 -1 l
0 0 l
1 0 l
0 -1 l
0 0 l
0 0 l
0 -1 l
0 0 l
1 0 l
0 -1 l
0 0 l
0 -1 l
0 0 l
1 0 l
0 0 l
0 -1 l
0 0 l
0 0 l
0 -1 l
1 0 l
0 0 l
0 0 l
0 -1 l
0 0 l
0 0 l
1 0 l
0 -1 l
0 0 l
0 0 l
0 0 l
1 0 l
0 0 l
0 -1 l
0 0 l
0 0 l
0 0 l
1 0 l
0 0 l
0 0 l
0 0 l
0 0 l
0 0 l
1 0 l
0 0 l
0 0 l
0 0 l
0 0 l
1 0 l
0 0 l
0 0 l
0 0 l
0 0 l
0 0 l
1 0 l
0 1 l
0 0 l
0 0 l
0 0 l
0 0 l
1 0 l
0 1 l
0 0 l
0 0 l
0 0 l
0 1 l
1 0 l
CS M
0 0 l
0 1 l
0 0 l
0 0 l
1 1 l
0 0 l
0 0 l
0 1 l
0 0 l
0 1 l
1 0 l
0 0 l
0 1 l
0 0 l
0 1 l
0 0 l
1 0 l
0 1 l
0 0 l
0 1 l
0 0 l
0 1 l
1 0 l
0 1 l
0 0 l
0 1 l
0 0 l
1 1 l
0 1 l
0 0 l
0 1 l
0 0 l
0 1 l
1 0 l
0 1 l
0 0 l
0 1 l
0 0 l
0 1 l
1 0 l
0 1 l
0 1 l
0 0 l
0 1 l
0 0 l
1 1 l
0 0 l
0 1 l
0 0 l
0 1 l
1 0 l
0 1 l
0 0 l
0 1 l
0 1 l
0 0 l
1 1 l
0 0 l
0 1 l
0 0 l
0 1 l
0 0 l
1 0 l
0 1 l
0 0 l
0 1 l
0 0 l
0 1 l
1 0 l
0 1 l
0 0 l
0 0 l
0 1 l
1 0 l
0 0 l
0 1 l
0 0 l
0 1 l
0 0 l
1 0 l
0 0 l
0 1 l
0 0 l
0 0 l
0 1 l
1 0 l
0 0 l
0 0 l
0 1 l
0 0 l
0 0 l
1 0 l
0 0 l
0 1 l
0 0 l
0 0 l
1 0 l
0 0 l
0 0 l
0 1 l
0 0 l
0 0 l
1 0 l
0 0 l
0 0 l
0 0 l
0 0 l
0 0 l
1 0 l
0 0 l
0 0 l
0 0 l
0 0 l
1 0 l
0 0 l
0 0 l
0 0 l
0 0 l
0 0 l
1 0 l
0 0 l
0 0 l
0 0 l
0 0 l
0 0 l
1 0 l
0 0 l
0 -1 l
0 0 l
0 0 l
1 0 l
0 0 l
0 0 l
0 0 l
0 0 l
0 -1 l
1 0 l
0 0 l
0 0 l
0 0 l
0 0 l
0 0 l
1 0 l
0 -1 l
0 0 l
0 0 l
0 0 l
0 0 l
1 0 l
0 0 l
0 -1 l
0 0 l
0 0 l
1 0 l
0 0 l
0 0 l
0 0 l
0 0 l
0 -1 l
1 0 l
0 0 l
0 0 l
0 0 l
0 0 l
0 0 l
1 0 l
0 0 l
0 0 l
0 0 l
0 0 l
1 0 l
0 0 l
0 0 l
0 0 l
0 0 l
0 0 l
1 0 l
0 0 l
0 0 l
0 0 l
0 0 l
0 0 l
1 0 l
0 0 l
0 0 l
0 0 l
0 0 l
0 1 l
1 0 l
0 0 l
0 0 l
0 0 l
0 0 l
1 1 l
0 0 l
0 0 l
0 0 l
0 0 l
0 1 l
1 0 l
0 0 l
0 0 l
0 1 l
0 0 l
0 0 l
1 1 l
0 0 l
0 0 l
0 1 l
0 0 l
0 0 l
1 1 l
0 0 l
0 1 l
0 0 l
0 0 l
1 1 l
0 0 l
0 1 l
0 0 l
0 1 l
0 0 l
1 1 l
0 0 l
0 1 l
0 0 l
0 1 l
0 0 l
1 1 l
0 0 l
0 1 l
0 0 l
0 1 l
0 0 l
1 1 l
0 0 l
0 1 l
0 1 l
0 0 l
1 1 l
0 0 l
0 1 l
0 1 l
0 0 l
0 1 l
1 0 l
0 1 l
0 1 l
0 0 l
0 1 l
0 0 l
1 1 l
0 1 l
0 0 l
0 1 l
0 0 l
0 1 l
1 1 l
0 0 l
0 1 l
0 0 l
0 1 l
1 1 l
0 0 l
0 1 l
0 0 l
0 1 l
0 0 l
1 1 l
0 1 l
0 0 l
0 1 l
0 0 l
0 1 l
1 0 l
0 1 l
0 0 l
0 1 l
0 0 l
0 1 l
1 0 l
0 1 l
0 0 l
0 1 l
0 0 l
1 1 l
0 0 l
0 1 l
0 0 l
0 1 l
0 0 l
1 1 l
0 0 l
0 0 l
0 1 l
0 0 l
0 1 l
1 0 l
0 0 l
0 1 l
CS M
0 0 l
0 0 l
1 1 l
0 0 l
0 0 l
0 1 l
0 0 l
0 0 l
1 0 l
0 1 l
0 0 l
0 0 l
0 0 l
0 1 l
1 0 l
0 0 l
0 0 l
0 0 l
0 1 l
1 0 l
0 0 l
0 0 l
0 0 l
0 0 l
0 0 l
1 1 l
0 0 l
0 0 l
0 0 l
0 0 l
0 0 l
1 0 l
0 0 l
0 0 l
0 0 l
0 0 l
0 1 l
1 0 l
0 0 l
0 0 l
0 0 l
0 0 l
1 0 l
0 0 l
0 0 l
0 0 l
0 0 l
0 0 l
1 0 l
0 0 l
0 0 l
0 0 l
0 0 l
0 0 l
1 0 l
0 0 l
0 0 l
0 0 l
0 0 l
0 0 l
1 0 l
0 0 l
0 0 l
0 -1 l
0 0 l
1 0 l
0 0 l
0 0 l
0 0 l
0 0 l
0 0 l
1 0 l
0 0 l
0 0 l
0 0 l
0 0 l
0 0 l
1 0 l
0 0 l
0 1 l
0 0 l
0 0 l
0 0 l
1 0 l
0 0 l
0 0 l
0 0 l
0 0 l
1 0 l
0 0 l
0 0 l
0 0 l
0 0 l
0 0 l
1 1 l
0 0 l
0 0 l
0 0 l
0 0 l
0 0 l
1 0 l
0 1 l
0 0 l
0 0 l
0 0 l
0 0 l
1 1 l
0 0 l
0 0 l
0 0 l
0 1 l
1 0 l
0 0 l
0 0 l
0 1 l
0 0 l
0 0 l
1 1 l
0 0 l
0 0 l
0 1 l
0 0 l
0 0 l
1 1 l
0 0 l
0 0 l
0 1 l
0 0 l
1 1 l
0 0 l
0 0 l
0 1 l
0 0 l
0 1 l
1 0 l
0 1 l
0 0 l
0 1 l
0 0 l
0 0 l
1 1 l
0 0 l
0 1 l
0 0 l
0 1 l
0 0 l
1 1 l
0 0 l
0 1 l
0 0 l
0 1 l
1 1 l
0 0 l
0 1 l
0 0 l
0 1 l
0 0 l
1 1 l
0 0 l
0 1 l
0 1 l
0 0 l
0 1 l
1 0 l
0 1 l
0 0 l
0 1 l
0 0 l
1 1 l
0 1 l
0 0 l
0 1 l
0 0 l
0 1 l
1 0 l
0 1 l
0 0 l
0 1 l
0 1 l
0 0 l
1 1 l
0 0 l
0 1 l
0 0 l
0 1 l
0 0 l
1 1 l
0 0 l
0 1 l
0 0 l
0 1 l
1 0 l
0 1 l
0 0 l
0 1 l
0 0 l
0 1 l
1 0 l
0 1 l
0 0 l
0 1 l
0 0 l
0 0 l
1 1 l
0 0 l
0 1 l
0 0 l
0 0 l
1 1 l
0 0 l
0 1 l
0 0 l
0 0 l
0 1 l
1 0 l
0 0 l
0 1 l
0 0 l
0 0 l
0 1 l
1 0 l
0 0 l
0 0 l
0 1 l
0 0 l
0 0 l
1 0 l
0 1 l
0 0 l
0 0 l
0 0 l
1 0 l
0 1 l
0 0 l
0 0 l
0 0 l
0 0 l
1 0 l
0 1 l
0 0 l
0 0 l
0 0 l
0 0 l
1 0 l
0 0 l
0 1 l
0 0 l
0 0 l
0 0 l
1 0 l
0 0 l
0 0 l
0 0 l
0 0 l
1 0 l
0 0 l
0 0 l
0 0 l
0 0 l
0 0 l
1 0 l
0 0 l
0 1 l
0 0 l
0 0 l
0 0 l
1 0 l
0 0 l
0 0 l
0 0 l
0 0 l
0 0 l
1 0 l
0 0 l
0 0 l
0 0 l
0 0 l
1 0 l
0 0 l
0 0 l
0 0 l
0 0 l
0 0 l
1 0 l
0 0 l
0 0 l
0 0 l
0 0 l
0 0 l
1 0 l
0 0 l
0 0 l
0 0 l
0 0 l
0 0 l
1 0 l
0 0 l
0 0 l
0 0 l
0 0 l
CS M
1 0 l
0 0 l
0 0 l
0 0 l
0 0 l
0 0 l
1 0 l
0 0 l
0 1 l
0 0 l
0 0 l
0 0 l
1 0 l
0 0 l
0 0 l
0 0 l
0 0 l
0 1 l
1 0 l
0 0 l
0 0 l
0 0 l
0 0 l
1 1 l
0 0 l
0 0 l
0 0 l
0 0 l
0 1 l
1 0 l
0 0 l
0 0 l
0 1 l
0 0 l
0 0 l
1 0 l
0 1 l
0 0 l
0 0 l
0 1 l
1 0 l
0 0 l
0 1 l
0 0 l
0 0 l
0 1 l
1 0 l
0 0 l
0 1 l
0 0 l
0 0 l
0 1 l
1 0 l
0 0 l
0 1 l
0 0 l
0 1 l
1 0 l
0 0 l
0 1 l
0 0 l
0 1 l
0 0 l
1 0 l
0 1 l
0 0 l
0 1 l
0 0 l
0 1 l
1 0 l
0 1 l
0 0 l
0 0 l
0 1 l
0 0 l
1 1 l
0 0 l
0 1 l
0 0 l
0 1 l
1 0 l
0 1 l
0 0 l
0 0 l
0 1 l
0 0 l
1 1 l
0 0 l
0 1 l
0 0 l
0 1 l
0 0 l
1 1 l
0 0 l
0 0 l
0 1 l
0 0 l
0 1 l
1 0 l
0 1 l
0 0 l
0 0 l
0 1 l
1 0 l
0 1 l
0 0 l
0 1 l
0 0 l
0 0 l
1 1 l
0 0 l
0 1 l
0 0 l
0 0 l
0 1 l
1 0 l
0 0 l
0 1 l
0 0 l
0 0 l
0 1 l
1 0 l
0 0 l
0 1 l
0 0 l
0 0 l
1 1 l
0 0 l
0 0 l
0 0 l
0 1 l
0 0 l
1 0 l
0 0 l
0 1 l
0 0 l
0 0 l
0 0 l
1 1 l
0 0 l
0 0 l
0 0 l
0 0 l
0 0 l
1 1 l
0 0 l
0 0 l
0 0 l
0 0 l
1 0 l
0 0 l
0 1 l
0 0 l
0 0 l
0 0 l
1 0 l
0 0 l
0 0 l
0 0 l
0 0 l
0 0 l
1 0 l
0 0 l
0 1 l
0 0 l
0 0 l
1 0 l
0 0 l
0 0 l
0 0 l
0 0 l
0 0 l
1 0 l
0 0 l
0 0 l
0 0 l
0 0 l
0 0 l
1 0 l
0 0 l
0 0 l
0 0 l
0 0 l
1 0 l
0 0 l
0 0 l
0 -1 l
0 0 l
0 0 l
1 0 l
0 0 l
0 0 l
0 0 l
0 0 l
0 0 l
1 0 l
0 0 l
0 0 l
0 0 l
0 0 l
0 0 l
1 0 l
0 0 l
0 0 l
0 0 l
0 0 l
1 0 l
0 0 l
0 0 l
0 0 l
0 0 l
0 0 l
1 0 l
0 0 l
0 0 l
0 0 l
0 0 l
0 0 l
1 0 l
0 0 l
0 0 l
0 0 l
0 0 l
1 0 l
0 0 l
0 0 l
0 0 l
0 0 l
0 0 l
1 0 l
0 0 l
0 0 l
0 0 l
0 0 l
0 0 l
1 0 l
0 0 l
0 0 l
0 1 l
0 0 l
0 0 l
1 0 l
0 0 l
0 0 l
0 0 l
0 0 l
1 0 l
0 1 l
0 0 l
0 0 l
0 0 l
0 0 l
1 0 l
0 1 l
0 0 l
0 0 l
0 0 l
0 0 l
1 1 l
0 0 l
0 0 l
0 0 l
0 1 l
1 0 l
0 0 l
0 0 l
0 0 l
0 1 l
0 0 l
1 0 l
0 1 l
0 0 l
0 0 l
0 0 l
0 1 l
1 0 l
0 0 l
0 1 l
0 0 l
0 0 l
0 0 l
1 1 l
0 0 l
0 0 l
0 1 l
0 0 l
1 0 l
0 1 l
0 0 l
0 0 l
0 1 l
0 0 l
1 0 l
0 1 l
0 0 l
0 0 l
0 1 l
0 0 l
1 0 l
0 1 l
CS M
0 0 l
0 0 l
0 1 l
0 0 l
1 0 l
0 1 l
0 0 l
0 0 l
0 1 l
1 0 l
0 0 l
0 1 l
0 0 l
0 0 l
0 1 l
1 0 l
0 0 l
0 0 l
0 1 l
0 0 l
0 0 l
1 1 l
0 0 l
0 0 l
0 0 l
0 1 l
0 0 l
1 0 l
0 1 l
0 0 l
0 0 l
0 0 l
1 1 l
0 0 l
0 0 l
0 0 l
0 0 l
0 1 l
1 0 l
0 0 l
0 0 l
0 1 l
0 0 l
0 0 l
1 0 l
0 0 l
0 0 l
0 1 l
0 0 l
0 0 l
1 0 l
0 0 l
0 0 l
0 0 l
0 1 l
1 0 l
0 0 l
0 0 l
0 0 l
0 0 l
0 0 l
1 0 l
0 0 l
0 0 l
0 0 l
0 1 l
0 0 l
1 0 l
0 0 l
0 0 l
0 0 l
0 0 l
1 0 l
0 0 l
0 0 l
0 0 l
0 0 l
0 0 l
1 0 l
0 0 l
0 0 l
0 0 l
0 0 l
0 0 l
1 0 l
0 0 l
0 0 l
0 -1 l
0 0 l
0 0 l
1 0 l
0 0 l
0 0 l
0 0 l
0 0 l
1 0 l
0 0 l
0 0 l
0 0 l
0 0 l
0 0 l
1 -1 l
0 0 l
0 0 l
0 0 l
0 0 l
0 0 l
1 0 l
0 0 l
0 0 l
0 0 l
0 -1 l
1 0 l
0 0 l
0 0 l
0 0 l
0 0 l
0 0 l
1 0 l
0 0 l
0 0 l
0 -1 l
0 0 l
0 0 l
1 0 l
0 0 l
0 0 l
0 0 l
0 0 l
0 0 l
1 0 l
0 -1 l
0 0 l
0 0 l
0 0 l
1 0 l
0 0 l
0 0 l
0 0 l
0 0 l
0 0 l
1 0 l
0 0 l
0 0 l
0 0 l
0 0 l
0 0 l
1 0 l
0 0 l
0 0 l
0 0 l
0 0 l
0 0 l
1 0 l
0 0 l
0 0 l
0 0 l
0 0 l
1 0 l
0 0 l
0 0 l
0 0 l
0 0 l
0 0 l
1 0 l
0 0 l
0 0 l
0 0 l
0 0 l
0 0 l
1 0 l
0 0 l
0 1 l
0 0 l
0 0 l
0 0 l
1 0 l
0 0 l
0 0 l
0 0 l
0 0 l
1 1 l
0 0 l
0 0 l
0 0 l
0 0 l
0 0 l
1 0 l
0 1 l
0 0 l
0 0 l
0 0 l
0 0 l
1 0 l
0 1 l
0 0 l
0 0 l
0 0 l
0 0 l
1 1 l
0 0 l
0 0 l
0 0 l
0 0 l
1 1 l
0 0 l
0 0 l
0 0 l
0 0 l
0 1 l
1 0 l
0 0 l
0 0 l
0 0 l
0 1 l
0 0 l
1 0 l
0 0 l
0 1 l
0 0 l
0 0 l
1 0 l
0 0 l
0 1 l
0 0 l
0 0 l
0 0 l
1 0 l
0 1 l
0 0 l
0 0 l
0 0 l
0 0 l
1 1 l
0 0 l
0 0 l
0 0 l
0 0 l
0 0 l
1 1 l
0 0 l
0 0 l
0 0 l
0 0 l
1 0 l
0 1 l
0 0 l
0 0 l
0 0 l
0 0 l
1 0 l
0 0 l
0 1 l
0 0 l
0 0 l
0 0 l
1 0 l
0 0 l
0 0 l
0 0 l
0 0 l
1 1 l
0 0 l
0 0 l
0 0 l
0 0 l
0 0 l
1 0 l
0 0 l
0 0 l
0 0 l
0 0 l
0 0 l
1 0 l
0 0 l
0 0 l
0 0 l
0 0 l
0 0 l
1 0 l
0 0 l
0 0 l
0 0 l
0 0 l
1 0 l
0 0 l
0 0 l
0 0 l
0 0 l
0 0 l
1 0 l
0 0 l
0 0 l
0 0 l
0 -1 l
0 0 l
1 0 l
0 0 l
0 0 l
0 0 l
CS M
0 0 l
1 0 l
0 0 l
0 0 l
0 -1 l
0 0 l
0 0 l
1 0 l
0 0 l
0 0 l
0 0 l
0 0 l
0 -1 l
1 0 l
0 0 l
0 0 l
0 0 l
0 0 l
0 0 l
1 -1 l
0 0 l
0 0 l
0 0 l
0 0 l
1 0 l
0 0 l
0 -1 l
0 0 l
0 0 l
0 0 l
1 0 l
0 0 l
0 -1 l
0 0 l
0 0 l
0 0 l
1 0 l
0 0 l
0 -1 l
0 0 l
0 0 l
0 0 l
1 0 l
0 0 l
0 0 l
0 -1 l
0 0 l
1 0 l
0 0 l
0 0 l
0 0 l
0 0 l
0 -1 l
1 0 l
0 0 l
0 0 l
0 0 l
0 0 l
0 0 l
1 0 l
0 -1 l
0 0 l
0 0 l
0 0 l
0 0 l
1 0 l
0 0 l
0 0 l
0 0 l
0 0 l
1 0 l
0 0 l
0 0 l
0 -1 l
0 0 l
0 0 l
1 0 l
0 0 l
0 0 l
0 0 l
0 0 l
0 0 l
1 0 l
0 0 l
0 0 l
0 0 l
0 0 l
0 0 l
1 0 l
0 0 l
0 0 l
0 0 l
0 0 l
1 0 l
0 0 l
0 0 l
0 0 l
0 0 l
0 0 l
1 0 l
0 0 l
0 0 l
0 0 l
0 1 l
0 0 l
1 0 l
0 0 l
0 0 l
0 0 l
0 0 l
1 0 l
0 0 l
0 0 l
0 0 l
0 0 l
0 0 l
1 1 l
0 0 l
0 0 l
0 0 l
0 0 l
0 0 l
1 0 l
0 0 l
0 0 l
0 0 l
0 0 l
1 1 l
0 0 l
0 0 l
0 0 l
0 0 l
0 0 l
1 0 l
0 0 l
0 1 l
0 0 l
0 0 l
0 0 l
1 0 l
0 0 l
0 0 l
0 0 l
0 0 l
0 0 l
1 1 l
0 0 l
0 0 l
0 0 l
0 0 l
1 0 l
0 0 l
0 0 l
0 0 l
0 0 l
0 0 l
1 1 l
0 0 l
0 0 l
0 0 l
0 0 l
0 0 l
1 0 l
0 0 l
0 0 l
0 0 l
0 0 l
0 0 l
1 0 l
0 0 l
0 0 l
0 0 l
0 1 l
1 0 l
0 0 l
0 0 l
0 0 l
0 0 l
0 0 l
1 0 l
0 0 l
0 0 l
0 0 l
0 0 l
0 0 l
1 0 l
0 0 l
0 -1 l
0 0 l
0 0 l
0 0 l
1 0 l
0 0 l
0 0 l
0 0 l
0 0 l
1 0 l
0 0 l
0 0 l
0 0 l
0 0 l
0 0 l
1 -1 l
0 0 l
0 0 l
0 0 l
0 0 l
0 0 l
1 0 l
0 0 l
0 0 l
0 -1 l
0 0 l
0 0 l
1 0 l
0 0 l
0 0 l
0 0 l
0 -1 l
1 0 l
0 0 l
0 0 l
0 0 l
0 0 l
0 -1 l
1 0 l
0 0 l
0 0 l
0 0 l
0 0 l
0 -1 l
1 0 l
0 0 l
0 0 l
0 0 l
0 0 l
1 -1 l
0 0 l
0 0 l
0 0 l
0 0 l
0 -1 l
1 0 l
0 0 l
0 0 l
0 0 l
0 -1 l
0 0 l
1 0 l
0 0 l
0 0 l
0 -1 l
0 0 l
0 0 l
1 0 l
0 0 l
0 -1 l
0 0 l
0 0 l
1 0 l
0 0 l
0 -1 l
0 0 l
0 0 l
0 0 l
1 0 l
0 0 l
0 -1 l
0 0 l
0 0 l
0 0 l
1 0 l
0 0 l
0 -1 l
0 0 l
0 0 l
1 0 l
0 0 l
0 0 l
0 -1 l
0 0 l
0 0 l
1 0 l
0 0 l
0 0 l
0 0 l
0 0 l
0 -1 l
1 0 l
0 0 l
0 0 l
0 0 l
0 0 l
0 0 l
1 0 l
0 0 l
0 0 l
0 -1 l
0 0 l
1 0 l
CS M
0 0 l
0 0 l
0 0 l
0 0 l
0 0 l
1 0 l
0 0 l
0 0 l
0 0 l
0 0 l
0 0 l
1 0 l
0 0 l
0 0 l
0 0 l
0 0 l
1 0 l
0 0 l
0 0 l
0 0 l
0 0 l
0 0 l
1 0 l
0 0 l
0 0 l
0 0 l
0 0 l
0 0 l
1 0 l
0 0 l
0 0 l
0 0 l
0 0 l
0 0 l
1 0 l
0 0 l
0 0 l
0 0 l
0 0 l
1 0 l
0 0 l
0 0 l
0 0 l
0 0 l
0 0 l
1 0 l
0 0 l
0 0 l
0 0 l
0 0 l
0 0 l
1 0 l
0 0 l
0 0 l
0 0 l
0 0 l
0 0 l
1 1 l
0 0 l
0 0 l
0 0 l
0 0 l
1 0 l
0 0 l
0 0 l
0 0 l
0 0 l
0 0 l
1 0 l
0 0 l
0 0 l
0 0 l
0 0 l
0 0 l
1 0 l
0 0 l
0 0 l
0 0 l
0 0 l
0 0 l
1 0 l
0 0 l
0 0 l
0 0 l
0 0 l
1 0 l
0 0 l
0 0 l
0 0 l
0 0 l
0 0 l
1 0 l
0 0 l
0 0 l
0 0 l
0 0 l
0 0 l
1 0 l
0 0 l
0 0 l
0 0 l
0 -1 l
0 0 l
1 0 l
0 0 l
0 0 l
0 0 l
0 0 l
1 0 l
0 0 l
0 0 l
0 0 l
0 0 l
0 -1 l
1 0 l
0 0 l
0 0 l
0 0 l
0 0 l
0 0 l
1 0 l
0 -1 l
0 0 l
0 0 l
0 0 l
0 0 l
1 0 l
0 0 l
0 -1 l
0 0 l
0 0 l
1 0 l
0 0 l
0 0 l
0 0 l
0 -1 l
0 0 l
1 0 l
0 0 l
0 0 l
0 -1 l
0 0 l
0 0 l
1 0 l
0 0 l
0 -1 l
0 0 l
0 0 l
1 0 l
0 0 l
0 0 l
0 -1 l
0 0 l
0 0 l
1 0 l
0 -1 l
0 0 l
0 0 l
0 0 l
0 0 l
1 -1 l
0 0 l
0 0 l
0 0 l
0 0 l
1 -1 l
0 0 l
0 0 l
0 0 l
0 0 l
0 -1 l
1 0 l
0 0 l
0 0 l
0 0 l
0 -1 l
0 0 l
1 0 l
0 0 l
0 0 l
0 -1 l
0 0 l
0 0 l
1 0 l
0 0 l
0 -1 l
0 0 l
0 0 l
1 0 l
0 0 l
0 0 l
0 -1 l
0 0 l
0 0 l
1 0 l
0 0 l
0 0 l
0 -1 l
0 0 l
0 0 l
1 0 l
0 0 l
0 0 l
0 0 l
0 -1 l
0 0 l
1 0 l
0 0 l
0 0 l
0 0 l
0 0 l
1 0 l
0 -1 l
0 0 l
0 0 l
0 0 l
0 0 l
1 0 l
0 0 l
0 0 l
0 0 l
0 -1 l
0 0 l
1 0 l
0 0 l
0 0 l
0 0 l
0 0 l
0 0 l
1 0 l
0 0 l
0 0 l
0 0 l
0 0 l
1 0 l
0 0 l
0 0 l
0 0 l
0 0 l
0 0 l
1 -1 l
0 0 l
0 0 l
0 0 l
0 0 l
0 0 l
1 0 l
0 0 l
0 0 l
0 0 l
0 0 l
0 0 l
1 0 l
0 0 l
0 0 l
0 0 l
0 0 l
1 0 l
0 0 l
0 0 l
0 0 l
0 0 l
0 0 l
1 0 l
0 0 l
0 0 l
0 0 l
0 0 l
0 0 l
1 0 l
0 0 l
0 0 l
0 0 l
0 0 l
1 0 l
0 0 l
0 0 l
0 0 l
0 0 l
0 0 l
1 0 l
0 0 l
0 0 l
0 0 l
0 0 l
0 0 l
1 0 l
0 0 l
0 0 l
0 0 l
0 0 l
0 0 l
1 0 l
0 0 l
0 0 l
0 0 l
0 0 l
1 0 l
0 0 l
0 0 l
CS M
0 0 l
0 0 l
0 0 l
1 0 l
0 0 l
0 0 l
0 0 l
0 0 l
0 0 l
1 0 l
0 0 l
0 0 l
0 0 l
0 0 l
1 -1 l
0 0 l
0 0 l
0 0 l
0 0 l
0 0 l
1 0 l
0 0 l
0 0 l
0 0 l
0 0 l
0 0 l
1 -1 l
0 0 l
0 0 l
0 0 l
0 0 l
1 0 l
0 0 l
0 0 l
0 0 l
0 -1 l
0 0 l
1 0 l
0 0 l
0 0 l
0 0 l
0 0 l
0 -1 l
1 0 l
0 0 l
0 0 l
0 0 l
0 0 l
0 0 l
1 -1 l
0 0 l
0 0 l
0 0 l
0 0 l
1 0 l
0 -1 l
0 0 l
0 0 l
0 0 l
0 0 l
1 0 l
0 -1 l
0 0 l
0 0 l
0 0 l
0 0 l
1 -1 l
0 0 l
0 0 l
0 0 l
0 0 l
0 -1 l
1 0 l
0 0 l
0 0 l
0 0 l
0 -1 l
1 0 l
0 0 l
0 0 l
0 0 l
0 0 l
0 -1 l
1 0 l
0 0 l
0 0 l
0 0 l
0 -1 l
0 0 l
1 0 l
0 0 l
0 0 l
0 -1 l
0 0 l
0 0 l
1 0 l
0 0 l
0 0 l
0 -1 l
0 0 l
1 0 l
0 0 l
0 0 l
0 0 l
0 -1 l
0 0 l
1 0 l
0 0 l
0 0 l
0 -1 l
0 0 l
0 0 l
1 0 l
0 0 l
0 0 l
0 0 l
0 -1 l
0 0 l
1 0 l
0 0 l
0 0 l
0 0 l
0 0 l
1 0 l
0 -1 l
0 0 l
0 0 l
0 0 l
0 0 l
1 0 l
0 0 l
0 0 l
0 0 l
0 0 l
0 -1 l
1 0 l
0 0 l
0 0 l
0 0 l
0 0 l
0 0 l
1 0 l
0 0 l
0 0 l
0 0 l
0 0 l
1 0 l
0 -1 l
0 0 l
0 0 l
0 0 l
0 0 l
1 0 l
0 0 l
0 0 l
0 0 l
0 0 l
0 0 l
1 0 l
0 0 l
0 0 l
0 0 l
0 0 l
1 0 l
0 0 l
0 0 l
0 0 l
0 0 l
0 0 l
1 0 l
0 0 l
0 0 l
0 0 l
0 0 l
0 0 l
1 0 l
0 0 l
0 0 l
0 0 l
0 0 l
0 0 l
1 0 l
0 0 l
0 0 l
0 0 l
0 0 l
1 0 l
0 0 l
0 0 l
0 0 l
0 0 l
0 0 l
1 0 l
0 0 l
0 0 l
0 0 l
0 0 l
0 0 l
1 0 l
0 0 l
0 0 l
0 0 l
0 0 l
1 0 l
0 0 l
0 0 l
0 0 l
0 0 l
0 0 l
1 0 l
0 0 l
0 0 l
0 0 l
0 0 l
0 0 l
1 0 l
0 0 l
0 -1 l
0 0 l
0 0 l
0 0 l
1 0 l
0 0 l
0 0 l
0 0 l
0 0 l
1 0 l
0 0 l
0 0 l
0 0 l
0 0 l
0 0 l
1 0 l
0 0 l
0 0 l
0 0 l
0 0 l
0 0 l
1 -1 l
0 0 l
0 0 l
0 0 l
0 0 l
0 0 l
1 0 l
0 0 l
0 0 l
0 0 l
0 0 l
1 -1 l
0 0 l
0 0 l
0 0 l
0 0 l
0 0 l
1 0 l
0 0 l
0 0 l
0 -1 l
0 0 l
0 0 l
1 0 l
0 0 l
0 0 l
0 0 l
0 0 l
0 -1 l
1 0 l
0 0 l
0 0 l
0 0 l
0 0 l
1 0 l
0 -1 l
0 0 l
0 0 l
0 0 l
0 0 l
1 0 l
0 0 l
0 -1 l
0 0 l
0 0 l
0 0 l
1 0 l
0 0 l
0 -1 l
0 0 l
0 0 l
1 0 l
0 0 l
0 0 l
0 0 l
0 -1 l
0 0 l
1 0 l
0 0 l
0 0 l
0 0 l
0 -1 l
CS M
0 0 l
1 0 l
0 0 l
0 0 l
0 0 l
0 -1 l
0 0 l
1 0 l
0 0 l
0 0 l
0 0 l
0 0 l
1 -1 l
0 0 l
0 0 l
0 0 l
0 0 l
0 0 l
1 0 l
0 -1 l
0 0 l
0 0 l
0 0 l
0 0 l
1 0 l
0 0 l
0 0 l
0 -1 l
0 0 l
1 0 l
0 0 l
0 0 l
0 0 l
0 0 l
0 0 l
1 0 l
0 -1 l
0 0 l
0 0 l
0 0 l
0 0 l
1 0 l
0 0 l
0 0 l
0 0 l
0 0 l
0 0 l
1 0 l
0 -1 l
0 0 l
0 0 l
0 0 l
1 0 l
0 0 l
0 0 l
0 0 l
0 0 l
0 0 l
1 0 l
0 0 l
0 0 l
0 0 l
0 0 l
0 0 l
1 0 l
0 0 l
0 -1 l
0 0 l
0 0 l
1 0 l
0 0 l
0 0 l
0 0 l
0 0 l
0 0 l
1 0 l
0 0 l
0 0 l
0 0 l
0 0 l
0 0 l
1 0 l
0 0 l
0 0 l
0 0 l
0 0 l
0 0 l
1 0 l
0 0 l
0 0 l
0 0 l
0 0 l
1 0 l
0 0 l
0 0 l
0 0 l
0 0 l
0 0 l
1 0 l
0 0 l
0 0 l
0 0 l
0 0 l
0 0 l
1 0 l
0 0 l
0 0 l
0 1 l
0 0 l
0 0 l
1 0 l
0 0 l
0 0 l
0 0 l
0 0 l
1 0 l
0 0 l
0 0 l
0 0 l
0 0 l
0 0 l
1 0 l
0 0 l
0 0 l
0 0 l
0 0 l
0 0 l
1 0 l
0 0 l
0 0 l
0 0 l
0 0 l
0 0 l
1 0 l
0 0 l
0 0 l
0 0 l
0 0 l
1 0 l
0 0 l
0 0 l
0 0 l
0 0 l
0 0 l
1 -1 l
0 0 l
0 0 l
0 0 l
0 0 l
0 0 l
1 0 l
0 0 l
0 0 l
0 0 l
0 0 l
0 0 l
1 0 l
0 0 l
0 0 l
0 0 l
0 0 l
1 0 l
0 0 l
0 0 l
0 0 l
0 0 l
0 -1 l
1 0 l
0 0 l
0 0 l
0 0 l
0 0 l
0 0 l
1 0 l
0 0 l
0 0 l
0 0 l
0 0 l
0 0 l
1 -1 l
0 0 l
0 0 l
0 0 l
0 0 l
1 0 l
0 0 l
0 0 l
0 0 l
0 0 l
0 0 l
1 -1 l
0 0 l
0 0 l
0 0 l
0 0 l
0 0 l
1 0 l
0 0 l
0 -1 l
0 0 l
0 0 l
1 0 l
0 0 l
0 0 l
0 0 l
0 0 l
0 0 l
1 0 l
0 -1 l
0 0 l
0 0 l
0 0 l
0 0 l
1 0 l
0 0 l
0 0 l
0 0 l
0 -1 l
1 0 l
0 0 l
0 0 l
0 0 l
0 0 l
0 0 l
1 0 l
0 -1 l
0 0 l
0 0 l
0 0 l
0 0 l
1 0 l
0 0 l
0 0 l
0 0 l
0 0 l
0 0 l
1 -1 l
0 0 l
0 0 l
0 0 l
0 0 l
1 0 l
0 0 l
0 0 l
0 0 l
0 0 l
0 0 l
1 0 l
0 -1 l
0 0 l
0 0 l
0 0 l
0 0 l
1 0 l
0 0 l
0 0 l
0 0 l
0 0 l
0 0 l
1 0 l
0 0 l
0 0 l
0 0 l
0 0 l
1 0 l
0 0 l
0 -1 l
0 0 l
0 0 l
0 0 l
1 0 l
0 0 l
0 0 l
0 0 l
0 0 l
0 0 l
1 0 l
0 0 l
0 0 l
0 0 l
0 0 l
0 0 l
1 0 l
0 0 l
0 0 l
0 0 l
0 0 l
1 0 l
0 0 l
0 0 l
0 0 l
0 0 l
0 0 l
1 0 l
0 0 l
0 0 l
0 0 l
0 0 l
0 0 l
1 0 l
CS M
0 0 l
0 0 l
0 1 l
0 0 l
0 0 l
1 0 l
0 0 l
0 0 l
0 0 l
0 0 l
1 0 l
0 0 l
0 0 l
0 0 l
0 0 l
0 0 l
1 0 l
0 0 l
0 0 l
0 0 l
0 0 l
0 0 l
1 0 l
0 0 l
0 0 l
0 0 l
0 0 l
1 0 l
0 0 l
0 0 l
0 1 l
0 0 l
0 0 l
1 0 l
0 0 l
0 0 l
0 0 l
0 0 l
0 0 l
1 0 l
0 0 l
0 0 l
0 0 l
0 0 l
0 0 l
1 0 l
0 0 l
0 0 l
0 0 l
0 0 l
1 0 l
0 0 l
0 0 l
0 0 l
0 0 l
0 0 l
1 0 l
0 0 l
0 0 l
0 0 l
0 0 l
0 0 l
1 0 l
0 0 l
0 0 l
0 0 l
0 0 l
1 0 l
0 0 l
0 0 l
0 0 l
0 0 l
0 0 l
1 0 l
0 0 l
0 0 l
0 0 l
0 0 l
0 0 l
1 0 l
0 0 l
0 0 l
0 0 l
0 0 l
1 0 l
0 0 l
0 0 l
0 0 l
0 0 l
0 0 l
1 0 l
0 0 l
0 0 l
0 -1 l
0 0 l
0 0 l
1 0 l
0 0 l
0 0 l
0 0 l
0 0 l
0 0 l
1 0 l
0 0 l
0 0 l
0 0 l
0 0 l
1 0 l
0 0 l
0 0 l
0 -1 l
0 0 l
0 0 l
1 0 l
0 0 l
0 0 l
0 0 l
0 0 l
0 0 l
1 0 l
0 0 l
0 0 l
0 0 l
0 0 l
0 0 l
1 -1 l
0 0 l
0 0 l
0 0 l
0 0 l
1 0 l
0 0 l
0 0 l
0 0 l
0 0 l
0 0 l
1 0 l
0 0 l
0 0 l
0 0 l
0 -1 l
0 0 l
1 0 l
0 0 l
0 0 l
0 0 l
0 0 l
0 0 l
1 0 l
0 0 l
0 0 l
0 0 l
0 0 l
1 0 l
0 0 l
0 0 l
0 0 l
0 0 l
0 0 l
1 0 l
0 -1 l
0 0 l
0 0 l
0 0 l
0 0 l
1 0 l
0 0 l
0 0 l
0 0 l
0 0 l
0 0 l
1 0 l
0 0 l
0 0 l
0 0 l
0 0 l
1 0 l
0 0 l
0 0 l
0 0 l
0 0 l
0 0 l
1 0 l
0 0 l
0 0 l
0 0 l
0 0 l
0 0 l
1 0 l
0 0 l
0 0 l
0 0 l
0 0 l
0 0 l
1 0 l
0 0 l
0 0 l
0 0 l
0 0 l
1 0 l
0 0 l
0 0 l
0 0 l
0 0 l
0 0 l
1 0 l
0 0 l
0 1 l
0 0 l
0 0 l
0 0 l
1 0 l
0 0 l
0 0 l
0 0 l
0 0 l
0 0 l
1 0 l
0 0 l
0 0 l
0 0 l
0 0 l
1 0 l
0 0 l
0 0 l
0 0 l
0 0 l
0 0 l
1 1 l
0 0 l
0 0 l
0 0 l
0 0 l
0 0 l
1 0 l
0 0 l
0 0 l
0 0 l
0 0 l
1 0 l
0 0 l
0 0 l
0 0 l
0 0 l
0 0 l
1 1 l
0 0 l
0 0 l
0 0 l
0 0 l
0 0 l
1 0 l
0 0 l
0 0 l
0 0 l
0 0 l
1 0 l
0 0 l
0 0 l
0 0 l
0 0 l
0 0 l
1 0 l
0 0 l
0 1 l
0 0 l
0 0 l
0 0 l
1 0 l
0 0 l
0 0 l
0 0 l
0 0 l
0 0 l
1 0 l
0 0 l
0 0 l
0 0 l
0 0 l
1 0 l
0 0 l
0 0 l
0 0 l
0 0 l
0 0 l
1 0 l
0 0 l
0 0 l
0 0 l
0 0 l
0 0 l
1 0 l
0 0 l
0 0 l
0 0 l
0 0 l
0 0 l
1 0 l
0 0 l
0 0 l
CS M
0 0 l
0 0 l
1 0 l
0 0 l
0 0 l
0 0 l
0 0 l
0 0 l
1 0 l
0 0 l
0 0 l
0 0 l
0 0 l
0 0 l
1 0 l
0 0 l
0 0 l
0 0 l
0 0 l
0 0 l
1 0 l
0 0 l
0 0 l
0 0 l
0 0 l
1 0 l
0 0 l
0 0 l
0 0 l
0 0 l
0 0 l
1 0 l
0 0 l
0 0 l
0 0 l
0 0 l
0 0 l
1 -1 l
0 0 l
0 0 l
0 0 l
0 0 l
1 0 l
0 0 l
0 0 l
0 0 l
0 0 l
0 0 l
1 0 l
0 0 l
0 0 l
0 0 l
0 0 l
0 0 l
1 0 l
0 0 l
0 0 l
0 0 l
0 0 l
0 0 l
1 0 l
0 0 l
0 0 l
0 0 l
0 0 l
1 0 l
0 0 l
0 0 l
0 0 l
0 0 l
0 0 l
1 0 l
0 -1 l
0 0 l
0 0 l
0 0 l
0 0 l
1 0 l
0 0 l
0 0 l
0 0 l
0 0 l
1 0 l
0 0 l
0 0 l
0 0 l
0 0 l
0 0 l
1 0 l
0 0 l
0 0 l
0 0 l
0 0 l
0 0 l
1 1 l
0 0 l
0 0 l
0 0 l
0 0 l
0 0 l
1 0 l
0 0 l
0 0 l
0 0 l
0 0 l
1 0 l
0 0 l
0 0 l
0 0 l
0 0 l
0 0 l
1 0 l
0 0 l
0 0 l
0 0 l
0 0 l
0 0 l
1 0 l
0 0 l
0 0 l
0 0 l
0 0 l
1 1 l
0 0 l
0 0 l
0 0 l
0 0 l
0 0 l
1 0 l
0 0 l
0 0 l
0 0 l
0 0 l
0 0 l
1 0 l
0 0 l
0 0 l
0 0 l
0 1 l
0 0 l
1 0 l
0 0 l
0 0 l
0 0 l
0 0 l
1 0 l
0 0 l
0 0 l
0 0 l
0 0 l
0 0 l
1 0 l
0 1 l
0 0 l
0 0 l
0 0 l
0 0 l
1 0 l
0 0 l
0 0 l
0 0 l
0 0 l
1 0 l
0 0 l
0 0 l
0 0 l
0 1 l
0 0 l
1 0 l
0 0 l
0 0 l
0 0 l
0 0 l
0 0 l
1 0 l
0 0 l
0 0 l
0 0 l
0 0 l
0 0 l
1 0 l
0 1 l
0 0 l
0 0 l
0 0 l
1 0 l
0 0 l
0 0 l
0 0 l
0 0 l
0 0 l
1 0 l
0 0 l
0 0 l
0 0 l
0 0 l
0 0 l
1 0 l
0 0 l
0 0 l
0 0 l
0 0 l
0 0 l
1 1 l
0 0 l
0 0 l
0 0 l
0 0 l
1 0 l
0 0 l
0 0 l
0 0 l
0 0 l
0 0 l
1 0 l
0 0 l
0 0 l
0 0 l
0 0 l
0 0 l
1 0 l
0 0 l
0 0 l
0 0 l
0 0 l
0 0 l
1 0 l
0 0 l
0 0 l
0 0 l
0 0 l
1 0 l
0 0 l
0 0 l
0 0 l
0 0 l
0 0 l
1 0 l
0 0 l
0 0 l
0 0 l
0 0 l
0 0 l
1 0 l
0 0 l
0 0 l
0 0 l
0 0 l
0 0 l
1 0 l
0 0 l
0 0 l
0 0 l
0 0 l
1 0 l
0 0 l
0 0 l
0 0 l
0 0 l
0 0 l
1 0 l
0 0 l
0 0 l
0 0 l
0 0 l
0 0 l
1 0 l
0 0 l
0 0 l
0 0 l
0 0 l
0 0 l
1 0 l
0 0 l
0 0 l
0 0 l
0 0 l
1 0 l
0 0 l
0 0 l
0 0 l
0 0 l
0 0 l
1 0 l
0 0 l
0 0 l
0 0 l
0 0 l
0 0 l
1 0 l
0 0 l
0 0 l
0 0 l
0 0 l
1 0 l
0 0 l
0 0 l
0 0 l
0 0 l
0 0 l
CS M
1 0 l
0 0 l
0 0 l
0 0 l
0 0 l
0 0 l
1 0 l
0 0 l
0 0 l
0 0 l
0 0 l
1 0 l
0 0 l
0 0 l
0 0 l
0 0 l
0 0 l
1 0 l
0 0 l
0 0 l
0 0 l
0 0 l
0 0 l
1 0 l
0 0 l
0 1 l
0 0 l
0 0 l
0 0 l
1 0 l
0 0 l
0 0 l
0 0 l
0 0 l
1 0 l
0 0 l
0 0 l
0 0 l
0 0 l
0 0 l
1 0 l
0 0 l
0 1 l
0 0 l
0 0 l
0 0 l
1 0 l
0 0 l
0 0 l
0 0 l
0 0 l
0 0 l
1 0 l
0 0 l
0 0 l
0 0 l
0 0 l
1 1 l
0 0 l
0 0 l
0 0 l
0 0 l
0 0 l
1 0 l
0 0 l
0 0 l
0 0 l
0 0 l
0 0 l
1 0 l
0 0 l
0 1 l
0 0 l
0 0 l
0 0 l
1 0 l
0 0 l
0 0 l
0 0 l
0 0 l
1 0 l
0 0 l
0 0 l
0 0 l
0 0 l
0 1 l
1 0 l
0 0 l
0 0 l
0 0 l
0 0 l
0 0 l
1 0 l
0 0 l
0 0 l
0 0 l
0 0 l
0 0 l
1 0 l
0 0 l
0 1 l
0 0 l
0 0 l
1 0 l
0 0 l
0 0 l
0 0 l
0 0 l
0 0 l
1 0 l
0 0 l
0 0 l
0 0 l
0 0 l
0 0 l
1 0 l
0 0 l
0 0 l
0 0 l
0 0 l
1 0 l
0 1 l
0 0 l
0 0 l
0 0 l
0 0 l
1 0 l
0 0 l
0 0 l
0 0 l
0 0 l
0 0 l
1 0 l
0 0 l
0 0 l
0 0 l
0 0 l
1 0 l
0 0 l
0 0 l
0 0 l
0 0 l
0 0 l
1 0 l
0 0 l
0 0 l
0 0 l
0 0 l
0 0 l
1 0 l
0 0 l
0 0 l
0 0 l
0 0 l
0 0 l
1 0 l
0 0 l
0 0 l
0 0 l
0 0 l
1 0 l
0 0 l
0 0 l
0 0 l
0 0 l
0 0 l
1 0 l
0 0 l
0 0 l
0 0 l
0 0 l
0 0 l
1 0 l
0 0 l
0 0 l
0 0 l
0 0 l
1 0 l
0 0 l
0 0 l
0 0 l
0 0 l
0 0 l
1 0 l
0 0 l
0 0 l
0 0 l
0 0 l
0 0 l
1 0 l
0 0 l
0 0 l
0 0 l
0 0 l
0 0 l
1 0 l
0 0 l
0 0 l
0 0 l
0 0 l
1 0 l
0 0 l
0 0 l
0 0 l
0 0 l
0 0 l
1 0 l
0 0 l
0 0 l
0 0 l
0 0 l
0 0 l
1 0 l
0 0 l
0 0 l
0 0 l
0 0 l
0 0 l
1 0 l
0 1 l
0 0 l
0 0 l
0 0 l
1 0 l
0 0 l
0 0 l
0 0 l
0 0 l
0 0 l
1 0 l
0 0 l
0 0 l
0 0 l
0 0 l
0 0 l
1 0 l
0 0 l
0 0 l
0 0 l
0 0 l
0 0 l
1 0 l
0 0 l
0 0 l
0 0 l
0 1 l
1 0 l
0 0 l
0 0 l
0 0 l
0 0 l
0 0 l
1 0 l
0 0 l
0 0 l
0 0 l
0 0 l
0 0 l
1 0 l
0 0 l
0 0 l
0 0 l
0 0 l
0 0 l
1 1 l
0 0 l
0 0 l
0 0 l
0 0 l
1 0 l
0 0 l
0 0 l
0 0 l
0 0 l
0 0 l
1 0 l
0 0 l
0 0 l
0 0 l
0 0 l
0 1 l
1 0 l
0 0 l
0 0 l
0 0 l
0 0 l
0 0 l
1 0 l
0 0 l
0 0 l
0 0 l
0 0 l
1 0 l
0 0 l
0 0 l
0 1 l
0 0 l
0 0 l
1 0 l
0 0 l
CS M
0 0 l
0 0 l
0 0 l
0 0 l
1 0 l
0 0 l
0 0 l
0 0 l
0 0 l
1 0 l
0 0 l
0 1 l
0 0 l
0 0 l
0 0 l
1 0 l
0 0 l
0 0 l
0 0 l
0 0 l
0 0 l
1 0 l
0 0 l
0 0 l
0 0 l
0 0 l
1 0 l
0 0 l
0 0 l
0 0 l
0 0 l
0 0 l
1 0 l
0 1 l
0 0 l
0 0 l
0 0 l
0 0 l
1 0 l
0 0 l
0 0 l
0 0 l
0 0 l
0 0 l
1 0 l
0 0 l
0 0 l
0 0 l
0 0 l
1 0 l
0 0 l
0 0 l
0 0 l
0 0 l
0 0 l
1 0 l
0 0 l
0 0 l
0 0 l
0 0 l
0 0 l
1 0 l
0 0 l
0 0 l
0 0 l
0 0 l
0 0 l
1 0 l
0 0 l
0 0 l
0 0 l
0 0 l
1 0 l
0 0 l
0 0 l
0 0 l
0 0 l
0 0 l
1 0 l
0 0 l
0 0 l
0 0 l
0 0 l
0 0 l
1 0 l
0 0 l
0 0 l
0 0 l
0 0 l
0 0 l
1 0 l
0 0 l
0 0 l
0 0 l
0 0 l
1 0 l
0 0 l
0 0 l
0 0 l
0 0 l
0 0 l
1 0 l
0 0 l
0 0 l
0 0 l
0 0 l
0 0 l
1 0 l
0 0 l
0 0 l
0 0 l
0 0 l
0 0 l
1 0 l
0 0 l
0 0 l
0 0 l
0 0 l
1 0 l
0 0 l
0 0 l
0 0 l
0 0 l
0 0 l
1 0 l
0 0 l
0 0 l
0 0 l
0 0 l
0 0 l
1 0 l
0 0 l
0 0 l
0 0 l
0 1 l
1 0 l
0 0 l
0 0 l
0 0 l
0 0 l
0 0 l
1 0 l
0 0 l
0 0 l
0 0 l
0 0 l
0 0 l
1 0 l
0 0 l
0 0 l
0 0 l
0 0 l
0 0 l
1 0 l
0 0 l
0 0 l
0 0 l
0 0 l
1 0 l
0 0 l
0 0 l
0 0 l
0 0 l
0 0 l
1 0 l
0 0 l
0 0 l
0 1 l
0 0 l
0 0 l
1 0 l
0 0 l
0 0 l
0 0 l
0 0 l
1 0 l
0 0 l
0 0 l
0 0 l
0 0 l
0 0 l
1 0 l
0 0 l
0 0 l
0 0 l
0 0 l
0 0 l
1 0 l
0 1 l
0 0 l
0 0 l
0 0 l
0 0 l
1 0 l
0 0 l
0 0 l
0 0 l
0 0 l
1 0 l
0 0 l
0 0 l
0 0 l
0 0 l
0 0 l
1 0 l
0 0 l
0 0 l
0 1 l
0 0 l
0 0 l
1 0 l
0 0 l
0 0 l
0 0 l
0 0 l
1 0 l
0 0 l
0 0 l
0 0 l
0 0 l
0 0 l
1 0 l
0 0 l
0 0 l
0 0 l
0 0 l
0 0 l
1 0 l
0 0 l
0 1 l
0 0 l
0 0 l
0 0 l
1 0 l
0 0 l
0 0 l
0 0 l
0 0 l
1 0 l
0 0 l
0 0 l
0 0 l
0 0 l
0 0 l
1 0 l
0 0 l
0 0 l
0 0 l
0 0 l
0 0 l
1 0 l
0 0 l
0 0 l
0 0 l
0 0 l
0 0 l
1 0 l
0 0 l
0 0 l
0 0 l
0 1 l
1 0 l
0 0 l
0 0 l
0 0 l
0 0 l
0 0 l
1 0 l
0 0 l
0 0 l
0 0 l
0 0 l
0 0 l
1 0 l
0 0 l
0 0 l
0 0 l
0 0 l
0 0 l
1 0 l
0 0 l
0 0 l
0 0 l
0 0 l
1 0 l
0 0 l
0 0 l
0 0 l
0 0 l
0 0 l
1 0 l
0 0 l
0 0 l
0 0 l
0 0 l
0 0 l
1 0 l
0 0 l
0 0 l
0 0 l
CS M
0 0 l
0 0 l
1 0 l
0 0 l
0 0 l
0 0 l
0 0 l
1 0 l
0 0 l
0 0 l
0 0 l
0 0 l
0 0 l
1 0 l
0 0 l
0 0 l
0 0 l
0 0 l
0 0 l
1 0 l
0 0 l
0 -1 l
0 0 l
0 0 l
0 0 l
1 0 l
0 0 l
0 0 l
0 0 l
0 0 l
1 0 l
0 0 l
0 0 l
0 0 l
0 0 l
0 0 l
1 0 l
0 0 l
0 0 l
0 0 l
0 0 l
0 0 l
1 0 l
0 0 l
0 0 l
0 0 l
0 0 l
1 0 l
0 0 l
0 0 l
0 0 l
0 0 l
0 0 l
1 0 l
0 1 l
0 0 l
0 0 l
0 0 l
0 0 l
1 0 l
0 0 l
0 0 l
0 0 l
0 0 l
1 0 l
0 0 l
0 0 l
0 0 l
0 0 l
0 0 l
1 0 l
0 0 l
0 0 l
0 0 l
0 0 l
0 0 l
1 0 l
0 0 l
0 0 l
0 0 l
0 0 l
0 0 l
1 0 l
0 0 l
0 0 l
0 0 l
0 0 l
1 0 l
0 0 l
0 0 l
0 0 l
0 0 l
0 0 l
1 0 l
0 0 l
0 0 l
0 0 l
0 0 l
0 0 l
1 1 l
0 0 l
0 0 l
0 0 l
0 0 l
0 0 l
1 0 l
0 0 l
0 0 l
0 0 l
0 0 l
1 0 l
0 0 l
0 0 l
0 0 l
0 0 l
0 0 l
1 0 l
0 0 l
0 0 l
0 0 l
0 0 l
0 0 l
1 0 l
0 0 l
0 0 l
0 0 l
0 0 l
0 1 l
1 0 l
0 0 l
0 0 l
0 0 l
0 0 l
1 0 l
0 0 l
0 0 l
0 0 l
0 0 l
0 0 l
1 0 l
0 0 l
0 0 l
0 0 l
0 0 l
0 0 l
1 0 l
0 0 l
0 0 l
0 0 l
0 0 l
1 0 l
0 0 l
0 0 l
0 0 l
0 0 l
0 0 l
1 0 l
0 0 l
0 0 l
0 0 l
0 0 l
0 0 l
1 0 l
0 1 l
0 0 l
0 0 l
0 0 l
0 0 l
1 0 l
0 0 l
0 0 l
0 0 l
0 0 l
1 0 l
0 0 l
0 0 l
0 0 l
0 0 l
0 0 l
1 0 l
0 0 l
0 0 l
0 0 l
0 0 l
0 0 l
1 0 l
0 0 l
0 0 l
0 0 l
0 0 l
1 0 l
0 0 l
0 0 l
0 0 l
0 0 l
0 0 l
1 0 l
0 0 l
0 0 l
0 0 l
0 0 l
0 0 l
1 0 l
0 0 l
0 0 l
0 0 l
0 0 l
0 0 l
1 0 l
0 0 l
0 0 l
0 -1 l
0 0 l
1 0 l
0 0 l
0 0 l
0 0 l
0 0 l
0 0 l
1 0 l
0 0 l
0 0 l
0 0 l
0 0 l
0 0 l
1 0 l
0 0 l
0 0 l
0 0 l
0 0 l
1 0 l
0 0 l
0 0 l
0 0 l
0 0 l
0 0 l
1 0 l
0 0 l
0 0 l
0 0 l
0 0 l
0 0 l
1 0 l
0 0 l
0 0 l
0 0 l
0 0 l
0 0 l
1 0 l
0 0 l
0 0 l
0 0 l
0 0 l
1 0 l
0 0 l
0 0 l
0 0 l
0 0 l
0 0 l
1 0 l
0 0 l
0 0 l
0 0 l
0 0 l
0 0 l
1 0 l
0 0 l
0 0 l
0 0 l
0 0 l
0 0 l
1 0 l
0 0 l
0 0 l
0 0 l
0 0 l
1 0 l
0 0 l
0 0 l
0 0 l
0 0 l
0 0 l
1 0 l
0 0 l
0 0 l
0 0 l
0 0 l
0 0 l
1 0 l
0 0 l
0 0 l
0 0 l
0 0 l
0 0 l
1 0 l
0 0 l
0 0 l
0 0 l
0 0 l
1 0 l
CS M
0 0 l
0 0 l
0 0 l
0 0 l
0 0 l
1 0 l
0 0 l
0 0 l
0 0 l
0 0 l
0 0 l
1 0 l
0 0 l
0 0 l
0 0 l
0 0 l
0 0 l
1 0 l
0 0 l
0 0 l
0 0 l
0 0 l
1 0 l
0 0 l
0 0 l
0 0 l
0 0 l
0 1 l
1 0 l
0 0 l
0 0 l
0 0 l
0 0 l
0 0 l
1 0 l
0 0 l
0 0 l
0 0 l
0 0 l
0 0 l
1 0 l
0 0 l
0 0 l
0 0 l
0 0 l
1 0 l
0 0 l
0 0 l
0 0 l
0 0 l
0 0 l
1 0 l
0 0 l
0 0 l
0 0 l
0 0 l
0 0 l
1 0 l
0 0 l
0 0 l
0 0 l
0 0 l
0 0 l
1 0 l
0 0 l
0 0 l
0 0 l
0 0 l
1 0 l
0 0 l
0 0 l
0 0 l
0 0 l
0 0 l
1 0 l
0 0 l
0 0 l
0 0 l
0 0 l
0 0 l
1 0 l
0 0 l
0 0 l
0 0 l
0 0 l
1 0 l
0 0 l
0 0 l
0 0 l
0 0 l
0 0 l
1 0 l
0 0 l
0 0 l
0 0 l
0 0 l
0 0 l
1 0 l
0 0 l
0 0 l
0 0 l
0 0 l
1 0 l
0 0 l
0 0 l
0 0 l
0 0 l
0 0 l
1 0 l
0 0 l
0 0 l
0 0 l
0 0 l
0 0 l
1 0 l
0 0 l
0 0 l
0 0 l
0 0 l
0 0 l
1 0 l
0 0 l
0 0 l
0 0 l
0 0 l
1 0 l
0 0 l
0 0 l
0 0 l
0 0 l
0 0 l
1 0 l
0 0 l
0 0 l
0 0 l
0 0 l
0 0 l
1 0 l
0 0 l
0 0 l
0 0 l
0 0 l
0 0 l
1 0 l
0 -1 l
0 0 l
0 0 l
0 0 l
1 0 l
0 0 l
0 0 l
0 0 l
0 0 l
0 0 l
1 0 l
0 0 l
0 0 l
0 0 l
0 0 l
0 0 l
1 0 l
0 0 l
0 0 l
0 0 l
0 0 l
0 0 l
1 0 l
0 0 l
0 0 l
0 0 l
0 0 l
1 0 l
0 0 l
0 0 l
0 0 l
0 0 l
0 0 l
1 0 l
0 0 l
0 0 l
0 0 l
0 0 l
0 0 l
1 0 l
0 0 l
0 0 l
0 0 l
0 0 l
1 0 l
0 0 l
0 0 l
0 0 l
0 0 l
0 0 l
1 0 l
0 0 l
0 0 l
0 0 l
0 0 l
0 0 l
1 0 l
0 0 l
0 0 l
0 0 l
0 0 l
0 0 l
1 0 l
0 0 l
0 0 l
0 0 l
0 0 l
1 0 l
0 0 l
0 0 l
0 0 l
0 0 l
0 0 l
1 0 l
0 0 l
0 0 l
0 0 l
0 0 l
0 0 l
1 0 l
0 0 l
0 0 l
0 0 l
0 0 l
1 0 l
0 0 l
0 0 l
0 0 l
0 0 l
0 0 l
1 0 l
0 0 l
0 0 l
0 0 l
0 0 l
0 0 l
1 0 l
0 0 l
0 0 l
0 0 l
0 0 l
0 0 l
1 0 l
0 0 l
0 0 l
0 0 l
0 0 l
1 0 l
0 0 l
0 0 l
0 0 l
0 0 l
0 0 l
1 0 l
0 0 l
0 0 l
0 0 l
0 0 l
0 0 l
1 0 l
0 0 l
0 0 l
0 0 l
0 0 l
1 0 l
0 0 l
0 0 l
0 0 l
0 0 l
0 0 l
1 0 l
0 0 l
0 0 l
0 0 l
0 0 l
0 0 l
1 0 l
0 0 l
0 0 l
0 0 l
0 0 l
0 0 l
1 0 l
0 0 l
0 0 l
0 0 l
0 0 l
1 0 l
0 0 l
0 0 l
0 0 l
0 0 l
0 0 l
1 0 l
0 0 l
0 0 l
CS M
0 0 l
0 0 l
0 0 l
1 0 l
0 0 l
0 0 l
0 0 l
0 0 l
0 0 l
1 0 l
0 0 l
0 0 l
0 0 l
0 0 l
1 0 l
0 0 l
0 0 l
0 0 l
0 0 l
0 0 l
1 0 l
0 0 l
0 0 l
0 0 l
0 0 l
0 0 l
1 0 l
0 0 l
0 0 l
0 0 l
0 0 l
0 0 l
1 0 l
0 0 l
0 0 l
0 -1 l
0 0 l
1 0 l
0 0 l
0 0 l
0 0 l
0 0 l
0 0 l
1 0 l
0 0 l
0 0 l
0 0 l
0 0 l
0 0 l
1 0 l
0 0 l
0 0 l
0 0 l
0 0 l
0 0 l
1 0 l
0 0 l
0 0 l
0 0 l
0 0 l
1 0 l
0 0 l
0 0 l
0 0 l
0 0 l
0 0 l
1 0 l
0 0 l
0 0 l
0 0 l
0 0 l
0 0 l
1 0 l
0 0 l
0 0 l
0 0 l
0 0 l
0 -1 l
1 0 l
0 0 l
0 0 l
0 0 l
0 0 l
1 0 l
0 0 l
0 0 l
0 0 l
0 0 l
0 0 l
1 0 l
0 0 l
0 0 l
0 0 l
0 0 l
0 0 l
1 0 l
0 0 l
0 0 l
0 0 l
0 0 l
1 0 l
0 0 l
0 0 l
0 0 l
0 0 l
0 0 l
1 0 l
0 0 l
0 0 l
0 0 l
0 0 l
0 0 l
1 0 l
0 0 l
0 0 l
0 0 l
0 0 l
1 0 l
0 0 l
0 0 l
0 0 l
0 0 l
0 0 l
1 0 l
0 0 l
0 0 l
0 0 l
0 0 l
0 0 l
1 0 l
0 0 l
0 0 l
0 0 l
0 0 l
0 0 l
1 0 l
0 0 l
0 0 l
0 0 l
0 0 l
1 0 l
0 0 l
0 0 l
0 0 l
0 0 l
0 0 l
1 0 l
0 0 l
0 0 l
0 0 l
0 0 l
0 0 l
1 0 l
0 0 l
0 0 l
0 0 l
0 0 l
0 0 l
1 0 l
0 0 l
0 0 l
0 0 l
0 0 l
1 0 l
0 0 l
0 0 l
0 0 l
0 0 l
0 0 l
1 0 l
0 0 l
0 0 l
0 0 l
0 0 l
0 0 l
1 0 l
0 0 l
0 0 l
0 0 l
0 0 l
0 0 l
1 0 l
0 0 l
0 0 l
0 0 l
0 0 l
1 0 l
0 0 l
0 0 l
0 0 l
0 0 l
0 0 l
1 0 l
0 0 l
0 0 l
0 0 l
0 0 l
0 0 l
1 0 l
0 0 l
0 0 l
0 0 l
0 0 l
1 0 l
0 0 l
0 0 l
0 0 l
0 0 l
0 0 l
1 0 l
0 0 l
0 0 l
0 0 l
0 0 l
0 0 l
1 0 l
0 0 l
0 0 l
0 0 l
0 0 l
0 0 l
1 0 l
0 0 l
0 0 l
0 0 l
0 0 l
1 0 l
0 0 l
0 0 l
0 -1 l
0 0 l
0 0 l
1 0 l
0 0 l
0 0 l
0 0 l
0 0 l
0 0 l
1 0 l
0 0 l
0 0 l
0 0 l
0 0 l
1 0 l
0 0 l
0 0 l
0 0 l
0 0 l
0 0 l
1 0 l
0 0 l
0 0 l
0 0 l
0 0 l
0 0 l
1 0 l
0 0 l
0 0 l
0 0 l
0 0 l
0 0 l
1 0 l
0 0 l
0 0 l
0 0 l
0 0 l
1 0 l
0 0 l
0 0 l
0 0 l
0 0 l
0 0 l
1 -1 l
0 0 l
0 0 l
0 0 l
0 0 l
0 0 l
1 0 l
0 0 l
0 0 l
0 0 l
0 0 l
1 0 l
0 0 l
0 0 l
0 0 l
0 0 l
0 0 l
1 0 l
0 0 l
0 0 l
0 0 l
0 0 l
0 0 l
1 0 l
0 0 l
0 0 l
0 0 l
0 0 l
CS M
0 0 l
1 0 l
0 0 l
0 0 l
0 0 l
0 0 l
1 0 l
0 0 l
0 0 l
0 0 l
0 0 l
0 0 l
1 0 l
0 0 l
0 0 l
0 0 l
0 -1 l
0 0 l
1 0 l
0 0 l
0 0 l
0 0 l
0 0 l
0 0 l
1 0 l
0 0 l
0 0 l
0 0 l
0 0 l
1 0 l
0 0 l
0 0 l
0 0 l
0 0 l
0 0 l
1 0 l
0 0 l
0 0 l
0 0 l
0 0 l
0 0 l
1 0 l
0 0 l
0 0 l
0 0 l
0 0 l
0 0 l
1 0 l
0 0 l
0 0 l
0 0 l
0 0 l
1 0 l
0 0 l
0 0 l
0 0 l
0 0 l
0 0 l
1 0 l
0 0 l
0 0 l
0 0 l
0 0 l
0 0 l
1 0 l
0 0 l
0 0 l
0 0 l
0 0 l
0 0 l
1 0 l
0 0 l
0 0 l
0 0 l
0 0 l
1 0 l
0 0 l
0 0 l
0 0 l
0 0 l
0 0 l
1 0 l
0 0 l
0 0 l
0 0 l
0 0 l
0 0 l
1 0 l
0 0 l
0 0 l
0 0 l
0 0 l
0 0 l
1 0 l
0 0 l
0 0 l
0 0 l
0 0 l
1 0 l
0 0 l
0 0 l
0 0 l
0 0 l
0 0 l
1 0 l
0 0 l
0 0 l
0 0 l
0 0 l
0 0 l
1 0 l
0 0 l
0 0 l
0 0 l
0 0 l
0 0 l
1 0 l
0 0 l
0 0 l
0 0 l
0 0 l
1 0 l
0 0 l
0 0 l
0 0 l
0 0 l
0 0 l
1 0 l
0 0 l
0 0 l
0 0 l
0 0 l
0 0 l
1 0 l
0 0 l
0 0 l
0 0 l
0 0 l
1 0 l
0 0 l
0 0 l
0 0 l
0 0 l
0 0 l
1 0 l
0 0 l
0 0 l
0 0 l
0 0 l
0 0 l
1 0 l
0 0 l
0 0 l
0 0 l
0 0 l
1 0 l
0 0 l
0 0 l
0 0 l
0 0 l
0 0 l
1 -1 l
0 0 l
0 0 l
0 0 l
0 0 l
0 0 l
1 0 l
0 0 l
0 0 l
0 0 l
0 0 l
0 0 l
1 0 l
0 0 l
0 0 l
0 0 l
0 0 l
1 0 l
0 0 l
0 0 l
0 0 l
0 0 l
0 0 l
1 0 l
0 0 l
0 0 l
0 0 l
0 0 l
0 0 l
1 0 l
0 0 l
0 0 l
0 0 l
0 0 l
0 0 l
1 0 l
0 0 l
0 0 l
0 0 l
0 0 l
1 0 l
0 0 l
0 0 l
0 0 l
0 0 l
0 -1 l
1 0 l
0 0 l
0 0 l
0 0 l
0 0 l
0 0 l
1 0 l
0 0 l
0 0 l
0 0 l
0 0 l
0 0 l
1 0 l
0 0 l
0 0 l
0 0 l
0 0 l
1 0 l
0 0 l
0 0 l
0 0 l
0 0 l
0 0 l
1 0 l
0 0 l
0 0 l
0 0 l
0 0 l
0 0 l
1 0 l
0 0 l
0 0 l
0 0 l
0 0 l
1 0 l
0 0 l
0 0 l
0 0 l
0 0 l
0 0 l
1 0 l
0 0 l
0 0 l
0 0 l
0 0 l
0 0 l
1 0 l
0 0 l
0 0 l
0 0 l
0 0 l
0 0 l
1 0 l
0 0 l
0 0 l
0 0 l
0 0 l
1 0 l
0 0 l
0 0 l
0 0 l
0 0 l
0 0 l
1 0 l
0 0 l
0 0 l
0 0 l
0 0 l
0 0 l
1 0 l
0 0 l
0 0 l
0 0 l
0 0 l
1 0 l
0 0 l
0 0 l
0 0 l
0 0 l
0 0 l
1 0 l
0 0 l
0 0 l
0 0 l
0 0 l
0 0 l
1 0 l
0 0 l
0 0 l
0 0 l
0 0 l
0 0 l
1 0 l
CS M
0 0 l
0 0 l
0 0 l
0 0 l
1 0 l
0 0 l
0 0 l
0 0 l
0 0 l
0 0 l
1 0 l
0 0 l
0 0 l
0 0 l
0 0 l
0 0 l
1 0 l
0 0 l
0 0 l
0 0 l
0 0 l
1 0 l
0 0 l
0 0 l
0 0 l
0 0 l
0 0 l
1 0 l
0 0 l
0 0 l
0 0 l
0 0 l
0 0 l
1 0 l
0 0 l
0 0 l
0 0 l
0 0 l
1 0 l
0 0 l
0 0 l
0 0 l
0 0 l
0 0 l
1 0 l
0 0 l
0 0 l
0 0 l
0 0 l
0 0 l
1 0 l
0 0 l
0 -1 l
0 0 l
0 0 l
0 0 l
1 0 l
0 0 l
0 0 l
0 0 l
0 0 l
1 0 l
0 0 l
0 0 l
0 0 l
0 0 l
0 0 l
1 0 l
0 0 l
0 0 l
0 0 l
0 0 l
0 0 l
1 0 l
0 0 l
0 0 l
0 0 l
0 0 l
0 0 l
1 0 l
0 0 l
0 0 l
0 0 l
0 0 l
1 0 l
0 0 l
0 0 l
0 0 l
0 0 l
0 0 l
1 0 l
0 0 l
0 0 l
0 0 l
0 0 l
0 0 l
1 0 l
0 0 l
0 0 l
0 0 l
0 0 l
0 0 l
1 0 l
0 0 l
0 0 l
0 0 l
0 0 l
1 0 l
0 0 l
0 0 l
0 0 l
0 0 l
0 0 l
1 0 l
0 0 l
0 0 l
0 0 l
0 0 l
0 -1 l
1 0 l
0 0 l
0 0 l
0 0 l
0 0 l
0 0 l
1 0 l
0 0 l
0 0 l
0 0 l
0 0 l
1 0 l
0 0 l
0 0 l
0 0 l
0 0 l
0 0 l
1 0 l
0 0 l
0 0 l
0 0 l
0 0 l
0 0 l
1 0 l
0 0 l
0 0 l
0 0 l
0 0 l
0 0 l
1 0 l
0 0 l
0 0 l
0 0 l
0 0 l
1 0 l
0 0 l
0 0 l
0 0 l
0 0 l
0 0 l
1 0 l
0 0 l
0 0 l
0 0 l
0 0 l
0 0 l
1 0 l
0 0 l
0 0 l
0 0 l
0 0 l
0 0 l
1 0 l
0 0 l
0 0 l
0 0 l
0 0 l
1 0 l
0 0 l
0 0 l
0 0 l
0 0 l
0 0 l
1 0 l
0 0 l
0 0 l
0 0 l
0 0 l
0 0 l
1 0 l
0 0 l
0 0 l
0 0 l
0 0 l
1 0 l
0 0 l
0 0 l
0 0 l
0 0 l
0 0 l
1 0 l
0 0 l
0 0 l
0 0 l
0 0 l
0 0 l
1 0 l
0 0 l
0 0 l
0 0 l
0 0 l
0 0 l
1 0 l
0 0 l
0 0 l
0 0 l
0 0 l
1 0 l
0 0 l
0 0 l
0 0 l
0 0 l
0 0 l
1 0 l
0 0 l
0 0 l
0 0 l
0 0 l
0 0 l
1 0 l
0 0 l
0 0 l
0 0 l
0 0 l
0 0 l
1 0 l
0 0 l
0 0 l
0 0 l
0 0 l
1 0 l
0 0 l
0 0 l
0 0 l
0 0 l
0 0 l
1 0 l
0 0 l
0 0 l
0 0 l
0 0 l
0 0 l
1 0 l
0 0 l
0 0 l
0 0 l
0 0 l
1 0 l
0 0 l
0 0 l
0 0 l
0 0 l
0 0 l
1 0 l
0 0 l
0 0 l
0 0 l
0 0 l
0 0 l
1 0 l
0 0 l
0 0 l
0 0 l
0 0 l
0 0 l
1 0 l
0 0 l
0 0 l
0 0 l
0 0 l
1 0 l
0 0 l
0 0 l
0 0 l
0 0 l
0 0 l
1 0 l
0 0 l
0 0 l
0 0 l
0 0 l
0 0 l
1 0 l
0 0 l
0 0 l
0 0 l
0 0 l
1 0 l
0 0 l
0 0 l
0 0 l
CS M
0 0 l
0 0 l
1 0 l
0 0 l
0 0 l
0 0 l
0 0 l
0 0 l
1 0 l
0 0 l
0 0 l
0 0 l
0 0 l
0 0 l
1 0 l
0 0 l
0 0 l
0 0 l
0 0 l
1 0 l
0 -1 l
0 0 l
0 0 l
0 0 l
0 0 l
1 0 l
0 0 l
0 0 l
0 0 l
0 0 l
0 0 l
1 0 l
0 0 l
0 0 l
0 0 l
0 0 l
1 0 l
0 0 l
0 0 l
0 0 l
0 0 l
0 0 l
1 0 l
0 0 l
0 0 l
0 0 l
0 0 l
0 0 l
1 0 l
0 0 l
0 0 l
0 0 l
0 0 l
0 0 l
1 0 l
0 0 l
0 0 l
0 0 l
0 0 l
1 0 l
0 0 l
0 0 l
0 0 l
0 0 l
0 0 l
1 0 l
0 0 l
0 0 l
0 0 l
0 0 l
0 0 l
1 0 l
0 0 l
0 0 l
0 0 l
0 0 l
1 0 l
0 0 l
0 0 l
0 0 l
0 0 l
0 0 l
1 0 l
0 0 l
0 0 l
0 0 l
0 0 l
0 0 l
1 0 l
0 0 l
0 0 l
0 0 l
0 0 l
0 0 l
1 0 l
0 0 l
0 0 l
0 0 l
0 0 l
1 0 l
0 0 l
0 0 l
0 0 l
0 0 l
0 0 l
1 0 l
0 0 l
0 0 l
0 0 l
0 0 l
0 0 l
1 0 l
0 0 l
0 0 l
0 0 l
0 0 l
0 0 l
1 0 l
0 0 l
0 0 l
0 0 l
0 0 l
1 0 l
0 0 l
0 0 l
0 0 l
0 0 l
0 0 l
1 0 l
0 0 l
0 0 l
0 0 l
0 0 l
0 0 l
1 0 l
0 0 l
0 0 l
0 0 l
0 0 l
0 0 l
1 0 l
0 0 l
0 0 l
0 0 l
0 0 l
1 0 l
0 0 l
0 0 l
0 0 l
0 0 l
0 0 l
1 0 l
0 0 l
0 0 l
0 0 l
0 0 l
0 0 l
1 0 l
0 0 l
0 0 l
0 0 l
0 0 l
0 0 l
1 0 l
0 0 l
0 0 l
0 0 l
0 0 l
1 0 l
0 0 l
0 0 l
0 0 l
0 0 l
0 0 l
1 0 l
0 0 l
0 0 l
0 0 l
0 0 l
0 0 l
1 0 l
0 0 l
0 0 l
0 0 l
0 0 l
0 0 l
1 0 l
0 0 l
0 0 l
0 0 l
0 0 l
1 0 l
0 0 l
0 0 l
0 0 l
0 0 l
0 0 l
1 0 l
0 0 l
0 0 l
0 0 l
0 0 l
0 0 l
1 0 l
0 0 l
0 0 l
0 0 l
0 0 l
1 0 l
0 0 l
0 0 l
0 0 l
0 0 l
0 0 l
1 0 l
0 0 l
0 0 l
0 0 l
0 0 l
0 0 l
1 0 l
0 0 l
0 0 l
0 0 l
0 0 l
0 0 l
1 0 l
0 0 l
0 0 l
0 0 l
0 0 l
1 0 l
0 0 l
0 0 l
0 0 l
0 0 l
0 0 l
1 0 l
0 0 l
0 0 l
0 0 l
0 0 l
0 0 l
1 0 l
0 0 l
0 0 l
0 0 l
0 0 l
1 0 l
0 0 l
0 0 l
0 0 l
0 0 l
0 0 l
1 0 l
0 0 l
0 0 l
0 0 l
0 0 l
0 0 l
1 0 l
0 0 l
0 0 l
0 0 l
0 0 l
0 0 l
1 0 l
0 0 l
0 0 l
0 0 l
0 0 l
1 0 l
0 0 l
0 0 l
0 0 l
0 0 l
0 0 l
1 0 l
0 0 l
0 0 l
0 0 l
0 0 l
0 0 l
1 0 l
0 0 l
0 0 l
0 0 l
0 0 l
0 0 l
1 0 l
0 0 l
0 0 l
0 0 l
0 0 l
1 0 l
0 0 l
0 0 l
0 0 l
0 0 l
0 0 l
CS M
1 0 l
0 0 l
0 0 l
0 0 l
0 0 l
0 0 l
1 0 l
0 0 l
0 0 l
0 0 l
0 0 l
0 0 l
1 0 l
0 0 l
0 0 l
0 0 l
0 0 l
1 0 l
0 0 l
0 0 l
0 0 l
0 0 l
0 0 l
1 0 l
0 0 l
0 0 l
0 0 l
0 0 l
0 0 l
1 0 l
0 0 l
0 0 l
0 0 l
0 0 l
1 0 l
0 0 l
0 0 l
0 0 l
0 0 l
0 0 l
1 0 l
0 0 l
0 0 l
0 0 l
0 0 l
0 0 l
1 0 l
0 0 l
0 0 l
0 0 l
0 0 l
0 0 l
1 0 l
0 0 l
0 0 l
0 0 l
0 0 l
1 0 l
0 0 l
0 0 l
0 0 l
0 0 l
0 0 l
1 0 l
0 0 l
0 0 l
0 0 l
0 0 l
0 0 l
1 0 l
0 0 l
0 0 l
0 0 l
0 0 l
1 0 l
0 0 l
0 0 l
0 0 l
0 0 l
0 0 l
1 0 l
0 0 l
0 0 l
0 0 l
0 0 l
0 0 l
1 0 l
0 0 l
0 0 l
0 0 l
0 1 l
1 0 l
0 0 l
0 0 l
0 0 l
0 0 l
0 0 l
1 0 l
0 0 l
0 0 l
0 0 l
0 0 l
0 0 l
1 0 l
0 0 l
0 0 l
0 0 l
0 0 l
0 0 l
1 0 l
0 0 l
0 0 l
0 0 l
0 0 l
1 0 l
0 0 l
0 0 l
0 0 l
0 0 l
0 0 l
1 0 l
0 0 l
0 0 l
0 0 l
0 0 l
0 0 l
1 0 l
0 0 l
0 0 l
0 0 l
0 0 l
0 0 l
1 0 l
0 0 l
0 0 l
0 0 l
0 0 l
1 0 l
0 0 l
0 0 l
0 0 l
0 0 l
0 0 l
1 0 l
0 0 l
0 0 l
0 0 l
0 0 l
0 0 l
1 0 l
0 0 l
0 0 l
0 0 l
0 0 l
0 0 l
1 0 l
0 -1 l
0 0 l
0 0 l
0 0 l
1 0 l
0 0 l
0 0 l
0 0 l
0 0 l
0 0 l
1 0 l
0 0 l
0 0 l
0 0 l
0 0 l
0 0 l
1 0 l
0 0 l
0 0 l
0 0 l
0 0 l
0 0 l
1 0 l
0 0 l
0 0 l
0 0 l
0 0 l
1 0 l
0 0 l
0 0 l
0 0 l
0 0 l
0 0 l
1 0 l
0 0 l
0 0 l
0 0 l
0 0 l
0 0 l
1 0 l
0 0 l
0 0 l
0 0 l
0 0 l
0 0 l
1 0 l
0 0 l
0 0 l
0 0 l
0 0 l
1 0 l
0 0 l
0 0 l
0 0 l
0 0 l
0 0 l
1 0 l
0 0 l
0 0 l
0 0 l
0 0 l
0 0 l
1 1 l
0 0 l
0 0 l
0 0 l
0 0 l
0 0 l
1 0 l
0 0 l
0 0 l
0 0 l
0 0 l
1 0 l
0 0 l
0 0 l
0 0 l
0 0 l
0 0 l
1 0 l
0 0 l
0 0 l
0 0 l
0 0 l
0 0 l
1 0 l
0 0 l
0 0 l
0 0 l
0 0 l
1 0 l
0 0 l
0 0 l
0 0 l
0 0 l
0 0 l
1 0 l
0 0 l
0 0 l
0 0 l
0 0 l
0 0 l
1 0 l
0 0 l
0 0 l
0 0 l
0 0 l
1 0 l
0 0 l
0 0 l
0 0 l
0 0 l
0 0 l
1 0 l
0 0 l
0 0 l
0 0 l
0 0 l
0 0 l
1 0 l
0 0 l
0 0 l
0 0 l
0 0 l
0 0 l
1 0 l
0 0 l
0 0 l
0 0 l
0 0 l
1 0 l
0 0 l
0 0 l
0 0 l
0 0 l
0 0 l
1 0 l
0 0 l
0 0 l
0 0 l
0 0 l
0 0 l
1 0 l
0 0 l
CS M
0 0 l
0 0 l
0 0 l
0 0 l
1 0 l
0 0 l
0 0 l
0 0 l
0 0 l
1 0 l
0 0 l
0 0 l
0 0 l
0 0 l
0 0 l
1 0 l
0 0 l
0 0 l
0 0 l
0 0 l
0 0 l
1 0 l
0 0 l
0 0 l
0 0 l
0 0 l
0 0 l
1 0 l
0 0 l
0 0 l
0 0 l
0 0 l
1 0 l
0 0 l
0 0 l
0 0 l
0 0 l
0 0 l
1 0 l
0 0 l
0 0 l
0 0 l
0 0 l
0 0 l
1 0 l
0 0 l
0 0 l
0 0 l
0 0 l
1 0 l
0 0 l
0 0 l
0 0 l
0 0 l
0 0 l
1 0 l
0 0 l
0 0 l
0 0 l
0 0 l
0 0 l
1 0 l
0 0 l
0 0 l
0 0 l
0 0 l
0 0 l
1 0 l
0 0 l
0 0 l
0 0 l
0 0 l
1 0 l
0 0 l
0 0 l
0 0 l
0 0 l
0 0 l
1 0 l
0 0 l
0 0 l
0 0 l
0 0 l
0 0 l
1 0 l
0 0 l
0 0 l
0 0 l
0 0 l
1 0 l
0 0 l
0 0 l
0 0 l
0 0 l
0 0 l
1 0 l
0 0 l
0 0 l
0 0 l
0 0 l
0 0 l
1 0 l
0 0 l
0 0 l
0 0 l
0 0 l
0 0 l
1 0 l
0 0 l
0 0 l
0 0 l
0 0 l
1 0 l
0 0 l
0 0 l
0 0 l
0 0 l
0 0 l
1 0 l
0 0 l
0 0 l
0 0 l
0 0 l
0 0 l
1 0 l
0 0 l
0 0 l
0 0 l
0 0 l
1 0 l
0 0 l
0 0 l
0 0 l
0 0 l
0 0 l
1 0 l
0 0 l
0 0 l
0 0 l
0 0 l
0 0 l
1 0 l
0 0 l
0 0 l
0 0 l
0 0 l
0 0 l
1 0 l
0 0 l
0 0 l
0 0 l
0 0 l
1 1 l
0 0 l
0 0 l
0 0 l
0 0 l
0 0 l
1 0 l
0 0 l
0 0 l
0 0 l
0 0 l
0 0 l
1 0 l
0 0 l
0 0 l
0 0 l
0 0 l
0 0 l
1 0 l
0 0 l
0 0 l
0 0 l
0 0 l
1 0 l
0 0 l
0 0 l
0 0 l
0 0 l
0 0 l
1 0 l
0 0 l
0 0 l
0 0 l
0 0 l
0 0 l
1 0 l
0 0 l
0 0 l
0 0 l
0 0 l
0 0 l
1 0 l
0 0 l
0 0 l
0 0 l
0 0 l
1 0 l
0 0 l
0 0 l
0 0 l
0 0 l
0 0 l
1 0 l
0 0 l
0 0 l
0 0 l
0 0 l
0 0 l
1 0 l
0 0 l
0 0 l
0 0 l
0 0 l
0 0 l
1 0 l
0 0 l
0 0 l
0 0 l
0 0 l
1 0 l
0 0 l
0 0 l
0 0 l
0 0 l
0 0 l
1 0 l
0 0 l
0 0 l
0 0 l
0 0 l
0 0 l
1 0 l
0 0 l
0 0 l
0 0 l
0 0 l
0 0 l
1 0 l
0 0 l
0 0 l
0 0 l
0 0 l
1 0 l
0 0 l
0 0 l
0 0 l
0 0 l
0 0 l
1 0 l
0 0 l
0 0 l
0 0 l
0 0 l
0 0 l
1 0 l
0 0 l
0 0 l
0 0 l
0 0 l
0 0 l
1 0 l
0 0 l
0 0 l
0 0 l
0 0 l
1 0 l
0 0 l
0 0 l
0 0 l
0 0 l
0 0 l
1 0 l
0 0 l
0 0 l
0 0 l
0 0 l
0 0 l
1 0 l
0 0 l
0 0 l
0 0 l
0 0 l
1 0 l
0 0 l
0 0 l
0 0 l
0 0 l
0 0 l
1 0 l
0 0 l
0 0 l
0 0 l
0 0 l
0 0 l
1 0 l
0 0 l
0 0 l
0 0 l
CS M
0 0 l
1 0 l
0 0 l
0 0 l
0 0 l
0 0 l
0 0 l
1 0 l
0 0 l
0 0 l
0 0 l
0 0 l
0 0 l
1 0 l
0 0 l
0 0 l
0 0 l
0 0 l
0 0 l
1 0 l
0 0 l
0 0 l
0 0 l
0 0 l
1 0 l
0 0 l
0 0 l
0 0 l
0 0 l
0 0 l
1 0 l
0 0 l
0 0 l
0 0 l
0 0 l
0 0 l
1 0 l
0 0 l
0 0 l
0 0 l
0 0 l
0 0 l
1 0 l
0 0 l
0 0 l
0 0 l
0 0 l
1 0 l
0 0 l
0 0 l
0 0 l
0 0 l
0 0 l
1 0 l
0 0 l
0 0 l
0 0 l
0 0 l
0 0 l
1 0 l
0 0 l
0 0 l
0 0 l
0 0 l
0 0 l
1 0 l
0 0 l
0 0 l
0 0 l
0 0 l
1 0 l
0 0 l
0 0 l
0 0 l
0 1 l
0 0 l
1 0 l
0 0 l
0 0 l
0 0 l
0 0 l
0 0 l
1 0 l
0 0 l
0 0 l
0 0 l
0 0 l
1 0 l
0 0 l
0 0 l
0 0 l
0 0 l
0 0 l
1 0 l
0 0 l
0 0 l
0 0 l
0 0 l
0 0 l
1 0 l
0 0 l
0 0 l
0 0 l
0 0 l
1 0 l
0 0 l
0 0 l
0 0 l
0 0 l
0 0 l
1 0 l
0 0 l
0 0 l
0 0 l
0 0 l
0 0 l
1 0 l
0 0 l
0 0 l
0 0 l
0 0 l
0 0 l
1 0 l
0 0 l
0 0 l
0 0 l
0 0 l
1 0 l
0 0 l
0 0 l
0 0 l
0 0 l
0 0 l
1 0 l
0 0 l
0 0 l
0 0 l
0 0 l
0 0 l
1 0 l
0 0 l
0 0 l
0 0 l
0 0 l
1 0 l
0 0 l
0 0 l
0 0 l
0 0 l
0 0 l
1 0 l
0 0 l
0 0 l
0 0 l
0 0 l
0 0 l
1 0 l
0 0 l
0 0 l
0 0 l
0 0 l
0 0 l
1 0 l
0 0 l
0 0 l
0 0 l
0 0 l
1 0 l
0 0 l
0 0 l
0 0 l
0 0 l
0 0 l
1 0 l
0 0 l
0 0 l
0 0 l
0 0 l
0 0 l
1 0 l
0 0 l
0 0 l
0 0 l
0 0 l
0 0 l
1 0 l
0 0 l
0 0 l
0 0 l
0 0 l
1 0 l
0 0 l
0 0 l
0 0 l
0 0 l
0 0 l
1 0 l
0 0 l
0 0 l
0 0 l
0 0 l
0 0 l
1 0 l
0 0 l
0 0 l
0 0 l
0 0 l
0 0 l
1 0 l
0 0 l
0 0 l
0 0 l
0 0 l
1 0 l
0 0 l
0 0 l
0 0 l
0 0 l
0 0 l
1 0 l
0 0 l
0 0 l
0 0 l
0 0 l
0 0 l
1 0 l
0 0 l
0 0 l
0 0 l
0 0 l
0 0 l
1 0 l
0 0 l
0 0 l
0 0 l
0 0 l
1 0 l
0 0 l
0 0 l
0 0 l
0 0 l
0 0 l
1 0 l
0 0 l
0 0 l
0 0 l
0 0 l
0 0 l
1 0 l
0 0 l
0 0 l
0 0 l
0 0 l
0 0 l
1 0 l
0 0 l
0 0 l
0 0 l
0 0 l
1 0 l
0 0 l
0 0 l
0 0 l
0 0 l
0 0 l
1 0 l
0 0 l
0 0 l
0 0 l
0 0 l
0 0 l
1 0 l
0 0 l
0 0 l
0 0 l
0 0 l
0 0 l
1 0 l
0 0 l
0 0 l
0 0 l
0 0 l
1 0 l
0 0 l
0 0 l
0 0 l
0 0 l
0 0 l
1 0 l
0 0 l
0 0 l
0 0 l
0 0 l
0 0 l
1 0 l
0 0 l
0 0 l
0 0 l
0 0 l
1 0 l
CS M
0 0 l
0 0 l
0 0 l
0 0 l
0 0 l
1 0 l
0 0 l
0 0 l
0 0 l
0 0 l
0 0 l
1 0 l
0 0 l
0 0 l
0 0 l
0 0 l
0 0 l
1 0 l
0 0 l
0 0 l
0 0 l
0 0 l
1 0 l
0 0 l
0 0 l
0 0 l
0 0 l
0 0 l
1 0 l
0 0 l
0 0 l
0 0 l
0 0 l
0 0 l
1 1 l
0 0 l
0 0 l
0 0 l
0 0 l
1 0 l
0 0 l
0 0 l
0 0 l
0 0 l
0 0 l
1 0 l
0 0 l
0 0 l
0 0 l
0 0 l
0 0 l
1 0 l
0 0 l
0 0 l
0 0 l
0 0 l
0 0 l
1 0 l
0 0 l
0 0 l
0 0 l
0 0 l
1 0 l
0 0 l
0 0 l
0 0 l
0 0 l
0 0 l
1 0 l
0 0 l
0 0 l
0 0 l
0 0 l
0 0 l
1 0 l
0 0 l
0 0 l
0 0 l
0 0 l
0 0 l
1 0 l
0 0 l
0 0 l
0 0 l
0 0 l
1 0 l
0 0 l
0 0 l
0 0 l
0 0 l
0 0 l
1 0 l
0 0 l
0 0 l
0 0 l
0 0 l
0 0 l
1 0 l
0 0 l
0 0 l
0 0 l
0 0 l
1 0 l
0 0 l
0 0 l
0 0 l
0 0 l
0 0 l
1 0 l
0 0 l
0 0 l
0 0 l
0 0 l
0 0 l
1 0 l
0 0 l
0 0 l
0 0 l
0 0 l
0 0 l
1 0 l
0 0 l
0 0 l
0 0 l
0 0 l
1 0 l
0 0 l
0 0 l
0 0 l
0 0 l
0 0 l
1 0 l
0 0 l
0 0 l
0 0 l
0 0 l
0 0 l
1 0 l
0 0 l
0 0 l
0 0 l
0 0 l
1 0 l
0 0 l
0 0 l
0 0 l
0 0 l
0 0 l
1 0 l
0 0 l
0 0 l
0 0 l
0 0 l
0 0 l
1 0 l
0 0 l
0 0 l
0 0 l
0 0 l
0 0 l
1 0 l
0 0 l
0 0 l
0 0 l
0 0 l
1 0 l
0 0 l
0 0 l
0 0 l
0 0 l
0 0 l
1 0 l
0 0 l
0 0 l
0 0 l
0 0 l
0 0 l
1 0 l
0 0 l
0 0 l
0 0 l
0 0 l
1 0 l
0 0 l
0 0 l
0 0 l
0 0 l
0 0 l
1 0 l
0 0 l
0 0 l
0 0 l
0 0 l
0 0 l
1 0 l
0 0 l
0 0 l
0 0 l
0 0 l
0 0 l
1 0 l
0 0 l
0 0 l
0 0 l
0 0 l
1 0 l
0 0 l
0 0 l
0 0 l
0 0 l
0 0 l
1 0 l
0 0 l
0 0 l
0 0 l
0 0 l
0 0 l
1 0 l
0 0 l
0 0 l
0 0 l
0 0 l
1 0 l
0 0 l
0 0 l
0 0 l
0 0 l
0 0 l
1 0 l
0 0 l
0 0 l
0 0 l
0 0 l
0 0 l
1 0 l
0 0 l
0 0 l
0 0 l
0 0 l
0 0 l
1 0 l
0 0 l
0 0 l
0 0 l
0 0 l
1 0 l
0 0 l
0 0 l
0 0 l
0 0 l
0 0 l
1 0 l
0 0 l
0 0 l
0 0 l
0 0 l
0 0 l
1 0 l
0 0 l
0 0 l
0 0 l
0 0 l
0 0 l
1 0 l
0 0 l
0 0 l
0 0 l
0 0 l
1 0 l
0 0 l
0 0 l
0 0 l
0 0 l
0 0 l
1 0 l
0 0 l
0 0 l
0 0 l
0 0 l
0 0 l
1 0 l
0 0 l
0 0 l
0 0 l
0 0 l
0 0 l
1 0 l
0 0 l
0 0 l
0 0 l
0 0 l
1 0 l
0 0 l
0 0 l
0 0 l
0 0 l
0 0 l
1 0 l
0 0 l
0 0 l
CS M
0 0 l
0 0 l
0 0 l
1 0 l
0 0 l
0 0 l
0 0 l
0 0 l
0 0 l
1 0 l
0 0 l
0 0 l
0 0 l
0 0 l
1 0 l
0 0 l
0 0 l
0 0 l
0 0 l
0 0 l
1 0 l
0 0 l
0 0 l
0 0 l
0 0 l
0 0 l
1 0 l
0 0 l
0 0 l
0 0 l
0 0 l
0 0 l
1 0 l
0 0 l
0 0 l
0 0 l
0 0 l
1 0 l
0 0 l
0 0 l
0 0 l
0 0 l
0 0 l
1 0 l
0 0 l
0 0 l
0 0 l
0 0 l
0 0 l
1 0 l
0 0 l
0 0 l
0 0 l
0 0 l
1 0 l
0 0 l
0 0 l
0 0 l
0 0 l
0 0 l
1 0 l
0 0 l
0 0 l
0 0 l
0 0 l
0 0 l
1 0 l
0 0 l
0 0 l
0 0 l
0 0 l
0 0 l
1 0 l
0 0 l
0 0 l
0 0 l
0 0 l
1 0 l
0 0 l
0 0 l
0 0 l
0 0 l
0 0 l
1 0 l
0 0 l
0 0 l
0 0 l
0 0 l
0 0 l
1 0 l
0 0 l
0 0 l
0 0 l
0 0 l
0 0 l
1 0 l
0 0 l
0 0 l
0 0 l
0 0 l
1 0 l
0 0 l
0 0 l
0 0 l
0 0 l
0 0 l
1 0 l
0 0 l
0 0 l
0 0 l
0 0 l
0 0 l
1 0 l
0 0 l
0 0 l
0 0 l
0 0 l
0 0 l
1 0 l
0 0 l
0 0 l
0 0 l
0 0 l
1 0 l
0 0 l
0 0 l
0 0 l
0 0 l
0 0 l
1 0 l
0 0 l
0 0 l
0 0 l
0 0 l
0 0 l
1 0 l
0 0 l
0 0 l
0 0 l
0 0 l
1 0 l
0 0 l
0 0 l
0 0 l
0 0 l
0 0 l
1 0 l
0 0 l
0 0 l
0 0 l
0 0 l
0 0 l
1 0 l
0 0 l
0 0 l
0 0 l
0 0 l
1 0 l
0 0 l
0 0 l
0 0 l
0 0 l
0 0 l
1 0 l
0 0 l
0 0 l
0 0 l
0 0 l
0 0 l
1 0 l
0 0 l
0 0 l
0 0 l
0 0 l
0 0 l
1 0 l
0 0 l
0 0 l
0 0 l
0 0 l
1 0 l
0 0 l
0 0 l
0 0 l
0 0 l
0 0 l
1 0 l
0 0 l
0 0 l
0 0 l
0 0 l
0 0 l
1 0 l
0 0 l
0 0 l
0 0 l
0 0 l
1 0 l
0 0 l
0 0 l
0 0 l
0 0 l
0 0 l
1 0 l
0 0 l
0 0 l
0 0 l
0 0 l
0 0 l
1 0 l
0 0 l
0 0 l
0 0 l
0 0 l
0 0 l
1 0 l
0 0 l
0 0 l
0 0 l
0 0 l
1 0 l
0 0 l
0 0 l
0 0 l
0 0 l
0 0 l
1 0 l
0 0 l
0 0 l
0 0 l
0 0 l
0 0 l
1 0 l
0 0 l
0 0 l
0 0 l
0 0 l
1 0 l
0 0 l
0 0 l
0 0 l
0 0 l
0 0 l
1 0 l
0 0 l
0 0 l
0 0 l
0 0 l
0 0 l
1 0 l
0 0 l
0 0 l
0 0 l
0 0 l
0 0 l
1 0 l
0 0 l
0 0 l
0 0 l
0 0 l
1 0 l
0 0 l
0 0 l
0 0 l
0 0 l
0 0 l
1 0 l
0 0 l
0 0 l
0 0 l
0 0 l
0 0 l
1 0 l
0 0 l
0 0 l
0 0 l
0 0 l
0 0 l
1 0 l
0 0 l
0 0 l
0 0 l
0 0 l
1 0 l
0 0 l
0 0 l
0 0 l
0 0 l
0 0 l
1 0 l
0 0 l
0 0 l
0 0 l
0 0 l
0 0 l
1 0 l
0 0 l
0 0 l
0 0 l
0 0 l
CS M
0 0 l
1 0 l
0 0 l
0 0 l
0 0 l
0 0 l
1 0 l
0 0 l
0 0 l
0 0 l
0 0 l
0 0 l
1 0 l
0 0 l
0 0 l
0 0 l
0 0 l
0 0 l
1 0 l
0 0 l
0 0 l
0 0 l
0 0 l
0 0 l
1 0 l
0 0 l
0 0 l
0 0 l
0 0 l
1 0 l
0 0 l
0 0 l
0 0 l
0 0 l
0 0 l
1 0 l
0 0 l
0 0 l
0 0 l
0 0 l
0 0 l
1 0 l
0 0 l
0 0 l
0 0 l
0 0 l
0 0 l
1 0 l
0 0 l
0 0 l
0 0 l
0 0 l
1 0 l
0 0 l
0 0 l
0 0 l
0 0 l
0 0 l
1 0 l
0 0 l
0 0 l
0 0 l
0 0 l
0 0 l
1 0 l
0 0 l
0 0 l
0 0 l
0 0 l
0 0 l
1 0 l
0 0 l
0 0 l
0 0 l
0 0 l
1 0 l
0 0 l
0 0 l
0 0 l
0 0 l
0 0 l
1 0 l
0 0 l
0 0 l
0 0 l
0 0 l
0 0 l
1 0 l
0 0 l
0 0 l
0 0 l
0 0 l
1 0 l
0 0 l
0 0 l
0 0 l
0 0 l
0 0 l
1 0 l
0 0 l
0 0 l
0 0 l
0 0 l
0 0 l
1 0 l
0 0 l
0 0 l
0 0 l
0 0 l
0 0 l
1 0 l
0 0 l
0 0 l
0 0 l
0 0 l
1 0 l
0 0 l
0 0 l
0 0 l
0 0 l
0 0 l
1 0 l
0 0 l
0 0 l
0 0 l
0 0 l
0 0 l
1 0 l
0 0 l
0 0 l
0 0 l
0 0 l
1 0 l
0 0 l
0 0 l
0 0 l
0 0 l
0 0 l
1 0 l
0 0 l
0 0 l
0 0 l
0 0 l
0 0 l
1 0 l
0 0 l
0 0 l
0 0 l
0 0 l
0 0 l
1 0 l
0 0 l
0 0 l
0 0 l
0 0 l
1 0 l
0 0 l
0 0 l
0 0 l
0 0 l
0 0 l
1 0 l
0 0 l
0 0 l
0 0 l
0 0 l
0 0 l
1 0 l
0 0 l
0 0 l
0 0 l
0 0 l
0 0 l
1 0 l
0 0 l
0 0 l
0 -1 l
0 0 l
1 0 l
0 0 l
0 0 l
0 0 l
0 0 l
0 0 l
1 0 l
0 0 l
0 0 l
0 0 l
0 0 l
0 0 l
1 0 l
0 0 l
0 0 l
0 0 l
0 0 l
1 0 l
0 0 l
0 0 l
0 0 l
0 0 l
0 0 l
1 0 l
0 0 l
0 0 l
0 0 l
0 0 l
0 0 l
1 0 l
0 0 l
0 0 l
0 0 l
0 0 l
0 0 l
1 0 l
0 0 l
0 0 l
0 0 l
0 0 l
1 0 l
0 0 l
0 0 l
0 0 l
0 0 l
0 0 l
1 0 l
0 0 l
0 0 l
0 0 l
0 0 l
0 0 l
1 0 l
0 0 l
0 0 l
0 0 l
0 0 l
1 0 l
0 0 l
0 0 l
0 0 l
0 0 l
0 0 l
1 0 l
0 0 l
0 0 l
0 0 l
0 0 l
0 0 l
1 0 l
0 0 l
0 0 l
0 0 l
0 0 l
0 0 l
1 0 l
0 0 l
0 0 l
0 0 l
0 0 l
1 0 l
0 0 l
0 0 l
0 0 l
0 0 l
0 0 l
1 0 l
0 0 l
0 0 l
0 0 l
0 0 l
0 0 l
1 0 l
0 0 l
0 0 l
0 0 l
0 0 l
1 0 l
0 0 l
0 0 l
0 0 l
0 0 l
0 0 l
1 0 l
0 0 l
0 0 l
0 0 l
0 0 l
0 0 l
1 0 l
0 0 l
0 0 l
0 0 l
0 0 l
0 0 l
1 0 l
0 0 l
0 0 l
0 0 l
0 0 l
1 0 l
0 0 l
CS M
0 0 l
0 0 l
0 0 l
0 0 l
1 0 l
0 0 l
0 0 l
0 0 l
0 0 l
0 0 l
1 0 l
0 0 l
0 0 l
0 0 l
0 0 l
0 0 l
1 0 l
0 0 l
0 0 l
0 0 l
0 0 l
1 0 l
0 0 l
0 0 l
0 0 l
0 0 l
0 0 l
1 0 l
0 0 l
0 0 l
0 0 l
0 0 l
0 0 l
1 0 l
0 0 l
0 0 l
0 0 l
0 0 l
0 0 l
1 0 l
0 0 l
0 0 l
0 0 l
0 0 l
1 0 l
0 0 l
0 0 l
0 0 l
0 0 l
0 0 l
1 0 l
0 0 l
0 0 l
0 0 l
0 0 l
0 0 l
1 0 l
0 0 l
0 0 l
0 0 l
0 0 l
0 0 l
1 0 l
0 0 l
0 0 l
0 0 l
0 0 l
1 0 l
0 0 l
0 0 l
0 0 l
0 0 l
0 0 l
1 0 l
0 0 l
0 0 l
0 0 l
0 0 l
0 0 l
1 0 l
0 0 l
0 0 l
0 0 l
0 0 l
0 0 l
1 0 l
0 0 l
0 0 l
0 0 l
0 0 l
1 0 l
0 0 l
0 0 l
0 0 l
0 0 l
0 0 l
1 0 l
0 0 l
0 0 l
0 0 l
CS [] 0 setdash M
 0 0 0 C
275 643 M 20 204 l
20 301 l
21 155 l
20 236 l
20 81 l
20 168 l
20 8 l
20 111 l
20 -56 l
20 53 l
20 -100 l
20 14 l
20 -131 l
20 -18 l
20 -135 l
20 -32 l
20 -121 l
20 -31 l
20 -79 l
20 -18 l
21 -28 l
20 2 l
20 18 l
20 14 l
20 43 l
20 16 l
20 50 l
20 13 l
20 40 l
20 5 l
20 29 l
20 -5 l
20 12 l
20 -7 l
20 1 l
20 -15 l
20 -7 l
20 -11 l
21 -13 l
20 -10 l
20 -10 l
20 -4 l
20 -10 l
20 1 l
20 -4 l
20 4 l
20 -1 l
20 6 l
20 1 l
20 7 l
20 2 l
20 4 l
20 4 l
20 3 l
20 0 l
20 1 l
21 2 l
20 -2 l
20 -1 l
20 -1 l
20 1 l
20 -5 l
20 0 l
20 -1 l
20 -1 l
20 -2 l
20 0 l
20 0 l
20 0 l
20 0 l
20 0 l
20 1 l
21 1 l
20 0 l
20 0 l
20 1 l
20 1 l
20 -1 l
20 0 l
20 2 l
20 -2 l
20 0 l
20 1 l
20 0 l
20 -2 l
20 1 l
20 1 l
20 -2 l
20 0 l
20 1 l
21 0 l
20 -1 l
20 0 l
20 0 l
20 1 l
20 0 l
20 -1 l
20 0 l
20 1 l
 0 0 0 C
857 790 M 201 0 l
40 -33 m CS [] 0 setdash M
1132 793 M 2 -6 l
0 12 l
-2 -6 l
-4 4 l
-6 2 l
-4 0 l
-6 -2 l
-4 -4 l
-2 -4 l
-2 -6 l
0 -10 l
2 -6 l
2 -4 l
4 -4 l
6 -2 l
4 0 l
6 2 l
4 4 l
-14 36 m -4 -2 l
-4 -4 l
-2 -4 l
-2 -6 l
0 -10 l
2 -6 l
2 -4 l
4 -4 l
4 -2 l
14 16 m 0 -16 l
2 16 m 0 -16 l
-8 16 m 14 0 l
36 20 m 2 6 l
0 -12 l
-2 6 l
-4 4 l
-6 2 l
-6 0 l
-6 -2 l
-4 -4 l
0 -4 l
2 -4 l
2 -2 l
4 -2 l
12 -4 l
4 -2 l
4 -4 l
-28 18 m 4 -4 l
4 -2 l
12 -4 l
4 -2 l
2 -2 l
2 -4 l
0 -8 l
-4 -4 l
-6 -2 l
-6 0 l
-6 2 l
-4 4 l
-2 6 l
0 -12 l
2 6 l
40 28 m 2 -2 l
-2 -2 l
-2 2 l
0 2 l
2 4 l
2 2 l
6 2 l
8 0 l
6 -2 l
2 -2 l
2 -4 l
0 -4 l
-2 -4 l
-6 -4 l
-10 -4 l
-4 -2 l
-4 -4 l
-2 -6 l
0 -6 l
18 42 m 4 -2 l
2 -2 l
2 -4 l
0 -4 l
-2 -4 l
-6 -4 l
-8 -4 l
-10 -14 m 2 2 l
4 0 l
10 -4 l
6 0 l
4 2 l
2 2 l
-22 0 m 10 -6 l
8 0 l
2 2 l
2 4 l
0 4 l
48 32 m 0 -42 l
2 42 m 0 -42 l
-8 42 m 24 0 l
CS M
6 -2 l
2 -2 l
2 -4 l
0 -4 l
-2 -4 l
-2 -2 l
-6 -2 l
-16 0 l
16 20 m 4 -2 l
2 -2 l
2 -4 l
0 -4 l
-2 -4 l
-2 -2 l
-4 -2 l
-24 -22 m 14 0 l
4 22 m 4 -2 l
2 -2 l
6 -14 l
2 -2 l
2 0 l
2 2 l
-14 16 m 2 -4 l
4 -14 l
2 -2 l
4 0 l
2 4 l
0 2 l
12 10 m 24 0 l
0 4 l
-2 4 l
-2 2 l
-4 2 l
-6 0 l
-6 -2 l
-4 -4 l
-2 -6 l
0 -4 l
2 -6 l
4 -4 l
6 -2 l
4 0 l
6 2 l
4 4 l
-2 10 m 0 6 l
-2 4 l
-10 2 m -4 -2 l
-4 -4 l
-2 -6 l
0 -4 l
2 -6 l
4 -4 l
4 -2 l
46 24 m 2 4 l
0 -8 l
-2 4 l
-2 2 l
-4 2 l
-8 0 l
-4 -2 l
-2 -2 l
0 -4 l
2 -2 l
4 -2 l
10 -4 l
4 -2 l
2 -2 l
-22 14 m 2 -2 l
4 -2 l
10 -4 l
4 -2 l
2 -2 l
0 -6 l
-2 -2 l
-4 -2 l
-8 0 l
-4 2 l
-2 2 l
-2 4 l
0 -8 l
2 4 l
36 24 m 0 -22 l
2 -4 l
6 -2 l
4 0 l
6 2 l
4 4 l
-20 22 m 0 -22 l
2 -4 l
4 -2 l
14 28 m 0 -28 l
2 28 m 0 -28 l
-30 28 m 8 0 l
14 0 m 8 0 l
-2 -28 m 8 0 l
14 42 m 0 -42 l
2 42 m 0 -42 l
-8 42 m 8 0 l
-8 -42 m 14 0 l
14 42 m 0 -34 l
2 -6 l
5 -2 l
4 0 l
4 2 l
2 4 l
-15 36 m 0 -34 l
2 -6 l
3 -2 l
-13 28 m 17 0 l
36 -4 m 2 4 l
0 -8 l
-2 4 l
-2 2 l
-4 2 l
-8 0 l
-4 -2 l
-3 -2 l
0 -4 l
3 -2 l
4 -2 l
10 -4 l
4 -2 l
2 -2 l
-23 14 m 3 -2 l
4 -2 l
10 -4 l
4 -2 l
2 -2 l
0 -6 l
-2 -2 l
-4 -2 l
-8 0 l
-4 2 l
-2 2 l
-3 4 l
0 -8 l
3 4 l
26 -4 m CS [] 0 setdash M
 255 0 0 C
857 656 M 201 0 l
40 -33 m  0 0 0 C
CS [] 0 setdash M
1108 665 M 0 -42 l
2 42 m 0 -42 l
-8 42 m 14 0 l
-14 -42 m 30 0 l
0 12 l
-2 -12 l
14 24 m 0 -2 l
-2 0 l
0 2 l
2 2 l
4 2 l
8 0 l
4 -2 l
2 -2 l
2 -4 l
0 -14 l
2 -4 l
2 -2 l
-6 24 m 0 -18 l
2 -4 l
4 -2 l
2 0 l
-8 20 m -2 -2 l
-12 -2 l
-6 -2 l
-2 -4 l
0 -4 l
2 -4 l
6 -2 l
6 0 l
4 2 l
4 4 l
-14 10 m -4 -2 l
-2 -4 l
0 -4 l
2 -4 l
4 -2 l
36 28 m 0 -42 l
2 42 m 0 -42 l
0 36 m 4 4 l
4 2 l
4 0 l
6 -2 l
4 -4 l
2 -6 l
0 -4 l
-2 -6 l
-4 -4 l
-6 -2 l
-4 0 l
-4 2 l
-4 4 l
12 22 m 4 -2 l
4 -4 l
2 -6 l
0 -4 l
-2 -6 l
-4 -4 l
-4 -2 l
-20 28 m 8 0 l
-8 -42 m 14 0 l
34 56 m 0 -42 l
2 42 m 0 -42 l
-8 42 m 8 0 l
-8 -42 m 14 0 l
14 24 m 0 -2 l
-2 0 l
0 2 l
2 2 l
4 2 l
8 0 l
4 -2 l
2 -2 l
2 -4 l
0 -14 l
2 -4 l
2 -2 l
-6 24 m 0 -18 l
2 -4 l
4 -2 l
2 0 l
-8 20 m -2 -2 l
-12 -2 l
-6 -2 l
-2 -4 l
0 -4 l
2 -4 l
6 -2 l
6 0 l
4 2 l
4 4 l
-14 10 m -4 -2 l
-2 -4 l
0 -4 l
2 -4 l
4 -2 l
56 22 m -2 -2 l
2 -2 l
2 2 l
0 2 l
-4 4 l
-4 2 l
-6 0 l
-6 -2 l
-4 -4 l
-2 -6 l
0 -4 l
2 -6 l
4 -4 l
6 -2 l
4 0 l
6 2 l
4 4 l
-14 22 m -4 -2 l
-4 -4 l
-2 -6 l
0 -4 l
2 -6 l
4 -4 l
4 -2 l
28 16 m 24 0 l
0 4 l
-2 4 l
-2 2 l
-4 2 l
-6 0 l
-6 -2 l
-4 -4 l
-2 -6 l
0 -4 l
2 -6 l
4 -4 l
6 -2 l
4 0 l
6 2 l
4 4 l
-2 10 m 0 6 l
-2 4 l
-10 2 m -4 -2 l
-4 -4 l
-2 -6 l
0 -4 l
2 -6 l
4 -4 l
4 -2 l
28 18 m 36 0 l
18 24 m 0 -42 l
2 42 m 0 -42 l
12 30 m 0 -16 l
-20 28 m 32 0 l
0 -12 l
-2 12 l
-22 -20 m 12 0 l
-20 -22 m 14 0 l
41 28 m -6 -2 l
-4 -4 l
-3 -6 l
0 -4 l
3 -6 l
4 -4 l
6 -2 l
4 0 l
CS M
6 2 l
4 4 l
2 6 l
0 4 l
-2 6 l
-4 4 l
-6 2 l
-4 0 l
-5 -2 l
-4 -4 l
-1 -6 l
0 -4 l
1 -6 l
4 -4 l
5 -2 l
4 0 m 4 2 l
4 4 l
2 6 l
0 4 l
-2 6 l
-4 4 l
-4 2 l
28 0 m 0 -22 l
2 -4 l
6 -2 l
4 0 l
6 2 l
4 4 l
-20 22 m 0 -22 l
2 -4 l
4 -2 l
14 28 m 0 -28 l
2 28 m 0 -28 l
-30 28 m 8 0 l
14 0 m 8 0 l
-2 -28 m 8 0 l
14 28 m 0 -28 l
2 28 m 0 -28 l
0 16 m 2 6 l
4 4 l
4 2 l
6 0 l
2 -2 l
0 -2 l
-2 -2 l
-2 2 l
2 2 l
-24 2 m 8 0 l
-8 -28 m 14 0 l
26 42 m -2 -2 l
2 -2 l
2 2 l
-2 2 l
0 -14 m 0 -28 l
2 28 m 0 -28 l
-8 28 m 8 0 l
-8 -28 m 14 0 l
12 16 m 24 0 l
0 4 l
-2 4 l
-2 2 l
-4 2 l
-6 0 l
-6 -2 l
-4 -4 l
-2 -6 l
0 -4 l
2 -6 l
4 -4 l
6 -2 l
4 0 l
6 2 l
4 4 l
-2 10 m 0 6 l
-2 4 l
-10 2 m -4 -2 l
-4 -4 l
-2 -6 l
0 -4 l
2 -6 l
4 -4 l
4 -2 l
30 28 m 0 -28 l
2 28 m 0 -28 l
0 16 m 2 6 l
4 4 l
4 2 l
6 0 l
2 -2 l
0 -2 l
-2 -2 l
-2 2 l
2 2 l
-24 2 m 8 0 l
-8 -28 m 14 0 l
80 36 m 2 6 l
0 -12 l
-2 6 l
-4 4 l
-6 2 l
-6 0 l
-6 -2 l
-4 -4 l
0 -4 l
2 -4 l
2 -2 l
4 -2 l
12 -4 l
4 -2 l
4 -4 l
-28 18 m 4 -4 l
4 -2 l
12 -4 l
4 -2 l
2 -2 l
2 -4 l
0 -8 l
-4 -4 l
-6 -2 l
-6 0 l
-6 2 l
-4 4 l
-2 6 l
0 -12 l
2 6 l
50 22 m -6 -2 l
-4 -4 l
-2 -6 l
0 -4 l
2 -6 l
4 -4 l
6 -2 l
4 0 l
6 2 l
4 4 l
2 6 l
0 4 l
-2 6 l
-4 4 l
-6 2 l
-4 0 l
-4 -2 l
-4 -4 l
-2 -6 l
0 -4 l
2 -6 l
4 -4 l
4 -2 l
4 0 m 4 2 l
4 4 l
2 6 l
0 4 l
-2 6 l
-4 4 l
-4 2 l
28 14 m 0 -42 l
2 42 m 0 -42 l
-8 42 m 8 0 l
-8 -42 m 14 0 l
14 28 m 0 -22 l
2 -4 l
6 -2 l
4 0 l
6 2 l
4 4 l
-20 22 m 0 -22 l
2 -4 l
4 -2 l
14 28 m 0 -28 l
2 28 m 0 -28 l
-30 28 m 8 0 l
14 0 m 8 0 l
-2 -28 m 8 0 l
14 42 m 0 -34 l
2 -6 l
4 -2 l
4 0 l
4 2 l
2 4 l
-14 36 m 0 -34 l
2 -6 l
2 -2 l
-12 28 m 16 0 l
20 14 m -1 -2 l
1 -2 l
3 2 l
-3 2 l
0 -14 m 0 -28 l
3 28 m 0 -28 l
-9 28 m 9 0 l
-9 -28 m 14 0 l
23 28 m -6 -2 l
-4 -4 l
-3 -6 l
0 -4 l
3 -6 l
4 -4 l
6 -2 l
4 0 l
6 2 l
4 4 l
2 6 l
0 4 l
-2 6 l
-4 4 l
-6 2 l
-4 0 l
-4 -2 l
-5 -4 l
-1 -6 l
0 -4 l
1 -6 l
5 -4 l
4 -2 l
4 0 m 4 2 l
4 4 l
2 6 l
0 4 l
-2 6 l
-4 4 l
-4 2 l
28 0 m 0 -28 l
2 28 m 0 -28 l
0 22 m 4 4 l
6 2 l
4 0 l
6 -2 l
2 -4 l
0 -22 l
-8 28 m 4 -2 l
2 -4 l
0 -22 l
-28 28 m 8 0 l
-8 -28 m 14 0 l
8 0 m 14 0 l
58 50 m -4 -4 l
-4 -6 l
-4 -8 l
-2 -10 l
0 -8 l
2 -10 l
4 -8 l
4 -6 l
4 -4 l
-4 60 m -4 -8 l
-2 -6 l
-2 -10 l
0 -8 l
2 -10 l
2 -6 l
4 -8 l
18 38 m 22 -28 l
-20 28 m 22 -28 l
0 28 m -24 -28 l
-4 28 m 12 0 l
8 0 m 12 0 l
-32 -28 m 12 0 l
8 0 m 12 0 l
22 42 m -6 -2 l
-4 -6 l
-2 -10 l
0 -6 l
2 -10 l
4 -6 l
6 -2 l
4 0 l
6 2 l
4 6 l
2 10 l
0 6 l
-2 10 l
-4 6 l
-6 2 l
-4 0 l
-4 -2 l
-2 -2 l
-2 -4 l
-2 -10 l
0 -6 l
2 -10 l
2 -4 l
2 -2 l
4 -2 l
4 0 m 4 2 l
2 2 l
2 4 l
2 10 l
0 6 l
-2 10 l
-2 4 l
-2 2 l
-4 2 l
28 -38 m -2 -2 l
2 -2 l
2 2 l
-2 2 l
18 30 m 2 -2 l
-2 -2 l
-2 2 l
0 2 l
CS M
2 4 l
2 2 l
6 2 l
8 0 l
6 -2 l
2 -4 l
0 -6 l
-2 -4 l
-6 -2 l
-6 0 l
6 18 m 4 -2 l
2 -4 l
0 -6 l
-2 -4 l
-4 -2 l
4 -2 l
4 -4 l
2 -4 l
0 -6 l
-2 -4 l
-2 -2 l
-6 -2 l
-8 0 l
-6 2 l
-2 2 l
-2 4 l
0 2 l
2 2 l
2 -2 l
-2 -2 l
22 12 m 2 -6 l
0 -6 l
-2 -4 l
-2 -2 l
-4 -2 l
26 42 m -4 -20 l
4 4 l
6 2 l
6 0 l
6 -2 l
4 -4 l
2 -6 l
0 -4 l
-2 -6 l
-4 -4 l
-6 -2 l
-6 0 l
-6 2 l
-2 2 l
-2 4 l
0 2 l
2 2 l
2 -2 l
-2 -2 l
14 20 m 4 -2 l
4 -4 l
2 -6 l
0 -4 l
-2 -6 l
-4 -4 l
-4 -2 l
-12 42 m 20 0 l
-20 -2 m 10 0 l
10 2 l
16 8 m 4 -4 l
4 -6 l
4 -8 l
2 -10 l
0 -8 l
-2 -10 l
-4 -8 l
-4 -6 l
-4 -4 l
4 60 m 4 -8 l
2 -6 l
2 -10 l
0 -8 l
-2 -10 l
-2 -6 l
-4 -8 l
19 10 m CS [] 0 setdash M
1098 1024 M CS [] 0 setdash M
1124 1066 M -6 -2 l
-4 -4 l
-4 -8 l
-2 -6 l
-2 -8 l
-2 -12 l
-2 -16 l
22 56 m -4 -2 l
-4 -4 l
-4 -8 l
-2 -6 l
-2 -8 l
-2 -12 l
-2 -16 l
20 56 m 4 0 l
4 -2 l
2 -2 l
0 -6 l
-2 -4 l
-2 -2 l
-6 -2 l
-8 0 l
12 18 m 4 -4 l
0 -6 l
-2 -4 l
-2 -2 l
-4 -2 l
-8 0 m 8 -2 l
4 -4 l
2 -4 l
0 -6 l
-2 -4 l
-2 -2 l
-6 -2 l
-4 0 l
-4 2 l
-2 2 l
-2 6 l
8 14 m 6 -2 l
4 -4 l
2 -4 l
0 -6 l
-2 -4 l
-2 -2 l
-4 -2 l
26 6 m -1 -1 l
1 -1 l
1 1 l
-1 1 l
0 -8 m 0 -17 l
1 17 m 0 -17 l
-5 17 m 5 0 l
-5 -17 m 9 0 l
10 43 m 36 0 l
-36 -12 m 36 0 l
26 30 m -6 -2 l
-4 -6 l
-2 -10 l
0 -6 l
2 -10 l
4 -6 l
6 -2 l
4 0 l
6 2 l
4 6 l
2 10 l
0 6 l
-2 10 l
-4 6 l
-6 2 l
-4 0 l
-4 -2 l
-2 -2 l
-2 -4 l
-2 -10 l
0 -6 l
2 -10 l
2 -4 l
2 -2 l
4 -2 l
4 0 m 4 2 l
2 2 l
2 4 l
2 10 l
0 6 l
-2 10 l
-2 4 l
-2 2 l
-4 2 l
28 -38 m -2 -2 l
2 -2 l
2 2 l
-2 2 l
28 38 m -6 -2 l
-4 -6 l
-2 -10 l
0 -6 l
2 -10 l
4 -6 l
6 -2 l
4 0 l
6 2 l
4 6 l
2 10 l
0 6 l
-2 10 l
-4 6 l
-6 2 l
-4 0 l
-4 -2 l
-2 -2 l
-2 -4 l
-2 -10 l
0 -6 l
2 -10 l
2 -4 l
2 -2 l
4 -2 l
4 0 m 4 2 l
2 2 l
2 4 l
2 10 l
0 6 l
-2 10 l
-2 4 l
-2 2 l
-4 2 l
30 -8 m 4 2 l
6 6 l
0 -42 l
-2 40 m 0 -40 l
-8 0 m 18 0 l
20 0 m -2 2 l
2 2 l
3 -2 l
0 -4 l
-3 -4 l
-2 -2 l
63 50 m 0 -42 l
2 42 m 0 -42 l
-14 42 m -2 -12 l
0 12 l
30 0 l
0 -12 l
-2 12 l
-20 -42 m 14 0 l
18 6 m -1 -1 l
1 -1 l
1 1 l
-1 1 l
0 -8 m 0 -17 l
1 17 m 0 -17 l
-5 17 m 5 0 l
-5 -17 m 8 0 l
43 69 m -36 -64 l
58 56 m 0 -42 l
2 42 m 0 -42 l
-14 42 m -2 -12 l
0 12 l
30 0 l
0 -12 l
-2 12 l
-20 -42 m 14 0 l
17 -10 m 14 0 l
0 3 l
-1 2 l
-1 1 l
-2 2 l
-4 0 l
-4 -2 l
-2 -2 l
-1 -4 l
0 -2 l
1 -4 l
2 -2 l
4 -1 l
2 0 l
4 1 l
2 2 l
-1 6 m 0 4 l
-1 2 l
-6 2 m -3 -2 l
-2 -2 l
-1 -4 l
0 -2 l
1 -4 l
2 -2 l
3 -1 l
20 43 m 36 0 l
-36 -12 m 36 0 l
26 30 m -6 -2 l
-4 -6 l
-2 -10 l
0 -6 l
2 -10 l
4 -6 l
6 -2 l
4 0 l
6 2 l
4 6 l
2 10 l
0 6 l
-2 10 l
-4 6 l
-6 2 l
-4 0 l
-4 -2 l
-2 -2 l
-2 -4 l
-2 -10 l
0 -6 l
2 -10 l
2 -4 l
2 -2 l
4 -2 l
4 0 m 4 2 l
2 2 l
2 4 l
2 10 l
0 6 l
CS M
-2 10 l
-2 4 l
-2 2 l
-4 2 l
28 -38 m -2 -2 l
2 -2 l
2 2 l
-2 2 l
28 38 m -6 -2 l
-4 -6 l
-2 -10 l
0 -6 l
2 -10 l
4 -6 l
6 -2 l
4 0 l
6 2 l
4 6 l
2 10 l
0 6 l
-2 10 l
-4 6 l
-6 2 l
-4 0 l
-4 -2 l
-2 -2 l
-2 -4 l
-2 -10 l
0 -6 l
2 -10 l
2 -4 l
2 -2 l
4 -2 l
4 0 m 4 2 l
2 2 l
2 4 l
2 10 l
0 6 l
-2 10 l
-2 4 l
-2 2 l
-4 2 l
30 -8 m 4 2 l
6 6 l
0 -42 l
-2 40 m 0 -40 l
-8 0 m 18 0 l
20 0 m -2 2 l
2 2 l
3 -2 l
0 -4 l
-3 -4 l
-2 -2 l
55 50 m 0 -42 l
2 42 m 0 -42 l
20 28 m -20 -20 l
10 8 m 12 -16 l
-14 16 m 12 -16 l
-28 42 m 8 0 l
14 -14 m 12 0 l
-34 -28 m 14 0 l
8 0 m 12 0 l
7 -19 m 22 0 l
-11 0 m 0 23 l
23 6 m 2 -6 l
2 -2 l
4 -2 l
4 0 l
6 2 l
4 6 l
2 6 l
0 6 l
-2 4 l
-2 2 l
-4 2 l
-4 0 l
-6 -2 l
-4 -6 l
-2 -6 l
-8 -28 l
20 14 m 4 2 l
4 6 l
2 6 l
0 8 l
-2 4 l
-8 2 m -4 -2 l
-4 -6 l
-2 -6 l
-8 -28 l
42 20 m -2 -1 l
2 -1 l
1 1 l
-1 1 l
0 -8 m 0 -17 l
1 17 m 0 -17 l
-5 17 m 5 0 l
-5 -17 m 8 0 l
11 43 m 36 0 l
-36 -12 m 36 0 l
26 30 m -6 -2 l
-4 -6 l
-2 -10 l
0 -6 l
2 -10 l
4 -6 l
6 -2 l
4 0 l
6 2 l
4 6 l
2 10 l
0 6 l
-2 10 l
-4 6 l
-6 2 l
-4 0 l
-4 -2 l
-2 -2 l
-2 -4 l
-2 -10 l
0 -6 l
2 -10 l
2 -4 l
2 -2 l
4 -2 l
4 0 m 4 2 l
2 2 l
2 4 l
2 10 l
0 6 l
-2 10 l
-2 4 l
-2 2 l
-4 2 l
28 -38 m -2 -2 l
2 -2 l
2 2 l
-2 2 l
34 34 m 0 -38 l
2 42 m 0 -42 l
0 42 m -22 -30 l
32 0 l
-18 -12 m 14 0 l
8 0 m CS [] 0 setdash M
1098 890 M CS [] 0 setdash M
1118 932 M -14 -42 l
14 42 m 14 -42 l
-14 37 m 12 -37 l
-22 12 m 18 0 l
-26 -12 m 12 0 l
12 0 m 12 0 l
7 11 m 0 -38 l
7 38 m 0 -38 l
11 23 m 0 -2 l
-2 0 l
0 2 l
2 1 l
2 1 l
5 0 l
2 -1 l
1 -1 l
2 -3 l
0 -8 l
1 -3 l
1 -1 l
-4 15 m 0 -11 l
2 -3 l
2 -1 l
1 0 l
-5 12 m -1 -1 l
-7 -1 l
-4 -1 l
-1 -3 l
0 -2 l
1 -3 l
4 -1 l
4 0 l
2 1 l
2 3 l
-8 6 m -2 -1 l
-2 -3 l
0 -2 l
2 -3 l
2 -1 l
24 43 m 36 0 l
-36 -12 m 36 0 l
20 22 m 4 3 l
6 5 l
0 -42 l
-2 41 m 0 -41 l
-8 0 m 18 0 l
28 42 m -6 -1 l
-4 -7 l
-2 -10 l
0 -6 l
2 -10 l
4 -6 l
6 -2 l
4 0 l
6 2 l
4 6 l
2 10 l
0 6 l
-2 10 l
-4 7 l
-6 1 l
-4 0 l
-4 -1 l
-2 -3 l
-2 -4 l
-2 -10 l
0 -6 l
2 -10 l
2 -4 l
2 -2 l
4 -2 l
4 0 m 4 2 l
2 2 l
2 4 l
2 10 l
0 6 l
-2 10 l
-2 4 l
-2 3 l
-4 1 l
28 -42 m -2 2 l
2 2 l
2 -2 l
0 -4 l
-2 -4 l
-2 -2 l
52 28 m 4 4 l
6 2 l
-2 2 l
-4 -2 l
-4 -6 l
-2 -6 l
0 -6 l
2 -6 l
2 -2 l
4 0 l
4 2 l
4 6 l
2 6 l
-18 -6 m 2 -4 l
2 -2 l
4 0 l
4 2 l
4 4 l
0 6 m 0 -6 l
2 -6 l
2 -2 l
4 0 l
4 2 l
4 6 l
2 6 l
0 6 l
-2 6 l
-2 2 l
-2 -2 l
4 -2 l
2 -4 l
-18 -12 m 2 -4 l
2 -2 l
4 0 l
4 2 l
4 4 l
14 -12 m 0 -2 l
-1 0 l
0 2 l
1 1 l
3 1 l
4 0 l
3 -1 l
1 -1 l
1 -3 l
0 -8 l
2 -3 l
1 -1 l
-4 15 m 0 -11 l
1 -3 l
3 -1 l
1 0 l
-5 12 m -1 -1 l
-7 -1 l
-4 -1 l
-1 -3 l
0 -2 l
1 -3 l
4 -1 l
3 0 l
3 1 l
2 3 l
-8 6 m -3 -1 l
-1 -3 l
0 -2 l
1 -3 l
3 -1 l
23 43 m 36 0 l
-36 -12 m 36 0 l
17 22 m 2 -1 l
-2 -3 l
-3 3 l
CS M
0 1 l
3 4 l
2 3 l
6 1 l
8 0 l
6 -1 l
2 -4 l
0 -7 l
-2 -4 l
-6 -2 l
-6 0 l
6 18 m 4 -1 l
2 -4 l
0 -7 l
-2 -4 l
-4 -2 l
4 -2 l
4 -4 l
2 -4 l
0 -6 l
-2 -4 l
-2 -2 l
-6 -2 l
-8 0 l
-6 2 l
-2 2 l
-3 4 l
0 2 l
3 2 l
2 -2 l
-2 -2 l
22 12 m 2 -6 l
0 -6 l
-2 -4 l
-2 -2 l
-4 -2 l
26 4 m -2 -2 l
2 -2 l
2 2 l
-2 2 l
40 33 m -2 -3 l
2 -1 l
2 1 l
0 3 l
-2 4 l
-4 1 l
-6 0 l
-6 -1 l
-4 -4 l
-2 -4 l
-2 -9 l
0 -12 l
2 -6 l
4 -4 l
6 -2 l
4 0 l
6 2 l
4 4 l
2 6 l
0 2 l
-2 6 l
-4 4 l
-6 2 l
-2 0 l
-6 -2 l
-4 -4 l
-2 -6 l
12 28 m -4 -1 l
-4 -4 l
-2 -4 l
-2 -9 l
0 -12 l
2 -6 l
4 -4 l
4 -2 l
4 0 m 4 2 l
4 4 l
2 6 l
0 2 l
-2 6 l
-4 4 l
-4 2 l
18 -26 m CS [] 0 setdash M
CS [] 0 setdash M
666 2337 M 0 -43 l
2 43 m 0 -43 l
-8 43 m 21 0 l
5 -2 l
4 -4 l
3 -4 l
2 -7 l
0 -10 l
-2 -6 l
-3 -4 l
-4 -4 l
-5 -2 l
-21 0 l
21 43 m 4 -2 l
4 -4 l
1 -4 l
3 -7 l
0 -10 l
-3 -6 l
-1 -4 l
-4 -4 l
-4 -2 l
30 29 m 0 -29 l
2 29 m 0 -29 l
0 16 m 2 6 l
4 4 l
4 3 l
6 0 l
2 -3 l
0 -1 l
-2 -3 l
-2 3 l
2 1 l
-24 3 m 8 0 l
-8 -29 m 14 0 l
26 43 m -2 -2 l
2 -2 l
2 2 l
-2 2 l
0 -14 m 0 -29 l
2 29 m 0 -29 l
-8 29 m 8 0 l
-8 -29 m 14 0 l
10 29 m 12 -29 l
-10 29 m 10 -25 l
12 25 m -12 -29 l
-16 29 m 12 0 l
8 0 m 12 0 l
10 -13 m 24 0 l
0 5 l
-2 4 l
-2 1 l
-4 3 l
-6 0 l
-6 -3 l
-4 -4 l
-2 -6 l
0 -4 l
2 -6 l
4 -4 l
6 -2 l
4 0 l
6 2 l
4 4 l
-2 10 m 0 6 l
-2 4 l
-10 3 m -4 -3 l
-4 -4 l
-2 -6 l
0 -4 l
2 -6 l
4 -4 l
4 -2 l
30 29 m 0 -29 l
2 29 m 0 -29 l
0 22 m 4 4 l
6 3 l
4 0 l
6 -3 l
2 -4 l
0 -22 l
-8 29 m 4 -3 l
2 -4 l
0 -22 l
-28 29 m 8 0 l
-8 -29 m 14 0 l
8 0 m 14 0 l
70 37 m 2 -6 l
0 12 l
-2 -6 l
-4 4 l
-6 2 l
-4 0 l
-6 -2 l
-4 -4 l
-2 -4 l
-2 -7 l
0 -10 l
2 -6 l
2 -4 l
4 -4 l
6 -2 l
4 0 l
6 2 l
4 4 l
-14 37 m -4 -2 l
-4 -4 l
-2 -4 l
-2 -7 l
0 -10 l
2 -6 l
2 -4 l
4 -4 l
4 -2 l
14 16 m 0 -16 l
2 16 m 0 -16 l
-8 16 m 14 0 l
12 13 m 12 -29 l
-10 29 m 10 -25 l
12 25 m -12 -29 l
-4 -8 l
-4 -4 l
-4 -2 l
-2 0 l
-2 2 l
2 2 l
2 -2 l
-4 41 m 12 0 l
8 0 m 12 0 l
12 0 m 0 -29 l
2 29 m 0 -29 l
0 16 m 2 6 l
4 4 l
4 3 l
6 0 l
2 -3 l
0 -1 l
-2 -3 l
-2 3 l
2 1 l
-24 3 m 8 0 l
-8 -29 m 14 0 l
34 29 m -6 -3 l
-4 -4 l
-2 -6 l
0 -4 l
2 -6 l
4 -4 l
6 -2 l
4 0 l
6 2 l
4 4 l
2 6 l
0 4 l
-2 6 l
-4 4 l
-6 3 l
-4 0 l
-4 -3 l
-4 -4 l
-2 -6 l
0 -4 l
2 -6 l
4 -4 l
4 -2 l
4 0 m 4 2 l
4 4 l
2 6 l
0 4 l
-2 6 l
-4 4 l
-4 3 l
28 14 m 0 -43 l
2 43 m 0 -43 l
20 29 m -20 -21 l
10 8 m 12 -16 l
-14 16 m 12 -16 l
-28 43 m 8 0 l
14 -14 m 12 0 l
-34 -29 m 14 0 l
8 0 m 12 0 l
14 43 m -2 -2 l
2 -2 l
3 2 l
-3 2 l
0 -14 m 0 -29 l
3 29 m 0 -29 l
-9 29 m 9 0 l
-9 -29 m 14 0 l
14 29 m 0 -29 l
3 29 m 0 -29 l
0 22 m 4 4 l
6 3 l
4 0 l
6 -3 l
2 -4 l
0 -22 l
-8 29 m 4 -3 l
2 -4 l
0 -22 l
-28 29 m 8 0 l
-8 -29 m 14 0 l
8 0 m 14 0 l
12 16 m 24 0 l
0 5 l
-2 4 l
-2 1 l
-4 3 l
-6 0 l
-6 -3 l
-4 -4 l
-2 -6 l
0 -4 l
2 -6 l
4 -4 l
6 -2 l
4 0 l
6 2 l
CS M
4 4 l
-2 10 m 0 6 l
-2 4 l
-10 3 m -4 -3 l
-4 -4 l
-2 -6 l
0 -4 l
2 -6 l
4 -4 l
4 -2 l
30 43 m 0 -35 l
2 -6 l
4 -2 l
4 0 l
4 2 l
2 4 l
-14 37 m 0 -35 l
2 -6 l
2 -2 l
-12 29 m 16 0 l
20 14 m -2 -2 l
2 -2 l
2 2 l
-2 2 l
0 -14 m 0 -29 l
2 29 m 0 -29 l
-8 29 m 8 0 l
-8 -29 m 14 0 l
34 22 m -2 -1 l
2 -3 l
2 3 l
0 1 l
-4 4 l
-4 3 l
-6 0 l
-6 -3 l
-4 -4 l
-2 -6 l
0 -4 l
2 -6 l
4 -4 l
6 -2 l
4 0 l
6 2 l
4 4 l
-14 23 m -4 -3 l
-4 -4 l
-2 -6 l
0 -4 l
2 -6 l
4 -4 l
4 -2 l
46 25 m 2 4 l
0 -8 l
-2 4 l
-2 1 l
-4 3 l
-8 0 l
-4 -3 l
-2 -1 l
0 -4 l
2 -3 l
4 -2 l
10 -4 l
4 -2 l
2 -2 l
-22 14 m 2 -1 l
4 -3 l
10 -4 l
4 -2 l
2 -2 l
0 -6 l
-2 -2 l
-4 -2 l
-8 0 l
-4 2 l
-2 2 l
-2 4 l
0 -8 l
2 4 l
66 25 m 8 -29 l
-6 29 m 6 -23 l
8 23 m -8 -29 l
8 29 m 8 -29 l
-6 29 m 6 -23 l
8 23 m -8 -29 l
-30 29 m 14 0 l
18 0 m 12 0 l
12 14 m -2 -2 l
2 -2 l
2 2 l
-2 2 l
0 -14 m 0 -29 l
2 29 m 0 -29 l
-8 29 m 8 0 l
-8 -29 m 14 0 l
14 43 m 0 -35 l
2 -6 l
4 -2 l
4 0 l
4 2 l
2 4 l
-14 37 m 0 -35 l
2 -6 l
2 -2 l
-12 29 m 16 0 l
20 14 m 0 -43 l
2 43 m 0 -43 l
0 22 m 4 4 l
6 3 l
4 0 l
6 -3 l
2 -4 l
0 -22 l
-8 29 m 4 -3 l
2 -4 l
0 -22 l
-28 43 m 8 0 l
-8 -43 m 14 0 l
8 0 m 14 0 l
62 26 m -4 3 l
-4 0 l
-6 -3 l
-4 -5 l
-2 -7 l
0 -6 l
2 -4 l
2 -2 l
4 -2 l
4 0 l
7 2 l
4 6 l
1 6 l
0 7 l
-1 4 l
-9 10 l
-2 4 l
0 4 l
2 2 l
5 0 l
4 -2 l
4 -4 l
-15 -10 m -4 -3 l
-4 -5 l
-2 -7 l
0 -8 l
2 -4 l
8 -2 m 4 2 l
4 6 l
3 6 l
0 8 l
-3 4 l
-4 7 l
-2 4 l
0 4 l
2 2 l
4 0 l
7 -4 l
16 4 m 0 -43 l
2 43 m 0 -43 l
-8 43 m 24 0 l
6 -2 l
2 -2 l
2 -4 l
0 -4 l
-2 -5 l
-2 -1 l
-6 -3 l
0 21 m 4 -2 l
2 -2 l
2 -4 l
0 -4 l
-2 -5 l
-2 -1 l
-4 -3 l
-16 0 m 16 0 l
6 -1 l
2 -3 l
2 -4 l
0 -6 l
-2 -4 l
-2 -2 l
-6 -2 l
-24 0 l
24 22 m 4 -1 l
2 -3 l
2 -4 l
0 -6 l
-2 -4 l
-2 -2 l
-4 -2 l
20 11 m 0 -38 l
8 38 m 0 -38 l
13 52 m 36 0 l
-36 -13 m 36 0 l
26 31 m -6 -2 l
-4 -6 l
-2 -10 l
0 -7 l
2 -10 l
4 -6 l
6 -2 l
4 0 l
6 2 l
4 6 l
2 10 l
0 7 l
-2 10 l
-4 6 l
-6 2 l
-4 0 l
-4 -2 l
-2 -2 l
-2 -4 l
-2 -10 l
0 -7 l
2 -10 l
2 -4 l
2 -2 l
4 -2 l
4 0 m 4 2 l
2 2 l
2 4 l
2 10 l
0 7 l
-2 10 l
-2 4 l
-2 2 l
-4 2 l
CS [] 0 setdash M
 0 0 0 C
CS [] 0 setdash M
974 40 M 22 51 m 996 40 L
2 51 m 998 40 L
-17 51 m -2 -14 l
0 14 l
36 0 l
0 -14 l
-2 14 l
989 40 M 16 0 l
27 51 m -2 -2 l
2 -3 l
2 3 l
-2 2 l
0 -17 m 0 -34 l
2 34 m 0 -34 l
-9 34 m 9 0 l
-9 -34 m 17 0 l
16 34 m 0 -34 l
3 34 m 0 -34 l
0 27 m 5 5 l
7 2 l
5 0 l
7 -2 l
2 -5 l
0 -27 l
-9 34 m 4 -2 l
3 -5 l
0 -27 l
2 27 m 5 5 l
7 2 l
5 0 l
7 -2 l
3 -5 l
0 -27 l
-10 34 m 5 -2 l
2 -5 l
0 -27 l
-60 34 m 10 0 l
-10 -34 m 17 0 l
10 0 m 16 0 l
10 0 m 17 0 l
14 20 m 29 0 l
0 4 l
-2 5 l
-3 3 l
-4 2 l
-8 0 l
-7 -2 l
-5 -5 l
-2 -7 l
0 -5 l
2 -7 l
5 -5 l
7 -3 l
5 0 l
7 3 l
5 5 l
-2 12 m 0 7 l
-3 5 l
-12 2 m -4 -2 l
-5 -5 l
-3 -7 l
0 -5 l
3 -7 l
5 -5 l
4 -3 l
37 0 m -3 3 l
3 2 l
2 -2 l
0 -5 l
-2 -5 l
-3 -2 l
CS M
65 60 m 0 -41 l
3 -7 l
4 -3 l
5 0 l
5 3 l
2 5 l
-16 43 m 0 -41 l
2 -7 l
2 -3 l
-14 34 m 19 0 l
60 27 m 1275 23 L
75 78 m -5 -5 l
-5 -7 l
-5 -10 l
-2 -12 l
0 -10 l
2 -12 l
5 -9 l
5 -8 l
5 -5 l
-5 73 m -5 -10 l
-2 -7 l
-3 -12 l
0 -10 l
3 -12 l
2 -7 l
5 -10 l
24 63 m 1369 40 L
2 51 m 1371 40 L
24 34 m -24 -24 l
12 10 m 15 -20 l
-17 20 m 14 -20 l
-33 51 m 9 0 l
17 -17 m 15 0 l
-41 -34 m 17 0 l
9 0 m 15 0 l
10 13 m 1413 7 L
9 46 m 1422 7 L
13 67 m 14 -34 l
-12 34 m 12 -29 l
15 29 m -15 -34 l
-19 34 m 14 0 l
10 0 m 15 0 l
9 -26 m 1478 23 L
2 -4 l
2 -2 l
3 0 l
3 2 l
2 3 l
-10 26 m 1480 23 L
1 -4 l
1 -2 l
-8 20 m 11 0 l
15 11 m -2 -2 l
2 -1 l
1 1 l
-1 2 l
0 -11 m 1500 17 L
1 20 m 1501 17 L
-6 20 m 6 0 l
1495 17 M 11 0 l
10 84 m 4 -5 l
5 -7 l
5 -10 l
2 -12 l
0 -10 l
-2 -12 l
-5 -9 l
-5 -8 l
-4 -5 l
4 73 m 5 -10 l
3 -7 l
2 -12 l
0 -10 l
-2 -12 l
-3 -7 l
-5 -10 l
CS [] 0 setdash M
CS [] 0 setdash M
67 1205 M 7 1214 M 77 0 l
17 1248 M 50 -17 l
17 1248 M 50 17 l
24 1248 M 43 15 l
-14 -27 m 0 22 l
14 -32 m 0 15 l
0 14 m 0 15 l
-13 8 m 47 0 l
-47 9 m 47 0 l
7 1302 M 77 0 l
CS [] 0 setdash M
CS [] 0 setdash M
255 255 M 2006 0 l
0 2006 l
255 2261 L
255 255 L
2006 0 l
255 255 M 2006 0 l
255 255 M 0 43 l
-20 -121 m 18 42 m -6 -2 l
-4 -6 l
-2 -10 l
0 -6 l
2 -10 l
4 -6 l
6 -2 l
4 0 l
6 2 l
4 6 l
2 10 l
0 6 l
-2 10 l
-4 6 l
-6 2 l
-4 0 l
-4 -2 l
-2 -2 l
-2 -4 l
-2 -10 l
0 -6 l
2 -10 l
2 -4 l
2 -2 l
4 -2 l
4 0 m 4 2 l
2 2 l
2 4 l
2 10 l
0 6 l
-2 10 l
-2 4 l
-2 2 l
-4 2 l
79 36 m 0 22 l
80 -22 m 0 22 l
80 -22 m 0 22 l
80 -22 m 0 22 l
80 -22 m 0 43 l
-20 -121 m 12 34 m 4 2 l
6 6 l
0 -42 l
-2 40 m 0 -40 l
-8 0 m 18 0 l
71 78 m 0 22 l
80 -22 m 0 22 l
80 -22 m 0 22 l
80 -22 m 0 22 l
81 -22 m 0 43 l
-20 -121 m 8 34 m 2 -2 l
-2 -2 l
-2 2 l
0 2 l
2 4 l
2 2 l
6 2 l
8 0 l
6 -2 l
2 -2 l
2 -4 l
0 -4 l
-2 -4 l
-6 -4 l
-10 -4 l
-4 -2 l
-4 -4 l
-2 -6 l
0 -6 l
18 42 m 4 -2 l
2 -2 l
2 -4 l
0 -4 l
-2 -4 l
-6 -4 l
-8 -4 l
-10 -14 m 2 2 l
4 0 l
10 -4 l
6 0 l
4 2 l
2 2 l
-22 0 m 10 -6 l
8 0 l
2 2 l
2 4 l
0 4 l
66 68 m 0 22 l
80 -22 m 0 22 l
80 -22 m 0 22 l
81 -22 m 0 22 l
80 -22 m 0 43 l
-20 -121 m 8 34 m 2 -2 l
-2 -2 l
-2 2 l
0 2 l
2 4 l
2 2 l
6 2 l
8 0 l
6 -2 l
2 -4 l
0 -6 l
-2 -4 l
-6 -2 l
-6 0 l
6 18 m 4 -2 l
2 -4 l
0 -6 l
-2 -4 l
-4 -2 l
4 -2 l
4 -4 l
2 -4 l
0 -6 l
-2 -4 l
-2 -2 l
-6 -2 l
-8 0 l
-6 2 l
-2 2 l
-2 4 l
0 2 l
2 2 l
2 -2 l
-2 -2 l
22 12 m 2 -6 l
0 -6 l
-2 -4 l
-2 -2 l
-4 -2 l
76 78 m 0 22 l
80 -22 m 0 22 l
80 -22 m 0 22 l
81 -22 m 0 22 l
80 -22 m 0 43 l
-20 -121 m 24 38 m 0 -38 l
2 42 m 0 -42 l
0 42 m -22 -30 l
32 0 l
-18 -12 m 14 0 l
68 78 m 0 22 l
80 -22 m 0 22 l
81 -22 m 0 22 l
80 -22 m 0 22 l
80 -22 m 0 43 l
-20 -121 m 10 42 m -4 -20 l
4 4 l
6 2 l
6 0 l
6 -2 l
4 -4 l
2 -6 l
0 -4 l
-2 -6 l
-4 -4 l
-6 -2 l
-6 0 l
-6 2 l
-2 2 l
-2 4 l
0 2 l
2 2 l
2 -2 l
-2 -2 l
14 20 m 4 -2 l
4 -4 l
2 -6 l
0 -4 l
-2 -6 l
-4 -4 l
-4 -2 l
-12 42 m 20 0 l
-20 -2 m 10 0 l
10 2 l
255 2261 M 2006 0 l
255 2261 M 0 -43 l
81 43 m 0 -21 l
80 21 m 0 -21 l
80 21 m 0 -21 l
80 21 m 0 -21 l
80 21 m 0 -43 l
81 43 m 0 -21 l
80 21 m 0 -21 l
80 21 m 0 -21 l
80 21 m 0 -21 l
81 21 m 0 -43 l
80 43 m 0 -21 l
80 21 m 0 -21 l
80 21 m 0 -21 l
81 21 m 0 -21 l
80 21 m 0 -43 l
80 43 m 0 -21 l
80 21 m 0 -21 l
80 21 m 0 -21 l
81 21 m 0 -21 l
80 21 m 0 -43 l
80 43 m 0 -21 l
80 21 m 0 -21 l
81 21 m 0 -21 l
80 21 m 0 -21 l
80 21 m 0 -43 l
255 255 M 0 2006 l
255 255 M 43 0 l
-119 -21 m 18 42 m -6 -2 l
-4 -6 l
-2 -10 l
CS M
0 -6 l
2 -10 l
4 -6 l
6 -2 l
4 0 l
6 2 l
4 6 l
2 10 l
0 6 l
-2 10 l
-4 6 l
-6 2 l
-4 0 l
-4 -2 l
-2 -2 l
-2 -4 l
-2 -10 l
0 -6 l
2 -10 l
2 -4 l
2 -2 l
4 -2 l
4 0 m 4 2 l
2 2 l
2 4 l
2 10 l
0 6 l
-2 10 l
-2 4 l
-2 2 l
-4 2 l
54 113 m 22 0 l
-22 134 m 22 0 l
-22 133 m 22 0 l
-22 134 m 22 0 l
-22 134 m 43 0 l
-119 -21 m 10 42 m -4 -20 l
4 4 l
6 2 l
6 0 l
6 -2 l
4 -4 l
2 -6 l
0 -4 l
-2 -6 l
-4 -4 l
-6 -2 l
-6 0 l
-6 2 l
-2 2 l
-2 4 l
0 2 l
2 2 l
2 -2 l
-2 -2 l
14 20 m 4 -2 l
4 -4 l
2 -6 l
0 -4 l
-2 -6 l
-4 -4 l
-4 -2 l
-12 42 m 20 0 l
-20 -2 m 10 0 l
10 2 l
46 113 m 22 0 l
-22 133 m 22 0 l
-22 134 m 22 0 l
-22 134 m 22 0 l
-22 133 m 43 0 l
139 1571 M 12 34 m 4 3 l
6 6 l
0 -43 l
-2 41 m 0 -41 l
-8 0 m 18 0 l
28 43 m -6 -2 l
-4 -7 l
-2 -10 l
0 -6 l
2 -10 l
4 -6 l
6 -2 l
4 0 l
6 2 l
4 6 l
2 10 l
0 6 l
-2 10 l
-4 7 l
-6 2 l
-4 0 l
-4 -2 l
-2 -2 l
-2 -5 l
-2 -10 l
0 -6 l
2 -10 l
2 -4 l
2 -2 l
4 -2 l
4 0 m 4 2 l
2 2 l
2 4 l
2 10 l
0 6 l
-2 10 l
-2 5 l
-2 2 l
-4 2 l
54 112 m 22 0 l
-22 134 m 22 0 l
-22 134 m 22 0 l
-22 133 m 22 0 l
-22 134 m 43 0 l
139 2240 M 12 34 m 4 2 l
6 6 l
0 -42 l
-2 40 m 0 -40 l
-8 0 m 18 0 l
20 42 m -4 -20 l
4 4 l
6 2 l
6 0 l
6 -2 l
4 -4 l
2 -6 l
0 -4 l
-2 -6 l
-4 -4 l
-6 -2 l
-6 0 l
-6 2 l
-2 2 l
-2 4 l
0 2 l
2 2 l
2 -2 l
-2 -2 l
14 20 m 4 -2 l
4 -4 l
2 -6 l
0 -4 l
-2 -6 l
-4 -4 l
-4 -2 l
-12 42 m 20 0 l
-20 -2 m 10 0 l
10 2 l
2261 255 M 0 2006 l
2261 255 M -43 0 l
43 134 m -21 0 l
21 134 m -21 0 l
21 133 m -21 0 l
21 134 m -21 0 l
21 134 m -43 0 l
43 134 m -21 0 l
21 133 m -21 0 l
21 134 m -21 0 l
21 134 m -21 0 l
21 133 m -43 0 l
43 134 m -21 0 l
21 134 m -21 0 l
21 134 m -21 0 l
21 133 m -21 0 l
21 134 m -43 0 l
CS [] 0 setdash M
stroke
grestore
showpage
end
