%!PS-Adobe-2.0 EPSF-2.0
%%Creator: SM
%%BoundingBox: 18 144 592 718
%%DocumentFonts: Helvetica
%%EndComments
 20 dict begin
72 300 div dup scale
1 setlinejoin 0 setlinecap
/Helvetica findfont 55 scalefont setfont 
/B {CS newpath moveto} def
/F {moveto 0 setlinecap} def
/C {CS M 1 1 3 {pop 3 1 roll 255 div} for SET_COLOUR} def
/CS {currentpoint stroke} def
/CF {currentpoint eofill} def
/L {lineto} def /l {rlineto} def /M {moveto} def /m {rmoveto} def
/P {currentpoint 0 1 rlineto stroke moveto} def
/T {currentlinecap exch 1 setlinecap show setlinecap} def
errordict /nocurrentpoint {pop 0 0 M currentpoint} put
/SET_COLOUR statusdict begin /processcolors where
  {pop processcolors 1 gt} {false} ifelse
  {(setrgbcolor)} {(pop pop pop)} ifelse cvx end def
 80 600 translate
gsave
CS [] 0 setdash M
CS M 1 100 mul 72 div dup setlinewidth
/P [ /currentpoint cvx 0 5 -1 roll .05 add dup -2 div 0 exch /rmoveto cvx /rlineto cvx /stroke cvx /moveto cvx ] cvx def
 0 0 0 C
CS M 4 100 mul 72 div dup setlinewidth
/P [ /currentpoint cvx 0 5 -1 roll .05 add dup -2 div 0 exch /rmoveto cvx /rlineto cvx /stroke cvx /moveto cvx ] cvx def
 0 0 255 C
CS [] 0 setdash M
 0 0 255 C
 255 0 0 C
255 320 M 0 1 l
1 1 l
0 1 l
0 1 l
0 1 l
0 1 l
0 1 l
1 1 l
0 1 l
0 2 l
0 1 l
0 2 l
1 1 l
0 2 l
0 1 l
0 2 l
0 2 l
0 2 l
1 2 l
0 2 l
0 2 l
0 2 l
0 2 l
0 3 l
1 2 l
0 2 l
0 3 l
0 2 l
0 3 l
0 3 l
1 2 l
0 3 l
0 3 l
0 3 l
0 3 l
1 3 l
0 3 l
0 3 l
0 3 l
0 3 l
0 4 l
1 3 l
0 4 l
0 3 l
0 3 l
0 4 l
0 4 l
1 3 l
0 4 l
0 4 l
0 3 l
0 4 l
0 4 l
1 4 l
0 4 l
0 4 l
0 4 l
0 4 l
1 4 l
0 4 l
0 4 l
0 5 l
0 4 l
0 4 l
1 4 l
0 5 l
0 4 l
0 4 l
0 5 l
0 4 l
1 5 l
0 4 l
0 4 l
0 5 l
0 4 l
0 5 l
1 4 l
0 5 l
0 4 l
0 5 l
0 5 l
1 4 l
0 5 l
0 4 l
0 5 l
0 4 l
0 5 l
1 5 l
0 4 l
0 5 l
0 4 l
0 5 l
0 4 l
1 5 l
0 4 l
0 5 l
0 4 l
0 5 l
0 4 l
1 5 l
0 4 l
0 5 l
0 4 l
0 4 l
1 5 l
0 4 l
0 5 l
0 4 l
0 4 l
0 4 l
1 4 l
0 5 l
0 4 l
0 4 l
0 4 l
0 4 l
1 4 l
0 4 l
0 4 l
0 4 l
0 4 l
1 4 l
0 3 l
0 4 l
0 4 l
0 3 l
0 4 l
1 4 l
0 3 l
0 4 l
0 3 l
0 3 l
0 4 l
1 3 l
0 3 l
0 3 l
0 4 l
0 3 l
0 3 l
1 3 l
0 3 l
0 2 l
0 3 l
0 3 l
1 3 l
0 2 l
0 3 l
0 3 l
0 2 l
0 2 l
1 3 l
0 2 l
0 2 l
0 3 l
0 2 l
0 2 l
1 2 l
0 2 l
0 2 l
0 1 l
0 2 l
1 2 l
0 2 l
0 1 l
0 2 l
0 1 l
0 2 l
1 1 l
0 2 l
0 1 l
0 1 l
0 1 l
0 1 l
1 1 l
0 1 l
0 1 l
0 1 l
0 1 l
0 1 l
1 1 l
0 0 l
0 1 l
0 1 l
0 0 l
1 1 l
0 0 l
0 1 l
0 0 l
0 0 l
0 1 l
1 0 l
0 0 l
0 0 l
0 1 l
0 0 l
0 0 l
1 0 l
0 0 l
0 0 l
0 0 l
0 0 l
1 0 l
0 0 l
0 0 l
0 0 l
0 -1 l
0 0 l
1 0 l
0 0 l
0 0 l
0 0 l
0 0 l
0 -1 l
1 0 l
0 0 l
0 0 l
0 0 l
0 -1 l
0 0 l
1 0 l
0 0 l
0 0 l
0 0 l
0 0 l
1 0 l
0 0 l
0 0 l
0 0 l
0 0 l
0 0 l
1 0 l
0 0 l
0 0 l
0 1 l
0 0 l
0 0 l
1 1 l
0 0 l
0 0 l
0 1 l
0 1 l
1 0 l
0 1 l
0 1 l
0 1 l
0 0 l
0 1 l
1 1 l
0 1 l
0 2 l
0 1 l
0 1 l
0 2 l
1 1 l
0 2 l
0 1 l
0 2 l
0 2 l
0 1 l
1 2 l
0 2 l
0 2 l
0 3 l
0 2 l
1 2 l
0 2 l
0 3 l
0 2 l
0 3 l
0 3 l
1 2 l
0 3 l
0 3 l
0 3 l
0 3 l
0 3 l
1 4 l
0 3 l
0 3 l
0 4 l
0 3 l
1 4 l
0 3 l
0 4 l
0 3 l
0 4 l
0 4 l
1 4 l
0 4 l
0 4 l
0 4 l
0 4 l
0 4 l
1 4 l
0 5 l
0 4 l
0 4 l
0 5 l
0 4 l
1 4 l
CS M
0 5 l
0 4 l
0 5 l
0 4 l
1 5 l
0 5 l
0 4 l
0 5 l
0 4 l
0 5 l
1 5 l
0 4 l
0 5 l
0 5 l
0 5 l
0 4 l
1 5 l
0 5 l
0 4 l
0 5 l
0 5 l
0 4 l
1 5 l
0 5 l
0 5 l
0 4 l
0 5 l
1 4 l
0 5 l
0 4 l
0 5 l
0 5 l
0 4 l
1 5 l
0 4 l
0 4 l
0 5 l
0 4 l
0 4 l
1 5 l
0 4 l
0 4 l
0 4 l
0 4 l
0 4 l
1 4 l
0 4 l
0 4 l
0 4 l
0 4 l
1 4 l
0 4 l
0 3 l
0 4 l
0 3 l
0 4 l
1 3 l
0 4 l
0 3 l
0 3 l
0 4 l
0 3 l
1 3 l
0 3 l
0 3 l
0 3 l
0 3 l
0 3 l
1 3 l
0 2 l
0 3 l
0 2 l
0 3 l
1 2 l
0 3 l
0 2 l
0 2 l
0 3 l
0 2 l
1 2 l
0 2 l
0 2 l
0 2 l
0 1 l
0 2 l
1 2 l
0 1 l
0 2 l
0 2 l
0 1 l
0 1 l
1 2 l
0 1 l
0 1 l
0 1 l
0 1 l
1 1 l
0 1 l
0 1 l
0 1 l
0 1 l
0 1 l
1 0 l
0 1 l
0 1 l
0 0 l
0 1 l
0 0 l
1 0 l
0 1 l
0 0 l
0 0 l
0 1 l
0 0 l
1 0 l
0 0 l
0 0 l
0 0 l
0 0 l
1 0 l
0 0 l
0 0 l
0 0 l
0 -1 l
0 0 l
1 0 l
0 0 l
0 -1 l
0 0 l
0 0 l
0 -1 l
1 0 l
0 0 l
0 -1 l
0 0 l
0 -1 l
1 0 l
0 0 l
0 -1 l
0 0 l
0 -1 l
0 0 l
1 0 l
0 -1 l
0 0 l
0 -1 l
0 0 l
0 0 l
1 -1 l
0 0 l
0 0 l
0 -1 l
0 0 l
0 0 l
1 0 l
0 -1 l
0 0 l
0 0 l
0 0 l
1 0 l
0 0 l
0 0 l
0 0 l
0 0 l
0 0 l
1 0 l
0 0 l
0 1 l
0 0 l
0 0 l
0 1 l
1 0 l
0 1 l
0 0 l
0 1 l
0 0 l
1 1 l
0 1 l
0 1 l
0 1 l
0 0 l
0 1 l
1 1 l
0 2 l
0 1 l
0 1 l
0 1 l
0 2 l
1 1 l
0 2 l
0 1 l
0 2 l
0 1 l
0 2 l
1 2 l
0 2 l
0 2 l
0 2 l
0 2 l
1 2 l
0 2 l
0 2 l
0 3 l
0 2 l
0 2 l
1 3 l
0 2 l
0 3 l
0 3 l
0 2 l
0 3 l
1 3 l
0 3 l
0 3 l
0 3 l
0 2 l
1 4 l
0 3 l
0 3 l
0 3 l
0 3 l
0 3 l
1 4 l
0 3 l
0 3 l
0 4 l
0 3 l
0 4 l
1 3 l
0 3 l
0 4 l
0 4 l
0 3 l
0 4 l
1 3 l
0 4 l
0 4 l
0 3 l
0 4 l
1 4 l
0 3 l
0 4 l
0 4 l
0 3 l
0 4 l
1 4 l
0 3 l
0 4 l
0 4 l
0 3 l
0 4 l
1 4 l
0 3 l
0 4 l
0 4 l
0 3 l
1 4 l
0 3 l
0 4 l
0 3 l
0 4 l
0 4 l
1 3 l
0 3 l
0 4 l
0 3 l
0 3 l
0 4 l
1 3 l
0 3 l
0 3 l
0 4 l
0 3 l
0 3 l
1 3 l
0 3 l
0 3 l
0 3 l
0 3 l
1 2 l
0 3 l
0 3 l
0 3 l
0 2 l
0 3 l
1 2 l
0 3 l
0 2 l
0 3 l
0 2 l
0 2 l
1 2 l
0 3 l
0 2 l
0 2 l
0 2 l
1 2 l
0 1 l
0 2 l
0 2 l
CS M
0 2 l
0 1 l
1 2 l
0 2 l
0 1 l
0 2 l
0 1 l
0 1 l
1 1 l
0 2 l
0 1 l
0 1 l
0 1 l
0 1 l
1 1 l
0 1 l
0 0 l
0 1 l
0 1 l
1 1 l
0 0 l
0 1 l
0 0 l
0 1 l
0 0 l
1 0 l
0 1 l
0 0 l
0 0 l
0 0 l
0 0 l
1 0 l
0 0 l
0 0 l
0 0 l
0 0 l
0 0 l
1 0 l
0 0 l
0 -1 l
0 0 l
0 0 l
1 -1 l
0 0 l
0 0 l
0 -1 l
0 0 l
0 -1 l
1 0 l
0 -1 l
0 0 l
0 -1 l
0 -1 l
0 0 l
1 -1 l
0 -1 l
0 0 l
0 -1 l
0 -1 l
0 0 l
1 -1 l
0 -1 l
0 0 l
0 -1 l
0 -1 l
1 -1 l
0 0 l
0 -1 l
0 -1 l
0 -1 l
0 0 l
1 -1 l
0 -1 l
0 0 l
0 -1 l
0 -1 l
0 0 l
1 -1 l
0 0 l
0 -1 l
0 -1 l
0 0 l
0 -1 l
1 0 l
0 0 l
0 -1 l
0 0 l
0 -1 l
1 0 l
0 0 l
0 0 l
0 -1 l
0 0 l
0 0 l
1 0 l
0 0 l
0 0 l
0 0 l
0 0 l
0 0 l
1 0 l
0 0 l
0 1 l
0 0 l
0 0 l
0 1 l
1 0 l
0 1 l
0 0 l
0 1 l
0 1 l
1 0 l
0 1 l
0 1 l
0 1 l
0 1 l
0 1 l
1 1 l
0 1 l
0 1 l
0 1 l
0 1 l
0 1 l
1 2 l
0 1 l
0 2 l
0 1 l
0 2 l
0 1 l
1 2 l
0 1 l
0 2 l
0 2 l
0 2 l
1 2 l
0 2 l
0 2 l
0 1 l
0 3 l
0 2 l
1 2 l
0 2 l
0 2 l
0 2 l
0 2 l
0 3 l
1 2 l
0 2 l
0 3 l
0 2 l
0 3 l
1 2 l
0 3 l
0 2 l
0 3 l
0 2 l
0 3 l
1 3 l
0 2 l
0 3 l
0 2 l
0 3 l
0 3 l
1 2 l
0 3 l
0 3 l
0 3 l
0 2 l
0 3 l
1 3 l
0 2 l
0 3 l
0 3 l
0 3 l
1 2 l
0 3 l
0 3 l
0 2 l
0 3 l
0 3 l
1 2 l
0 3 l
0 3 l
0 2 l
0 3 l
0 2 l
1 3 l
0 3 l
0 2 l
0 2 l
0 3 l
0 2 l
1 3 l
0 2 l
0 2 l
0 3 l
0 2 l
1 2 l
0 2 l
0 3 l
0 2 l
0 2 l
0 2 l
1 2 l
0 2 l
0 2 l
0 2 l
0 1 l
0 2 l
1 2 l
0 2 l
0 1 l
0 2 l
0 2 l
1 1 l
0 2 l
0 1 l
0 2 l
0 1 l
0 1 l
1 1 l
0 2 l
0 1 l
0 1 l
0 1 l
0 1 l
1 1 l
0 1 l
0 1 l
0 1 l
0 0 l
0 1 l
1 1 l
0 0 l
0 1 l
0 0 l
0 1 l
1 0 l
0 1 l
0 0 l
0 0 l
0 1 l
0 0 l
1 0 l
0 0 l
0 0 l
0 0 l
0 0 l
0 0 l
1 0 l
0 0 l
0 -1 l
0 0 l
0 0 l
1 -1 l
0 0 l
0 0 l
0 -1 l
0 0 l
0 -1 l
1 0 l
0 -1 l
0 -1 l
0 0 l
0 -1 l
0 0 l
1 -1 l
0 -1 l
0 -1 l
0 -1 l
0 0 l
0 -1 l
1 -1 l
0 -1 l
0 -1 l
0 -1 l
0 -1 l
1 -1 l
0 -1 l
0 -1 l
0 -1 l
0 -1 l
0 -1 l
1 -1 l
0 -1 l
0 -1 l
0 -1 l
0 -1 l
0 -1 l
1 -1 l
0 -1 l
0 -1 l
0 -1 l
0 -1 l
1 -1 l
0 -1 l
0 -1 l
0 -1 l
0 -1 l
0 -1 l
CS M
1 -1 l
0 -1 l
0 -1 l
0 -1 l
0 -1 l
0 -1 l
1 -1 l
0 -1 l
0 0 l
0 -1 l
0 -1 l
1 -1 l
0 0 l
0 -1 l
0 -1 l
0 0 l
0 -1 l
1 0 l
0 -1 l
0 0 l
0 -1 l
0 0 l
0 -1 l
1 0 l
0 0 l
0 -1 l
0 0 l
0 0 l
0 0 l
1 0 l
0 0 l
0 0 l
0 0 l
0 0 l
1 0 l
0 0 l
0 0 l
0 0 l
0 1 l
0 0 l
1 1 l
0 0 l
0 0 l
0 1 l
0 0 l
0 1 l
1 1 l
0 0 l
0 1 l
0 1 l
0 1 l
0 1 l
1 0 l
0 1 l
0 1 l
0 1 l
0 1 l
1 1 l
0 2 l
0 1 l
0 1 l
0 1 l
0 1 l
1 2 l
0 1 l
0 1 l
0 2 l
0 1 l
0 2 l
1 1 l
0 2 l
0 1 l
0 2 l
0 1 l
0 2 l
1 2 l
0 1 l
0 2 l
0 2 l
0 2 l
1 1 l
0 2 l
0 2 l
0 2 l
0 1 l
0 2 l
1 2 l
0 2 l
0 2 l
0 2 l
0 1 l
0 2 l
1 2 l
0 2 l
0 2 l
0 2 l
0 2 l
0 1 l
1 2 l
0 2 l
0 2 l
0 2 l
0 2 l
1 1 l
0 2 l
0 2 l
0 2 l
0 1 l
0 2 l
1 2 l
0 2 l
0 1 l
0 2 l
0 2 l
0 1 l
1 2 l
0 1 l
0 2 l
0 2 l
0 1 l
0 1 l
1 2 l
0 1 l
0 2 l
0 1 l
0 1 l
1 2 l
0 1 l
0 1 l
0 1 l
0 1 l
0 2 l
1 1 l
0 1 l
0 1 l
0 1 l
0 1 l
0 0 l
1 1 l
0 1 l
0 1 l
0 1 l
0 0 l
1 1 l
0 0 l
0 1 l
0 1 l
0 0 l
0 0 l
1 1 l
0 0 l
0 1 l
0 0 l
0 0 l
0 0 l
1 0 l
0 0 l
0 0 l
0 0 l
0 0 l
0 0 l
1 0 l
0 0 l
0 0 l
0 0 l
0 -1 l
1 0 l
0 0 l
0 -1 l
0 0 l
0 -1 l
0 0 l
1 -1 l
0 0 l
0 -1 l
0 -1 l
0 0 l
0 -1 l
1 -1 l
0 -1 l
0 0 l
0 -1 l
0 -1 l
0 -1 l
1 -1 l
0 -1 l
0 -1 l
0 -1 l
0 -1 l
1 -1 l
0 -1 l
0 -1 l
0 -1 l
0 -1 l
0 -2 l
1 -1 l
0 -1 l
0 -1 l
0 -2 l
0 -1 l
0 -1 l
1 -1 l
0 -2 l
0 -1 l
0 -1 l
0 -1 l
0 -2 l
1 -1 l
0 -1 l
0 -2 l
0 -1 l
0 -2 l
1 -1 l
0 -1 l
0 -2 l
0 -1 l
0 -1 l
0 -2 l
1 -1 l
0 -1 l
0 -1 l
0 -2 l
0 -1 l
0 -1 l
1 -1 l
0 -2 l
0 -1 l
0 -1 l
0 -1 l
1 -2 l
0 -1 l
0 -1 l
0 -1 l
0 -1 l
0 -1 l
1 -1 l
0 -1 l
0 -1 l
0 -1 l
0 -1 l
0 -1 l
1 -1 l
0 -1 l
0 0 l
0 -1 l
0 -1 l
0 -1 l
1 -1 l
0 0 l
0 -1 l
0 0 l
0 -1 l
1 0 l
0 -1 l
0 0 l
0 -1 l
0 0 l
0 -1 l
1 0 l
0 0 l
0 0 l
0 -1 l
0 0 l
0 0 l
1 0 l
0 0 l
0 0 l
0 0 l
0 0 l
1 0 l
0 0 l
0 0 l
0 1 l
0 0 l
0 0 l
1 0 l
0 1 l
0 0 l
0 1 l
0 0 l
0 0 l
1 1 l
0 1 l
0 0 l
0 1 l
0 0 l
0 1 l
1 1 l
0 0 l
0 1 l
0 1 l
0 1 l
1 1 l
0 0 l
0 1 l
0 1 l
0 1 l
0 1 l
1 1 l
0 1 l
CS M
0 1 l
0 1 l
0 1 l
0 1 l
1 1 l
0 1 l
0 1 l
0 1 l
0 1 l
1 1 l
0 2 l
0 1 l
0 1 l
0 1 l
0 1 l
1 1 l
0 1 l
0 2 l
0 1 l
0 1 l
0 1 l
1 1 l
0 1 l
0 1 l
0 1 l
0 2 l
0 1 l
1 1 l
0 1 l
0 1 l
0 1 l
0 1 l
1 1 l
0 1 l
0 1 l
0 1 l
0 1 l
0 1 l
1 1 l
0 1 l
0 1 l
0 0 l
0 1 l
0 1 l
1 1 l
0 1 l
0 0 l
0 1 l
0 1 l
1 0 l
0 1 l
0 1 l
0 0 l
0 1 l
0 0 l
1 1 l
0 0 l
0 0 l
0 1 l
0 0 l
0 0 l
1 1 l
0 0 l
0 0 l
0 0 l
0 0 l
0 1 l
1 0 l
0 0 l
0 0 l
0 0 l
0 0 l
1 -1 l
0 0 l
0 0 l
0 0 l
0 0 l
0 -1 l
1 0 l
0 0 l
0 -1 l
0 0 l
0 -1 l
0 0 l
1 -1 l
0 0 l
0 -1 l
0 -1 l
0 0 l
0 -1 l
1 -1 l
0 -1 l
0 0 l
0 -1 l
0 -1 l
1 -1 l
0 -1 l
0 -1 l
0 -1 l
0 -1 l
0 -1 l
1 -1 l
0 -1 l
0 -1 l
0 -2 l
0 -1 l
0 -1 l
1 -1 l
0 -1 l
0 -2 l
0 -1 l
0 -1 l
0 -2 l
1 -1 l
0 -2 l
0 -1 l
0 -1 l
0 -2 l
1 -1 l
0 -2 l
0 -1 l
0 -2 l
0 -1 l
0 -2 l
1 -1 l
0 -2 l
0 -1 l
0 -2 l
0 -1 l
0 -2 l
1 -1 l
0 -2 l
0 -1 l
0 -2 l
0 -1 l
0 -2 l
1 -2 l
0 -1 l
0 -2 l
0 -1 l
0 -2 l
1 -1 l
0 -2 l
0 -1 l
0 -2 l
0 -1 l
0 -2 l
1 -1 l
0 -2 l
0 -1 l
0 -2 l
0 -1 l
0 -1 l
1 -2 l
0 -1 l
0 -1 l
0 -2 l
0 -1 l
1 -1 l
0 -2 l
0 -1 l
0 -1 l
0 -1 l
0 -1 l
1 -1 l
0 -2 l
0 -1 l
0 -1 l
0 -1 l
0 -1 l
1 -1 l
0 -1 l
0 0 l
0 -1 l
0 -1 l
0 -1 l
1 -1 l
0 -1 l
0 0 l
0 -1 l
0 -1 l
1 0 l
0 -1 l
0 0 l
0 -1 l
0 -1 l
0 0 l
1 0 l
0 -1 l
0 0 l
0 -1 l
0 0 l
0 0 l
1 0 l
0 -1 l
0 0 l
0 0 l
0 0 l
0 0 l
1 0 l
0 0 l
0 0 l
0 0 l
0 0 l
1 0 l
0 0 l
0 0 l
0 0 l
0 0 l
0 0 l
1 1 l
0 0 l
0 0 l
0 0 l
0 1 l
0 0 l
1 0 l
0 1 l
0 0 l
0 1 l
0 0 l
0 0 l
1 1 l
0 0 l
0 1 l
0 0 l
0 1 l
1 0 l
0 1 l
0 0 l
0 1 l
0 1 l
0 0 l
1 1 l
0 0 l
0 1 l
0 0 l
0 1 l
0 1 l
1 0 l
0 1 l
0 0 l
0 1 l
0 0 l
0 1 l
1 1 l
0 0 l
0 1 l
0 0 l
0 1 l
1 0 l
0 1 l
0 0 l
0 1 l
0 0 l
0 1 l
1 0 l
0 1 l
0 0 l
0 1 l
0 0 l
0 0 l
1 1 l
0 0 l
0 0 l
0 1 l
0 0 l
1 0 l
0 0 l
0 1 l
0 0 l
0 0 l
0 0 l
1 0 l
0 0 l
0 0 l
0 0 l
0 0 l
0 0 l
1 0 l
0 0 l
0 0 l
0 0 l
0 0 l
0 0 l
1 0 l
0 -1 l
0 0 l
0 0 l
0 -1 l
1 0 l
0 0 l
0 -1 l
0 0 l
0 -1 l
0 0 l
1 -1 l
0 0 l
0 -1 l
0 -1 l
CS M
0 0 l
0 -1 l
1 -1 l
0 0 l
0 -1 l
0 -1 l
0 -1 l
1 -1 l
0 -1 l
0 -1 l
0 -1 l
0 -1 l
0 -1 l
1 -1 l
0 -1 l
0 -1 l
0 -1 l
0 -1 l
0 -1 l
1 -2 l
0 -1 l
0 -1 l
0 -1 l
0 -2 l
0 -1 l
1 -1 l
0 -2 l
0 -1 l
0 -1 l
0 -2 l
1 -1 l
0 -2 l
0 -1 l
0 -2 l
0 -1 l
0 -2 l
1 -1 l
0 -2 l
0 -1 l
0 -2 l
0 -1 l
0 -2 l
1 -2 l
0 -1 l
0 -2 l
0 -2 l
0 -1 l
1 -2 l
0 -2 l
0 -1 l
0 -2 l
0 -1 l
0 -2 l
1 -2 l
0 -1 l
0 -2 l
0 -2 l
0 -1 l
0 -2 l
1 -2 l
0 -1 l
0 -2 l
0 -2 l
0 -1 l
1 -2 l
0 -1 l
0 -2 l
0 -2 l
0 -1 l
0 -2 l
1 -1 l
0 -2 l
0 -1 l
0 -2 l
0 -1 l
0 -2 l
1 -1 l
0 -2 l
0 -1 l
0 -2 l
0 -1 l
0 -1 l
1 -2 l
0 -1 l
0 -1 l
0 -2 l
0 -1 l
1 -1 l
0 -1 l
0 -2 l
0 -1 l
0 -1 l
0 -1 l
1 -1 l
0 -1 l
0 -1 l
0 -1 l
0 -1 l
0 -1 l
1 -1 l
0 -1 l
0 -1 l
0 -1 l
0 -1 l
0 0 l
1 -1 l
0 -1 l
0 -1 l
0 0 l
0 -1 l
1 0 l
0 -1 l
0 -1 l
0 0 l
0 -1 l
0 0 l
1 -1 l
0 0 l
0 -1 l
0 0 l
0 0 l
0 -1 l
1 0 l
0 0 l
0 0 l
0 -1 l
0 0 l
0 0 l
1 0 l
0 0 l
0 -1 l
0 0 l
0 0 l
1 0 l
0 0 l
0 0 l
0 0 l
0 0 l
0 0 l
1 0 l
0 0 l
0 0 l
0 0 l
0 0 l
0 1 l
1 0 l
0 0 l
0 0 l
0 0 l
0 0 l
0 0 l
1 1 l
0 0 l
0 0 l
0 0 l
0 0 l
1 1 l
0 0 l
0 0 l
0 0 l
0 0 l
0 1 l
1 0 l
0 0 l
0 0 l
0 0 l
0 1 l
0 0 l
1 0 l
0 0 l
0 0 l
0 1 l
0 0 l
1 0 l
0 0 l
0 0 l
0 0 l
0 0 l
0 0 l
1 0 l
0 0 l
0 0 l
0 1 l
0 0 l
0 0 l
1 -1 l
0 0 l
0 0 l
0 0 l
0 0 l
0 0 l
1 0 l
0 0 l
0 0 l
0 0 l
0 -1 l
1 0 l
0 0 l
0 0 l
0 -1 l
0 0 l
0 0 l
1 -1 l
0 0 l
0 -1 l
0 0 l
0 -1 l
0 0 l
1 -1 l
0 0 l
0 -1 l
0 0 l
0 -1 l
0 -1 l
1 0 l
0 -1 l
0 -1 l
0 0 l
0 -1 l
1 -1 l
0 -1 l
0 -1 l
0 -1 l
0 -1 l
0 0 l
1 -1 l
0 -1 l
0 -1 l
0 -1 l
0 -2 l
0 -1 l
1 -1 l
0 -1 l
0 -1 l
0 -1 l
0 -1 l
0 -2 l
1 -1 l
0 -1 l
0 -1 l
0 -2 l
0 -1 l
1 -1 l
0 -2 l
0 -1 l
0 -1 l
0 -2 l
0 -1 l
1 -2 l
0 -1 l
0 -2 l
0 -1 l
0 -2 l
0 -1 l
1 -2 l
0 -1 l
0 -2 l
0 -1 l
0 -2 l
0 -1 l
1 -2 l
0 -2 l
0 -1 l
0 -2 l
0 -2 l
1 -1 l
0 -2 l
0 -1 l
0 -2 l
0 -2 l
0 -1 l
1 -2 l
0 -2 l
0 -1 l
0 -2 l
0 -2 l
0 -1 l
1 -2 l
0 -1 l
0 -2 l
0 -2 l
0 -1 l
1 -2 l
0 -2 l
0 -1 l
0 -2 l
0 -1 l
0 -2 l
1 -1 l
0 -2 l
0 -1 l
0 -2 l
0 -1 l
0 -2 l
1 -1 l
0 -2 l
0 -1 l
0 -2 l
0 -1 l
0 -2 l
CS M
1 -1 l
0 -1 l
0 -2 l
0 -1 l
0 -1 l
1 -2 l
0 -1 l
0 -1 l
0 -1 l
0 -1 l
0 -2 l
1 -1 l
0 -1 l
0 -1 l
0 -1 l
0 -1 l
0 -1 l
1 -1 l
0 -1 l
0 -1 l
0 -1 l
0 -1 l
1 -1 l
0 -1 l
0 -1 l
0 0 l
0 -1 l
0 -1 l
1 -1 l
0 -1 l
0 0 l
0 -1 l
0 -1 l
0 0 l
1 -1 l
0 0 l
0 -1 l
0 0 l
0 -1 l
0 0 l
1 -1 l
0 0 l
0 -1 l
0 0 l
0 -1 l
1 0 l
0 0 l
0 -1 l
0 0 l
0 0 l
0 0 l
1 -1 l
0 0 l
0 0 l
0 0 l
0 0 l
0 -1 l
1 0 l
0 0 l
0 0 l
0 0 l
0 0 l
1 0 l
0 0 l
0 0 l
0 0 l
0 -1 l
0 0 l
1 0 l
0 0 l
0 0 l
0 0 l
0 0 l
0 0 l
1 0 l
0 0 l
0 0 l
0 0 l
0 0 l
0 0 l
1 1 l
0 0 l
0 0 l
0 0 l
0 0 l
1 0 l
0 0 l
0 0 l
0 0 l
0 0 l
0 0 l
1 0 l
0 0 l
0 -1 l
0 0 l
0 0 l
0 0 l
1 0 l
0 0 l
0 0 l
0 0 l
0 0 l
1 0 l
0 -1 l
0 0 l
0 0 l
0 0 l
0 0 l
1 0 l
0 -1 l
0 0 l
0 0 l
0 -1 l
0 0 l
1 0 l
0 0 l
0 -1 l
0 0 l
0 -1 l
0 0 l
1 -1 l
0 0 l
0 0 l
0 -1 l
0 -1 l
1 0 l
0 -1 l
0 0 l
0 -1 l
0 0 l
0 -1 l
1 -1 l
0 -1 l
0 0 l
0 -1 l
0 -1 l
0 -1 l
1 0 l
0 -1 l
0 -1 l
0 -1 l
0 -1 l
0 -1 l
1 -1 l
0 -1 l
0 0 l
0 -2 l
0 -1 l
1 -1 l
0 -1 l
0 -1 l
0 -1 l
0 -1 l
0 -1 l
1 -1 l
0 -1 l
0 -2 l
0 -1 l
0 -1 l
0 -1 l
1 -1 l
0 -2 l
0 -1 l
0 -1 l
0 -2 l
1 -1 l
0 -1 l
0 -1 l
0 -2 l
0 -1 l
0 -2 l
1 -1 l
0 -1 l
0 -2 l
0 -1 l
0 -2 l
0 -1 l
1 -2 l
0 -1 l
0 -1 l
0 -2 l
0 -1 l
0 -2 l
1 -1 l
0 -2 l
0 -1 l
0 -2 l
0 -1 l
1 -2 l
0 -1 l
0 -2 l
0 -1 l
0 -2 l
0 -1 l
1 -2 l
0 -1 l
0 -1 l
0 -2 l
0 -1 l
0 -2 l
1 -1 l
0 -2 l
0 -1 l
0 -2 l
0 -1 l
0 -1 l
1 -2 l
0 -1 l
0 -2 l
0 -1 l
0 -1 l
1 -2 l
0 -1 l
0 -1 l
0 -1 l
0 -2 l
0 -1 l
1 -1 l
0 -1 l
0 -2 l
0 -1 l
0 -1 l
0 -1 l
1 -1 l
0 -1 l
0 -1 l
0 -1 l
0 -2 l
0 -1 l
1 -1 l
0 -1 l
0 -1 l
0 -1 l
0 0 l
1 -1 l
0 -1 l
0 -1 l
0 -1 l
0 -1 l
0 -1 l
1 0 l
0 -1 l
0 -1 l
0 -1 l
0 0 l
0 -1 l
1 -1 l
0 0 l
0 -1 l
0 0 l
0 -1 l
0 -1 l
1 0 l
0 -1 l
0 0 l
0 0 l
0 -1 l
1 0 l
0 -1 l
0 0 l
0 0 l
0 -1 l
0 0 l
1 0 l
0 -1 l
0 0 l
0 0 l
0 -1 l
0 0 l
1 0 l
0 0 l
0 0 l
0 0 l
0 -1 l
0 0 l
1 0 l
0 0 l
0 0 l
0 0 l
0 0 l
1 0 l
0 0 l
0 0 l
0 0 l
0 0 l
0 0 l
1 0 l
0 0 l
0 0 l
0 0 l
0 0 l
0 0 l
1 0 l
0 0 l
0 0 l
0 0 l
0 0 l
0 0 l
1 0 l
0 0 l
CS M
0 0 l
0 0 l
0 0 l
1 0 l
0 0 l
0 0 l
0 0 l
0 0 l
0 0 l
1 0 l
0 0 l
0 0 l
0 0 l
0 0 l
0 0 l
1 0 l
0 0 l
0 -1 l
0 0 l
0 0 l
1 0 l
0 0 l
0 0 l
0 0 l
0 0 l
0 -1 l
1 0 l
0 0 l
0 0 l
0 0 l
0 -1 l
0 0 l
1 0 l
0 -1 l
0 0 l
0 0 l
0 -1 l
0 0 l
1 0 l
0 -1 l
0 0 l
0 0 l
0 -1 l
1 0 l
0 -1 l
0 0 l
0 -1 l
0 0 l
0 -1 l
1 -1 l
0 0 l
0 -1 l
0 0 l
0 -1 l
0 -1 l
1 0 l
0 -1 l
0 -1 l
0 0 l
0 -1 l
1 -1 l
0 -1 l
0 -1 l
0 0 l
0 -1 l
0 -1 l
1 -1 l
0 -1 l
0 -1 l
0 -1 l
0 -1 l
0 0 l
1 -1 l
0 -1 l
0 -1 l
0 -1 l
0 -1 l
1 -1 l
0 -1 l
0 -1 l
0 -1 l
0 -2 l
0 -1 l
1 -1 l
0 -1 l
0 -1 l
0 -1 l
0 -1 l
0 -1 l
1 -1 l
0 -2 l
0 -1 l
0 -1 l
0 -1 l
0 -1 l
1 -1 l
0 -1 l
0 -2 l
0 -1 l
0 -1 l
1 -1 l
0 -1 l
0 -2 l
0 -1 l
0 -1 l
0 -1 l
1 -1 l
0 -1 l
0 -2 l
0 -1 l
0 -1 l
0 -1 l
1 -1 l
0 -1 l
0 -2 l
0 -1 l
0 -1 l
1 -1 l
0 -1 l
0 -1 l
0 -1 l
0 -1 l
0 -1 l
1 -1 l
0 -2 l
0 -1 l
0 -1 l
0 -1 l
0 -1 l
1 -1 l
0 -1 l
0 -1 l
0 -1 l
0 0 l
0 -1 l
1 -1 l
0 -1 l
0 -1 l
0 -1 l
0 -1 l
1 -1 l
0 0 l
0 -1 l
0 -1 l
0 -1 l
0 0 l
1 -1 l
0 -1 l
0 -1 l
0 0 l
0 -1 l
0 0 l
1 -1 l
0 -1 l
0 0 l
0 -1 l
0 0 l
0 -1 l
1 0 l
0 -1 l
0 0 l
0 -1 l
0 0 l
1 0 l
0 -1 l
0 0 l
0 0 l
0 -1 l
0 0 l
1 0 l
0 -1 l
0 0 l
0 0 l
0 0 l
0 0 l
1 -1 l
0 0 l
0 0 l
0 0 l
0 0 l
1 0 l
0 0 l
0 0 l
0 0 l
0 0 l
0 0 l
1 0 l
0 0 l
0 0 l
0 0 l
0 0 l
0 0 l
1 0 l
0 0 l
0 0 l
0 0 l
0 0 l
0 0 l
1 1 l
0 0 l
0 0 l
0 0 l
0 0 l
0 0 l
1 0 l
0 1 l
0 0 l
0 0 l
0 0 l
1 0 l
0 1 l
0 0 l
0 0 l
0 0 l
0 0 l
1 0 l
0 1 l
0 0 l
0 0 l
0 0 l
0 0 l
1 1 l
0 0 l
0 0 l
0 0 l
0 0 l
0 0 l
1 0 l
0 1 l
0 0 l
0 0 l
0 0 l
1 0 l
0 0 l
0 0 l
0 0 l
0 0 l
0 0 l
1 0 l
0 1 l
0 0 l
0 0 l
0 0 l
0 0 l
1 -1 l
0 0 l
0 0 l
0 0 l
0 0 l
1 0 l
0 0 l
0 0 l
0 0 l
0 0 l
0 0 l
1 -1 l
0 0 l
0 0 l
0 0 l
0 0 l
0 -1 l
1 0 l
0 0 l
0 -1 l
0 0 l
0 0 l
1 -1 l
0 0 l
0 0 l
0 -1 l
0 0 l
0 0 l
1 -1 l
0 0 l
0 -1 l
0 0 l
0 -1 l
0 0 l
1 -1 l
0 0 l
0 -1 l
0 0 l
0 -1 l
0 0 l
1 -1 l
0 -1 l
0 0 l
0 -1 l
0 0 l
1 -1 l
0 -1 l
0 0 l
0 -1 l
0 -1 l
0 0 l
1 -1 l
0 -1 l
0 -1 l
0 0 l
0 -1 l
CS M
0 -1 l
1 -1 l
0 0 l
0 -1 l
0 -1 l
0 -1 l
0 0 l
1 -1 l
0 -1 l
0 -1 l
0 -1 l
0 0 l
1 -1 l
0 -1 l
0 -1 l
0 0 l
0 -1 l
0 -1 l
1 -1 l
0 -1 l
0 0 l
0 -1 l
0 -1 l
0 -1 l
1 0 l
0 -1 l
0 -1 l
0 -1 l
0 -1 l
0 0 l
1 -1 l
0 -1 l
0 0 l
0 -1 l
0 -1 l
1 -1 l
0 0 l
0 -1 l
0 -1 l
0 0 l
0 -1 l
1 -1 l
0 0 l
0 -1 l
0 0 l
0 -1 l
0 -1 l
1 0 l
0 -1 l
0 0 l
0 -1 l
0 0 l
0 -1 l
1 0 l
0 -1 l
0 0 l
0 -1 l
0 0 l
1 0 l
0 -1 l
0 0 l
0 0 l
0 -1 l
0 0 l
1 0 l
0 -1 l
0 0 l
0 0 l
0 0 l
0 -1 l
1 0 l
0 0 l
0 0 l
0 0 l
0 0 l
1 0 l
0 -1 l
0 0 l
0 0 l
0 0 l
0 0 l
1 0 l
0 0 l
0 0 l
0 0 l
0 0 l
0 0 l
1 0 l
0 1 l
0 0 l
0 0 l
0 0 l
0 0 l
1 0 l
0 0 l
0 1 l
0 0 l
0 0 l
1 0 l
0 1 l
0 0 l
0 0 l
0 0 l
0 1 l
1 0 l
0 0 l
0 1 l
0 0 l
0 0 l
0 1 l
1 0 l
0 0 l
0 1 l
0 0 l
0 0 l
1 1 l
0 0 l
0 1 l
0 0 l
0 0 l
0 1 l
1 0 l
0 1 l
0 0 l
0 0 l
0 1 l
0 0 l
1 1 l
0 0 l
0 1 l
0 0 l
0 0 l
0 1 l
1 0 l
0 1 l
0 0 l
0 0 l
0 1 l
1 0 l
0 1 l
0 0 l
0 0 l
0 1 l
0 0 l
1 0 l
0 1 l
0 0 l
0 0 l
0 1 l
0 0 l
1 0 l
0 1 l
0 0 l
0 0 l
0 0 l
1 1 l
0 0 l
0 0 l
0 0 l
0 1 l
0 0 l
1 0 l
0 0 l
0 0 l
0 1 l
0 0 l
0 0 l
1 0 l
0 0 l
0 0 l
0 0 l
0 0 l
0 0 l
1 0 l
0 0 l
0 0 l
0 0 l
0 0 l
1 0 l
0 0 l
0 0 l
0 0 l
0 0 l
0 0 l
1 0 l
0 0 l
0 0 l
0 0 l
0 0 l
0 0 l
1 -1 l
0 0 l
0 0 l
0 0 l
0 0 l
0 -1 l
1 0 l
0 0 l
0 0 l
0 -1 l
0 0 l
1 0 l
0 0 l
0 -1 l
0 0 l
0 0 l
0 -1 l
1 0 l
0 0 l
0 -1 l
0 0 l
0 0 l
0 -1 l
1 0 l
0 0 l
0 -1 l
0 0 l
0 -1 l
0 0 l
1 0 l
0 -1 l
0 0 l
0 -1 l
0 0 l
1 0 l
0 -1 l
0 0 l
0 -1 l
0 0 l
0 0 l
1 -1 l
0 0 l
0 -1 l
0 0 l
0 -1 l
0 0 l
1 0 l
0 -1 l
0 0 l
0 0 l
0 -1 l
0 0 l
1 -1 l
0 0 l
0 0 l
0 -1 l
0 0 l
1 0 l
0 -1 l
0 0 l
0 0 l
0 -1 l
0 0 l
1 0 l
0 -1 l
0 0 l
0 0 l
0 0 l
0 -1 l
1 0 l
0 0 l
0 0 l
0 0 l
0 -1 l
1 0 l
0 0 l
0 0 l
0 0 l
0 0 l
0 0 l
1 -1 l
0 0 l
0 0 l
0 0 l
0 0 l
0 0 l
1 0 l
0 0 l
0 0 l
0 0 l
0 0 l
1 0 l
0 0 l
0 0 l
0 1 l
0 0 l
0 0 l
1 0 l
0 0 l
0 0 l
0 0 l
0 1 l
0 0 l
1 0 l
0 0 l
0 0 l
0 1 l
0 0 l
0 0 l
1 1 l
CS M
0 0 l
0 0 l
0 1 l
0 0 l
1 0 l
0 1 l
0 0 l
0 1 l
0 0 l
0 0 l
1 1 l
0 0 l
0 1 l
0 0 l
0 1 l
0 0 l
1 1 l
0 0 l
0 1 l
0 0 l
0 1 l
0 0 l
1 1 l
0 0 l
0 1 l
0 0 l
0 1 l
1 0 l
0 1 l
0 1 l
0 0 l
0 1 l
0 0 l
1 1 l
0 0 l
0 1 l
0 1 l
0 0 l
0 1 l
1 0 l
0 1 l
0 1 l
0 0 l
0 1 l
0 0 l
1 1 l
0 0 l
0 1 l
0 1 l
0 0 l
1 1 l
0 0 l
0 1 l
0 1 l
0 0 l
0 1 l
1 0 l
0 1 l
0 0 l
0 1 l
0 0 l
0 1 l
1 0 l
0 1 l
0 0 l
0 1 l
0 0 l
0 1 l
1 0 l
0 1 l
0 0 l
0 0 l
0 1 l
1 0 l
0 1 l
0 0 l
0 0 l
0 1 l
0 0 l
1 0 l
0 1 l
0 0 l
0 0 l
0 1 l
0 0 l
1 0 l
0 1 l
0 0 l
0 0 l
0 0 l
0 1 l
1 0 l
0 0 l
0 0 l
0 0 l
0 1 l
1 0 l
0 0 l
0 0 l
0 0 l
0 0 l
0 0 l
1 0 l
0 0 l
0 1 l
0 0 l
0 0 l
0 0 l
1 0 l
0 0 l
0 0 l
0 0 l
0 0 l
1 0 l
0 0 l
0 0 l
0 0 l
0 0 l
0 0 l
1 0 l
0 0 l
0 -1 l
0 0 l
0 0 l
0 0 l
1 0 l
0 0 l
0 0 l
0 0 l
0 0 l
1 0 l
0 0 l
0 -1 l
0 0 l
0 0 l
0 0 l
1 0 l
0 0 l
0 0 l
0 -1 l
0 0 l
0 0 l
1 0 l
0 0 l
0 0 l
0 0 l
0 -1 l
0 0 l
1 0 l
0 0 l
0 0 l
0 0 l
0 0 l
1 -1 l
0 0 l
0 0 l
0 0 l
0 0 l
0 0 l
1 0 l
0 0 l
0 0 l
0 -1 l
0 0 l
0 0 l
1 0 l
0 0 l
0 0 l
0 0 l
0 0 l
1 0 l
0 0 l
0 0 l
0 0 l
0 0 l
0 0 l
1 0 l
0 0 l
0 0 l
0 0 l
0 0 l
0 0 l
1 0 l
0 0 l
0 1 l
0 0 l
0 0 l
0 0 l
1 0 l
0 0 l
0 0 l
0 1 l
0 0 l
1 0 l
0 0 l
0 0 l
0 1 l
0 0 l
0 0 l
1 0 l
0 1 l
0 0 l
0 0 l
0 1 l
0 0 l
1 0 l
0 1 l
0 0 l
0 0 l
0 1 l
0 0 l
1 1 l
0 0 l
0 0 l
0 1 l
0 0 l
1 1 l
0 0 l
0 1 l
0 0 l
0 1 l
0 0 l
1 1 l
0 0 l
0 1 l
0 0 l
0 1 l
0 0 l
1 1 l
0 1 l
0 0 l
0 1 l
0 0 l
0 1 l
1 0 l
0 1 l
0 1 l
0 0 l
0 1 l
1 0 l
0 1 l
0 1 l
0 0 l
0 1 l
0 1 l
1 0 l
0 1 l
0 1 l
0 0 l
0 1 l
0 1 l
1 0 l
0 1 l
0 1 l
0 0 l
0 1 l
0 0 l
1 1 l
0 1 l
0 0 l
0 1 l
0 1 l
1 0 l
0 1 l
0 1 l
0 0 l
0 1 l
0 0 l
1 1 l
0 1 l
0 0 l
0 1 l
0 0 l
0 1 l
1 1 l
0 0 l
0 1 l
0 0 l
0 1 l
0 0 l
1 1 l
0 0 l
0 1 l
0 0 l
0 1 l
1 0 l
0 1 l
0 1 l
0 0 l
0 0 l
0 1 l
1 0 l
0 1 l
0 0 l
0 1 l
0 0 l
0 0 l
1 1 l
0 0 l
0 1 l
CS M
0 0 l
0 0 l
1 1 l
0 0 l
0 0 l
0 1 l
0 0 l
0 0 l
1 1 l
0 0 l
0 0 l
0 0 l
0 1 l
0 0 l
1 0 l
0 0 l
0 1 l
0 0 l
0 0 l
1 0 l
0 0 l
0 0 l
0 1 l
0 0 l
0 0 l
1 0 l
0 0 l
0 0 l
0 0 l
0 0 l
0 1 l
1 0 l
0 0 l
0 0 l
0 0 l
0 0 l
0 0 l
1 0 l
0 0 l
0 0 l
0 0 l
0 0 l
1 0 l
0 0 l
0 0 l
0 0 l
0 0 l
0 0 l
1 0 l
0 0 l
0 0 l
0 0 l
0 0 l
0 0 l
1 0 l
0 0 l
0 0 l
0 0 l
0 0 l
0 0 l
1 0 l
0 0 l
0 0 l
0 0 l
0 0 l
1 0 l
0 0 l
0 0 l
0 0 l
0 0 l
0 0 l
1 0 l
0 0 l
0 0 l
0 0 l
0 0 l
0 0 l
1 0 l
0 0 l
0 0 l
0 0 l
0 0 l
0 0 l
1 0 l
0 0 l
0 0 l
0 0 l
0 0 l
1 1 l
0 0 l
0 0 l
0 0 l
0 0 l
0 0 l
1 0 l
0 0 l
0 0 l
0 1 l
0 0 l
0 0 l
1 0 l
0 0 l
0 0 l
0 1 l
0 0 l
0 0 l
1 0 l
0 1 l
0 0 l
0 0 l
0 0 l
1 1 l
0 0 l
0 0 l
0 1 l
0 0 l
0 0 l
1 1 l
0 0 l
0 0 l
0 1 l
0 0 l
0 0 l
1 1 l
0 0 l
0 0 l
0 1 l
0 0 l
1 1 l
0 0 l
0 1 l
0 0 l
0 1 l
0 0 l
1 0 l
0 1 l
0 1 l
0 0 l
0 1 l
0 0 l
1 0 l
0 1 l
0 1 l
0 0 l
0 1 l
0 0 l
1 1 l
0 0 l
0 1 l
0 0 l
0 1 l
1 1 l
0 0 l
0 1 l
0 0 l
0 1 l
0 0 l
1 1 l
0 1 l
0 0 l
0 1 l
0 1 l
0 0 l
1 1 l
0 0 l
0 1 l
0 1 l
0 0 l
1 1 l
0 0 l
0 1 l
0 0 l
0 1 l
0 1 l
1 0 l
0 1 l
0 0 l
0 1 l
0 1 l
0 0 l
1 1 l
0 0 l
0 1 l
0 0 l
0 1 l
0 1 l
1 0 l
0 1 l
0 0 l
0 1 l
0 0 l
1 1 l
0 0 l
0 1 l
0 0 l
0 1 l
0 0 l
1 1 l
0 1 l
0 0 l
0 0 l
0 1 l
0 0 l
1 1 l
0 0 l
0 1 l
0 0 l
0 1 l
1 0 l
0 0 l
0 1 l
0 0 l
0 0 l
0 1 l
1 0 l
0 1 l
0 0 l
0 0 l
0 1 l
0 0 l
1 0 l
0 0 l
0 1 l
0 0 l
0 0 l
0 1 l
1 0 l
0 0 l
0 0 l
0 1 l
0 0 l
1 0 l
0 0 l
0 0 l
0 1 l
0 0 l
0 0 l
1 0 l
0 0 l
0 0 l
0 1 l
0 0 l
0 0 l
1 0 l
0 0 l
0 0 l
0 0 l
0 1 l
0 0 l
1 0 l
0 0 l
0 0 l
0 0 l
0 0 l
1 0 l
0 0 l
0 0 l
0 0 l
0 0 l
0 0 l
1 0 l
0 0 l
0 0 l
0 0 l
0 0 l
0 0 l
1 0 l
0 0 l
0 0 l
0 0 l
0 0 l
0 0 l
1 0 l
0 0 l
0 0 l
0 0 l
0 0 l
1 0 l
0 0 l
0 0 l
0 0 l
0 0 l
0 0 l
1 0 l
0 0 l
0 0 l
0 0 l
0 0 l
0 0 l
1 0 l
0 0 l
0 0 l
0 0 l
0 1 l
0 0 l
1 0 l
0 0 l
0 0 l
0 0 l
0 0 l
CS M
1 0 l
0 0 l
0 0 l
0 0 l
0 0 l
0 0 l
1 0 l
0 0 l
0 0 l
0 1 l
0 0 l
0 0 l
1 0 l
0 0 l
0 0 l
0 0 l
0 0 l
0 1 l
1 0 l
0 0 l
0 0 l
0 0 l
0 1 l
1 0 l
0 0 l
0 0 l
0 0 l
0 1 l
0 0 l
1 0 l
0 0 l
0 1 l
0 0 l
0 0 l
0 0 l
1 1 l
0 0 l
0 0 l
0 1 l
0 0 l
1 0 l
0 1 l
0 0 l
0 0 l
0 1 l
0 0 l
1 0 l
0 1 l
0 0 l
0 0 l
0 1 l
0 0 l
1 1 l
0 0 l
0 0 l
0 1 l
0 0 l
1 1 l
0 0 l
0 1 l
0 0 l
0 1 l
0 0 l
1 0 l
0 1 l
0 0 l
0 1 l
0 0 l
0 1 l
1 0 l
0 1 l
0 0 l
0 1 l
0 0 l
0 1 l
1 0 l
0 1 l
0 0 l
0 1 l
0 0 l
1 1 l
0 0 l
0 1 l
0 0 l
0 1 l
0 0 l
1 1 l
0 0 l
0 0 l
0 1 l
0 0 l
0 1 l
1 0 l
0 1 l
0 0 l
0 1 l
0 0 l
0 1 l
1 0 l
0 1 l
0 0 l
0 1 l
0 0 l
1 1 l
0 0 l
0 0 l
0 1 l
0 0 l
0 1 l
1 0 l
0 1 l
0 0 l
0 0 l
0 1 l
0 0 l
1 1 l
0 0 l
0 0 l
0 1 l
0 0 l
0 0 l
1 1 l
0 0 l
0 0 l
0 1 l
0 0 l
1 0 l
0 1 l
0 0 l
0 0 l
0 0 l
0 1 l
1 0 l
0 0 l
0 1 l
0 0 l
0 0 l
0 0 l
1 1 l
0 0 l
0 0 l
0 0 l
0 0 l
0 1 l
1 0 l
0 0 l
0 0 l
0 0 l
0 0 l
1 1 l
0 0 l
0 0 l
0 0 l
0 0 l
0 0 l
1 0 l
0 0 l
0 0 l
0 0 l
0 1 l
0 0 l
1 0 l
0 0 l
0 0 l
0 0 l
0 0 l
1 0 l
0 0 l
0 0 l
0 0 l
0 0 l
0 0 l
1 0 l
0 0 l
0 0 l
0 0 l
0 0 l
0 0 l
1 0 l
0 0 l
0 0 l
0 0 l
0 0 l
1 0 l
0 0 l
0 0 l
0 0 l
0 0 l
0 0 l
1 0 l
0 0 l
0 -1 l
0 0 l
0 0 l
0 0 l
1 0 l
0 0 l
0 0 l
0 0 l
0 0 l
0 0 l
1 0 l
0 0 l
0 0 l
0 0 l
0 0 l
1 0 l
0 0 l
0 0 l
0 0 l
0 0 l
0 0 l
1 0 l
0 0 l
0 0 l
0 0 l
0 0 l
0 0 l
1 0 l
0 0 l
0 0 l
0 0 l
0 0 l
1 0 l
0 0 l
0 0 l
0 0 l
0 0 l
0 0 l
1 0 l
0 0 l
0 0 l
0 0 l
0 0 l
0 0 l
1 0 l
0 1 l
0 0 l
0 0 l
0 0 l
0 0 l
1 0 l
0 0 l
0 0 l
0 0 l
0 1 l
1 0 l
0 0 l
0 0 l
0 0 l
0 0 l
0 1 l
1 0 l
0 0 l
0 0 l
0 0 l
0 1 l
0 0 l
1 0 l
0 0 l
0 1 l
0 0 l
0 0 l
1 0 l
0 1 l
0 0 l
0 0 l
0 0 l
0 1 l
1 0 l
0 0 l
0 1 l
0 0 l
0 0 l
0 0 l
1 1 l
0 0 l
0 0 l
0 1 l
0 0 l
0 0 l
1 1 l
0 0 l
0 0 l
0 1 l
0 0 l
1 0 l
0 1 l
0 0 l
0 0 l
0 1 l
0 0 l
1 0 l
0 1 l
0 0 l
0 1 l
0 0 l
0 0 l
1 1 l
0 0 l
CS M
0 0 l
0 1 l
0 0 l
0 0 l
1 1 l
0 0 l
0 0 l
0 1 l
0 0 l
1 1 l
0 0 l
0 0 l
0 1 l
0 0 l
0 0 l
1 0 l
0 1 l
0 0 l
0 0 l
0 1 l
0 0 l
1 0 l
0 1 l
0 0 l
0 0 l
0 1 l
0 0 l
1 0 l
0 0 l
0 1 l
0 0 l
0 0 l
1 1 l
0 0 l
0 0 l
0 0 l
0 1 l
0 0 l
1 0 l
0 0 l
0 1 l
0 0 l
0 0 l
0 0 l
1 0 l
0 1 l
0 0 l
0 0 l
0 0 l
0 0 l
1 0 l
0 1 l
0 0 l
0 0 l
0 0 l
1 0 l
0 0 l
0 0 l
0 0 l
0 0 l
0 1 l
1 0 l
0 0 l
0 0 l
0 0 l
0 0 l
0 0 l
1 0 l
0 0 l
0 0 l
0 0 l
0 0 l
1 0 l
0 0 l
0 0 l
0 0 l
0 0 l
0 0 l
1 0 l
0 0 l
0 0 l
0 0 l
0 0 l
0 0 l
1 0 l
0 0 l
0 0 l
0 0 l
0 0 l
0 0 l
1 0 l
0 0 l
0 0 l
0 -1 l
0 0 l
1 0 l
0 0 l
0 0 l
0 0 l
0 0 l
0 0 l
1 0 l
0 0 l
0 0 l
0 -1 l
0 0 l
0 0 l
1 0 l
0 0 l
0 0 l
0 0 l
0 0 l
1 0 l
0 -1 l
0 0 l
0 0 l
0 0 l
0 0 l
1 0 l
0 0 l
0 0 l
0 0 l
0 -1 l
0 0 l
1 0 l
0 0 l
0 0 l
0 0 l
0 0 l
0 0 l
1 0 l
0 0 l
0 0 l
0 -1 l
0 0 l
1 0 l
0 0 l
0 0 l
0 0 l
0 0 l
0 0 l
1 0 l
0 0 l
0 0 l
0 0 l
0 0 l
0 0 l
1 0 l
0 0 l
0 0 l
0 0 l
0 0 l
0 0 l
1 0 l
0 0 l
0 0 l
0 0 l
0 0 l
1 0 l
0 0 l
0 0 l
0 0 l
0 0 l
0 0 l
1 0 l
0 0 l
0 0 l
0 0 l
0 0 l
0 0 l
1 0 l
0 1 l
0 0 l
0 0 l
0 0 l
0 0 l
1 0 l
0 0 l
0 0 l
0 1 l
0 0 l
1 0 l
0 0 l
0 0 l
0 0 l
0 0 l
0 1 l
1 0 l
0 0 l
0 0 l
0 0 l
0 0 l
0 1 l
1 0 l
0 0 l
0 0 l
0 0 l
0 1 l
0 0 l
1 0 l
0 0 l
0 0 l
0 1 l
0 0 l
1 0 l
0 0 l
0 1 l
0 0 l
0 0 l
0 0 l
1 0 l
0 1 l
0 0 l
0 0 l
0 0 l
0 0 l
1 1 l
0 0 l
0 0 l
0 0 l
0 1 l
1 0 l
0 0 l
0 0 l
0 1 l
0 0 l
0 0 l
1 0 l
0 0 l
0 1 l
0 0 l
0 0 l
0 0 l
1 0 l
0 1 l
0 0 l
0 0 l
0 0 l
0 0 l
1 1 l
0 0 l
0 0 l
0 0 l
0 0 l
1 0 l
0 1 l
0 0 l
0 0 l
0 0 l
0 0 l
1 0 l
0 0 l
0 1 l
0 0 l
0 0 l
0 0 l
1 0 l
0 0 l
0 0 l
0 0 l
0 1 l
1 0 l
0 0 l
0 0 l
0 0 l
0 0 l
0 0 l
1 0 l
0 0 l
0 0 l
0 0 l
0 0 l
0 0 l
1 0 l
0 0 l
0 0 l
0 0 l
0 0 l
0 0 l
1 0 l
0 0 l
0 0 l
0 0 l
0 0 l
1 0 l
0 0 l
0 0 l
0 0 l
0 0 l
0 0 l
1 0 l
0 0 l
0 0 l
0 0 l
0 0 l
0 0 l
1 -1 l
0 0 l
0 0 l
0 0 l
CS M
0 0 l
1 0 l
0 0 l
0 0 l
0 0 l
0 -1 l
0 0 l
1 0 l
0 0 l
0 0 l
0 0 l
0 0 l
0 -1 l
1 0 l
0 0 l
0 0 l
0 0 l
0 0 l
0 0 l
1 -1 l
0 0 l
0 0 l
0 0 l
0 0 l
1 -1 l
0 0 l
0 0 l
0 0 l
0 0 l
0 0 l
1 -1 l
0 0 l
0 0 l
0 0 l
0 0 l
0 0 l
1 0 l
0 -1 l
0 0 l
0 0 l
0 0 l
0 0 l
1 0 l
0 -1 l
0 0 l
0 0 l
0 0 l
1 0 l
0 0 l
0 -1 l
0 0 l
0 0 l
0 0 l
1 0 l
0 0 l
0 0 l
0 -1 l
0 0 l
0 0 l
1 0 l
0 0 l
0 0 l
0 0 l
0 0 l
0 0 l
1 0 l
0 -1 l
0 0 l
0 0 l
0 0 l
1 0 l
0 0 l
0 0 l
0 0 l
0 0 l
0 0 l
1 0 l
0 0 l
0 0 l
0 0 l
0 0 l
0 -1 l
1 0 l
0 0 l
0 0 l
0 0 l
0 0 l
0 0 l
1 0 l
0 0 l
0 0 l
0 0 l
0 0 l
1 0 l
0 1 l
0 0 l
0 0 l
0 0 l
0 0 l
1 0 l
0 0 l
0 0 l
0 0 l
0 0 l
0 0 l
1 0 l
0 0 l
0 0 l
0 0 l
0 0 l
1 1 l
0 0 l
0 0 l
0 0 l
0 0 l
0 0 l
1 0 l
0 0 l
0 0 l
0 0 l
0 0 l
0 1 l
1 0 l
0 0 l
0 0 l
0 0 l
0 0 l
1 0 l
0 0 l
0 0 l
0 1 l
0 0 l
0 0 l
1 0 l
0 0 l
0 0 l
0 0 l
0 0 l
0 1 l
1 0 l
0 0 l
0 0 l
0 0 l
0 0 l
0 0 l
1 0 l
0 0 l
0 1 l
0 0 l
0 0 l
1 0 l
0 0 l
0 0 l
0 0 l
0 0 l
0 0 l
1 0 l
0 0 l
0 1 l
0 0 l
0 0 l
0 0 l
1 0 l
0 0 l
0 0 l
0 0 l
0 0 l
0 0 l
1 0 l
0 0 l
0 0 l
0 0 l
0 0 l
1 0 l
0 0 l
0 0 l
0 0 l
0 0 l
0 0 l
1 0 l
0 0 l
0 0 l
0 0 l
0 0 l
0 0 l
1 0 l
0 0 l
0 0 l
0 0 l
0 0 l
0 0 l
1 0 l
0 0 l
0 0 l
0 0 l
0 0 l
1 0 l
0 0 l
0 0 l
0 0 l
0 -1 l
0 0 l
1 0 l
0 0 l
0 0 l
0 0 l
0 0 l
0 0 l
1 0 l
0 -1 l
0 0 l
0 0 l
0 0 l
0 0 l
1 0 l
0 0 l
0 -1 l
0 0 l
0 0 l
1 0 l
0 0 l
0 0 l
0 -1 l
0 0 l
0 0 l
1 0 l
0 0 l
0 0 l
0 -1 l
0 0 l
0 0 l
1 0 l
0 0 l
0 -1 l
0 0 l
0 0 l
1 0 l
0 0 l
0 -1 l
0 0 l
0 0 l
0 0 l
1 0 l
0 -1 l
0 0 l
0 0 l
0 0 l
0 -1 l
1 0 l
0 0 l
0 0 l
0 0 l
0 -1 l
0 0 l
1 0 l
0 0 l
0 0 l
0 -1 l
0 0 l
1 0 l
0 0 l
0 0 l
0 -1 l
0 0 l
0 0 l
1 0 l
0 0 l
0 -1 l
0 0 l
0 0 l
0 0 l
1 0 l
0 -1 l
0 0 l
0 0 l
0 0 l
1 0 l
0 0 l
0 0 l
0 -1 l
0 0 l
0 0 l
1 0 l
0 0 l
0 0 l
0 0 l
0 -1 l
0 0 l
1 0 l
0 0 l
0 0 l
0 0 l
0 0 l
0 0 l
1 -1 l
0 0 l
0 0 l
0 0 l
0 0 l
1 0 l
CS M
0 0 l
0 0 l
0 0 l
0 0 l
0 0 l
1 0 l
0 0 l
0 -1 l
0 0 l
0 0 l
0 0 l
1 0 l
0 0 l
0 0 l
0 0 l
0 0 l
1 0 l
0 0 l
0 0 l
0 0 l
0 0 l
0 0 l
1 0 l
0 0 l
0 0 l
0 0 l
0 0 l
0 0 l
1 0 l
0 0 l
0 0 l
0 0 l
0 0 l
0 0 l
1 0 l
0 0 l
0 0 l
0 0 l
0 0 l
1 0 l
0 0 l
0 1 l
0 0 l
0 0 l
0 0 l
1 0 l
0 0 l
0 0 l
0 0 l
0 0 l
0 0 l
1 0 l
0 0 l
0 0 l
0 0 l
0 0 l
0 0 l
1 0 l
0 0 l
0 0 l
0 0 l
0 0 l
1 0 l
0 0 l
0 0 l
0 1 l
0 0 l
0 0 l
1 0 l
0 0 l
0 0 l
0 0 l
0 0 l
0 0 l
1 0 l
0 0 l
0 0 l
0 0 l
0 0 l
0 0 l
1 0 l
0 0 l
0 0 l
0 0 l
0 0 l
1 0 l
0 0 l
0 0 l
0 0 l
0 0 l
0 0 l
1 0 l
0 0 l
0 0 l
0 0 l
0 0 l
0 -1 l
1 0 l
0 0 l
0 0 l
0 0 l
0 0 l
0 0 l
1 0 l
0 0 l
0 0 l
0 0 l
0 0 l
1 0 l
0 -1 l
0 0 l
0 0 l
0 0 l
0 0 l
1 0 l
0 0 l
0 0 l
0 0 l
0 0 l
0 -1 l
1 0 l
0 0 l
0 0 l
0 0 l
0 0 l
0 -1 l
1 0 l
0 0 l
0 0 l
0 0 l
0 0 l
1 -1 l
0 0 l
0 0 l
0 0 l
0 0 l
0 0 l
1 -1 l
0 0 l
0 0 l
0 0 l
0 0 l
0 -1 l
1 0 l
0 0 l
0 0 l
0 0 l
0 -1 l
1 0 l
0 0 l
0 0 l
0 0 l
0 -1 l
0 0 l
1 0 l
0 0 l
0 -1 l
0 0 l
0 0 l
0 0 l
1 0 l
0 -1 l
0 0 l
0 0 l
0 0 l
1 -1 l
0 0 l
0 0 l
0 0 l
0 0 l
0 -1 l
1 0 l
0 0 l
0 0 l
0 -1 l
0 0 l
0 0 l
1 0 l
0 0 l
0 -1 l
0 0 l
0 0 l
0 0 l
1 0 l
0 -1 l
0 0 l
0 0 l
0 0 l
1 0 l
0 -1 l
0 0 l
0 0 l
0 0 l
0 0 l
1 0 l
0 -1 l
0 0 l
0 0 l
0 0 l
0 0 l
1 -1 l
0 0 l
0 0 l
0 0 l
0 0 l
0 0 l
1 0 l
0 -1 l
0 0 l
0 0 l
0 0 l
1 0 l
0 0 l
0 0 l
0 0 l
0 0 l
0 -1 l
1 0 l
0 0 l
0 0 l
0 0 l
0 0 l
0 0 l
1 0 l
0 0 l
0 0 l
0 -1 l
0 0 l
0 0 l
1 0 l
0 0 l
0 0 l
0 0 l
0 0 l
1 0 l
0 0 l
0 0 l
0 0 l
0 0 l
0 0 l
1 0 l
0 0 l
0 0 l
0 0 l
0 0 l
0 0 l
1 0 l
0 0 l
0 0 l
0 0 l
0 0 l
0 0 l
1 0 l
0 0 l
0 0 l
0 0 l
0 0 l
1 0 l
0 0 l
0 0 l
0 0 l
0 0 l
0 0 l
1 0 l
0 0 l
0 0 l
0 0 l
0 0 l
0 0 l
1 0 l
0 0 l
0 0 l
0 0 l
0 0 l
1 0 l
0 0 l
0 0 l
0 0 l
0 0 l
0 0 l
1 0 l
0 0 l
0 0 l
0 0 l
0 0 l
0 0 l
1 0 l
0 0 l
0 0 l
0 0 l
0 0 l
0 0 l
1 0 l
0 0 l
0 0 l
0 0 l
0 -1 l
1 0 l
0 0 l
0 0 l
CS M
0 0 l
0 0 l
0 0 l
1 0 l
0 0 l
0 0 l
0 0 l
0 0 l
0 0 l
1 0 l
0 0 l
0 0 l
0 0 l
0 0 l
1 0 l
0 0 l
0 0 l
0 -1 l
0 0 l
0 0 l
1 0 l
0 0 l
0 0 l
0 0 l
0 0 l
0 0 l
1 0 l
0 0 l
0 -1 l
0 0 l
0 0 l
1 0 l
0 0 l
0 0 l
0 0 l
0 -1 l
0 0 l
1 0 l
0 0 l
0 0 l
0 0 l
0 0 l
0 -1 l
1 0 l
0 0 l
0 0 l
0 0 l
0 0 l
0 -1 l
1 0 l
0 0 l
0 0 l
0 0 l
0 0 l
1 -1 l
0 0 l
0 0 l
0 0 l
0 0 l
0 -1 l
1 0 l
0 0 l
0 0 l
0 0 l
0 0 l
0 -1 l
1 0 l
0 0 l
0 0 l
0 0 l
0 -1 l
0 0 l
1 0 l
0 0 l
0 -1 l
0 0 l
0 0 l
1 0 l
0 0 l
0 -1 l
0 0 l
0 0 l
0 0 l
1 0 l
0 -1 l
0 0 l
0 0 l
0 0 l
0 0 l
1 -1 l
0 0 l
0 0 l
0 0 l
0 0 l
0 -1 l
1 0 l
0 0 l
0 0 l
0 0 l
0 -1 l
1 0 l
0 0 l
0 0 l
0 0 l
0 0 l
0 -1 l
1 0 l
0 0 l
0 0 l
0 0 l
0 0 l
0 -1 l
1 0 l
0 0 l
0 0 l
0 0 l
0 0 l
0 -1 l
1 0 l
0 0 l
0 0 l
0 0 l
0 0 l
1 0 l
0 0 l
0 -1 l
0 0 l
0 0 l
0 0 l
1 0 l
0 0 l
0 0 l
0 0 l
0 -1 l
0 0 l
1 0 l
0 0 l
0 0 l
0 0 l
0 0 l
0 0 l
1 0 l
0 0 l
0 0 l
0 0 l
0 -1 l
1 0 l
0 0 l
0 0 l
0 0 l
0 0 l
0 0 l
1 0 l
0 0 l
0 0 l
0 0 l
0 0 l
0 0 l
1 0 l
0 0 l
0 0 l
0 0 l
0 0 l
1 0 l
0 0 l
0 0 l
0 0 l
0 0 l
0 0 l
1 0 l
0 0 l
0 0 l
0 0 l
0 0 l
0 0 l
1 0 l
0 0 l
0 0 l
0 0 l
0 0 l
0 0 l
1 0 l
0 0 l
0 0 l
0 0 l
0 0 l
1 0 l
0 0 l
0 0 l
0 0 l
0 0 l
0 0 l
1 0 l
0 0 l
0 0 l
0 0 l
0 0 l
0 0 l
1 0 l
0 0 l
0 0 l
0 0 l
0 0 l
1 0 l
0 0 l
0 0 l
0 0 l
0 -1 l
0 0 l
1 0 l
0 0 l
0 0 l
0 0 l
0 0 l
0 0 l
1 0 l
0 0 l
0 0 l
0 0 l
0 0 l
0 0 l
1 0 l
0 0 l
0 0 l
0 0 l
0 0 l
1 0 l
0 0 l
0 0 l
0 0 l
0 0 l
0 0 l
1 0 l
0 -1 l
0 0 l
0 0 l
0 0 l
0 0 l
1 0 l
0 0 l
0 0 l
0 0 l
0 0 l
0 0 l
1 0 l
0 0 l
0 -1 l
0 0 l
0 0 l
1 0 l
0 0 l
0 0 l
0 0 l
0 0 l
0 0 l
1 -1 l
0 0 l
0 0 l
0 0 l
0 0 l
0 0 l
1 0 l
0 0 l
0 -1 l
0 0 l
0 0 l
0 0 l
1 0 l
0 0 l
0 -1 l
0 0 l
0 0 l
1 0 l
0 0 l
0 0 l
0 0 l
0 -1 l
0 0 l
1 0 l
0 0 l
0 0 l
0 0 l
0 -1 l
0 0 l
1 0 l
0 0 l
0 0 l
0 0 l
0 -1 l
1 0 l
0 0 l
0 0 l
0 0 l
0 0 l
0 -1 l
1 0 l
0 0 l
0 0 l
0 0 l
0 0 l
CS M
0 -1 l
1 0 l
0 0 l
0 0 l
0 0 l
0 0 l
0 -1 l
1 0 l
0 0 l
0 0 l
0 0 l
0 0 l
1 -1 l
0 0 l
0 0 l
0 0 l
0 0 l
0 0 l
1 0 l
0 -1 l
0 0 l
0 0 l
0 0 l
0 0 l
1 0 l
0 0 l
0 -1 l
0 0 l
0 0 l
1 0 l
0 0 l
0 0 l
0 0 l
0 0 l
0 -1 l
1 0 l
0 0 l
0 0 l
0 0 l
0 0 l
0 0 l
1 0 l
0 0 l
0 0 l
0 -1 l
0 0 l
0 0 l
1 0 l
0 0 l
0 0 l
0 0 l
0 0 l
1 0 l
0 0 l
0 0 l
0 0 l
0 0 l
0 0 l
1 0 l
0 -1 l
0 0 l
0 0 l
0 0 l
0 0 l
1 0 l
0 0 l
0 0 l
0 0 l
0 0 l
1 0 l
0 0 l
0 0 l
0 0 l
0 0 l
0 0 l
1 0 l
0 0 l
0 0 l
0 0 l
0 0 l
0 0 l
1 0 l
0 0 l
0 0 l
0 0 l
0 0 l
0 0 l
1 0 l
0 0 l
0 0 l
0 0 l
0 0 l
1 0 l
0 0 l
0 0 l
0 0 l
0 0 l
0 0 l
1 0 l
0 0 l
0 0 l
0 0 l
0 0 l
0 0 l
1 0 l
0 0 l
0 0 l
0 0 l
0 0 l
0 0 l
1 0 l
0 0 l
0 0 l
0 0 l
0 0 l
1 0 l
0 0 l
0 0 l
0 0 l
0 0 l
0 0 l
1 0 l
0 0 l
0 0 l
0 0 l
0 0 l
0 0 l
1 0 l
0 0 l
0 0 l
0 0 l
0 0 l
0 0 l
1 0 l
0 0 l
0 0 l
0 0 l
0 0 l
1 0 l
0 0 l
0 0 l
0 0 l
0 0 l
0 0 l
1 0 l
0 0 l
0 0 l
0 0 l
0 0 l
0 0 l
1 0 l
0 0 l
0 0 l
0 0 l
0 0 l
0 0 l
1 0 l
0 0 l
0 0 l
0 0 l
0 0 l
1 -1 l
0 0 l
0 0 l
0 0 l
0 0 l
0 0 l
1 0 l
0 0 l
0 0 l
0 0 l
0 0 l
0 0 l
1 0 l
0 -1 l
0 0 l
0 0 l
0 0 l
0 0 l
1 0 l
0 0 l
0 0 l
0 0 l
0 0 l
1 -1 l
0 0 l
0 0 l
0 0 l
0 0 l
0 0 l
1 0 l
0 0 l
0 0 l
0 -1 l
0 0 l
0 0 l
1 0 l
0 0 l
0 0 l
0 0 l
0 0 l
1 -1 l
0 0 l
0 0 l
0 0 l
0 0 l
0 0 l
1 0 l
0 0 l
0 0 l
0 -1 l
0 0 l
0 0 l
1 0 l
0 0 l
0 0 l
0 0 l
0 0 l
1 -1 l
0 0 l
0 0 l
0 0 l
0 0 l
0 0 l
1 0 l
0 0 l
0 0 l
0 -1 l
0 0 l
0 0 l
1 0 l
0 0 l
0 0 l
0 0 l
0 0 l
0 0 l
1 -1 l
0 0 l
0 0 l
0 0 l
0 0 l
1 0 l
0 0 l
0 0 l
0 0 l
0 0 l
0 0 l
1 0 l
0 -1 l
0 0 l
0 0 l
0 0 l
0 0 l
1 0 l
0 0 l
0 0 l
0 0 l
0 0 l
0 0 l
1 0 l
0 0 l
0 0 l
0 0 l
0 0 l
1 0 l
0 0 l
0 -1 l
0 0 l
0 0 l
0 0 l
1 0 l
0 0 l
0 0 l
0 0 l
0 0 l
0 0 l
1 0 l
0 0 l
0 0 l
0 0 l
0 0 l
0 0 l
1 0 l
0 0 l
0 0 l
0 0 l
0 0 l
1 0 l
0 0 l
0 0 l
0 0 l
0 0 l
0 0 l
1 0 l
0 0 l
0 0 l
0 0 l
0 0 l
0 0 l
1 0 l
CS M
0 0 l
0 0 l
0 1 l
0 0 l
0 0 l
1 0 l
0 0 l
0 0 l
0 0 l
0 0 l
1 0 l
0 0 l
0 0 l
0 0 l
0 0 l
0 0 l
1 0 l
0 0 l
0 0 l
0 0 l
0 0 l
0 0 l
1 0 l
0 0 l
0 0 l
0 0 l
0 0 l
1 0 l
0 0 l
0 1 l
0 0 l
0 0 l
0 0 l
1 0 l
0 0 l
0 0 l
0 0 l
0 0 l
0 0 l
1 0 l
0 0 l
0 0 l
0 0 l
0 0 l
0 0 l
1 0 l
0 0 l
0 0 l
0 0 l
0 0 l
1 0 l
0 0 l
0 0 l
0 0 l
0 0 l
0 0 l
1 0 l
0 0 l
0 0 l
0 0 l
0 0 l
0 0 l
1 0 l
0 0 l
0 0 l
0 0 l
0 0 l
1 0 l
0 0 l
0 0 l
0 0 l
0 0 l
0 0 l
1 0 l
0 0 l
0 0 l
0 0 l
0 0 l
0 0 l
1 0 l
0 0 l
0 0 l
0 0 l
0 0 l
1 0 l
0 0 l
0 0 l
0 0 l
0 0 l
0 0 l
1 0 l
0 0 l
0 0 l
0 0 l
0 -1 l
0 0 l
1 0 l
0 0 l
0 0 l
0 0 l
0 0 l
0 0 l
1 0 l
0 0 l
0 0 l
0 0 l
0 0 l
1 0 l
0 0 l
0 0 l
0 -1 l
0 0 l
0 0 l
1 0 l
0 0 l
0 0 l
0 0 l
0 0 l
0 0 l
1 0 l
0 0 l
0 0 l
0 0 l
0 -1 l
0 0 l
1 0 l
0 0 l
0 0 l
0 0 l
0 0 l
1 0 l
0 0 l
0 0 l
0 0 l
0 0 l
0 0 l
1 0 l
0 -1 l
0 0 l
0 0 l
0 0 l
0 0 l
1 0 l
0 0 l
0 0 l
0 0 l
0 0 l
0 0 l
1 0 l
0 0 l
0 0 l
0 0 l
0 0 l
1 0 l
0 -1 l
0 0 l
0 0 l
0 0 l
0 0 l
1 0 l
0 0 l
0 0 l
0 0 l
0 0 l
0 0 l
1 0 l
0 0 l
0 0 l
0 0 l
0 0 l
0 0 l
1 0 l
0 0 l
0 0 l
0 0 l
0 0 l
1 0 l
0 0 l
0 0 l
0 0 l
0 0 l
0 0 l
1 0 l
0 0 l
0 0 l
0 0 l
0 0 l
0 0 l
1 0 l
0 0 l
0 0 l
0 0 l
0 0 l
0 0 l
1 0 l
0 0 l
0 0 l
0 0 l
0 0 l
1 0 l
0 0 l
0 0 l
0 0 l
0 0 l
0 0 l
1 0 l
0 0 l
0 0 l
0 0 l
0 0 l
0 0 l
1 0 l
0 0 l
0 1 l
0 0 l
0 0 l
0 0 l
1 0 l
0 0 l
0 0 l
0 0 l
0 0 l
1 0 l
0 0 l
0 0 l
0 0 l
0 0 l
0 0 l
1 0 l
0 0 l
0 0 l
0 1 l
0 0 l
0 0 l
1 0 l
0 0 l
0 0 l
0 0 l
0 0 l
1 0 l
0 0 l
0 0 l
0 0 l
0 0 l
0 0 l
1 0 l
0 0 l
0 1 l
0 0 l
0 0 l
0 0 l
1 0 l
0 0 l
0 0 l
0 0 l
0 0 l
1 0 l
0 0 l
0 0 l
0 0 l
0 0 l
0 0 l
1 0 l
0 0 l
0 1 l
0 0 l
0 0 l
0 0 l
1 0 l
0 0 l
0 0 l
0 0 l
0 0 l
0 0 l
1 0 l
0 0 l
0 0 l
0 0 l
0 0 l
1 0 l
0 0 l
0 0 l
0 0 l
0 0 l
0 0 l
1 0 l
0 0 l
0 0 l
0 0 l
0 0 l
0 0 l
1 0 l
0 0 l
0 0 l
0 0 l
0 0 l
0 0 l
1 0 l
0 0 l
0 0 l
CS M
0 0 l
0 0 l
1 0 l
0 0 l
0 0 l
0 0 l
0 0 l
0 0 l
1 0 l
0 0 l
0 0 l
0 0 l
0 0 l
0 0 l
1 0 l
0 0 l
0 0 l
0 0 l
0 0 l
0 0 l
1 0 l
0 0 l
0 0 l
0 0 l
0 0 l
1 0 l
0 0 l
0 0 l
0 0 l
0 0 l
0 0 l
1 0 l
0 0 l
0 0 l
0 0 l
0 0 l
0 0 l
1 -1 l
0 0 l
0 0 l
0 0 l
0 0 l
1 0 l
0 0 l
0 0 l
0 0 l
0 0 l
0 0 l
1 0 l
0 0 l
0 0 l
0 0 l
0 0 l
0 0 l
1 0 l
0 0 l
0 0 l
0 0 l
0 0 l
0 0 l
1 0 l
0 0 l
0 0 l
0 0 l
0 0 l
1 0 l
0 0 l
0 -1 l
0 0 l
0 0 l
0 0 l
1 0 l
0 0 l
0 0 l
0 0 l
0 0 l
0 0 l
1 0 l
0 0 l
0 0 l
0 0 l
0 0 l
1 0 l
0 0 l
0 0 l
0 0 l
0 0 l
0 0 l
1 0 l
0 0 l
0 0 l
0 0 l
0 0 l
0 0 l
1 0 l
0 0 l
0 0 l
0 0 l
0 0 l
0 1 l
1 0 l
0 0 l
0 0 l
0 0 l
0 0 l
1 0 l
0 0 l
0 0 l
0 0 l
0 0 l
0 0 l
1 0 l
0 0 l
0 0 l
0 0 l
0 0 l
0 0 l
1 0 l
0 0 l
0 0 l
0 0 l
0 0 l
1 1 l
0 0 l
0 0 l
0 0 l
0 0 l
0 0 l
1 0 l
0 0 l
0 0 l
0 0 l
0 0 l
0 0 l
1 0 l
0 0 l
0 0 l
0 1 l
0 0 l
0 0 l
1 0 l
0 0 l
0 0 l
0 0 l
0 0 l
1 0 l
0 0 l
0 0 l
0 0 l
0 0 l
0 0 l
1 1 l
0 0 l
0 0 l
0 0 l
0 0 l
0 0 l
1 0 l
0 0 l
0 0 l
0 0 l
0 0 l
1 0 l
0 1 l
0 0 l
0 0 l
0 0 l
0 0 l
1 0 l
0 0 l
0 0 l
0 0 l
0 0 l
0 0 l
1 0 l
0 0 l
0 0 l
0 0 l
0 1 l
0 0 l
1 0 l
0 0 l
0 0 l
0 0 l
0 0 l
1 0 l
0 0 l
0 0 l
0 0 l
0 0 l
0 0 l
1 0 l
0 0 l
0 0 l
0 0 l
0 1 l
0 0 l
1 0 l
0 0 l
0 0 l
0 0 l
0 0 l
0 0 l
1 0 l
0 0 l
0 0 l
0 0 l
0 0 l
1 0 l
0 0 l
0 0 l
0 0 l
0 0 l
0 0 l
1 0 l
0 0 l
0 0 l
0 0 l
0 0 l
0 0 l
1 0 l
0 0 l
0 0 l
0 0 l
0 0 l
0 0 l
1 0 l
0 0 l
0 0 l
0 0 l
0 0 l
1 0 l
0 0 l
0 0 l
0 0 l
0 0 l
0 0 l
1 0 l
0 0 l
0 0 l
0 0 l
0 0 l
0 0 l
1 0 l
0 0 l
0 0 l
0 0 l
0 0 l
0 0 l
1 0 l
0 0 l
0 0 l
0 0 l
0 0 l
1 0 l
0 0 l
0 0 l
0 0 l
0 0 l
0 0 l
1 0 l
0 0 l
0 0 l
0 0 l
0 0 l
0 0 l
1 0 l
0 0 l
0 0 l
0 0 l
0 0 l
0 0 l
1 0 l
0 0 l
0 0 l
0 0 l
0 0 l
1 0 l
0 0 l
0 0 l
0 0 l
0 0 l
0 0 l
1 0 l
0 0 l
0 0 l
0 0 l
0 0 l
0 0 l
1 0 l
0 0 l
0 0 l
0 0 l
0 0 l
1 0 l
0 0 l
0 0 l
0 0 l
0 0 l
0 0 l
CS M
1 0 l
0 0 l
0 0 l
0 0 l
0 0 l
0 0 l
1 0 l
0 0 l
0 0 l
0 0 l
0 0 l
1 0 l
0 0 l
0 0 l
0 0 l
0 0 l
0 0 l
1 1 l
0 0 l
0 0 l
0 0 l
0 0 l
0 0 l
1 0 l
0 0 l
0 0 l
0 0 l
0 0 l
0 0 l
1 0 l
0 0 l
0 0 l
0 0 l
0 0 l
1 0 l
0 0 l
0 1 l
0 0 l
0 0 l
0 0 l
1 0 l
0 0 l
0 0 l
0 0 l
0 0 l
0 0 l
1 0 l
0 0 l
0 0 l
0 0 l
0 1 l
0 0 l
1 0 l
0 0 l
0 0 l
0 0 l
0 0 l
1 0 l
0 0 l
0 0 l
0 0 l
0 0 l
0 0 l
1 1 l
0 0 l
0 0 l
0 0 l
0 0 l
0 0 l
1 0 l
0 0 l
0 0 l
0 0 l
0 0 l
0 0 l
1 1 l
0 0 l
0 0 l
0 0 l
0 0 l
1 0 l
0 0 l
0 0 l
0 0 l
0 0 l
0 0 l
1 0 l
0 0 l
0 0 l
0 1 l
0 0 l
0 0 l
1 0 l
0 0 l
0 0 l
0 0 l
0 0 l
0 0 l
1 0 l
0 0 l
0 0 l
0 0 l
0 0 l
1 0 l
0 0 l
0 1 l
0 0 l
0 0 l
0 0 l
1 0 l
0 0 l
0 0 l
0 0 l
0 0 l
0 0 l
1 0 l
0 0 l
0 0 l
0 0 l
0 0 l
1 0 l
0 0 l
0 0 l
0 0 l
0 0 l
0 0 l
1 0 l
0 1 l
0 0 l
0 0 l
0 0 l
0 0 l
1 0 l
0 0 l
0 0 l
0 0 l
0 0 l
1 0 l
0 0 l
0 0 l
0 0 l
0 0 l
0 0 l
1 0 l
0 0 l
0 0 l
0 0 l
0 0 l
0 0 l
1 0 l
0 0 l
0 0 l
0 0 l
0 0 l
0 0 l
1 0 l
0 0 l
0 0 l
0 0 l
0 0 l
1 0 l
0 0 l
0 0 l
0 0 l
0 0 l
0 0 l
1 0 l
0 0 l
0 0 l
0 0 l
0 0 l
0 0 l
1 0 l
0 0 l
0 0 l
0 0 l
0 0 l
1 0 l
0 0 l
0 0 l
0 0 l
0 0 l
0 0 l
1 0 l
0 0 l
0 0 l
0 0 l
0 0 l
0 0 l
1 0 l
0 0 l
0 0 l
0 0 l
0 0 l
0 0 l
1 0 l
0 0 l
0 0 l
0 0 l
0 0 l
1 0 l
0 0 l
0 0 l
0 0 l
0 0 l
0 0 l
1 0 l
0 0 l
0 0 l
0 0 l
0 0 l
0 0 l
1 0 l
0 0 l
0 0 l
0 0 l
0 0 l
0 0 l
1 0 l
0 0 l
0 0 l
0 1 l
0 0 l
1 0 l
0 0 l
0 0 l
0 0 l
0 0 l
0 0 l
1 0 l
0 0 l
0 0 l
0 0 l
0 0 l
0 0 l
1 0 l
0 0 l
0 0 l
0 0 l
0 0 l
0 0 l
1 0 l
0 0 l
0 0 l
0 0 l
0 0 l
1 0 l
0 1 l
0 0 l
0 0 l
0 0 l
0 0 l
1 0 l
0 0 l
0 0 l
0 0 l
0 0 l
0 0 l
1 0 l
0 0 l
0 0 l
0 0 l
0 0 l
0 0 l
1 1 l
0 0 l
0 0 l
0 0 l
0 0 l
1 0 l
0 0 l
0 0 l
0 0 l
0 0 l
0 0 l
1 0 l
0 0 l
0 0 l
0 1 l
0 0 l
0 0 l
1 0 l
0 0 l
0 0 l
0 0 l
0 0 l
0 0 l
1 0 l
0 0 l
0 0 l
0 0 l
0 0 l
1 1 l
0 0 l
0 0 l
0 0 l
0 0 l
0 0 l
1 0 l
0 0 l
CS M
0 0 l
0 0 l
0 0 l
0 0 l
1 0 l
0 0 l
0 0 l
0 0 l
0 1 l
1 0 l
0 0 l
0 0 l
0 0 l
0 0 l
0 0 l
1 0 l
0 0 l
0 0 l
0 0 l
0 0 l
0 0 l
1 0 l
0 0 l
0 0 l
0 0 l
0 0 l
1 1 l
0 0 l
0 0 l
0 0 l
0 0 l
0 0 l
1 0 l
0 0 l
0 0 l
0 0 l
0 0 l
0 0 l
1 0 l
0 0 l
0 0 l
0 0 l
0 0 l
0 0 l
1 0 l
0 0 l
0 0 l
0 0 l
0 0 l
1 0 l
0 0 l
0 0 l
0 0 l
0 0 l
0 0 l
1 0 l
0 1 l
0 0 l
0 0 l
0 0 l
0 0 l
1 0 l
0 0 l
0 0 l
0 0 l
0 0 l
0 0 l
1 0 l
0 0 l
0 0 l
0 0 l
0 0 l
1 0 l
0 0 l
0 0 l
0 0 l
0 0 l
0 0 l
1 0 l
0 0 l
0 0 l
0 0 l
0 0 l
0 0 l
1 0 l
0 0 l
0 0 l
0 0 l
0 0 l
0 0 l
1 0 l
0 0 l
0 0 l
0 0 l
0 0 l
1 0 l
0 0 l
0 0 l
0 0 l
0 0 l
0 0 l
1 0 l
0 0 l
0 0 l
0 0 l
0 0 l
0 0 l
1 0 l
0 0 l
0 0 l
0 0 l
0 0 l
0 0 l
1 0 l
0 0 l
0 0 l
0 0 l
0 0 l
1 0 l
0 0 l
0 0 l
0 0 l
0 0 l
0 0 l
1 0 l
0 0 l
0 0 l
0 0 l
0 0 l
0 0 l
1 0 l
0 0 l
0 0 l
0 0 l
0 0 l
1 0 l
0 0 l
0 0 l
0 0 l
0 0 l
0 0 l
1 0 l
0 0 l
0 0 l
0 0 l
0 0 l
0 0 l
1 0 l
0 0 l
0 0 l
0 0 l
0 0 l
0 0 l
1 0 l
0 0 l
0 0 l
0 1 l
0 0 l
1 0 l
0 0 l
0 0 l
0 0 l
0 0 l
0 0 l
1 0 l
0 0 l
0 0 l
0 0 l
0 0 l
0 0 l
1 0 l
0 0 l
0 0 l
0 0 l
0 0 l
1 0 l
0 0 l
0 0 l
0 0 l
0 1 l
0 0 l
1 0 l
0 0 l
0 0 l
0 0 l
0 0 l
0 0 l
1 0 l
0 0 l
0 0 l
0 0 l
0 0 l
0 0 l
1 0 l
0 0 l
0 0 l
0 0 l
0 1 l
1 0 l
0 0 l
0 0 l
0 0 l
0 0 l
0 0 l
1 0 l
0 0 l
0 0 l
0 0 l
0 0 l
0 0 l
1 0 l
0 0 l
0 0 l
0 0 l
0 0 l
1 1 l
0 0 l
0 0 l
0 0 l
0 0 l
0 0 l
1 0 l
0 0 l
0 0 l
0 0 l
0 0 l
0 0 l
1 0 l
0 0 l
0 0 l
0 0 l
0 0 l
0 0 l
1 0 l
0 0 l
0 0 l
0 1 l
0 0 l
1 0 l
0 0 l
0 0 l
0 0 l
0 0 l
0 0 l
1 0 l
0 0 l
0 0 l
0 0 l
0 0 l
0 0 l
1 0 l
0 0 l
0 0 l
0 0 l
0 0 l
0 0 l
1 0 l
0 0 l
0 0 l
0 0 l
0 0 l
1 0 l
0 0 l
0 0 l
0 0 l
0 0 l
0 0 l
1 0 l
0 0 l
0 0 l
0 0 l
0 0 l
0 0 l
1 0 l
0 0 l
0 0 l
0 0 l
0 0 l
0 0 l
1 0 l
0 0 l
0 0 l
0 0 l
0 0 l
1 0 l
0 0 l
0 0 l
0 0 l
0 0 l
0 0 l
1 0 l
0 0 l
0 0 l
0 0 l
0 0 l
0 0 l
1 0 l
0 0 l
0 0 l
0 0 l
CS M
0 0 l
0 0 l
1 0 l
0 0 l
0 0 l
0 0 l
0 0 l
1 0 l
0 0 l
0 0 l
0 0 l
0 0 l
0 0 l
1 0 l
0 0 l
0 0 l
0 0 l
0 0 l
0 0 l
1 0 l
0 0 l
0 0 l
0 0 l
0 0 l
0 0 l
1 0 l
0 0 l
0 0 l
0 0 l
0 0 l
1 0 l
0 0 l
0 0 l
0 0 l
0 0 l
0 0 l
1 0 l
0 0 l
0 0 l
0 0 l
0 0 l
0 0 l
1 0 l
0 0 l
0 0 l
0 0 l
0 0 l
1 0 l
0 0 l
0 0 l
0 0 l
0 0 l
0 0 l
1 0 l
0 0 l
0 0 l
0 0 l
0 0 l
0 0 l
1 0 l
0 0 l
0 0 l
0 0 l
0 0 l
1 0 l
0 0 l
0 0 l
0 0 l
0 0 l
0 0 l
1 0 l
0 0 l
0 0 l
0 0 l
0 1 l
0 0 l
1 0 l
0 0 l
0 0 l
0 0 l
0 0 l
0 0 l
1 0 l
0 0 l
0 0 l
0 0 l
0 0 l
1 0 l
0 0 l
0 0 l
0 0 l
0 0 l
0 0 l
1 0 l
0 0 l
0 0 l
0 0 l
0 0 l
0 0 l
1 0 l
0 0 l
0 0 l
0 0 l
0 0 l
0 1 l
1 0 l
0 0 l
0 0 l
0 0 l
0 0 l
1 0 l
0 0 l
0 0 l
0 0 l
0 0 l
0 0 l
1 0 l
0 0 l
0 0 l
0 0 l
0 0 l
0 0 l
1 0 l
0 0 l
0 0 l
0 0 l
0 0 l
0 0 l
1 0 l
0 0 l
0 1 l
0 0 l
0 0 l
1 0 l
0 0 l
0 0 l
0 0 l
0 0 l
0 0 l
1 0 l
0 0 l
0 0 l
0 0 l
0 0 l
0 0 l
1 0 l
0 0 l
0 0 l
0 0 l
0 0 l
1 0 l
0 0 l
0 0 l
0 0 l
0 0 l
0 0 l
1 0 l
0 0 l
0 0 l
0 0 l
0 0 l
0 0 l
1 0 l
0 0 l
0 0 l
0 0 l
0 0 l
0 0 l
1 0 l
0 1 l
0 0 l
0 0 l
0 0 l
1 0 l
0 0 l
0 0 l
0 0 l
0 0 l
0 0 l
1 0 l
0 0 l
0 0 l
0 0 l
0 0 l
0 0 l
1 0 l
0 0 l
0 0 l
0 0 l
0 0 l
1 0 l
0 0 l
0 0 l
0 0 l
0 0 l
0 0 l
1 0 l
0 0 l
0 0 l
0 0 l
0 0 l
0 0 l
1 0 l
0 -1 l
0 0 l
0 0 l
0 0 l
0 0 l
1 0 l
0 0 l
0 0 l
0 0 l
0 0 l
1 0 l
0 0 l
0 0 l
0 0 l
0 0 l
0 0 l
1 0 l
0 0 l
0 0 l
0 0 l
0 0 l
0 0 l
1 0 l
0 0 l
0 0 l
0 0 l
0 0 l
1 0 l
0 0 l
0 0 l
0 0 l
0 0 l
0 0 l
1 0 l
0 0 l
0 0 l
0 0 l
0 0 l
0 0 l
1 0 l
0 0 l
0 0 l
0 0 l
0 0 l
0 0 l
1 0 l
0 0 l
0 0 l
0 0 l
0 0 l
1 0 l
0 0 l
0 0 l
0 0 l
0 0 l
0 0 l
1 0 l
0 0 l
0 0 l
0 0 l
0 0 l
0 0 l
1 0 l
0 0 l
0 0 l
0 0 l
0 0 l
0 0 l
1 0 l
0 0 l
0 0 l
0 0 l
0 0 l
1 0 l
0 0 l
0 0 l
0 0 l
0 0 l
0 0 l
1 0 l
0 0 l
0 0 l
0 0 l
0 0 l
0 0 l
1 0 l
0 0 l
0 0 l
0 0 l
0 0 l
0 0 l
1 0 l
0 0 l
0 0 l
0 0 l
0 0 l
1 0 l
CS M
0 0 l
0 0 l
0 0 l
0 0 l
0 0 l
1 0 l
0 0 l
0 0 l
0 0 l
0 0 l
0 0 l
1 0 l
0 0 l
0 0 l
0 0 l
0 0 l
0 0 l
1 0 l
0 0 l
0 0 l
0 0 l
0 0 l
1 0 l
0 0 l
0 0 l
0 0 l
0 0 l
0 0 l
1 0 l
0 0 l
0 0 l
0 0 l
0 1 l
0 0 l
1 0 l
0 0 l
0 0 l
0 0 l
0 0 l
0 0 l
1 0 l
0 0 l
0 0 l
0 0 l
0 0 l
1 0 l
0 0 l
0 0 l
0 0 l
0 0 l
0 0 l
1 0 l
0 0 l
0 0 l
0 0 l
0 0 l
0 0 l
1 0 l
0 0 l
0 0 l
0 0 l
0 0 l
0 0 l
1 0 l
0 0 l
0 0 l
0 0 l
0 0 l
1 0 l
0 0 l
0 0 l
0 0 l
0 0 l
0 0 l
1 0 l
0 0 l
0 0 l
0 0 l
0 0 l
0 0 l
1 0 l
0 0 l
0 0 l
0 0 l
0 0 l
1 0 l
0 0 l
0 0 l
0 0 l
0 0 l
0 0 l
1 0 l
0 0 l
0 0 l
0 0 l
0 0 l
0 0 l
1 0 l
0 0 l
0 0 l
0 0 l
0 0 l
1 0 l
0 0 l
0 0 l
0 0 l
0 0 l
0 0 l
1 0 l
0 0 l
0 0 l
0 0 l
0 0 l
0 0 l
1 0 l
0 0 l
0 0 l
0 0 l
0 0 l
0 0 l
1 0 l
0 0 l
0 0 l
0 0 l
0 0 l
1 0 l
0 0 l
0 0 l
0 0 l
0 0 l
0 0 l
1 0 l
0 0 l
0 0 l
0 0 l
0 0 l
0 0 l
1 0 l
0 0 l
0 0 l
0 -1 l
0 0 l
0 0 l
1 0 l
0 0 l
0 0 l
0 0 l
0 0 l
1 0 l
0 0 l
0 0 l
0 0 l
0 0 l
0 0 l
1 0 l
0 0 l
0 0 l
0 0 l
0 0 l
0 0 l
1 0 l
0 0 l
0 0 l
0 0 l
0 0 l
0 0 l
1 0 l
0 0 l
0 0 l
0 0 l
0 0 l
1 0 l
0 0 l
0 0 l
0 0 l
0 0 l
0 0 l
1 0 l
0 0 l
0 0 l
0 0 l
0 0 l
0 0 l
1 0 l
0 0 l
0 0 l
0 0 l
0 0 l
1 0 l
0 0 l
0 0 l
0 0 l
0 0 l
0 0 l
1 0 l
0 0 l
0 -1 l
0 0 l
0 0 l
0 0 l
1 0 l
0 0 l
0 0 l
0 0 l
0 0 l
0 0 l
1 0 l
0 0 l
0 0 l
0 0 l
0 0 l
1 0 l
0 0 l
0 0 l
0 0 l
0 0 l
0 0 l
1 0 l
0 0 l
0 0 l
0 0 l
0 0 l
0 1 l
1 0 l
0 0 l
0 0 l
0 0 l
0 0 l
1 0 l
0 0 l
0 0 l
0 0 l
0 0 l
0 0 l
1 0 l
0 0 l
0 0 l
0 0 l
0 0 l
0 0 l
1 0 l
0 0 l
0 0 l
0 0 l
0 0 l
0 0 l
1 0 l
0 0 l
0 0 l
0 0 l
0 0 l
1 0 l
0 0 l
0 0 l
0 0 l
0 0 l
0 0 l
1 0 l
0 0 l
0 0 l
0 0 l
0 0 l
0 0 l
1 0 l
0 0 l
0 0 l
0 0 l
0 0 l
1 0 l
0 0 l
0 0 l
0 0 l
0 0 l
0 0 l
1 0 l
0 0 l
0 0 l
0 0 l
0 0 l
0 0 l
1 0 l
0 0 l
0 0 l
0 0 l
0 0 l
0 0 l
1 0 l
0 0 l
0 0 l
0 0 l
0 0 l
1 0 l
0 0 l
0 0 l
0 0 l
0 0 l
0 0 l
1 0 l
0 0 l
0 0 l
CS M
0 0 l
0 0 l
0 0 l
1 0 l
0 0 l
0 0 l
0 0 l
0 0 l
0 0 l
1 0 l
0 0 l
0 0 l
0 0 l
0 0 l
1 0 l
0 0 l
0 0 l
0 0 l
0 0 l
0 0 l
1 0 l
0 0 l
0 0 l
0 0 l
0 0 l
0 0 l
1 0 l
0 0 l
0 0 l
0 0 l
0 0 l
0 -1 l
1 0 l
0 0 l
0 0 l
0 0 l
0 0 l
1 0 l
0 0 l
0 0 l
0 0 l
0 0 l
0 0 l
1 0 l
0 0 l
0 0 l
0 0 l
0 0 l
0 0 l
1 0 l
0 0 l
0 0 l
0 0 l
0 0 l
0 0 l
1 0 l
0 0 l
0 0 l
0 0 l
0 0 l
1 0 l
0 0 l
0 0 l
0 0 l
0 0 l
0 0 l
1 0 l
0 0 l
0 0 l
0 -1 l
0 0 l
0 0 l
1 0 l
0 0 l
0 0 l
0 0 l
0 0 l
0 0 l
1 0 l
0 0 l
0 0 l
0 0 l
0 0 l
1 0 l
0 0 l
0 0 l
0 0 l
0 0 l
0 0 l
1 0 l
0 0 l
0 0 l
0 0 l
0 0 l
0 0 l
1 0 l
0 0 l
0 0 l
0 0 l
0 0 l
1 0 l
0 0 l
0 0 l
0 0 l
0 0 l
0 0 l
1 0 l
0 0 l
0 0 l
0 0 l
0 0 l
0 0 l
1 0 l
0 0 l
0 0 l
0 0 l
0 0 l
1 -1 l
0 0 l
0 0 l
0 0 l
0 0 l
0 0 l
1 0 l
0 0 l
0 0 l
0 0 l
0 0 l
0 0 l
1 0 l
0 0 l
0 0 l
0 0 l
0 0 l
0 0 l
1 0 l
0 0 l
0 0 l
0 0 l
0 0 l
1 0 l
0 0 l
0 0 l
0 0 l
0 0 l
0 0 l
1 0 l
0 0 l
0 0 l
0 0 l
0 0 l
0 0 l
1 0 l
0 0 l
0 0 l
0 0 l
0 0 l
0 0 l
1 0 l
0 0 l
0 0 l
0 0 l
0 0 l
1 0 l
0 0 l
0 0 l
0 0 l
0 0 l
0 0 l
1 0 l
0 0 l
0 0 l
0 0 l
0 0 l
0 0 l
1 0 l
0 0 l
0 0 l
0 0 l
0 0 l
0 0 l
1 0 l
0 0 l
0 0 l
0 0 l
0 0 l
1 0 l
0 0 l
0 0 l
0 0 l
0 0 l
0 0 l
1 0 l
0 0 l
0 0 l
0 0 l
0 0 l
0 0 l
1 0 l
0 0 l
0 0 l
0 0 l
0 0 l
1 0 l
0 0 l
0 0 l
0 0 l
0 0 l
0 0 l
1 0 l
0 0 l
0 0 l
0 0 l
0 0 l
0 0 l
1 0 l
0 0 l
0 0 l
0 0 l
0 0 l
0 0 l
1 0 l
0 0 l
0 0 l
0 0 l
0 0 l
1 0 l
0 0 l
0 0 l
0 0 l
0 0 l
0 0 l
1 0 l
0 0 l
0 0 l
0 0 l
0 0 l
0 0 l
1 0 l
0 0 l
0 0 l
0 0 l
0 0 l
1 0 l
0 0 l
0 0 l
0 0 l
0 0 l
0 0 l
1 0 l
0 0 l
0 0 l
0 0 l
0 0 l
0 0 l
1 0 l
0 0 l
0 0 l
0 0 l
0 0 l
0 -1 l
1 0 l
0 0 l
0 0 l
0 0 l
0 0 l
1 0 l
0 0 l
0 0 l
0 0 l
0 0 l
0 0 l
1 0 l
0 0 l
0 0 l
0 0 l
0 0 l
0 0 l
1 0 l
0 0 l
0 0 l
0 0 l
0 0 l
1 0 l
0 0 l
0 0 l
0 0 l
0 0 l
0 0 l
1 0 l
0 0 l
0 0 l
0 0 l
0 0 l
0 0 l
1 0 l
0 0 l
0 0 l
0 -1 l
0 0 l
CS M
0 0 l
1 0 l
0 0 l
0 0 l
0 0 l
0 0 l
1 0 l
0 0 l
0 0 l
0 0 l
0 0 l
0 0 l
1 0 l
0 0 l
0 0 l
0 0 l
0 0 l
0 0 l
1 0 l
0 0 l
0 0 l
0 0 l
0 0 l
0 0 l
1 0 l
0 0 l
0 0 l
0 0 l
0 0 l
1 0 l
0 0 l
0 0 l
0 0 l
0 0 l
0 0 l
1 0 l
0 0 l
0 0 l
0 0 l
0 0 l
0 0 l
1 0 l
0 0 l
0 0 l
0 0 l
0 0 l
0 0 l
1 0 l
0 0 l
0 0 l
0 0 l
0 0 l
1 0 l
0 0 l
0 0 l
0 0 l
0 0 l
0 0 l
1 0 l
0 0 l
0 0 l
0 0 l
0 0 l
0 0 l
1 0 l
0 0 l
0 0 l
0 0 l
0 0 l
0 0 l
1 0 l
0 0 l
0 0 l
0 0 l
0 0 l
1 0 l
0 0 l
0 0 l
0 0 l
0 0 l
0 0 l
1 0 l
0 0 l
0 0 l
0 0 l
0 0 l
0 0 l
1 0 l
0 0 l
0 0 l
0 0 l
0 0 l
0 0 l
1 0 l
0 0 l
0 0 l
0 0 l
0 0 l
1 0 l
0 0 l
0 0 l
0 0 l
0 0 l
0 0 l
1 0 l
0 0 l
0 0 l
0 0 l
0 0 l
0 0 l
1 0 l
0 0 l
0 0 l
0 0 l
0 0 l
0 0 l
1 0 l
0 0 l
0 0 l
0 0 l
0 0 l
1 0 l
0 0 l
0 0 l
0 0 l
0 0 l
0 -1 l
1 0 l
0 0 l
0 0 l
0 0 l
0 0 l
0 0 l
1 0 l
0 0 l
0 0 l
0 0 l
0 0 l
1 0 l
0 0 l
0 0 l
0 0 l
0 0 l
0 0 l
1 0 l
0 0 l
0 0 l
0 0 l
0 0 l
0 0 l
1 0 l
0 0 l
0 0 l
0 0 l
0 0 l
1 0 l
0 0 l
0 0 l
0 0 l
0 0 l
0 0 l
1 0 l
0 0 l
0 0 l
0 0 l
0 0 l
0 0 l
1 0 l
0 0 l
0 0 l
0 0 l
0 0 l
0 0 l
1 0 l
0 0 l
0 0 l
0 0 l
0 0 l
1 0 l
0 0 l
0 0 l
0 -1 l
0 0 l
0 0 l
1 0 l
0 0 l
0 0 l
0 0 l
0 0 l
0 0 l
1 0 l
0 0 l
0 0 l
0 0 l
0 0 l
0 0 l
1 0 l
0 0 l
0 0 l
0 0 l
0 0 l
1 0 l
0 0 l
0 0 l
0 0 l
0 0 l
0 0 l
1 0 l
0 0 l
0 0 l
0 0 l
0 0 l
0 0 l
1 0 l
0 0 l
0 0 l
0 0 l
0 0 l
0 0 l
1 0 l
0 0 l
0 0 l
0 0 l
0 0 l
1 0 l
0 0 l
0 0 l
0 0 l
0 -1 l
0 0 l
1 0 l
0 0 l
0 0 l
0 0 l
0 0 l
0 0 l
1 0 l
0 0 l
0 0 l
0 0 l
0 0 l
1 0 l
0 0 l
0 0 l
0 0 l
0 0 l
0 0 l
1 0 l
0 0 l
0 0 l
0 0 l
0 0 l
0 0 l
1 0 l
0 0 l
0 0 l
0 0 l
0 0 l
0 0 l
1 0 l
0 0 l
0 0 l
0 0 l
0 0 l
1 0 l
0 0 l
0 0 l
0 0 l
0 0 l
0 0 l
1 0 l
0 0 l
0 0 l
0 0 l
0 0 l
0 0 l
1 0 l
0 0 l
0 0 l
0 0 l
0 0 l
1 0 l
0 0 l
0 0 l
0 0 l
0 0 l
0 0 l
1 0 l
0 0 l
0 0 l
0 0 l
0 0 l
0 0 l
1 0 l
0 0 l
0 0 l
0 0 l
0 0 l
0 0 l
1 0 l
CS M
0 0 l
0 0 l
0 0 l
0 0 l
1 0 l
0 0 l
0 0 l
0 0 l
0 0 l
0 0 l
1 0 l
0 0 l
0 0 l
0 0 l
0 0 l
0 0 l
1 0 l
0 0 l
0 0 l
0 0 l
0 0 l
1 0 l
0 0 l
0 0 l
0 0 l
0 0 l
0 0 l
1 0 l
0 0 l
0 0 l
0 0 l
0 0 l
0 0 l
1 0 l
0 0 l
0 0 l
0 0 l
0 0 l
1 0 l
0 0 l
0 0 l
0 0 l
0 0 l
0 0 l
1 0 l
0 0 l
0 0 l
0 0 l
0 0 l
0 0 l
1 0 l
0 0 l
0 0 l
0 0 l
0 0 l
0 0 l
1 0 l
0 0 l
0 0 l
0 0 l
0 0 l
1 0 l
0 0 l
0 0 l
0 0 l
0 0 l
0 0 l
1 0 l
0 0 l
0 0 l
0 0 l
0 0 l
0 0 l
1 0 l
0 0 l
0 0 l
0 0 l
0 0 l
0 0 l
1 0 l
0 0 l
0 0 l
0 -1 l
0 0 l
1 0 l
0 0 l
0 0 l
0 0 l
0 0 l
0 0 l
1 0 l
0 0 l
0 0 l
0 0 l
0 0 l
0 0 l
1 0 l
0 0 l
0 0 l
0 0 l
0 0 l
0 0 l
1 0 l
0 0 l
0 0 l
0 0 l
0 0 l
1 0 l
0 0 l
0 0 l
0 0 l
0 0 l
0 0 l
1 0 l
0 0 l
0 0 l
0 0 l
0 0 l
0 0 l
1 0 l
0 0 l
0 0 l
0 0 l
0 0 l
0 0 l
1 0 l
0 0 l
0 0 l
0 0 l
0 0 l
1 0 l
0 0 l
0 0 l
0 0 l
0 0 l
0 0 l
1 -1 l
0 0 l
0 0 l
0 0 l
0 0 l
0 0 l
1 0 l
0 0 l
0 0 l
0 0 l
0 0 l
0 0 l
1 0 l
0 0 l
0 0 l
0 0 l
0 0 l
1 0 l
0 0 l
0 0 l
0 0 l
0 0 l
0 0 l
1 0 l
0 0 l
0 0 l
0 0 l
0 0 l
0 0 l
1 0 l
0 0 l
0 0 l
0 0 l
0 0 l
0 0 l
1 0 l
0 0 l
0 0 l
0 0 l
0 0 l
1 0 l
0 0 l
0 0 l
0 0 l
0 0 l
0 0 l
1 0 l
0 0 l
0 0 l
0 0 l
0 0 l
0 0 l
1 0 l
0 0 l
0 0 l
0 0 l
0 0 l
1 0 l
0 0 l
0 0 l
0 0 l
0 0 l
0 0 l
1 0 l
0 0 l
0 0 l
0 0 l
0 0 l
0 0 l
1 0 l
0 0 l
0 0 l
0 0 l
0 0 l
0 0 l
1 0 l
0 0 l
0 0 l
0 0 l
0 0 l
1 0 l
0 0 l
0 0 l
0 0 l
0 0 l
0 0 l
1 0 l
0 0 l
0 0 l
0 0 l
0 0 l
0 0 l
1 0 l
0 0 l
0 0 l
0 0 l
0 0 l
0 0 l
1 0 l
0 0 l
0 0 l
0 0 l
0 0 l
1 0 l
0 0 l
0 0 l
0 0 l
0 0 l
0 0 l
1 0 l
0 0 l
0 0 l
0 0 l
0 0 l
0 0 l
1 0 l
0 0 l
0 0 l
0 0 l
0 0 l
1 0 l
0 0 l
0 0 l
0 0 l
0 0 l
0 0 l
1 0 l
0 0 l
0 0 l
0 0 l
0 0 l
0 0 l
1 0 l
0 0 l
0 0 l
0 0 l
0 0 l
0 0 l
1 0 l
0 0 l
0 0 l
0 0 l
0 0 l
1 0 l
0 0 l
0 0 l
0 0 l
0 0 l
0 0 l
1 0 l
0 0 l
0 0 l
0 0 l
0 0 l
0 0 l
1 0 l
0 0 l
0 0 l
0 0 l
0 0 l
1 0 l
0 0 l
0 0 l
0 0 l
CS M
0 0 l
0 0 l
1 0 l
0 0 l
0 0 l
0 0 l
0 0 l
0 0 l
1 0 l
0 0 l
0 0 l
0 0 l
0 0 l
0 0 l
1 0 l
0 0 l
0 0 l
0 0 l
0 0 l
1 0 l
0 0 l
0 0 l
0 0 l
0 0 l
0 0 l
1 0 l
0 0 l
0 0 l
0 0 l
0 0 l
0 0 l
1 0 l
0 0 l
0 0 l
0 0 l
0 0 l
1 0 l
0 -1 l
0 0 l
0 0 l
0 0 l
0 0 l
1 0 l
0 0 l
0 0 l
0 0 l
0 0 l
0 0 l
1 0 l
0 0 l
0 0 l
0 0 l
0 0 l
0 0 l
1 0 l
0 0 l
0 0 l
0 0 l
0 0 l
1 0 l
0 0 l
0 0 l
0 0 l
0 0 l
0 0 l
1 0 l
0 0 l
0 0 l
0 0 l
0 0 l
0 0 l
1 0 l
0 0 l
0 0 l
0 0 l
0 0 l
1 0 l
0 0 l
0 0 l
0 0 l
0 0 l
0 0 l
1 0 l
0 0 l
0 0 l
0 0 l
0 0 l
0 0 l
1 0 l
0 0 l
0 0 l
0 0 l
0 0 l
0 0 l
1 0 l
0 0 l
0 0 l
0 0 l
0 0 l
1 0 l
0 0 l
0 0 l
0 0 l
0 0 l
0 0 l
1 0 l
0 0 l
0 0 l
0 0 l
0 0 l
0 0 l
1 0 l
0 0 l
0 0 l
0 0 l
0 0 l
0 0 l
1 0 l
0 0 l
0 0 l
0 0 l
0 0 l
1 0 l
0 0 l
0 0 l
0 0 l
0 0 l
0 0 l
1 0 l
0 0 l
0 0 l
0 0 l
0 0 l
0 0 l
1 0 l
0 0 l
0 0 l
0 0 l
0 0 l
0 0 l
1 0 l
0 0 l
0 0 l
0 0 l
0 0 l
1 0 l
0 0 l
0 0 l
0 0 l
0 0 l
0 0 l
1 0 l
0 0 l
0 0 l
0 0 l
0 0 l
0 0 l
1 0 l
0 0 l
0 0 l
0 0 l
0 0 l
0 1 l
1 0 l
0 0 l
0 0 l
0 0 l
0 0 l
1 0 l
0 0 l
0 0 l
0 0 l
0 0 l
0 0 l
1 0 l
0 0 l
0 0 l
0 0 l
0 0 l
0 0 l
1 0 l
0 0 l
0 0 l
0 0 l
0 0 l
0 0 l
1 0 l
0 0 l
0 0 l
0 0 l
0 0 l
1 0 l
0 0 l
0 0 l
0 0 l
0 0 l
0 0 l
1 0 l
0 0 l
0 0 l
0 0 l
0 0 l
0 0 l
1 0 l
0 0 l
0 0 l
0 -1 l
0 0 l
1 0 l
0 0 l
0 0 l
0 0 l
0 0 l
0 0 l
1 0 l
0 0 l
0 0 l
0 0 l
0 0 l
0 0 l
1 0 l
0 0 l
0 0 l
0 0 l
0 0 l
0 0 l
1 0 l
0 0 l
0 0 l
0 0 l
0 0 l
1 0 l
0 0 l
0 0 l
0 0 l
0 0 l
0 0 l
1 0 l
0 0 l
0 0 l
0 0 l
0 0 l
0 0 l
1 0 l
0 0 l
0 0 l
0 0 l
0 0 l
1 0 l
0 0 l
0 0 l
0 0 l
0 0 l
0 0 l
1 0 l
0 0 l
0 0 l
0 0 l
0 0 l
0 0 l
1 0 l
0 0 l
0 0 l
0 0 l
0 0 l
0 0 l
1 0 l
0 0 l
0 0 l
0 0 l
0 0 l
1 0 l
0 0 l
0 0 l
0 0 l
0 0 l
0 0 l
1 0 l
0 0 l
0 0 l
0 0 l
0 0 l
0 0 l
1 0 l
0 0 l
0 0 l
0 0 l
0 0 l
0 0 l
1 0 l
0 0 l
0 0 l
0 0 l
0 0 l
1 0 l
0 0 l
0 0 l
0 0 l
0 0 l
0 0 l
CS M
1 0 l
0 0 l
0 0 l
0 0 l
0 0 l
0 0 l
1 0 l
0 0 l
0 0 l
0 0 l
0 0 l
0 0 l
1 0 l
0 0 l
0 0 l
0 0 l
0 0 l
1 0 l
0 0 l
0 0 l
0 0 l
0 0 l
0 0 l
1 0 l
0 0 l
0 0 l
0 0 l
0 0 l
0 0 l
1 0 l
0 0 l
0 0 l
0 0 l
0 0 l
1 0 l
0 0 l
0 0 l
0 0 l
0 0 l
0 0 l
1 0 l
0 0 l
0 0 l
0 0 l
0 0 l
0 0 l
1 0 l
0 0 l
0 0 l
0 0 l
0 0 l
0 0 l
1 0 l
0 0 l
0 0 l
0 0 l
0 0 l
1 0 l
0 0 l
0 0 l
0 0 l
0 1 l
0 0 l
1 0 l
0 0 l
0 0 l
0 0 l
0 0 l
0 0 l
1 0 l
0 0 l
0 0 l
0 0 l
0 0 l
1 0 l
0 0 l
0 0 l
0 0 l
0 0 l
0 0 l
1 0 l
0 0 l
0 0 l
0 0 l
0 0 l
0 0 l
1 0 l
0 0 l
0 0 l
0 0 l
0 0 l
1 0 l
0 0 l
0 0 l
0 0 l
0 0 l
0 0 l
1 0 l
0 0 l
0 0 l
0 0 l
0 0 l
0 0 l
1 0 l
0 0 l
0 0 l
0 0 l
0 0 l
0 0 l
1 0 l
0 0 l
0 0 l
0 0 l
0 0 l
1 0 l
0 0 l
0 0 l
0 0 l
0 0 l
0 0 l
1 0 l
0 0 l
0 0 l
0 0 l
0 0 l
0 0 l
1 0 l
0 0 l
0 0 l
0 0 l
0 0 l
0 0 l
1 0 l
0 0 l
0 0 l
0 0 l
0 0 l
1 0 l
0 0 l
0 0 l
0 0 l
0 0 l
0 0 l
1 0 l
0 0 l
0 0 l
0 0 l
0 0 l
0 0 l
1 0 l
0 0 l
0 0 l
0 0 l
0 0 l
0 0 l
1 0 l
0 0 l
0 0 l
0 0 l
0 0 l
1 0 l
0 0 l
0 0 l
0 0 l
0 0 l
0 0 l
1 0 l
0 0 l
0 0 l
0 0 l
0 0 l
0 0 l
1 0 l
0 0 l
0 0 l
0 0 l
0 0 l
0 0 l
1 0 l
0 0 l
0 0 l
0 0 l
0 0 l
1 0 l
0 0 l
0 0 l
0 0 l
0 0 l
0 0 l
1 0 l
0 0 l
0 0 l
0 0 l
0 0 l
0 0 l
1 0 l
0 0 l
0 0 l
0 0 l
0 0 l
0 0 l
1 0 l
0 0 l
0 0 l
0 0 l
0 0 l
1 0 l
0 0 l
0 0 l
0 0 l
0 0 l
0 0 l
1 0 l
0 0 l
0 0 l
0 0 l
0 0 l
0 0 l
1 0 l
0 0 l
0 0 l
0 0 l
0 0 l
0 0 l
1 0 l
0 0 l
0 0 l
0 0 l
0 0 l
1 0 l
0 0 l
0 0 l
0 0 l
0 0 l
0 0 l
1 0 l
0 0 l
0 0 l
0 0 l
0 0 l
0 0 l
1 0 l
0 0 l
0 0 l
0 0 l
0 0 l
1 0 l
0 0 l
0 0 l
0 0 l
0 0 l
0 0 l
1 0 l
0 0 l
0 0 l
0 0 l
0 0 l
0 0 l
1 0 l
0 0 l
0 0 l
0 0 l
0 0 l
1 0 l
0 0 l
0 0 l
0 0 l
0 0 l
0 0 l
1 0 l
0 0 l
0 0 l
0 0 l
0 0 l
0 0 l
1 0 l
0 0 l
0 0 l
0 0 l
0 0 l
0 0 l
1 0 l
0 0 l
0 0 l
0 0 l
0 0 l
1 0 l
0 0 l
0 0 l
0 0 l
0 0 l
0 0 l
1 0 l
0 0 l
0 0 l
0 0 l
0 0 l
0 0 l
1 0 l
0 0 l
CS M
0 0 l
0 0 l
0 0 l
0 0 l
1 0 l
0 0 l
0 0 l
0 0 l
0 0 l
1 0 l
0 0 l
0 0 l
0 0 l
0 0 l
0 0 l
1 0 l
0 1 l
0 0 l
0 0 l
0 0 l
0 0 l
1 0 l
0 0 l
0 0 l
0 0 l
0 0 l
0 0 l
1 0 l
0 0 l
0 0 l
0 0 l
0 0 l
1 0 l
0 0 l
0 0 l
0 0 l
0 0 l
0 0 l
1 0 l
0 0 l
0 0 l
0 0 l
0 0 l
0 0 l
1 0 l
0 0 l
0 0 l
0 0 l
0 0 l
1 0 l
0 0 l
0 0 l
0 0 l
0 0 l
0 0 l
1 0 l
0 0 l
0 0 l
0 0 l
0 0 l
0 0 l
1 0 l
0 0 l
0 0 l
0 0 l
0 0 l
0 0 l
1 0 l
0 0 l
0 0 l
0 0 l
0 0 l
1 0 l
0 0 l
0 0 l
0 0 l
0 0 l
0 0 l
1 0 l
0 0 l
0 0 l
0 0 l
0 0 l
0 0 l
1 0 l
0 0 l
0 0 l
0 0 l
0 0 l
1 0 l
0 0 l
0 0 l
0 0 l
0 0 l
0 0 l
1 0 l
0 0 l
0 0 l
0 0 l
0 0 l
0 0 l
1 0 l
0 0 l
0 0 l
0 0 l
0 0 l
0 0 l
1 0 l
0 0 l
0 0 l
0 0 l
0 0 l
1 0 l
0 0 l
0 0 l
0 0 l
0 0 l
0 0 l
1 0 l
0 0 l
0 0 l
0 0 l
0 0 l
0 0 l
1 0 l
0 0 l
0 0 l
0 0 l
0 0 l
1 0 l
0 0 l
0 0 l
0 0 l
0 0 l
0 0 l
1 0 l
0 0 l
0 0 l
0 0 l
0 0 l
0 0 l
1 0 l
0 0 l
0 0 l
0 0 l
0 0 l
0 0 l
1 0 l
0 0 l
0 0 l
0 0 l
0 0 l
1 0 l
0 0 l
0 0 l
0 0 l
0 0 l
0 0 l
1 0 l
0 0 l
0 0 l
0 0 l
0 0 l
0 0 l
1 0 l
0 0 l
0 0 l
0 0 l
0 0 l
0 0 l
1 0 l
0 0 l
0 0 l
0 0 l
0 0 l
1 0 l
0 0 l
0 0 l
0 0 l
0 0 l
0 0 l
1 0 l
0 0 l
0 0 l
0 0 l
0 0 l
0 0 l
1 0 l
0 0 l
0 0 l
0 0 l
0 0 l
0 0 l
1 0 l
0 0 l
0 0 l
0 0 l
0 0 l
1 0 l
0 0 l
0 0 l
0 0 l
0 0 l
0 0 l
1 0 l
0 0 l
0 0 l
0 0 l
0 0 l
0 0 l
1 0 l
0 0 l
0 0 l
0 0 l
0 0 l
0 0 l
1 0 l
0 0 l
0 0 l
0 0 l
0 0 l
1 0 l
0 0 l
0 0 l
0 0 l
0 0 l
0 0 l
1 1 l
0 0 l
0 0 l
0 0 l
0 0 l
0 0 l
1 0 l
0 0 l
0 0 l
0 0 l
0 0 l
0 0 l
1 0 l
0 0 l
0 0 l
0 0 l
0 0 l
1 0 l
0 0 l
0 0 l
0 0 l
0 0 l
0 0 l
1 0 l
0 0 l
0 0 l
0 0 l
0 0 l
0 0 l
1 0 l
0 0 l
0 0 l
0 0 l
0 0 l
0 0 l
1 0 l
0 0 l
0 0 l
0 0 l
0 0 l
1 0 l
0 0 l
0 0 l
0 0 l
0 0 l
0 0 l
1 0 l
0 0 l
0 0 l
0 0 l
0 0 l
0 0 l
1 0 l
0 0 l
0 0 l
0 0 l
0 0 l
1 0 l
0 0 l
0 0 l
0 0 l
0 0 l
0 0 l
1 0 l
0 0 l
0 0 l
0 0 l
0 0 l
0 0 l
1 0 l
0 0 l
0 0 l
0 0 l
CS M
0 0 l
1 0 l
0 0 l
0 0 l
0 0 l
0 0 l
0 0 l
1 0 l
0 0 l
0 0 l
0 0 l
0 0 l
0 0 l
1 0 l
0 0 l
0 0 l
0 0 l
0 0 l
0 0 l
1 0 l
0 0 l
0 0 l
0 0 l
0 0 l
1 0 l
0 0 l
0 0 l
0 0 l
0 0 l
0 0 l
1 0 l
0 0 l
0 0 l
0 0 l
0 0 l
0 0 l
1 0 l
0 0 l
0 0 l
0 0 l
0 0 l
0 0 l
1 0 l
0 0 l
0 0 l
0 0 l
0 0 l
1 0 l
0 0 l
0 0 l
0 0 l
0 0 l
0 0 l
1 0 l
0 0 l
0 0 l
0 0 l
0 0 l
0 0 l
1 0 l
0 0 l
0 0 l
0 0 l
0 0 l
0 0 l
1 0 l
0 0 l
0 0 l
0 0 l
0 0 l
1 0 l
0 0 l
0 0 l
0 0 l
0 0 l
0 0 l
1 0 l
0 0 l
0 0 l
0 0 l
0 0 l
0 0 l
1 0 l
0 0 l
0 0 l
0 0 l
0 0 l
1 0 l
0 0 l
0 0 l
0 0 l
0 0 l
0 0 l
1 0 l
0 0 l
0 0 l
0 0 l
0 0 l
0 0 l
1 0 l
0 0 l
0 0 l
0 0 l
0 0 l
1 0 l
0 0 l
0 0 l
0 0 l
0 0 l
0 0 l
1 0 l
0 0 l
0 0 l
0 0 l
0 0 l
0 0 l
1 0 l
0 0 l
0 0 l
0 0 l
0 0 l
0 0 l
1 0 l
0 0 l
0 0 l
0 0 l
0 0 l
1 0 l
0 0 l
0 0 l
0 0 l
0 0 l
0 0 l
1 0 l
0 0 l
0 0 l
0 0 l
0 0 l
0 0 l
1 0 l
0 0 l
0 0 l
0 0 l
0 0 l
1 0 l
0 0 l
0 0 l
0 0 l
0 0 l
0 0 l
1 0 l
0 0 l
0 0 l
0 0 l
0 0 l
0 0 l
1 0 l
0 0 l
0 0 l
0 0 l
0 0 l
0 0 l
1 0 l
0 0 l
0 0 l
0 0 l
0 0 l
1 0 l
0 0 l
0 0 l
0 1 l
0 0 l
0 0 l
1 0 l
0 0 l
0 0 l
0 0 l
0 0 l
0 0 l
1 0 l
0 0 l
0 0 l
0 0 l
0 0 l
0 0 l
1 0 l
0 0 l
0 0 l
0 0 l
0 0 l
1 0 l
0 0 l
0 0 l
0 0 l
0 0 l
0 0 l
1 0 l
0 0 l
0 0 l
0 0 l
0 0 l
0 0 l
1 0 l
0 0 l
0 0 l
0 0 l
0 0 l
0 0 l
1 0 l
0 0 l
0 0 l
0 0 l
0 0 l
1 0 l
0 0 l
0 0 l
0 0 l
0 0 l
0 0 l
1 0 l
0 0 l
0 0 l
0 0 l
0 0 l
0 0 l
1 0 l
0 0 l
0 0 l
0 0 l
0 0 l
0 0 l
1 0 l
0 0 l
0 0 l
0 0 l
0 0 l
1 0 l
0 0 l
0 0 l
0 0 l
0 0 l
0 0 l
1 0 l
0 0 l
0 0 l
0 0 l
0 0 l
0 0 l
1 0 l
0 0 l
0 0 l
0 0 l
0 0 l
0 0 l
1 0 l
0 0 l
0 0 l
0 0 l
0 0 l
1 0 l
0 0 l
0 0 l
0 0 l
0 0 l
0 0 l
1 0 l
0 0 l
0 0 l
0 0 l
0 0 l
0 0 l
1 0 l
0 0 l
0 0 l
0 0 l
0 0 l
0 0 l
1 0 l
0 0 l
0 0 l
0 0 l
0 0 l
1 0 l
0 0 l
0 0 l
0 0 l
0 0 l
0 0 l
1 0 l
0 0 l
0 0 l
0 0 l
0 0 l
0 0 l
1 0 l
0 0 l
0 0 l
0 0 l
0 0 l
1 0 l
CS M
0 0 l
0 0 l
0 0 l
0 0 l
0 0 l
1 0 l
0 0 l
0 0 l
0 0 l
0 0 l
0 0 l
1 0 l
0 0 l
0 0 l
0 0 l
0 0 l
0 0 l
1 0 l
0 0 l
0 0 l
0 0 l
0 0 l
1 0 l
0 0 l
0 0 l
0 0 l
0 0 l
0 0 l
1 0 l
0 0 l
0 0 l
0 0 l
0 0 l
0 0 l
1 0 l
0 0 l
0 0 l
0 0 l
0 0 l
1 0 l
0 0 l
0 0 l
0 0 l
0 0 l
0 0 l
1 0 l
0 0 l
0 0 l
0 0 l
0 0 l
0 0 l
1 0 l
0 0 l
0 0 l
0 0 l
0 0 l
0 0 l
1 0 l
0 0 l
0 0 l
0 0 l
0 0 l
1 0 l
0 0 l
0 0 l
0 0 l
0 0 l
0 0 l
1 0 l
0 0 l
0 0 l
0 0 l
0 0 l
0 0 l
1 0 l
0 0 l
0 0 l
0 0 l
0 0 l
0 0 l
1 0 l
0 0 l
0 0 l
0 0 l
0 0 l
1 0 l
0 0 l
0 0 l
0 0 l
0 0 l
0 0 l
1 0 l
0 0 l
0 0 l
0 0 l
0 0 l
0 0 l
1 0 l
0 0 l
0 0 l
0 0 l
0 0 l
1 0 l
0 0 l
0 0 l
0 0 l
0 0 l
0 0 l
1 0 l
0 0 l
0 0 l
0 0 l
0 0 l
0 0 l
1 0 l
0 0 l
0 0 l
0 0 l
0 0 l
0 0 l
1 0 l
0 0 l
0 0 l
0 0 l
0 0 l
1 0 l
0 0 l
0 0 l
0 0 l
0 0 l
0 0 l
1 0 l
0 0 l
0 0 l
0 0 l
0 0 l
0 0 l
1 0 l
0 0 l
0 0 l
0 0 l
0 0 l
1 0 l
0 0 l
0 0 l
0 0 l
0 0 l
0 0 l
1 0 l
0 0 l
0 0 l
0 0 l
0 0 l
0 0 l
1 0 l
0 0 l
0 0 l
0 0 l
0 0 l
0 0 l
1 0 l
0 0 l
0 0 l
0 0 l
0 0 l
1 0 l
0 0 l
0 0 l
0 0 l
0 0 l
0 0 l
1 0 l
0 0 l
0 0 l
0 0 l
0 0 l
0 0 l
1 0 l
0 0 l
0 0 l
0 0 l
0 0 l
1 0 l
0 0 l
0 0 l
0 0 l
0 0 l
0 0 l
1 0 l
0 0 l
0 0 l
0 0 l
0 0 l
0 0 l
1 0 l
0 0 l
0 0 l
0 0 l
0 0 l
0 0 l
1 0 l
0 0 l
0 0 l
0 0 l
0 0 l
1 0 l
0 0 l
0 0 l
0 0 l
0 0 l
0 0 l
1 0 l
0 0 l
0 0 l
0 0 l
0 0 l
0 0 l
1 0 l
0 0 l
0 0 l
0 0 l
0 0 l
1 0 l
0 0 l
0 0 l
0 0 l
0 0 l
0 0 l
1 0 l
0 0 l
0 0 l
0 0 l
0 0 l
0 0 l
1 0 l
0 0 l
0 0 l
0 0 l
0 0 l
0 0 l
1 0 l
0 0 l
0 0 l
0 0 l
0 0 l
1 0 l
0 0 l
0 0 l
0 0 l
0 0 l
0 0 l
1 0 l
0 0 l
0 0 l
0 0 l
0 0 l
0 0 l
1 0 l
0 0 l
0 0 l
0 0 l
0 0 l
0 0 l
1 0 l
0 0 l
0 0 l
0 0 l
0 0 l
1 0 l
0 0 l
0 0 l
0 0 l
0 0 l
0 0 l
1 0 l
0 0 l
0 0 l
0 0 l
0 0 l
0 0 l
1 0 l
0 0 l
0 0 l
0 0 l
0 0 l
0 0 l
1 0 l
0 0 l
0 0 l
0 0 l
0 0 l
1 0 l
0 0 l
0 0 l
0 0 l
0 0 l
0 0 l
1 0 l
0 0 l
0 0 l
CS M
0 0 l
0 0 l
0 0 l
1 0 l
0 0 l
0 0 l
0 0 l
0 0 l
0 0 l
1 0 l
0 0 l
0 0 l
0 0 l
0 0 l
1 0 l
0 0 l
0 0 l
0 0 l
0 0 l
0 0 l
1 0 l
0 0 l
0 0 l
0 0 l
0 0 l
0 0 l
1 0 l
0 0 l
0 0 l
0 0 l
0 0 l
0 0 l
1 0 l
0 0 l
0 0 l
0 0 l
0 0 l
1 0 l
0 0 l
0 0 l
0 0 l
0 0 l
0 0 l
1 0 l
0 0 l
0 0 l
0 0 l
0 0 l
0 0 l
1 0 l
0 0 l
0 0 l
0 0 l
0 0 l
1 0 l
0 0 l
0 0 l
0 0 l
0 0 l
0 0 l
1 0 l
0 0 l
0 0 l
0 0 l
0 0 l
0 0 l
1 0 l
0 0 l
0 0 l
0 0 l
0 0 l
0 0 l
1 0 l
0 0 l
0 0 l
0 0 l
0 0 l
1 0 l
0 0 l
0 0 l
0 0 l
0 0 l
0 0 l
1 0 l
0 0 l
0 0 l
0 0 l
0 0 l
0 0 l
1 0 l
0 0 l
0 0 l
0 0 l
0 0 l
0 0 l
1 0 l
0 0 l
0 0 l
0 0 l
0 0 l
1 0 l
0 0 l
0 0 l
0 0 l
0 0 l
0 0 l
1 0 l
0 0 l
0 0 l
0 0 l
0 0 l
0 0 l
1 0 l
0 0 l
0 0 l
0 0 l
0 0 l
0 0 l
1 0 l
0 0 l
0 0 l
0 0 l
0 0 l
1 0 l
0 0 l
0 0 l
0 0 l
0 0 l
0 0 l
1 0 l
0 0 l
0 0 l
0 0 l
0 0 l
0 0 l
1 0 l
0 0 l
0 0 l
0 0 l
0 0 l
1 0 l
0 0 l
0 0 l
0 0 l
0 0 l
0 0 l
1 0 l
0 0 l
0 0 l
0 0 l
0 0 l
0 0 l
1 0 l
0 0 l
0 0 l
0 0 l
0 0 l
1 0 l
0 0 l
0 0 l
0 0 l
0 0 l
0 0 l
1 0 l
0 0 l
0 0 l
0 0 l
0 0 l
0 0 l
1 0 l
0 0 l
0 0 l
0 0 l
0 0 l
0 0 l
1 0 l
0 0 l
0 0 l
0 0 l
0 0 l
1 0 l
0 0 l
0 0 l
0 0 l
0 0 l
0 0 l
1 0 l
0 0 l
0 0 l
0 0 l
0 0 l
0 0 l
1 0 l
0 0 l
0 0 l
0 0 l
0 0 l
1 0 l
0 0 l
0 0 l
0 0 l
0 0 l
0 0 l
1 0 l
0 0 l
0 0 l
0 0 l
0 0 l
0 0 l
1 0 l
0 0 l
0 0 l
0 0 l
0 0 l
0 0 l
1 0 l
0 0 l
0 0 l
0 0 l
0 0 l
1 0 l
0 0 l
0 0 l
0 0 l
0 0 l
0 0 l
1 0 l
0 0 l
0 0 l
0 0 l
0 0 l
0 0 l
1 0 l
0 0 l
0 0 l
0 0 l
0 0 l
1 0 l
0 0 l
0 0 l
0 0 l
0 0 l
0 0 l
1 0 l
0 0 l
0 0 l
0 0 l
0 0 l
0 0 l
1 0 l
0 0 l
0 0 l
0 0 l
0 0 l
0 0 l
1 0 l
0 0 l
0 0 l
0 0 l
0 0 l
1 0 l
0 0 l
0 0 l
0 0 l
0 0 l
0 0 l
1 0 l
0 0 l
0 0 l
0 0 l
0 0 l
0 0 l
1 0 l
0 0 l
0 0 l
0 0 l
0 0 l
0 0 l
1 0 l
0 0 l
0 0 l
0 0 l
0 0 l
1 0 l
0 0 l
0 0 l
0 0 l
0 0 l
0 0 l
1 0 l
0 0 l
0 0 l
0 0 l
0 0 l
0 0 l
1 0 l
0 0 l
0 0 l
0 0 l
0 0 l
CS M
0 0 l
1 0 l
0 0 l
0 0 l
0 0 l
0 0 l
1 0 l
0 0 l
0 0 l
0 0 l
0 0 l
0 0 l
1 0 l
0 0 l
0 0 l
0 0 l
0 0 l
0 0 l
1 0 l
0 0 l
0 0 l
0 0 l
0 0 l
0 0 l
1 0 l
0 0 l
0 0 l
0 0 l
0 0 l
1 0 l
0 0 l
0 0 l
0 0 l
0 0 l
0 0 l
1 0 l
0 0 l
0 0 l
0 0 l
0 0 l
0 0 l
1 0 l
0 0 l
0 0 l
0 0 l
0 0 l
0 0 l
1 0 l
0 0 l
0 0 l
0 0 l
0 0 l
1 0 l
0 0 l
0 0 l
0 0 l
0 0 l
0 0 l
1 0 l
0 0 l
0 0 l
0 0 l
0 0 l
0 0 l
1 0 l
0 0 l
0 0 l
0 0 l
0 0 l
0 0 l
1 0 l
0 0 l
0 0 l
0 0 l
0 0 l
1 0 l
0 0 l
0 0 l
0 0 l
0 0 l
0 0 l
1 0 l
0 0 l
0 0 l
0 0 l
0 0 l
0 0 l
1 0 l
0 0 l
0 0 l
0 0 l
0 0 l
1 0 l
0 0 l
0 0 l
0 0 l
0 0 l
0 0 l
1 0 l
0 0 l
0 0 l
0 0 l
0 0 l
0 0 l
1 0 l
0 0 l
0 0 l
0 0 l
0 0 l
0 0 l
1 0 l
0 0 l
0 0 l
0 0 l
0 0 l
1 0 l
0 0 l
0 0 l
0 0 l
0 0 l
0 0 l
1 0 l
0 0 l
0 0 l
0 0 l
0 0 l
0 0 l
1 0 l
0 0 l
0 0 l
0 0 l
0 0 l
1 0 l
0 0 l
0 0 l
0 0 l
0 0 l
0 0 l
1 0 l
0 0 l
0 0 l
0 0 l
0 0 l
0 0 l
1 0 l
0 0 l
0 0 l
0 0 l
0 0 l
0 0 l
1 0 l
0 0 l
0 0 l
0 0 l
0 0 l
1 0 l
0 0 l
0 0 l
0 0 l
0 0 l
0 0 l
1 0 l
0 0 l
0 0 l
0 0 l
0 0 l
0 0 l
1 0 l
0 0 l
0 0 l
0 0 l
0 0 l
0 0 l
1 0 l
0 0 l
0 0 l
0 0 l
0 0 l
1 0 l
0 0 l
0 0 l
0 0 l
0 0 l
0 0 l
1 0 l
0 0 l
0 0 l
0 0 l
0 0 l
0 0 l
1 0 l
0 0 l
0 0 l
0 0 l
0 0 l
1 0 l
0 0 l
0 0 l
0 0 l
0 0 l
0 0 l
1 0 l
0 0 l
0 0 l
0 0 l
0 0 l
0 0 l
1 0 l
0 0 l
0 0 l
0 0 l
0 0 l
0 0 l
1 0 l
0 0 l
0 0 l
0 0 l
0 0 l
1 0 l
0 0 l
0 0 l
0 0 l
0 0 l
0 0 l
1 0 l
0 0 l
0 0 l
0 0 l
0 0 l
0 0 l
1 0 l
0 0 l
0 0 l
0 0 l
0 0 l
1 0 l
0 0 l
0 0 l
0 0 l
0 0 l
0 0 l
1 0 l
0 0 l
0 0 l
0 0 l
0 0 l
0 0 l
1 0 l
0 0 l
0 0 l
0 0 l
0 0 l
0 0 l
1 0 l
0 0 l
0 0 l
0 0 l
0 0 l
1 0 l
0 0 l
0 0 l
0 0 l
0 0 l
0 0 l
1 0 l
0 0 l
0 0 l
0 0 l
0 0 l
0 0 l
1 0 l
0 0 l
0 0 l
0 0 l
0 0 l
1 0 l
0 0 l
0 0 l
0 0 l
0 0 l
0 0 l
1 0 l
0 0 l
0 0 l
0 0 l
0 0 l
0 0 l
1 0 l
0 0 l
0 0 l
0 0 l
0 0 l
0 0 l
1 0 l
0 0 l
0 0 l
0 0 l
0 0 l
1 0 l
0 0 l
CS M
0 0 l
0 0 l
0 0 l
0 0 l
1 0 l
0 0 l
0 0 l
0 0 l
0 0 l
0 0 l
1 0 l
0 0 l
0 0 l
0 0 l
0 0 l
0 0 l
1 0 l
0 0 l
0 0 l
0 0 l
0 0 l
1 0 l
0 0 l
0 0 l
0 0 l
0 0 l
0 0 l
1 0 l
0 0 l
0 0 l
0 0 l
0 0 l
0 0 l
1 0 l
0 0 l
0 0 l
0 0 l
0 0 l
0 0 l
1 0 l
0 0 l
0 0 l
0 0 l
0 0 l
1 0 l
0 0 l
0 0 l
0 0 l
0 0 l
0 0 l
1 0 l
0 0 l
0 0 l
0 0 l
0 0 l
0 0 l
1 0 l
0 0 l
0 0 l
0 0 l
0 0 l
0 0 l
1 0 l
0 0 l
0 0 l
0 0 l
0 0 l
1 0 l
0 0 l
0 0 l
0 0 l
0 0 l
0 0 l
1 0 l
0 0 l
0 0 l
0 0 l
0 0 l
0 0 l
1 0 l
0 0 l
0 0 l
0 0 l
0 0 l
0 0 l
1 0 l
0 0 l
0 0 l
0 0 l
0 0 l
1 0 l
0 0 l
0 0 l
0 0 l
0 0 l
0 0 l
1 0 l
0 0 l
0 0 l
0 0 l
CS [] 0 setdash M
 0 0 0 C
257 265 M 2 18 l
2 29 l
2 38 l
2 45 l
2 50 l
2 55 l
2 56 l
2 56 l
2 54 l
2 51 l
2 45 l
2 39 l
2 32 l
2 23 l
2 16 l
2 9 l
2 3 l
2 0 l
2 -1 l
2 1 l
2 6 l
2 13 l
2 23 l
2 33 l
2 41 l
2 48 l
2 52 l
2 52 l
2 50 l
2 46 l
2 40 l
2 33 l
2 25 l
2 17 l
2 9 l
2 3 l
2 -1 l
2 -4 l
3 -4 l
1 0 l
3 4 l
1 11 l
2 19 l
3 26 l
2 33 l
2 38 l
2 41 l
2 41 l
2 38 l
2 35 l
2 29 l
2 21 l
2 16 l
2 7 l
2 1 l
2 -3 l
2 -6 l
2 -8 l
2 -7 l
2 -3 l
2 1 l
2 7 l
2 15 l
2 19 l
2 26 l
2 28 l
2 30 l
2 29 l
2 27 l
2 22 l
2 17 l
2 12 l
2 4 l
2 -1 l
2 -6 l
2 -9 l
2 -11 l
2 -11 l
2 -9 l
2 -5 l
2 -2 l
2 5 l
2 10 l
2 15 l
2 18 l
2 21 l
2 20 l
2 20 l
2 16 l
2 11 l
2 7 l
2 2 l
2 -4 l
2 -9 l
2 -12 l
2 -14 l
2 -15 l
2 -14 l
2 -11 l
2 -8 l
2 -4 l
2 2 l
2 6 l
2 8 l
2 12 l
2 13 l
2 11 l
2 10 l
2 6 l
2 3 l
2 -2 l
2 -6 l
2 -11 l
2 -14 l
2 -16 l
2 -17 l
2 -16 l
2 -15 l
2 -12 l
2 -8 l
2 -4 l
2 -1 l
2 3 l
2 6 l
2 6 l
2 7 l
2 5 l
2 2 l
2 -1 l
2 -5 l
2 -9 l
2 -12 l
2 -15 l
2 -18 l
2 -19 l
2 -18 l
2 -17 l
2 -15 l
2 -11 l
2 -9 l
2 -5 l
2 -1 l
2 0 l
2 2 l
2 2 l
2 1 l
2 0 l
2 -4 l
2 -6 l
2 -10 l
2 -12 l
2 -16 l
2 -16 l
2 -19 l
2 -17 l
2 -17 l
2 -15 l
2 -12 l
2 -9 l
2 -6 l
2 -3 l
2 -1 l
2 0 l
2 0 l
2 0 l
2 -2 l
2 -5 l
2 -7 l
2 -10 l
2 -12 l
2 -15 l
2 -16 l
2 -16 l
2 -17 l
2 -15 l
2 -13 l
2 -11 l
2 -8 l
2 -5 l
2 -3 l
2 -1 l
2 0 l
2 1 l
2 -1 l
2 -1 l
2 -4 l
2 -6 l
2 -7 l
2 -10 l
2 -12 l
2 -13 l
2 -13 l
2 -12 l
2 -11 l
2 -9 l
2 -7 l
2 -5 l
2 -2 l
2 0 l
2 1 l
CS M
2 2 l
2 2 l
2 2 l
2 0 l
2 -2 l
2 -4 l
2 -5 l
2 -7 l
2 -8 l
2 -9 l
2 -9 l
2 -8 l
3 -6 l
1 -5 l
3 -2 l
1 0 l
2 1 l
3 4 l
2 4 l
2 5 l
2 4 l
2 4 l
2 3 l
2 1 l
2 -1 l
2 -2 l
2 -4 l
2 -4 l
2 -4 l
2 -4 l
2 -4 l
2 -2 l
2 0 l
2 2 l
2 3 l
2 5 l
2 6 l
2 6 l
2 7 l
2 6 l
2 5 l
2 4 l
2 3 l
2 1 l
2 0 l
2 0 l
2 -2 l
2 -1 l
2 -2 l
2 0 l
2 1 l
2 2 l
2 4 l
2 5 l
2 7 l
2 6 l
2 8 l
2 7 l
2 6 l
2 6 l
2 5 l
2 3 l
2 2 l
2 1 l
2 0 l
2 0 l
2 0 l
2 0 l
2 1 l
2 2 l
2 3 l
2 5 l
2 5 l
2 6 l
2 7 l
2 7 l
2 7 l
2 6 l
2 5 l
2 4 l
2 3 l
2 2 l
2 1 l
2 0 l
2 0 l
2 0 l
2 1 l
2 0 l
2 2 l
2 3 l
2 3 l
2 5 l
2 5 l
2 5 l
2 5 l
2 5 l
2 5 l
2 4 l
2 2 l
2 2 l
2 1 l
2 1 l
2 -1 l
2 0 l
2 0 l
2 -1 l
2 1 l
2 1 l
2 2 l
2 3 l
2 3 l
2 4 l
2 4 l
2 5 l
2 3 l
2 4 l
2 2 l
2 2 l
2 1 l
2 0 l
2 -1 l
2 -1 l
2 -1 l
2 -1 l
2 -2 l
2 -1 l
2 0 l
2 1 l
2 1 l
2 2 l
2 2 l
2 2 l
2 2 l
2 2 l
2 2 l
2 1 l
2 0 l
2 0 l
2 -1 l
2 -1 l
2 -2 l
2 -1 l
2 -2 l
2 -1 l
2 -2 l
2 0 l
2 0 l
2 0 l
2 2 l
2 1 l
2 1 l
2 2 l
2 1 l
2 1 l
2 0 l
2 -1 l
2 -1 l
2 -1 l
2 -3 l
2 -2 l
2 -3 l
2 -2 l
2 -3 l
2 -2 l
2 -2 l
2 -1 l
2 0 l
2 0 l
2 0 l
2 0 l
2 1 l
2 0 l
2 0 l
2 -1 l
2 -1 l
2 -1 l
2 -2 l
2 -2 l
2 -2 l
2 -2 l
2 -2 l
2 -3 l
2 -1 l
2 -1 l
3 -1 l
1 -1 l
2 0 l
2 0 l
2 0 l
2 0 l
2 0 l
3 0 l
2 -1 l
2 -2 l
2 -1 l
2 -2 l
2 -3 l
2 -2 l
2 -3 l
2 -2 l
2 -3 l
2 -2 l
2 -1 l
2 -1 l
2 -1 l
2 0 l
2 0 l
2 0 l
2 0 l
2 0 l
2 -1 l
2 0 l
2 -1 l
2 -1 l
2 -2 l
2 -1 l
2 -2 l
2 -2 l
2 -1 l
2 -2 l
2 -1 l
2 -1 l
2 0 l
2 -1 l
2 0 l
2 1 l
2 0 l
2 0 l
2 0 l
2 -1 l
2 0 l
2 -1 l
2 -1 l
2 -1 l
2 -2 l
2 -1 l
2 -2 l
2 -1 l
2 -1 l
2 -1 l
2 0 l
2 -1 l
2 0 l
2 1 l
2 0 l
2 1 l
2 0 l
2 1 l
2 0 l
2 0 l
2 0 l
2 0 l
2 -1 l
2 -1 l
2 0 l
2 -1 l
2 -1 l
2 0 l
2 -1 l
2 0 l
2 1 l
2 0 l
2 1 l
2 0 l
2 1 l
2 1 l
2 0 l
2 1 l
2 0 l
2 0 l
2 0 l
2 0 l
2 -1 l
2 0 l
2 -1 l
2 0 l
2 0 l
2 0 l
2 0 l
2 1 l
2 1 l
2 1 l
2 0 l
2 1 l
2 1 l
2 1 l
2 0 l
2 1 l
2 0 l
2 0 l
2 0 l
2 0 l
2 0 l
2 0 l
2 0 l
2 0 l
2 0 l
2 1 l
2 0 l
2 1 l
CS M
2 1 l
2 1 l
2 1 l
2 1 l
2 1 l
2 1 l
2 0 l
2 1 l
2 0 l
2 0 l
2 0 l
2 0 l
2 0 l
2 0 l
2 0 l
2 0 l
2 1 l
2 0 l
2 1 l
2 1 l
2 0 l
2 1 l
2 1 l
2 0 l
2 1 l
2 0 l
2 0 l
2 0 l
2 0 l
2 0 l
2 0 l
2 0 l
2 0 l
2 1 l
2 0 l
2 1 l
2 0 l
2 1 l
2 1 l
2 1 l
2 0 l
2 1 l
2 1 l
2 0 l
2 1 l
2 0 l
2 0 l
2 0 l
2 0 l
2 -1 l
2 0 l
2 0 l
2 0 l
2 0 l
2 0 l
2 0 l
2 0 l
2 0 l
2 1 l
2 0 l
2 0 l
2 0 l
3 0 l
2 0 l
1 0 l
3 0 l
2 0 l
2 0 l
1 0 l
3 0 l
2 0 l
2 0 l
2 1 l
2 0 l
2 0 l
2 1 l
2 0 l
2 1 l
2 0 l
2 0 l
2 1 l
2 0 l
2 0 l
2 -1 l
2 0 l
2 0 l
2 -1 l
2 0 l
2 -1 l
2 0 l
2 -1 l
2 0 l
2 0 l
2 0 l
2 -1 l
2 0 l
2 0 l
2 0 l
2 0 l
2 0 l
2 0 l
2 0 l
2 0 l
2 0 l
2 0 l
2 0 l
2 0 l
2 0 l
2 0 l
2 0 l
2 0 l
2 0 l
2 0 l
2 0 l
2 0 l
2 0 l
2 1 l
2 -1 l
2 0 l
2 0 l
2 0 l
2 -1 l
2 0 l
2 -1 l
2 0 l
2 -1 l
2 0 l
2 -1 l
2 0 l
2 -1 l
2 0 l
2 0 l
2 0 l
2 0 l
2 0 l
2 0 l
2 0 l
2 0 l
2 0 l
2 0 l
2 0 l
2 0 l
2 0 l
2 0 l
2 0 l
2 0 l
2 0 l
2 -1 l
2 0 l
2 1 l
2 0 l
2 0 l
2 -1 l
2 0 l
2 0 l
2 0 l
2 0 l
2 0 l
2 -1 l
2 0 l
2 0 l
2 -1 l
2 0 l
2 0 l
2 -1 l
2 0 l
2 0 l
2 0 l
2 0 l
2 0 l
2 0 l
2 0 l
2 0 l
2 0 l
2 0 l
2 0 l
2 0 l
2 0 l
2 0 l
2 0 l
2 0 l
2 0 l
2 0 l
2 0 l
2 0 l
2 0 l
2 0 l
2 0 l
2 0 l
2 0 l
2 0 l
2 0 l
2 0 l
2 0 l
2 0 l
2 0 l
2 0 l
2 0 l
2 0 l
2 0 l
2 0 l
2 -1 l
2 0 l
2 0 l
2 0 l
2 0 l
2 1 l
2 0 l
2 0 l
2 0 l
2 0 l
2 0 l
2 0 l
2 0 l
2 0 l
2 0 l
2 0 l
2 0 l
2 0 l
2 0 l
2 0 l
2 0 l
2 0 l
2 0 l
2 0 l
2 1 l
2 0 l
2 0 l
2 0 l
2 0 l
3 0 l
1 0 l
3 1 l
1 0 l
3 0 l
1 0 l
3 0 l
2 0 l
2 0 l
2 0 l
2 0 l
2 0 l
2 0 l
2 0 l
2 0 l
2 0 l
2 0 l
2 0 l
2 0 l
2 0 l
2 0 l
2 0 l
2 0 l
2 0 l
2 0 l
2 0 l
2 0 l
2 0 l
2 0 l
2 0 l
2 0 l
2 0 l
2 0 l
2 1 l
2 0 l
2 0 l
2 0 l
2 1 l
2 0 l
2 0 l
2 0 l
2 0 l
2 0 l
2 0 l
2 0 l
2 0 l
2 0 l
2 0 l
2 0 l
2 0 l
2 0 l
2 -1 l
2 0 l
2 0 l
2 0 l
2 0 l
2 0 l
2 0 l
2 0 l
2 0 l
2 0 l
2 0 l
2 0 l
2 0 l
2 0 l
2 0 l
2 0 l
2 0 l
2 1 l
2 0 l
CS M
2 0 l
2 0 l
2 1 l
2 0 l
2 0 l
2 0 l
2 0 l
2 0 l
2 0 l
2 0 l
2 0 l
2 0 l
2 0 l
2 0 l
2 0 l
2 -1 l
2 0 l
2 0 l
2 0 l
2 -1 l
2 0 l
2 0 l
2 0 l
2 0 l
2 0 l
2 0 l
2 0 l
2 0 l
2 0 l
2 0 l
2 0 l
2 0 l
2 0 l
2 1 l
2 0 l
2 0 l
2 0 l
2 1 l
2 0 l
2 0 l
2 0 l
2 0 l
2 0 l
2 0 l
2 0 l
2 0 l
2 0 l
2 0 l
2 0 l
2 -1 l
2 0 l
2 0 l
2 -1 l
2 0 l
2 0 l
2 0 l
2 -1 l
2 0 l
2 0 l
2 0 l
2 0 l
2 0 l
2 0 l
2 0 l
2 0 l
2 1 l
2 0 l
2 0 l
2 0 l
2 0 l
2 0 l
2 1 l
2 0 l
2 0 l
2 0 l
2 0 l
2 0 l
2 0 l
2 0 l
2 0 l
2 0 l
2 0 l
2 0 l
2 0 l
2 0 l
2 -1 l
2 0 l
2 0 l
2 0 l
2 -1 l
2 0 l
2 0 l
2 0 l
2 0 l
2 0 l
2 0 l
2 0 l
2 0 l
2 0 l
2 0 l
2 0 l
2 0 l
2 0 l
2 1 l
2 0 l
2 0 l
2 0 l
2 0 l
2 0 l
2 0 l
2 0 l
3 0 l
1 0 l
3 0 l
1 0 l
3 0 l
2 0 l
2 0 l
2 0 l
2 0 l
2 0 l
2 0 l
2 0 l
2 -1 l
2 0 l
2 0 l
2 0 l
2 0 l
2 0 l
2 0 l
2 0 l
2 0 l
2 0 l
2 0 l
2 0 l
2 0 l
2 0 l
2 0 l
2 0 l
2 1 l
2 0 l
2 0 l
2 0 l
2 0 l
2 0 l
2 0 l
2 0 l
2 0 l
2 0 l
2 0 l
2 0 l
2 0 l
2 0 l
2 0 l
2 0 l
2 0 l
2 0 l
2 0 l
2 0 l
2 0 l
2 0 l
2 0 l
2 0 l
2 0 l
2 0 l
2 0 l
2 0 l
2 0 l
2 0 l
2 0 l
2 0 l
2 0 l
2 0 l
2 0 l
2 0 l
2 0 l
2 0 l
2 -1 l
2 0 l
2 0 l
2 0 l
2 0 l
2 0 l
2 0 l
2 0 l
2 0 l
2 0 l
2 1 l
2 0 l
2 0 l
2 0 l
2 0 l
2 0 l
2 0 l
2 0 l
2 0 l
2 1 l
2 0 l
2 0 l
 0 0 0 C
857 656 M 201 0 l
40 -25 m CS [] 0 setdash M
1132 667 M 2 -6 l
0 12 l
-2 -6 l
-4 4 l
-6 2 l
-4 0 l
-6 -2 l
-4 -4 l
-2 -4 l
-2 -6 l
0 -10 l
2 -6 l
2 -4 l
4 -4 l
6 -2 l
4 0 l
6 2 l
4 4 l
-14 36 m -4 -2 l
-4 -4 l
-2 -4 l
-2 -6 l
0 -10 l
2 -6 l
2 -4 l
4 -4 l
4 -2 l
14 16 m 0 -16 l
2 16 m 0 -16 l
-8 16 m 14 0 l
36 20 m 2 6 l
0 -12 l
-2 6 l
-4 4 l
-6 2 l
-6 0 l
-6 -2 l
-4 -4 l
0 -4 l
2 -4 l
2 -2 l
4 -2 l
12 -4 l
4 -2 l
4 -4 l
-28 18 m 4 -4 l
4 -2 l
12 -4 l
4 -2 l
2 -2 l
2 -4 l
0 -8 l
-4 -4 l
-6 -2 l
-6 0 l
-6 2 l
-4 4 l
-2 6 l
0 -12 l
2 6 l
40 28 m 2 -2 l
-2 -2 l
-2 2 l
0 2 l
2 4 l
2 2 l
6 2 l
8 0 l
6 -2 l
2 -2 l
2 -4 l
0 -4 l
-2 -4 l
-6 -4 l
-10 -4 l
-4 -2 l
-4 -4 l
-2 -6 l
0 -6 l
18 42 m 4 -2 l
2 -2 l
2 -4 l
0 -4 l
-2 -4 l
-6 -4 l
-8 -4 l
-10 -14 m 2 2 l
4 0 l
10 -4 l
6 0 l
4 2 l
2 2 l
-22 0 m 10 -6 l
8 0 l
2 2 l
2 4 l
0 4 l
48 32 m 0 -42 l
2 42 m 0 -42 l
-8 42 m 24 0 l
CS M
6 -2 l
2 -2 l
2 -4 l
0 -4 l
-2 -4 l
-2 -2 l
-6 -2 l
-16 0 l
16 20 m 4 -2 l
2 -2 l
2 -4 l
0 -4 l
-2 -4 l
-2 -2 l
-4 -2 l
-24 -22 m 14 0 l
4 22 m 4 -2 l
2 -2 l
6 -14 l
2 -2 l
2 0 l
2 2 l
-14 16 m 2 -4 l
4 -14 l
2 -2 l
4 0 l
2 4 l
0 2 l
12 10 m 24 0 l
0 4 l
-2 4 l
-2 2 l
-4 2 l
-6 0 l
-6 -2 l
-4 -4 l
-2 -6 l
0 -4 l
2 -6 l
4 -4 l
6 -2 l
4 0 l
6 2 l
4 4 l
-2 10 m 0 6 l
-2 4 l
-10 2 m -4 -2 l
-4 -4 l
-2 -6 l
0 -4 l
2 -6 l
4 -4 l
4 -2 l
46 24 m 2 4 l
0 -8 l
-2 4 l
-2 2 l
-4 2 l
-8 0 l
-4 -2 l
-2 -2 l
0 -4 l
2 -2 l
4 -2 l
10 -4 l
4 -2 l
2 -2 l
-22 14 m 2 -2 l
4 -2 l
10 -4 l
4 -2 l
2 -2 l
0 -6 l
-2 -2 l
-4 -2 l
-8 0 l
-4 2 l
-2 2 l
-2 4 l
0 -8 l
2 4 l
36 24 m 0 -22 l
2 -4 l
6 -2 l
4 0 l
6 2 l
4 4 l
-20 22 m 0 -22 l
2 -4 l
4 -2 l
14 28 m 0 -28 l
2 28 m 0 -28 l
-30 28 m 8 0 l
14 0 m 8 0 l
-2 -28 m 8 0 l
14 42 m 0 -42 l
2 42 m 0 -42 l
-8 42 m 8 0 l
-8 -42 m 14 0 l
14 42 m 0 -34 l
2 -6 l
5 -2 l
4 0 l
4 2 l
2 4 l
-15 36 m 0 -34 l
2 -6 l
3 -2 l
-13 28 m 17 0 l
36 -4 m 2 4 l
0 -8 l
-2 4 l
-2 2 l
-4 2 l
-8 0 l
-4 -2 l
-3 -2 l
0 -4 l
3 -2 l
4 -2 l
10 -4 l
4 -2 l
2 -2 l
-23 14 m 3 -2 l
4 -2 l
10 -4 l
4 -2 l
2 -2 l
0 -6 l
-2 -2 l
-4 -2 l
-8 0 l
-4 2 l
-2 2 l
-3 4 l
0 -8 l
3 4 l
26 -4 m CS [] 0 setdash M
 255 0 0 C
857 556 M 201 0 l
40 -25 m  0 0 0 C
CS [] 0 setdash M
1108 573 M 0 -42 l
2 42 m 0 -42 l
-8 42 m 14 0 l
-14 -42 m 30 0 l
0 12 l
-2 -12 l
14 24 m 0 -2 l
-2 0 l
0 2 l
2 2 l
4 2 l
8 0 l
4 -2 l
2 -2 l
2 -4 l
0 -14 l
2 -4 l
2 -2 l
-6 24 m 0 -18 l
2 -4 l
4 -2 l
2 0 l
-8 20 m -2 -2 l
-12 -2 l
-6 -2 l
-2 -4 l
0 -4 l
2 -4 l
6 -2 l
6 0 l
4 2 l
4 4 l
-14 10 m -4 -2 l
-2 -4 l
0 -4 l
2 -4 l
4 -2 l
36 28 m 0 -42 l
2 42 m 0 -42 l
0 36 m 4 4 l
4 2 l
4 0 l
6 -2 l
4 -4 l
2 -6 l
0 -4 l
-2 -6 l
-4 -4 l
-6 -2 l
-4 0 l
-4 2 l
-4 4 l
12 22 m 4 -2 l
4 -4 l
2 -6 l
0 -4 l
-2 -6 l
-4 -4 l
-4 -2 l
-20 28 m 8 0 l
-8 -42 m 14 0 l
34 56 m 0 -42 l
2 42 m 0 -42 l
-8 42 m 8 0 l
-8 -42 m 14 0 l
14 24 m 0 -2 l
-2 0 l
0 2 l
2 2 l
4 2 l
8 0 l
4 -2 l
2 -2 l
2 -4 l
0 -14 l
2 -4 l
2 -2 l
-6 24 m 0 -18 l
2 -4 l
4 -2 l
2 0 l
-8 20 m -2 -2 l
-12 -2 l
-6 -2 l
-2 -4 l
0 -4 l
2 -4 l
6 -2 l
6 0 l
4 2 l
4 4 l
-14 10 m -4 -2 l
-2 -4 l
0 -4 l
2 -4 l
4 -2 l
56 22 m -2 -2 l
2 -2 l
2 2 l
0 2 l
-4 4 l
-4 2 l
-6 0 l
-6 -2 l
-4 -4 l
-2 -6 l
0 -4 l
2 -6 l
4 -4 l
6 -2 l
4 0 l
6 2 l
4 4 l
-14 22 m -4 -2 l
-4 -4 l
-2 -6 l
0 -4 l
2 -6 l
4 -4 l
4 -2 l
28 16 m 24 0 l
0 4 l
-2 4 l
-2 2 l
-4 2 l
-6 0 l
-6 -2 l
-4 -4 l
-2 -6 l
0 -4 l
2 -6 l
4 -4 l
6 -2 l
4 0 l
6 2 l
4 4 l
-2 10 m 0 6 l
-2 4 l
-10 2 m -4 -2 l
-4 -4 l
-2 -6 l
0 -4 l
2 -6 l
4 -4 l
4 -2 l
28 18 m 36 0 l
18 24 m 0 -42 l
2 42 m 0 -42 l
12 30 m 0 -16 l
-20 28 m 32 0 l
0 -12 l
-2 12 l
-22 -20 m 12 0 l
-20 -22 m 14 0 l
41 28 m -6 -2 l
-4 -4 l
-3 -6 l
0 -4 l
3 -6 l
4 -4 l
6 -2 l
4 0 l
CS M
6 2 l
4 4 l
2 6 l
0 4 l
-2 6 l
-4 4 l
-6 2 l
-4 0 l
-5 -2 l
-4 -4 l
-1 -6 l
0 -4 l
1 -6 l
4 -4 l
5 -2 l
4 0 m 4 2 l
4 4 l
2 6 l
0 4 l
-2 6 l
-4 4 l
-4 2 l
28 0 m 0 -22 l
2 -4 l
6 -2 l
4 0 l
6 2 l
4 4 l
-20 22 m 0 -22 l
2 -4 l
4 -2 l
14 28 m 0 -28 l
2 28 m 0 -28 l
-30 28 m 8 0 l
14 0 m 8 0 l
-2 -28 m 8 0 l
14 28 m 0 -28 l
2 28 m 0 -28 l
0 16 m 2 6 l
4 4 l
4 2 l
6 0 l
2 -2 l
0 -2 l
-2 -2 l
-2 2 l
2 2 l
-24 2 m 8 0 l
-8 -28 m 14 0 l
26 42 m -2 -2 l
2 -2 l
2 2 l
-2 2 l
0 -14 m 0 -28 l
2 28 m 0 -28 l
-8 28 m 8 0 l
-8 -28 m 14 0 l
12 16 m 24 0 l
0 4 l
-2 4 l
-2 2 l
-4 2 l
-6 0 l
-6 -2 l
-4 -4 l
-2 -6 l
0 -4 l
2 -6 l
4 -4 l
6 -2 l
4 0 l
6 2 l
4 4 l
-2 10 m 0 6 l
-2 4 l
-10 2 m -4 -2 l
-4 -4 l
-2 -6 l
0 -4 l
2 -6 l
4 -4 l
4 -2 l
30 28 m 0 -28 l
2 28 m 0 -28 l
0 16 m 2 6 l
4 4 l
4 2 l
6 0 l
2 -2 l
0 -2 l
-2 -2 l
-2 2 l
2 2 l
-24 2 m 8 0 l
-8 -28 m 14 0 l
80 36 m 2 6 l
0 -12 l
-2 6 l
-4 4 l
-6 2 l
-6 0 l
-6 -2 l
-4 -4 l
0 -4 l
2 -4 l
2 -2 l
4 -2 l
12 -4 l
4 -2 l
4 -4 l
-28 18 m 4 -4 l
4 -2 l
12 -4 l
4 -2 l
2 -2 l
2 -4 l
0 -8 l
-4 -4 l
-6 -2 l
-6 0 l
-6 2 l
-4 4 l
-2 6 l
0 -12 l
2 6 l
50 22 m -6 -2 l
-4 -4 l
-2 -6 l
0 -4 l
2 -6 l
4 -4 l
6 -2 l
4 0 l
6 2 l
4 4 l
2 6 l
0 4 l
-2 6 l
-4 4 l
-6 2 l
-4 0 l
-4 -2 l
-4 -4 l
-2 -6 l
0 -4 l
2 -6 l
4 -4 l
4 -2 l
4 0 m 4 2 l
4 4 l
2 6 l
0 4 l
-2 6 l
-4 4 l
-4 2 l
28 14 m 0 -42 l
2 42 m 0 -42 l
-8 42 m 8 0 l
-8 -42 m 14 0 l
14 28 m 0 -22 l
2 -4 l
6 -2 l
4 0 l
6 2 l
4 4 l
-20 22 m 0 -22 l
2 -4 l
4 -2 l
14 28 m 0 -28 l
2 28 m 0 -28 l
-30 28 m 8 0 l
14 0 m 8 0 l
-2 -28 m 8 0 l
14 42 m 0 -34 l
2 -6 l
4 -2 l
4 0 l
4 2 l
2 4 l
-14 36 m 0 -34 l
2 -6 l
2 -2 l
-12 28 m 16 0 l
20 14 m -1 -2 l
1 -2 l
3 2 l
-3 2 l
0 -14 m 0 -28 l
3 28 m 0 -28 l
-9 28 m 9 0 l
-9 -28 m 14 0 l
23 28 m -6 -2 l
-4 -4 l
-3 -6 l
0 -4 l
3 -6 l
4 -4 l
6 -2 l
4 0 l
6 2 l
4 4 l
2 6 l
0 4 l
-2 6 l
-4 4 l
-6 2 l
-4 0 l
-4 -2 l
-5 -4 l
-1 -6 l
0 -4 l
1 -6 l
5 -4 l
4 -2 l
4 0 m 4 2 l
4 4 l
2 6 l
0 4 l
-2 6 l
-4 4 l
-4 2 l
28 0 m 0 -28 l
2 28 m 0 -28 l
0 22 m 4 4 l
6 2 l
4 0 l
6 -2 l
2 -4 l
0 -22 l
-8 28 m 4 -2 l
2 -4 l
0 -22 l
-28 28 m 8 0 l
-8 -28 m 14 0 l
8 0 m 14 0 l
4 0 m CS [] 0 setdash M
1098 832 M CS [] 0 setdash M
1124 874 M -6 -2 l
-4 -4 l
-4 -8 l
-2 -6 l
-2 -8 l
-2 -12 l
-2 -16 l
22 56 m -4 -2 l
-4 -4 l
-4 -8 l
-2 -6 l
-2 -8 l
-2 -12 l
-2 -16 l
20 56 m 4 0 l
4 -2 l
2 -2 l
0 -6 l
-2 -4 l
-2 -2 l
-6 -2 l
-8 0 l
12 18 m 4 -4 l
0 -6 l
-2 -4 l
-2 -2 l
-4 -2 l
-8 0 m 8 -2 l
4 -4 l
2 -4 l
0 -6 l
-2 -4 l
-2 -2 l
-6 -2 l
-4 0 l
-4 2 l
-2 2 l
-2 6 l
8 14 m 6 -2 l
4 -4 l
2 -4 l
0 -6 l
-2 -4 l
-2 -2 l
-4 -2 l
26 6 m -1 -1 l
1 -2 l
1 2 l
-1 1 l
0 -8 m 0 -17 l
1 17 m 0 -17 l
-5 17 m 5 0 l
-5 -17 m 9 0 l
10 43 m 36 0 l
-36 -12 m 36 0 l
26 30 m -6 -2 l
-4 -6 l
-2 -10 l
0 -6 l
2 -10 l
4 -6 l
6 -2 l
4 0 l
6 2 l
4 6 l
CS M
2 10 l
0 6 l
-2 10 l
-4 6 l
-6 2 l
-4 0 l
-4 -2 l
-2 -2 l
-2 -4 l
-2 -10 l
0 -6 l
2 -10 l
2 -4 l
2 -2 l
4 -2 l
4 0 m 4 2 l
2 2 l
2 4 l
2 10 l
0 6 l
-2 10 l
-2 4 l
-2 2 l
-4 2 l
28 -38 m -2 -2 l
2 -2 l
2 2 l
-2 2 l
28 38 m -6 -2 l
-4 -6 l
-2 -10 l
0 -6 l
2 -10 l
4 -6 l
6 -2 l
4 0 l
6 2 l
4 6 l
2 10 l
0 6 l
-2 10 l
-4 6 l
-6 2 l
-4 0 l
-4 -2 l
-2 -2 l
-2 -4 l
-2 -10 l
0 -6 l
2 -10 l
2 -4 l
2 -2 l
4 -2 l
4 0 m 4 2 l
2 2 l
2 4 l
2 10 l
0 6 l
-2 10 l
-2 4 l
-2 2 l
-4 2 l
30 -8 m 4 2 l
6 6 l
0 -42 l
-2 40 m 0 -40 l
-8 0 m 18 0 l
20 0 m -2 2 l
2 2 l
3 -2 l
0 -4 l
-3 -4 l
-2 -2 l
63 50 m 0 -42 l
2 42 m 0 -42 l
-14 42 m -2 -12 l
0 12 l
30 0 l
0 -12 l
-2 12 l
-20 -42 m 14 0 l
18 6 m -1 -1 l
1 -2 l
1 2 l
-1 1 l
0 -8 m 0 -17 l
1 17 m 0 -17 l
-5 17 m 5 0 l
-5 -17 m 8 0 l
43 69 m -36 -64 l
58 56 m 0 -42 l
2 42 m 0 -42 l
-14 42 m -2 -12 l
0 12 l
30 0 l
0 -12 l
-2 12 l
-20 -42 m 14 0 l
17 -10 m 14 0 l
0 3 l
-1 2 l
-1 1 l
-2 2 l
-4 0 l
-4 -2 l
-2 -2 l
-1 -4 l
0 -2 l
1 -4 l
2 -2 l
4 -1 l
2 0 l
4 1 l
2 2 l
-1 6 m 0 4 l
-1 2 l
-6 2 m -3 -2 l
-2 -2 l
-1 -4 l
0 -2 l
1 -4 l
2 -2 l
3 -1 l
20 43 m 36 0 l
-36 -12 m 36 0 l
26 30 m -6 -2 l
-4 -6 l
-2 -10 l
0 -6 l
2 -10 l
4 -6 l
6 -2 l
4 0 l
6 2 l
4 6 l
2 10 l
0 6 l
-2 10 l
-4 6 l
-6 2 l
-4 0 l
-4 -2 l
-2 -2 l
-2 -4 l
-2 -10 l
0 -6 l
2 -10 l
2 -4 l
2 -2 l
4 -2 l
4 0 m 4 2 l
2 2 l
2 4 l
2 10 l
0 6 l
-2 10 l
-2 4 l
-2 2 l
-4 2 l
28 -38 m -2 -2 l
2 -2 l
2 2 l
-2 2 l
28 38 m -6 -2 l
-4 -6 l
-2 -10 l
0 -6 l
2 -10 l
4 -6 l
6 -2 l
4 0 l
6 2 l
4 6 l
2 10 l
0 6 l
-2 10 l
-4 6 l
-6 2 l
-4 0 l
-4 -2 l
-2 -2 l
-2 -4 l
-2 -10 l
0 -6 l
2 -10 l
2 -4 l
2 -2 l
4 -2 l
4 0 m 4 2 l
2 2 l
2 4 l
2 10 l
0 6 l
-2 10 l
-2 4 l
-2 2 l
-4 2 l
30 -8 m 4 2 l
6 6 l
0 -42 l
-2 40 m 0 -40 l
-8 0 m 18 0 l
20 0 m -2 2 l
2 2 l
3 -2 l
0 -4 l
-3 -4 l
-2 -2 l
55 50 m 0 -42 l
2 42 m 0 -42 l
20 28 m -20 -20 l
10 8 m 12 -16 l
-14 16 m 12 -16 l
-28 42 m 8 0 l
14 -14 m 12 0 l
-34 -28 m 14 0 l
8 0 m 12 0 l
7 -19 m 22 0 l
-11 0 m 0 22 l
23 7 m 2 -6 l
2 -2 l
4 -2 l
4 0 l
6 2 l
4 6 l
2 6 l
0 6 l
-2 4 l
-2 2 l
-4 2 l
-4 0 l
-6 -2 l
-4 -6 l
-2 -6 l
-8 -28 l
20 14 m 4 2 l
4 6 l
2 6 l
0 8 l
-2 4 l
-8 2 m -4 -2 l
-4 -6 l
-2 -6 l
-8 -28 l
42 20 m -2 -1 l
2 -2 l
1 2 l
-1 1 l
0 -8 m 0 -17 l
1 17 m 0 -17 l
-5 17 m 5 0 l
-5 -17 m 8 0 l
11 43 m 36 0 l
-36 -12 m 36 0 l
26 30 m -6 -2 l
-4 -6 l
-2 -10 l
0 -6 l
2 -10 l
4 -6 l
6 -2 l
4 0 l
6 2 l
4 6 l
2 10 l
0 6 l
-2 10 l
-4 6 l
-6 2 l
-4 0 l
-4 -2 l
-2 -2 l
-2 -4 l
-2 -10 l
0 -6 l
2 -10 l
2 -4 l
2 -2 l
4 -2 l
4 0 m 4 2 l
2 2 l
2 4 l
2 10 l
0 6 l
-2 10 l
-2 4 l
-2 2 l
-4 2 l
28 -38 m -2 -2 l
2 -2 l
2 2 l
-2 2 l
34 34 m 0 -38 l
2 42 m 0 -42 l
0 42 m -22 -30 l
32 0 l
-18 -12 m 14 0 l
8 0 m CS [] 0 setdash M
1098 732 M CS [] 0 setdash M
1118 774 M -14 -42 l
14 42 m 14 -42 l
-14 36 m 12 -36 l
CS M
-22 12 m 18 0 l
-26 -12 m 12 0 l
12 0 m 12 0 l
7 10 m 0 -38 l
7 38 m 0 -38 l
11 23 m 0 -1 l
-2 0 l
0 1 l
2 1 l
2 1 l
5 0 l
2 -1 l
1 -1 l
2 -3 l
0 -8 l
1 -2 l
1 -2 l
-4 15 m 0 -11 l
2 -2 l
2 -2 l
1 0 l
-5 12 m -1 -1 l
-7 -1 l
-4 -1 l
-1 -3 l
0 -2 l
1 -2 l
4 -2 l
4 0 l
2 2 l
2 2 l
-8 6 m -2 -1 l
-2 -3 l
0 -2 l
2 -2 l
2 -2 l
24 44 m 36 0 l
-36 -12 m 36 0 l
20 22 m 4 2 l
6 6 l
0 -42 l
-2 40 m 0 -40 l
-8 0 m 18 0 l
28 42 m -6 -2 l
-4 -6 l
-2 -10 l
0 -6 l
2 -10 l
4 -6 l
6 -2 l
4 0 l
6 2 l
4 6 l
2 10 l
0 6 l
-2 10 l
-4 6 l
-6 2 l
-4 0 l
-4 -2 l
-2 -2 l
-2 -4 l
-2 -10 l
0 -6 l
2 -10 l
2 -4 l
2 -2 l
4 -2 l
4 0 m 4 2 l
2 2 l
2 4 l
2 10 l
0 6 l
-2 10 l
-2 4 l
-2 2 l
-4 2 l
28 -42 m -2 2 l
2 2 l
2 -2 l
0 -4 l
-2 -4 l
-2 -2 l
52 28 m 4 4 l
6 2 l
-2 2 l
-4 -2 l
-4 -6 l
-2 -6 l
0 -6 l
2 -6 l
2 -2 l
4 0 l
4 2 l
4 6 l
2 6 l
-18 -6 m 2 -4 l
2 -2 l
4 0 l
4 2 l
4 4 l
0 6 m 0 -6 l
2 -6 l
2 -2 l
4 0 l
4 2 l
4 6 l
2 6 l
0 6 l
-2 6 l
-2 2 l
-2 -2 l
4 -2 l
2 -4 l
-18 -12 m 2 -4 l
2 -2 l
4 0 l
4 2 l
4 4 l
14 -13 m 0 -1 l
-1 0 l
0 1 l
1 1 l
3 1 l
4 0 l
3 -1 l
1 -1 l
1 -3 l
0 -8 l
2 -2 l
1 -2 l
-4 15 m 0 -11 l
1 -2 l
3 -2 l
1 0 l
-5 12 m -1 -1 l
-7 -1 l
-4 -1 l
-1 -3 l
0 -2 l
1 -2 l
4 -2 l
3 0 l
3 2 l
2 2 l
-8 6 m -3 -1 l
-1 -3 l
0 -2 l
1 -2 l
3 -2 l
23 44 m 36 0 l
-36 -12 m 36 0 l
17 22 m 2 -2 l
-2 -2 l
-3 2 l
0 2 l
3 4 l
2 2 l
6 2 l
8 0 l
6 -2 l
2 -4 l
0 -6 l
-2 -4 l
-6 -2 l
-6 0 l
6 18 m 4 -2 l
2 -4 l
0 -6 l
-2 -4 l
-4 -2 l
4 -2 l
4 -4 l
2 -4 l
0 -6 l
-2 -4 l
-2 -2 l
-6 -2 l
-8 0 l
-6 2 l
-2 2 l
-3 4 l
0 2 l
3 2 l
2 -2 l
-2 -2 l
22 12 m 2 -6 l
0 -6 l
-2 -4 l
-2 -2 l
-4 -2 l
26 4 m -2 -2 l
2 -2 l
2 2 l
-2 2 l
40 32 m -2 -2 l
2 -2 l
2 2 l
0 2 l
-2 4 l
-4 2 l
-6 0 l
-6 -2 l
-4 -4 l
-2 -4 l
-2 -8 l
0 -12 l
2 -6 l
4 -4 l
6 -2 l
4 0 l
6 2 l
4 4 l
2 6 l
0 2 l
-2 6 l
-4 4 l
-6 2 l
-2 0 l
-6 -2 l
-4 -4 l
-2 -6 l
12 28 m -4 -2 l
-4 -4 l
-2 -4 l
-2 -8 l
0 -12 l
2 -6 l
4 -4 l
4 -2 l
4 0 m 4 2 l
4 4 l
2 6 l
0 2 l
-2 6 l
-4 4 l
-4 2 l
18 -26 m CS [] 0 setdash M
CS [] 0 setdash M
666 2316 M 0 -42 l
2 42 m 0 -42 l
-8 42 m 21 0 l
5 -2 l
4 -4 l
3 -4 l
2 -6 l
0 -10 l
-2 -6 l
-3 -4 l
-4 -5 l
-5 -1 l
-21 0 l
21 42 m 4 -2 l
4 -4 l
1 -4 l
3 -6 l
0 -10 l
-3 -6 l
-1 -4 l
-4 -5 l
-4 -1 l
30 28 m 0 -28 l
2 28 m 0 -28 l
0 16 m 2 6 l
4 4 l
4 2 l
6 0 l
2 -2 l
0 -2 l
-2 -2 l
-2 2 l
2 2 l
-24 2 m 8 0 l
-8 -28 m 14 0 l
26 42 m -2 -2 l
2 -2 l
2 2 l
-2 2 l
0 -14 m 0 -28 l
2 28 m 0 -28 l
-8 28 m 8 0 l
-8 -28 m 14 0 l
10 28 m 12 -28 l
-10 28 m 10 -24 l
12 24 m -12 -28 l
-16 28 m 12 0 l
8 0 m 12 0 l
10 -12 m 24 0 l
0 4 l
-2 4 l
-2 2 l
-4 2 l
-6 0 l
-6 -2 l
-4 -4 l
-2 -6 l
0 -4 l
2 -6 l
4 -5 l
6 -1 l
4 0 l
6 1 l
CS M
4 5 l
-2 10 m 0 6 l
-2 4 l
-10 2 m -4 -2 l
-4 -4 l
-2 -6 l
0 -4 l
2 -6 l
4 -5 l
4 -1 l
30 28 m 0 -28 l
2 28 m 0 -28 l
0 22 m 4 4 l
6 2 l
4 0 l
6 -2 l
2 -4 l
0 -22 l
-8 28 m 4 -2 l
2 -4 l
0 -22 l
-28 28 m 8 0 l
-8 -28 m 14 0 l
8 0 m 14 0 l
70 36 m 2 -6 l
0 12 l
-2 -6 l
-4 4 l
-6 2 l
-4 0 l
-6 -2 l
-4 -4 l
-2 -4 l
-2 -6 l
0 -10 l
2 -6 l
2 -4 l
4 -5 l
6 -1 l
4 0 l
6 1 l
4 5 l
-14 36 m -4 -2 l
-4 -4 l
-2 -4 l
-2 -6 l
0 -10 l
2 -6 l
2 -4 l
4 -5 l
4 -1 l
14 16 m 0 -16 l
2 16 m 0 -16 l
-8 16 m 14 0 l
12 12 m 12 -28 l
-10 28 m 10 -24 l
12 24 m -12 -28 l
-4 -9 l
-4 -4 l
-4 -2 l
-2 0 l
-2 2 l
2 2 l
2 -2 l
-4 41 m 12 0 l
8 0 m 12 0 l
12 0 m 0 -28 l
2 28 m 0 -28 l
0 16 m 2 6 l
4 4 l
4 2 l
6 0 l
2 -2 l
0 -2 l
-2 -2 l
-2 2 l
2 2 l
-24 2 m 8 0 l
-8 -28 m 14 0 l
34 28 m -6 -2 l
-4 -4 l
-2 -6 l
0 -4 l
2 -6 l
4 -5 l
6 -1 l
4 0 l
6 1 l
4 5 l
2 6 l
0 4 l
-2 6 l
-4 4 l
-6 2 l
-4 0 l
-4 -2 l
-4 -4 l
-2 -6 l
0 -4 l
2 -6 l
4 -5 l
4 -1 l
4 0 m 4 1 l
4 5 l
2 6 l
0 4 l
-2 6 l
-4 4 l
-4 2 l
28 14 m 0 -42 l
2 42 m 0 -42 l
20 28 m -20 -20 l
10 8 m 12 -16 l
-14 16 m 12 -16 l
-28 42 m 8 0 l
14 -14 m 12 0 l
-34 -28 m 14 0 l
8 0 m 12 0 l
14 42 m -2 -2 l
2 -2 l
3 2 l
-3 2 l
0 -14 m 0 -28 l
3 28 m 0 -28 l
-9 28 m 9 0 l
-9 -28 m 14 0 l
14 28 m 0 -28 l
3 28 m 0 -28 l
0 22 m 4 4 l
6 2 l
4 0 l
6 -2 l
2 -4 l
0 -22 l
-8 28 m 4 -2 l
2 -4 l
0 -22 l
-28 28 m 8 0 l
-8 -28 m 14 0 l
8 0 m 14 0 l
12 16 m 24 0 l
0 4 l
-2 4 l
-2 2 l
-4 2 l
-6 0 l
-6 -2 l
-4 -4 l
-2 -6 l
0 -4 l
2 -6 l
4 -5 l
6 -1 l
4 0 l
6 1 l
4 5 l
-2 10 m 0 6 l
-2 4 l
-10 2 m -4 -2 l
-4 -4 l
-2 -6 l
0 -4 l
2 -6 l
4 -5 l
4 -1 l
30 42 m 0 -34 l
2 -7 l
4 -1 l
4 0 l
4 1 l
2 5 l
-14 36 m 0 -34 l
2 -7 l
2 -1 l
-12 28 m 16 0 l
20 14 m -2 -2 l
2 -2 l
2 2 l
-2 2 l
0 -14 m 0 -28 l
2 28 m 0 -28 l
-8 28 m 8 0 l
-8 -28 m 14 0 l
34 22 m -2 -2 l
2 -2 l
2 2 l
0 2 l
-4 4 l
-4 2 l
-6 0 l
-6 -2 l
-4 -4 l
-2 -6 l
0 -4 l
2 -6 l
4 -5 l
6 -1 l
4 0 l
6 1 l
4 5 l
-14 22 m -4 -2 l
-4 -4 l
-2 -6 l
0 -4 l
2 -6 l
4 -5 l
4 -1 l
46 24 m 2 4 l
0 -8 l
-2 4 l
-2 2 l
-4 2 l
-8 0 l
-4 -2 l
-2 -2 l
0 -4 l
2 -2 l
4 -2 l
10 -4 l
4 -2 l
2 -2 l
-22 14 m 2 -2 l
4 -2 l
10 -4 l
4 -2 l
2 -2 l
0 -6 l
-2 -3 l
-4 -1 l
-8 0 l
-4 1 l
-2 3 l
-2 4 l
0 -8 l
2 4 l
66 24 m 8 -28 l
-6 28 m 6 -22 l
8 22 m -8 -28 l
8 28 m 8 -28 l
-6 28 m 6 -22 l
8 22 m -8 -28 l
-30 28 m 14 0 l
18 0 m 12 0 l
12 14 m -2 -2 l
2 -2 l
2 2 l
-2 2 l
0 -14 m 0 -28 l
2 28 m 0 -28 l
-8 28 m 8 0 l
-8 -28 m 14 0 l
14 42 m 0 -34 l
2 -7 l
4 -1 l
4 0 l
4 1 l
2 5 l
-14 36 m 0 -34 l
2 -7 l
2 -1 l
-12 28 m 16 0 l
20 14 m 0 -42 l
2 42 m 0 -42 l
0 22 m 4 4 l
6 2 l
4 0 l
6 -2 l
2 -4 l
0 -22 l
-8 28 m 4 -2 l
2 -4 l
0 -22 l
-28 42 m 8 0 l
-8 -42 m 14 0 l
8 0 m 14 0 l
62 26 m -4 2 l
-4 0 l
-6 -2 l
-4 -6 l
-2 -6 l
0 -6 l
2 -4 l
2 -3 l
4 -1 l
4 0 l
7 1 l
4 7 l
1 6 l
0 6 l
-1 4 l
-9 10 l
-2 4 l
0 4 l
2 2 l
5 0 l
4 -2 l
4 -4 l
-15 -10 m -4 -2 l
-4 -6 l
-2 -6 l
CS M
0 -8 l
2 -5 l
8 -1 m 4 1 l
4 7 l
3 6 l
0 8 l
-3 4 l
-4 6 l
-2 4 l
0 4 l
2 2 l
4 0 l
7 -4 l
16 4 m 0 -42 l
2 42 m 0 -42 l
-8 42 m 24 0 l
6 -2 l
2 -2 l
2 -4 l
0 -4 l
-2 -4 l
-2 -2 l
-6 -2 l
0 20 m 4 -2 l
2 -2 l
2 -4 l
0 -4 l
-2 -4 l
-2 -2 l
-4 -2 l
-16 0 m 16 0 l
6 -2 l
2 -2 l
2 -4 l
0 -6 l
-2 -4 l
-2 -3 l
-6 -1 l
-24 0 l
24 22 m 4 -2 l
2 -2 l
2 -4 l
0 -6 l
-2 -4 l
-2 -3 l
-4 -1 l
20 10 m 0 -38 l
8 38 m 0 -38 l
13 52 m 36 0 l
-36 -12 m 36 0 l
26 30 m -6 -2 l
-4 -6 l
-2 -10 l
0 -6 l
2 -10 l
4 -7 l
6 -1 l
4 0 l
6 1 l
4 7 l
2 10 l
0 6 l
-2 10 l
-4 6 l
-6 2 l
-4 0 l
-4 -2 l
-2 -2 l
-2 -4 l
-2 -10 l
0 -6 l
2 -10 l
2 -4 l
2 -3 l
4 -1 l
4 0 m 4 1 l
2 3 l
2 4 l
2 10 l
0 6 l
-2 10 l
-2 4 l
-2 2 l
-4 2 l
CS [] 0 setdash M
 0 0 0 C
CS [] 0 setdash M
340 40 M 12 51 m 352 40 L
2 51 m 354 40 L
-9 51 m 9 0 l
345 40 M 17 0 l
16 29 m 0 -2 l
-2 0 l
0 2 l
2 3 l
5 2 l
10 0 l
5 -2 l
2 -3 l
2 -5 l
0 -16 l
3 -5 l
2 -3 l
-7 29 m 0 -21 l
2 -5 l
5 -3 l
3 0 l
-10 24 m -2 -2 l
-15 -2 l
-7 -3 l
-2 -5 l
0 -4 l
2 -5 l
7 -3 l
7 0 l
5 3 l
5 5 l
-17 12 m -5 -3 l
-2 -5 l
0 -4 l
2 -5 l
5 -3 l
44 34 m 427 23 L
2 51 m 429 23 L
0 44 m 5 5 l
5 2 l
4 0 l
8 -2 l
4 -5 l
3 -7 l
0 -5 l
-3 -7 l
-4 -5 l
-8 -3 l
-4 0 l
-5 3 l
-5 5 l
14 26 m 5 -2 l
5 -5 l
2 -7 l
0 -5 l
-2 -7 l
-5 -5 l
-5 -3 l
-24 34 m 10 0 l
419 23 M 17 0 l
36 68 m 0 -14 l
0 4 m 3 5 l
4 5 l
5 0 l
12 -7 l
5 0 l
3 2 l
2 5 l
-31 -5 m 4 3 l
5 0 l
12 -5 l
10 7 m 0 -7 l
-2 -7 l
-10 -13 l
-2 -4 l
-3 -8 l
0 -12 l
15 37 m -12 -13 l
-3 -4 l
-2 -8 l
0 -12 l
62 27 m -2 -3 l
2 -2 l
3 2 l
0 3 l
-5 5 l
-5 2 l
-7 0 l
-7 -2 l
-5 -5 l
-3 -7 l
0 -5 l
3 -7 l
5 -5 l
7 -3 l
5 0 l
7 3 l
5 5 l
-17 26 m -5 -2 l
-5 -5 l
-2 -7 l
0 -5 l
2 -7 l
5 -5 l
5 -3 l
34 41 m 2 -2 l
-2 -2 l
-3 2 l
0 2 l
3 5 l
2 3 l
7 2 l
10 0 l
7 -2 l
2 -3 l
3 -5 l
0 -4 l
-3 -5 l
-7 -5 l
-12 -5 l
-5 -2 l
-4 -5 l
-3 -7 l
0 -8 l
22 51 m 5 -2 l
2 -3 l
2 -5 l
0 -4 l
-2 -5 l
-7 -5 l
-10 -5 l
-12 -17 m 3 3 l
4 0 l
12 -5 l
8 0 l
4 2 l
3 3 l
-27 0 m 12 -8 l
10 0 l
2 3 l
3 5 l
0 4 l
452 39 m 1052 40 L
3 51 m 1055 40 L
-17 51 m -3 -14 l
0 14 l
37 0 l
0 -14 l
-3 14 l
1045 40 M 17 0 l
26 51 m -2 -2 l
2 -3 l
3 3 l
-3 2 l
0 -17 m 0 -34 l
3 34 m 0 -34 l
-10 34 m 10 0 l
-10 -34 m 17 0 l
17 34 m 0 -34 l
2 34 m 0 -34 l
0 27 m 5 5 l
7 2 l
5 0 l
7 -2 l
3 -5 l
0 -27 l
-10 34 m 5 -2 l
2 -5 l
0 -27 l
3 27 m 5 5 l
7 2 l
5 0 l
7 -2 l
2 -5 l
0 -27 l
-9 34 m 4 -2 l
3 -5 l
0 -27 l
-60 34 m 9 0 l
-9 -34 m 17 0 l
9 0 m 17 0 l
10 0 m 16 0 l
15 20 m 29 0 l
0 4 l
-3 5 l
-2 3 l
-5 2 l
-7 0 l
-7 -2 l
-5 -5 l
-2 -7 l
0 -5 l
2 -7 l
5 -5 l
7 -3 l
5 0 l
7 3 l
5 5 l
-3 12 m 0 7 l
-2 5 l
-12 2 m -5 -2 l
-5 -5 l
-2 -7 l
0 -5 l
2 -7 l
5 -5 l
5 -3 l
36 0 m -2 3 l
2 2 l
2 -2 l
0 -5 l
-2 -5 l
-2 -2 l
65 60 m 0 -41 l
2 -7 l
5 -3 l
5 0 l
CS M
5 3 l
2 5 l
-17 43 m 0 -41 l
2 -7 l
3 -3 l
-15 34 m 20 0 l
60 27 m 1332 23 L
74 78 m -5 -5 l
-4 -7 l
-5 -10 l
-3 -12 l
0 -10 l
3 -12 l
5 -9 l
4 -8 l
5 -5 l
-5 73 m -4 -10 l
-3 -7 l
-2 -12 l
0 -10 l
2 -12 l
3 -7 l
4 -10 l
24 63 m 1425 40 L
3 51 m 1428 40 L
24 34 m -24 -24 l
12 10 m 14 -20 l
-17 20 m 15 -20 l
-34 51 m 10 0 l
17 -17 m 14 0 l
-41 -34 m 17 0 l
10 0 m 14 0 l
11 13 m 1470 7 L
8 46 m 1478 7 L
13 67 m 15 -34 l
-12 34 m 12 -29 l
14 29 m -14 -34 l
-19 34 m 14 0 l
10 0 m 14 0 l
10 -26 m 1535 23 L
1 -4 l
3 -2 l
3 0 l
3 2 l
1 3 l
-10 26 m 1536 23 L
2 -4 l
1 -2 l
-9 20 m 12 0 l
14 11 m -1 -2 l
1 -1 l
2 1 l
-2 2 l
0 -11 m 1556 17 L
2 20 m 1558 17 L
-6 20 m 6 0 l
1552 17 M 10 0 l
10 84 m 5 -5 l
5 -7 l
5 -10 l
2 -12 l
0 -10 l
-2 -12 l
-5 -9 l
-5 -8 l
-5 -5 l
5 73 m 5 -10 l
2 -7 l
3 -12 l
0 -10 l
-3 -12 l
-2 -7 l
-5 -10 l
CS [] 0 setdash M
CS [] 0 setdash M
67 1205 M 7 1214 M 77 0 l
17 1248 M 50 -17 l
17 1248 M 50 17 l
24 1248 M 43 15 l
-14 -27 m 0 22 l
14 -32 m 0 15 l
0 14 m 0 15 l
-13 8 m 47 0 l
-47 9 m 47 0 l
7 1302 M 77 0 l
CS [] 0 setdash M
CS [] 0 setdash M
255 255 M 2006 0 l
0 2006 l
255 2261 L
255 255 L
2006 0 l
255 255 M 2006 0 l
255 255 M 0 43 l
-20 -121 m 18 42 m -6 -2 l
-4 -6 l
-2 -10 l
0 -6 l
2 -10 l
4 -6 l
6 -2 l
4 0 l
6 2 l
4 6 l
2 10 l
0 6 l
-2 10 l
-4 6 l
-6 2 l
-4 0 l
-4 -2 l
-2 -2 l
-2 -4 l
-2 -10 l
0 -6 l
2 -10 l
2 -4 l
2 -2 l
4 -2 l
4 0 m 4 2 l
2 2 l
2 4 l
2 10 l
0 6 l
-2 10 l
-2 4 l
-2 2 l
-4 2 l
79 36 m 0 22 l
80 -22 m 0 22 l
80 -22 m 0 22 l
80 -22 m 0 22 l
80 -22 m 0 43 l
-20 -121 m 12 34 m 4 2 l
6 6 l
0 -42 l
-2 40 m 0 -40 l
-8 0 m 18 0 l
71 78 m 0 22 l
80 -22 m 0 22 l
80 -22 m 0 22 l
80 -22 m 0 22 l
81 -22 m 0 43 l
-20 -121 m 8 34 m 2 -2 l
-2 -2 l
-2 2 l
0 2 l
2 4 l
2 2 l
6 2 l
8 0 l
6 -2 l
2 -2 l
2 -4 l
0 -4 l
-2 -4 l
-6 -4 l
-10 -4 l
-4 -2 l
-4 -4 l
-2 -6 l
0 -6 l
18 42 m 4 -2 l
2 -2 l
2 -4 l
0 -4 l
-2 -4 l
-6 -4 l
-8 -4 l
-10 -14 m 2 2 l
4 0 l
10 -4 l
6 0 l
4 2 l
2 2 l
-22 0 m 10 -6 l
8 0 l
2 2 l
2 4 l
0 4 l
66 68 m 0 22 l
80 -22 m 0 22 l
80 -22 m 0 22 l
81 -22 m 0 22 l
80 -22 m 0 43 l
-20 -121 m 8 34 m 2 -2 l
-2 -2 l
-2 2 l
0 2 l
2 4 l
2 2 l
6 2 l
8 0 l
6 -2 l
2 -4 l
0 -6 l
-2 -4 l
-6 -2 l
-6 0 l
6 18 m 4 -2 l
2 -4 l
0 -6 l
-2 -4 l
-4 -2 l
4 -2 l
4 -4 l
2 -4 l
0 -6 l
-2 -4 l
-2 -2 l
-6 -2 l
-8 0 l
-6 2 l
-2 2 l
-2 4 l
0 2 l
2 2 l
2 -2 l
-2 -2 l
22 12 m 2 -6 l
0 -6 l
-2 -4 l
-2 -2 l
-4 -2 l
76 78 m 0 22 l
80 -22 m 0 22 l
80 -22 m 0 22 l
81 -22 m 0 22 l
80 -22 m 0 43 l
-20 -121 m 24 38 m 0 -38 l
2 42 m 0 -42 l
0 42 m -22 -30 l
32 0 l
-18 -12 m 14 0 l
68 78 m 0 22 l
80 -22 m 0 22 l
81 -22 m 0 22 l
80 -22 m 0 22 l
80 -22 m 0 43 l
-20 -121 m 10 42 m -4 -20 l
4 4 l
6 2 l
6 0 l
6 -2 l
4 -4 l
2 -6 l
0 -4 l
-2 -6 l
-4 -4 l
-6 -2 l
-6 0 l
-6 2 l
-2 2 l
-2 4 l
0 2 l
2 2 l
2 -2 l
-2 -2 l
14 20 m 4 -2 l
4 -4 l
2 -6 l
0 -4 l
-2 -6 l
-4 -4 l
-4 -2 l
-12 42 m 20 0 l
-20 -2 m 10 0 l
10 2 l
255 2261 M 2006 0 l
255 2261 M 0 -43 l
81 43 m 0 -21 l
80 21 m 0 -21 l
80 21 m 0 -21 l
80 21 m 0 -21 l
80 21 m 0 -43 l
81 43 m 0 -21 l
80 21 m 0 -21 l
80 21 m 0 -21 l
80 21 m 0 -21 l
81 21 m 0 -43 l
80 43 m 0 -21 l
80 21 m 0 -21 l
80 21 m 0 -21 l
81 21 m 0 -21 l
80 21 m 0 -43 l
80 43 m 0 -21 l
80 21 m 0 -21 l
80 21 m 0 -21 l
81 21 m 0 -21 l
80 21 m 0 -43 l
80 43 m 0 -21 l
80 21 m 0 -21 l
81 21 m 0 -21 l
80 21 m 0 -21 l
80 21 m 0 -43 l
255 255 M 0 2006 l
255 255 M 43 0 l
-119 -21 m 18 42 m -6 -2 l
-4 -6 l
-2 -10 l
0 -6 l
2 -10 l
4 -6 l
6 -2 l
CS M
4 0 l
6 2 l
4 6 l
2 10 l
0 6 l
-2 10 l
-4 6 l
-6 2 l
-4 0 l
-4 -2 l
-2 -2 l
-2 -4 l
-2 -10 l
0 -6 l
2 -10 l
2 -4 l
2 -2 l
4 -2 l
4 0 m 4 2 l
2 2 l
2 4 l
2 10 l
0 6 l
-2 10 l
-2 4 l
-2 2 l
-4 2 l
54 80 m 22 0 l
-22 100 m 22 0 l
-22 100 m 22 0 l
-22 100 m 22 0 l
-22 101 m 43 0 l
139 736 M 12 34 m 4 2 l
6 6 l
0 -42 l
-2 40 m 0 -40 l
-8 0 m 18 0 l
28 42 m -6 -2 l
-4 -6 l
-2 -10 l
0 -6 l
2 -10 l
4 -6 l
6 -2 l
4 0 l
6 2 l
4 6 l
2 10 l
0 6 l
-2 10 l
-4 6 l
-6 2 l
-4 0 l
-4 -2 l
-2 -2 l
-2 -4 l
-2 -10 l
0 -6 l
2 -10 l
2 -4 l
2 -2 l
4 -2 l
4 0 m 4 2 l
2 2 l
2 4 l
2 10 l
0 6 l
-2 10 l
-2 4 l
-2 2 l
-4 2 l
54 79 m 22 0 l
-22 100 m 22 0 l
-22 101 m 22 0 l
-22 100 m 22 0 l
-22 100 m 43 0 l
139 1237 M 8 34 m 2 -2 l
-2 -2 l
-2 2 l
0 2 l
2 4 l
2 2 l
6 2 l
8 0 l
6 -2 l
2 -2 l
2 -4 l
0 -4 l
-2 -4 l
-6 -4 l
-10 -4 l
-4 -2 l
-4 -4 l
-2 -6 l
0 -6 l
18 42 m 4 -2 l
2 -2 l
2 -4 l
0 -4 l
-2 -4 l
-6 -4 l
-8 -4 l
-10 -14 m 2 2 l
4 0 l
10 -4 l
6 0 l
4 2 l
2 2 l
-22 0 m 10 -6 l
8 0 l
2 2 l
2 4 l
0 4 l
24 32 m -6 -2 l
-4 -6 l
-2 -10 l
0 -6 l
2 -10 l
4 -6 l
6 -2 l
4 0 l
6 2 l
4 6 l
2 10 l
0 6 l
-2 10 l
-4 6 l
-6 2 l
-4 0 l
-4 -2 l
-2 -2 l
-2 -4 l
-2 -10 l
0 -6 l
2 -10 l
2 -4 l
2 -2 l
4 -2 l
4 0 m 4 2 l
2 2 l
2 4 l
2 10 l
0 6 l
-2 10 l
-2 4 l
-2 2 l
-4 2 l
54 79 m 22 0 l
-22 101 m 22 0 l
-22 100 m 22 0 l
-22 100 m 22 0 l
-22 101 m 43 0 l
139 1739 M 8 34 m 2 -2 l
-2 -2 l
-2 2 l
0 2 l
2 4 l
2 2 l
6 2 l
8 0 l
6 -2 l
2 -4 l
0 -6 l
-2 -4 l
-6 -2 l
-6 0 l
6 18 m 4 -2 l
2 -4 l
0 -6 l
-2 -4 l
-4 -2 l
4 -2 l
4 -4 l
2 -4 l
0 -6 l
-2 -4 l
-2 -3 l
-6 -1 l
-8 0 l
-6 1 l
-2 3 l
-2 4 l
0 2 l
2 2 l
2 -2 l
-2 -2 l
22 12 m 2 -6 l
0 -6 l
-2 -4 l
-2 -3 l
-4 -1 l
34 42 m -6 -2 l
-4 -6 l
-2 -10 l
0 -6 l
2 -10 l
4 -7 l
6 -1 l
4 0 l
6 1 l
4 7 l
2 10 l
0 6 l
-2 10 l
-4 6 l
-6 2 l
-4 0 l
-4 -2 l
-2 -2 l
-2 -4 l
-2 -10 l
0 -6 l
2 -10 l
2 -4 l
2 -3 l
4 -1 l
4 0 m 4 1 l
2 3 l
2 4 l
2 10 l
0 6 l
-2 10 l
-2 4 l
-2 2 l
-4 2 l
54 79 m 22 0 l
-22 100 m 22 0 l
-22 100 m 22 0 l
-22 101 m 22 0 l
-22 100 m 43 0 l
139 2240 M 24 38 m 0 -38 l
2 42 m 0 -42 l
0 42 m -22 -30 l
32 0 l
-18 -12 m 14 0 l
26 42 m -6 -2 l
-4 -6 l
-2 -10 l
0 -6 l
2 -10 l
4 -6 l
6 -2 l
4 0 l
6 2 l
4 6 l
2 10 l
0 6 l
-2 10 l
-4 6 l
-6 2 l
-4 0 l
-4 -2 l
-2 -2 l
-2 -4 l
-2 -10 l
0 -6 l
2 -10 l
2 -4 l
2 -2 l
4 -2 l
4 0 m 4 2 l
2 2 l
2 4 l
2 10 l
0 6 l
-2 10 l
-2 4 l
-2 2 l
-4 2 l
2261 255 M 0 2006 l
2261 255 M -43 0 l
43 101 m -21 0 l
21 100 m -21 0 l
21 100 m -21 0 l
21 100 m -21 0 l
21 101 m -43 0 l
43 100 m -21 0 l
21 100 m -21 0 l
21 101 m -21 0 l
21 100 m -21 0 l
21 100 m -43 0 l
43 100 m -21 0 l
21 101 m -21 0 l
21 100 m -21 0 l
21 100 m -21 0 l
21 101 m -43 0 l
43 100 m -21 0 l
21 100 m -21 0 l
21 100 m -21 0 l
21 101 m -21 0 l
21 100 m -43 0 l
CS [] 0 setdash M
stroke
grestore
showpage
end
