%!PS-Adobe-2.0 EPSF-2.0
%%Creator: SM
%%BoundingBox: 18 144 592 718
%%DocumentFonts: Helvetica
%%EndComments
 20 dict begin
72 300 div dup scale
1 setlinejoin 0 setlinecap
/Helvetica findfont 55 scalefont setfont 
/B {CS newpath moveto} def
/F {moveto 0 setlinecap} def
/C {CS M 1 1 3 {pop 3 1 roll 255 div} for SET_COLOUR} def
/CS {currentpoint stroke} def
/CF {currentpoint eofill} def
/L {lineto} def /l {rlineto} def /M {moveto} def /m {rmoveto} def
/P {currentpoint 0 1 rlineto stroke moveto} def
/T {currentlinecap exch 1 setlinecap show setlinecap} def
errordict /nocurrentpoint {pop 0 0 M currentpoint} put
/SET_COLOUR statusdict begin /processcolors where
  {pop processcolors 1 gt} {false} ifelse
  {(setrgbcolor)} {(pop pop pop)} ifelse cvx end def
 80 600 translate
gsave
CS [] 0 setdash M
CS M 1 100 mul 72 div dup setlinewidth
/P [ /currentpoint cvx 0 5 -1 roll .05 add dup -2 div 0 exch /rmoveto cvx /rlineto cvx /stroke cvx /moveto cvx ] cvx def
 0 0 0 C
CS M 4 100 mul 72 div dup setlinewidth
/P [ /currentpoint cvx 0 5 -1 roll .05 add dup -2 div 0 exch /rmoveto cvx /rlineto cvx /stroke cvx /moveto cvx ] cvx def
 255 0 0 C
CS [] 0 setdash M
255 2135 M 9 0 l
8 0 l
9 0 l
9 0 l
8 -1 l
9 0 l
8 0 l
9 0 l
9 0 l
8 0 l
9 0 l
8 0 l
9 0 l
8 0 l
9 0 l
9 -1 l
8 0 l
9 0 l
8 0 l
9 0 l
9 0 l
8 0 l
9 0 l
8 -1 l
9 0 l
8 0 l
9 0 l
9 0 l
8 -1 l
9 0 l
8 0 l
9 -1 l
8 0 l
9 0 l
9 0 l
8 -1 l
9 0 l
8 -1 l
9 0 l
9 -1 l
8 0 l
9 0 l
8 -1 l
9 -1 l
8 0 l
9 -1 l
9 0 l
8 -1 l
9 -1 l
8 -1 l
9 -1 l
9 0 l
8 -1 l
9 -1 l
8 -1 l
9 -1 l
8 -1 l
9 -2 l
9 -1 l
8 -1 l
9 -2 l
8 -1 l
9 -2 l
9 -2 l
8 -2 l
9 -2 l
8 -2 l
9 -2 l
8 -2 l
9 -2 l
9 -3 l
8 -2 l
9 -3 l
8 -3 l
9 -3 l
9 -3 l
8 -4 l
9 -3 l
8 -4 l
9 -4 l
8 -4 l
9 -5 l
9 -5 l
8 -5 l
9 -6 l
8 -6 l
9 -7 l
9 -7 l
8 -8 l
9 -8 l
8 -8 l
9 -8 l
8 -9 l
9 -9 l
9 -10 l
8 -9 l
9 -10 l
8 -11 l
9 -10 l
9 -11 l
8 -11 l
9 -11 l
8 -12 l
9 -11 l
8 -12 l
9 -11 l
9 -12 l
8 -12 l
9 -11 l
8 -12 l
9 -11 l
9 -12 l
8 -11 l
9 -11 l
8 -12 l
9 -11 l
8 -11 l
9 -11 l
9 -11 l
8 -11 l
9 -11 l
8 -11 l
9 -11 l
9 -11 l
8 -11 l
9 -10 l
8 -11 l
9 -11 l
8 -12 l
9 -11 l
9 -11 l
8 -11 l
9 -11 l
8 -11 l
9 -12 l
8 -11 l
9 -12 l
9 -11 l
8 -12 l
9 -12 l
8 -11 l
9 -13 l
9 -12 l
8 -12 l
9 -12 l
8 -13 l
9 -13 l
8 -13 l
9 -13 l
9 -13 l
8 -14 l
9 -14 l
8 -14 l
9 -15 l
9 -14 l
8 -15 l
9 -16 l
8 -16 l
9 -16 l
9 -17 l
8 -17 l
9 -18 l
8 -18 l
9 -19 l
8 -19 l
9 -20 l
9 -21 l
8 -21 l
9 -23 l
8 -21 l
9 -25 l
9 -24 l
8 -25 l
9 -26 l
8 -28 l
9 -29 l
8 -31 l
9 -29 l
9 -31 l
8 -38 l
9 -36 l
8 -32 l
9 -41 l
8 -36 l
9 -49 l
9 -43 l
8 -47 l
9 -41 l
8 -56 l
9 -49 l
1 -9 l
364 0 m 4 128 l
6 152 l
255 1902 M 9 0 l
8 0 l
9 0 l
9 0 l
8 0 l
9 0 l
8 0 l
9 0 l
9 0 l
8 -1 l
9 0 l
8 0 l
9 0 l
8 0 l
9 0 l
9 0 l
8 0 l
9 -1 l
8 0 l
9 0 l
9 0 l
8 0 l
9 0 l
8 -1 l
9 0 l
8 0 l
9 0 l
9 -1 l
8 0 l
9 0 l
8 -1 l
9 0 l
8 0 l
9 -1 l
9 1 l
8 -1 l
9 0 l
8 -1 l
9 0 l
9 -1 l
8 0 l
9 -1 l
8 -1 l
9 0 l
8 -1 l
9 -1 l
9 -1 l
8 -1 l
9 -1 l
8 -1 l
9 -1 l
9 -1 l
8 0 l
9 -1 l
8 -2 l
9 -1 l
8 -2 l
9 -1 l
9 -2 l
8 -2 l
9 -2 l
8 -1 l
9 -2 l
9 -3 l
8 -2 l
9 -3 l
8 -2 l
9 -3 l
8 -3 l
9 -3 l
9 -3 l
8 -4 l
9 -4 l
8 -3 l
9 -5 l
9 -5 l
8 -4 l
8 -5 l
6 -3 l
5 -4 l
6 -4 l
6 -4 l
6 -4 l
5 -4 l
6 -5 l
6 -5 l
6 -5 l
5 -5 l
6 -6 l
6 -5 l
6 -6 l
5 -6 l
6 -6 l
6 -7 l
6 -7 l
5 -7 l
6 -7 l
6 -7 l
6 -9 l
5 -9 l
6 -8 l
6 -8 l
6 -9 l
5 -10 l
6 -10 l
6 -11 l
6 -9 l
CS M
5 -12 l
6 -10 l
6 -12 l
6 -11 l
5 -14 l
6 -12 l
6 -13 l
6 -12 l
5 -14 l
6 -14 l
6 -14 l
6 -15 l
5 -16 l
6 -16 l
6 -14 l
6 -18 l
5 -15 l
6 -19 l
6 -16 l
6 -17 l
5 -21 l
6 -18 l
6 -19 l
6 -19 l
5 -20 l
6 -17 l
6 -22 l
6 -23 l
5 -19 l
6 -25 l
6 -21 l
6 -28 l
5 -23 l
6 -24 l
6 -25 l
6 -26 l
5 -29 l
6 -30 l
6 -22 l
6 -34 l
5 -26 l
6 -39 l
6 -29 l
6 -32 l
5 -35 l
6 -37 l
6 -41 l
6 -45 l
5 -31 l
6 -35 l
6 -58 l
6 -43 l
5 -49 l
6 -54 l
6 -35 l
3 -33 l
 0 0 255 C
CS [32 24] 0 setdash M
255 1905 M 6 0 l
6 0 l
5 0 l
6 0 l
6 0 l
6 0 l
5 0 l
6 0 l
6 0 l
6 0 l
6 -1 l
5 0 l
6 0 l
6 0 l
5 0 l
6 0 l
6 0 l
6 0 l
5 0 l
6 0 l
6 0 l
6 0 l
6 0 l
5 0 l
6 0 l
6 -1 l
5 0 l
6 0 l
6 0 l
6 0 l
5 0 l
6 0 l
6 0 l
6 0 l
6 -1 l
5 0 l
6 0 l
6 0 l
5 0 l
6 0 l
6 0 l
6 -1 l
5 0 l
6 0 l
6 0 l
6 0 l
6 -1 l
5 0 l
6 0 l
6 0 l
5 -1 l
6 0 l
6 0 l
6 0 l
5 -1 l
6 0 l
6 0 l
6 -1 l
6 0 l
5 0 l
6 -1 l
6 0 l
5 0 l
6 -1 l
6 0 l
6 -1 l
5 0 l
6 -1 l
6 0 l
6 -1 l
6 0 l
5 -1 l
6 0 l
6 -1 l
5 -1 l
6 0 l
6 -1 l
6 -1 l
5 0 l
6 -1 l
6 -1 l
6 -1 l
6 -1 l
5 -1 l
6 -1 l
6 -1 l
5 -1 l
6 -1 l
6 -1 l
6 -1 l
5 -1 l
6 -1 l
6 -2 l
6 -1 l
6 -2 l
5 -1 l
6 -2 l
6 -1 l
5 -2 l
6 -2 l
6 -1 l
6 -2 l
5 -2 l
6 -2 l
6 -3 l
6 -2 l
6 -2 l
5 -3 l
6 -2 l
6 -3 l
5 -2 l
6 -3 l
6 -3 l
6 -3 l
6 -4 l
5 -3 l
6 -4 l
6 -3 l
6 -4 l
5 -4 l
6 -4 l
6 -5 l
5 -4 l
6 -5 l
6 -5 l
6 -5 l
6 -5 l
5 -6 l
6 -5 l
6 -6 l
6 -6 l
5 -7 l
6 -7 l
6 -7 l
5 -7 l
6 -7 l
6 -8 l
6 -8 l
6 -9 l
5 -9 l
6 -8 l
6 -10 l
5 -10 l
6 -10 l
6 -10 l
6 -11 l
5 -11 l
6 -11 l
6 -12 l
6 -12 l
6 -12 l
5 -13 l
6 -13 l
6 -13 l
5 -14 l
6 -14 l
6 -15 l
6 -14 l
5 -16 l
6 -15 l
6 -16 l
6 -16 l
6 -17 l
5 -17 l
6 -17 l
6 -18 l
5 -18 l
6 -19 l
6 -19 l
6 -19 l
5 -20 l
6 -20 l
6 -21 l
6 -22 l
6 -22 l
5 -22 l
6 -23 l
6 -24 l
5 -24 l
6 -25 l
6 -26 l
6 -26 l
5 -28 l
6 -27 l
6 -29 l
6 -30 l
6 -30 l
5 -32 l
6 -32 l
6 -33 l
5 -35 l
6 -35 l
6 -37 l
6 -37 l
5 -39 l
6 -40 l
6 -42 l
6 -42 l
6 -45 l
5 -45 l
6 -47 l
5 -46 l
CS [32 24] 0 setdash M
255 2135 M 6 0 l
6 0 l
5 0 l
6 0 l
6 0 l
6 0 l
5 0 l
6 0 l
6 0 l
6 0 l
6 0 l
5 0 l
6 0 l
6 0 l
5 0 l
6 0 l
6 0 l
6 -1 l
5 0 l
6 0 l
6 0 l
6 0 l
6 0 l
5 0 l
6 0 l
6 0 l
5 0 l
6 0 l
6 0 l
6 0 l
5 0 l
6 -1 l
6 0 l
6 0 l
6 0 l
5 0 l
6 0 l
6 0 l
5 0 l
6 0 l
6 0 l
6 -1 l
CS M
5 0 l
6 0 l
6 0 l
6 0 l
6 0 l
5 0 l
6 -1 l
6 0 l
5 0 l
6 0 l
6 0 l
6 -1 l
5 0 l
6 0 l
6 0 l
6 -1 l
6 0 l
5 0 l
6 0 l
6 -1 l
5 0 l
6 0 l
6 -1 l
6 0 l
5 0 l
6 -1 l
6 0 l
6 0 l
6 -1 l
5 0 l
6 -1 l
6 0 l
5 -1 l
6 0 l
6 -1 l
6 0 l
5 -1 l
6 0 l
6 -1 l
6 0 l
6 -1 l
5 -1 l
6 0 l
6 -1 l
5 -1 l
6 -1 l
6 -1 l
6 0 l
5 -1 l
6 -1 l
6 -1 l
6 -1 l
6 -1 l
5 -1 l
6 -1 l
6 -2 l
5 -1 l
6 -1 l
6 -1 l
6 -2 l
5 -1 l
6 -2 l
6 -1 l
6 -2 l
6 -2 l
5 -1 l
6 -2 l
6 -2 l
5 -2 l
6 -2 l
6 -2 l
6 -2 l
6 -3 l
5 -2 l
6 -3 l
6 -2 l
6 -3 l
5 -3 l
6 -3 l
6 -3 l
5 -4 l
6 -3 l
6 -4 l
6 -4 l
6 -4 l
5 -4 l
6 -5 l
6 -5 l
6 -5 l
5 -5 l
6 -5 l
6 -5 l
5 -6 l
6 -5 l
6 -6 l
6 -6 l
6 -6 l
5 -6 l
6 -6 l
6 -7 l
5 -6 l
6 -7 l
6 -7 l
6 -7 l
5 -7 l
6 -7 l
6 -8 l
6 -7 l
6 -8 l
5 -7 l
6 -8 l
6 -7 l
5 -8 l
6 -8 l
6 -8 l
6 -7 l
5 -8 l
6 -8 l
6 -8 l
6 -8 l
6 -7 l
5 -8 l
6 -8 l
6 -8 l
5 -7 l
6 -8 l
6 -7 l
6 -8 l
5 -7 l
6 -8 l
6 -7 l
6 -8 l
6 -7 l
5 -8 l
6 -7 l
6 -7 l
5 -8 l
6 -7 l
6 -7 l
6 -8 l
5 -7 l
6 -7 l
6 -8 l
6 -7 l
6 -7 l
5 -8 l
6 -7 l
6 -8 l
5 -7 l
6 -7 l
6 -8 l
6 -7 l
5 -8 l
6 -7 l
6 -8 l
6 -7 l
6 -8 l
5 -7 l
6 -8 l
6 -8 l
5 -7 l
6 -8 l
6 -8 l
6 -8 l
5 -8 l
6 -8 l
6 -8 l
6 -7 l
6 -9 l
5 -8 l
6 -8 l
6 -8 l
5 -8 l
6 -9 l
6 -8 l
6 -9 l
5 -8 l
6 -9 l
6 -9 l
6 -8 l
6 -9 l
5 -9 l
6 -9 l
6 -9 l
5 -10 l
6 -9 l
6 -10 l
6 -9 l
5 -10 l
6 -10 l
6 -10 l
6 -10 l
6 -10 l
5 -11 l
6 -10 l
6 -11 l
5 -11 l
6 -11 l
6 -11 l
6 -12 l
5 -11 l
6 -12 l
6 -12 l
6 -12 l
6 -13 l
5 -13 l
6 -13 l
6 -13 l
5 -13 l
6 -14 l
6 -14 l
6 -15 l
5 -14 l
6 -15 l
6 -16 l
6 -15 l
6 -16 l
5 -17 l
6 -17 l
6 -17 l
5 -17 l
6 -18 l
6 -19 l
6 -19 l
5 -19 l
6 -20 l
6 -21 l
6 -21 l
6 -21 l
5 -22 l
6 -23 l
6 -23 l
5 -24 l
6 -25 l
6 -26 l
6 -26 l
5 -26 l
6 -28 l
6 -28 l
6 -30 l
6 -29 l
5 -31 l
6 -32 l
6 -33 l
4 -26 l
CS [] 0 setdash M
 0 0 0 C
356 2144 M 10 -10 m 0 20 l
-20 0 l
0 -20 l
20 0 l
124 6 m 9 -10 m 0 20 l
-19 0 l
0 -20 l
19 0 l
124 -4 m 10 -10 m 0 20 l
-20 0 l
0 -20 l
20 0 l
124 -4 m 10 -10 m 0 20 l
-20 0 l
0 -20 l
20 0 l
124 -21 m 10 -10 m 0 20 l
-20 0 l
0 -20 l
20 0 l
123 -71 m 10 -9 m 0 19 l
-19 0 l
0 -19 l
19 0 l
124 -145 m 10 -10 m 0 20 l
-20 0 l
0 -20 l
20 0 l
124 -165 m 10 -10 m 0 19 l
-20 0 l
0 -19 l
20 0 l
124 -165 m 9 -10 m 0 19 l
-19 0 l
0 -19 l
19 0 l
124 -184 m 10 -10 m 0 20 l
-20 0 l
0 -20 l
20 0 l
124 -165 m 10 -10 m 0 20 l
-20 0 l
0 -20 l
20 0 l
356 1950 M 10 -10 m 0 20 l
-20 0 l
0 -20 l
20 0 l
124 -24 m 9 -10 m 0 20 l
-19 0 l
0 -20 l
19 0 l
124 -14 m 10 -10 m 0 20 l
-20 0 l
0 -20 l
CS M
20 0 l
124 -6 m 10 -10 m 0 19 l
-20 0 l
0 -19 l
20 0 l
124 -33 m 10 -10 m 0 20 l
-20 0 l
0 -20 l
20 0 l
123 -93 m 10 -10 m 0 20 l
-19 0 l
0 -20 l
19 0 l
124 -245 m 10 -10 m 0 20 l
-20 0 l
0 -20 l
20 0 l
124 -435 m 10 -10 m 0 20 l
-20 0 l
0 -20 l
20 0 l
-44 865 m CS [] 0 setdash M
1289 1935 M -7 -2 l
-5 -5 l
-4 -9 l
-3 -8 l
-2 -9 l
-3 -15 l
-2 -19 l
26 67 m -4 -2 l
-5 -5 l
-5 -9 l
-2 -8 l
-3 -9 l
-2 -15 l
-3 -19 l
24 67 m 5 0 l
5 -2 l
2 -2 l
0 -8 l
-2 -4 l
-2 -3 l
-8 -2 l
-9 0 l
14 21 m 5 -4 l
0 -8 l
-2 -4 l
-3 -3 l
-5 -2 l
-9 0 m 9 -3 l
5 -4 l
3 -5 l
0 -7 l
-3 -5 l
-2 -3 l
-7 -2 l
-5 0 l
-5 2 l
-2 3 l
-3 7 l
10 17 m 7 -3 l
5 -4 l
2 -5 l
0 -7 l
-2 -5 l
-3 -3 l
-4 -2 l
33 29 m 44 0 l
-44 -15 m 44 0 l
24 27 m 5 2 l
7 7 l
0 -50 l
-3 48 m 0 -48 l
-9 0 m 21 0 l
34 50 m -7 -2 l
-5 -7 l
-2 -12 l
0 -7 l
2 -12 l
5 -8 l
7 -2 l
5 0 l
7 2 l
5 8 l
2 12 l
0 7 l
-2 12 l
-5 7 l
-7 2 l
-5 0 l
-5 -2 l
-2 -2 l
-3 -5 l
-2 -12 l
0 -7 l
2 -12 l
3 -5 l
2 -3 l
5 -2 l
5 0 m 5 2 l
2 3 l
3 5 l
2 12 l
0 7 l
-2 12 l
-3 5 l
-2 2 l
-5 2 l
22 -50 m CS [] 0 setdash M
590 1760 M CS [] 0 setdash M
621 1810 M -7 -2 l
-5 -5 l
-5 -10 l
-2 -7 l
-3 -10 l
-2 -14 l
-3 -19 l
27 67 m -5 -2 l
-5 -5 l
-5 -10 l
-2 -7 l
-2 -10 l
-3 -14 l
-2 -19 l
24 67 m 5 0 l
4 -2 l
3 -3 l
0 -7 l
-3 -5 l
-2 -2 l
-7 -3 l
-10 0 l
15 22 m 4 -5 l
0 -7 l
-2 -5 l
-2 -2 l
-5 -3 l
-10 0 m 10 -2 l
5 -5 l
2 -5 l
0 -7 l
-2 -5 l
-3 -2 l
-7 -2 l
-5 0 l
-5 2 l
-2 2 l
-2 8 l
9 16 m 7 -2 l
5 -5 l
3 -5 l
0 -7 l
-3 -5 l
-2 -2 l
-5 -2 l
34 28 m 43 0 l
-43 -14 m 43 0 l
24 27 m 5 2 l
7 7 l
0 -50 l
-2 48 m 0 -48 l
-10 0 m 22 0 l
12 0 m CS [] 0 setdash M
1325 1007 M 201 -451 m 322 506 M CS [] 0 setdash M
344 557 M 0 -51 l
2 51 m 0 -51 l
-17 51 m -2 -15 l
0 15 l
36 0 l
0 -15 l
-2 15 l
-24 -51 m 16 0 l
22 7 m -1 -1 l
1 -2 l
1 2 l
-1 1 l
0 -10 m 0 -20 l
1 20 m 0 -20 l
-5 20 m 5 0 l
-5 -20 m 10 0 l
51 83 m -44 -77 l
70 68 m 0 -51 l
3 51 m 0 -51 l
-17 51 m -3 -15 l
0 15 l
37 0 l
0 -15 l
-3 15 l
-24 -51 m 17 0 l
20 -12 m 17 0 l
0 3 l
-1 3 l
-1 2 l
-3 1 l
-5 0 l
-4 -1 l
-3 -3 l
-1 -5 l
0 -3 l
1 -4 l
3 -3 l
4 -1 l
3 0 l
5 1 l
2 3 l
-1 7 m 0 5 l
-1 3 l
-8 1 m -3 -1 l
-2 -3 l
-2 -5 l
0 -3 l
2 -4 l
2 -3 l
3 -1 l
63 52 m 43 0 l
-43 -15 m 43 0 l
63 27 m 5 2 l
7 8 l
0 -51 l
-3 48 m 0 -48 l
-9 0 m 21 0 l
34 51 m -7 -3 l
-5 -7 l
-2 -12 l
0 -7 l
2 -12 l
5 -8 l
7 -2 l
5 0 l
7 2 l
5 8 l
2 12 l
0 7 l
-2 12 l
-5 7 l
-7 3 l
-5 0 l
-5 -3 l
-2 -2 l
-2 -5 l
-3 -12 l
0 -7 l
3 -12 l
2 -5 l
2 -3 l
5 -2 l
5 0 m 5 2 l
2 3 l
3 5 l
2 12 l
0 7 l
-2 12 l
-3 5 l
-2 2 l
-5 3 l
43 0 m -7 -3 l
-5 -7 l
-2 -12 l
0 -7 l
2 -12 l
5 -8 l
7 -2 l
5 0 l
7 2 l
5 8 l
3 12 l
0 7 l
-3 12 l
-5 7 l
-7 3 l
-5 0 l
-5 -3 l
-2 -2 l
-2 -5 l
-3 -12 l
0 -7 l
3 -12 l
2 -5 l
2 -3 l
5 -2 l
5 0 m 5 2 l
2 3 l
3 5 l
2 12 l
0 7 l
-2 12 l
-3 5 l
-2 2 l
-5 3 l
22 -51 m CS [] 0 setdash M
322 381 M CS [] 0 setdash M
329 414 M 15 -33 l
-12 33 m 12 -29 l
14 29 m -14 -33 l
-20 33 m 15 0 l
10 0 m 14 0 l
10 -26 m 0 -25 l
1 -4 l
3 -2 l
3 0 l
3 2 l
1 3 l
-10 26 m 0 -25 l
1 -4 l
2 -2 l
-9 21 m 12 0 l
11 -16 m 0 -1 l
CS M
0 -1 l
1 1 l
-1 1 l
0 -6 m 0 -12 l
1 12 m 0 -12 l
-3 12 m 3 0 l
-3 -12 m 6 0 l
50 97 m -44 -77 l
85 43 m -3 -2 l
3 -3 l
2 3 l
0 2 l
-5 5 l
-5 2 l
-7 0 l
-7 -2 l
-5 -5 l
-2 -7 l
0 -5 l
2 -7 l
5 -5 l
7 -2 l
5 0 l
7 2 l
5 5 l
-17 26 m -5 -2 l
-4 -5 l
-3 -7 l
0 -5 l
3 -7 l
4 -5 l
5 -2 l
72 28 m 44 0 l
-44 -14 m 44 0 l
31 36 m -7 -2 l
-5 -7 l
-2 -13 l
0 -7 l
2 -12 l
5 -7 l
7 -2 l
5 0 l
7 2 l
5 7 l
2 12 l
0 7 l
-2 13 l
-5 7 l
-7 2 l
-5 0 l
-5 -2 l
-2 -3 l
-3 -4 l
-2 -13 l
0 -7 l
2 -12 l
3 -5 l
2 -2 l
5 -2 l
5 0 m 5 2 l
2 2 l
2 5 l
3 12 l
0 7 l
-3 13 l
-2 4 l
-2 3 l
-5 2 l
34 -46 m -3 -2 l
3 -2 l
2 2 l
-2 2 l
33 46 m -7 -2 l
-5 -7 l
-2 -13 l
0 -7 l
2 -12 l
5 -7 l
7 -2 l
5 0 l
7 2 l
5 7 l
2 12 l
0 7 l
-2 13 l
-5 7 l
-7 2 l
-5 0 l
-5 -2 l
-2 -3 l
-2 -4 l
-3 -13 l
0 -7 l
3 -12 l
2 -5 l
2 -2 l
5 -2 l
5 0 m 5 2 l
2 2 l
3 5 l
2 12 l
0 7 l
-2 13 l
-3 4 l
-2 3 l
-5 2 l
43 0 m -7 -2 l
-5 -7 l
-2 -13 l
0 -7 l
2 -12 l
5 -7 l
7 -2 l
5 0 l
7 2 l
5 7 l
3 12 l
0 7 l
-3 13 l
-5 7 l
-7 2 l
-5 0 l
-4 -2 l
-3 -3 l
-2 -4 l
-3 -13 l
0 -7 l
3 -12 l
2 -5 l
3 -2 l
4 -2 l
5 0 m 5 2 l
2 2 l
3 5 l
2 12 l
0 7 l
-2 13 l
-3 4 l
-2 3 l
-5 2 l
36 -9 m 5 2 l
7 7 l
0 -50 l
-2 48 m 0 -48 l
-10 0 m 22 0 l
12 0 m CS [] 0 setdash M
 255 0 0 C
CS [] 0 setdash M
1425 2211 M 134 0 l
 0 0 0 C
33 -25 m CS [] 0 setdash M
1604 2236 M 0 -50 l
3 50 m 0 -50 l
29 50 m 0 -50 l
2 50 m 0 -50 l
-41 50 m 17 0 l
15 0 m 16 0 l
-38 -24 m 29 0 l
-39 -26 m 17 0 l
15 0 m 16 0 l
27 33 m -7 -2 l
-5 -5 l
-3 -7 l
0 -5 l
3 -7 l
5 -5 l
7 -2 l
5 0 l
7 2 l
5 5 l
2 7 l
0 5 l
-2 7 l
-5 5 l
-7 2 l
-5 0 l
-5 -2 l
-5 -5 l
-2 -7 l
0 -5 l
2 -7 l
5 -5 l
5 -2 l
5 0 m 4 2 l
5 5 l
3 7 l
0 5 l
-3 7 l
-5 5 l
-4 2 l
33 17 m 0 -41 l
3 -7 l
5 -2 l
4 0 l
5 2 l
3 5 l
-17 43 m 0 -41 l
2 -7 l
3 -2 l
-15 33 m 19 0 l
63 17 m 0 -50 l
2 50 m 0 -50 l
-9 50 m 29 0 l
7 -2 l
2 -2 l
3 -5 l
0 -8 l
-3 -4 l
-2 -3 l
-7 -2 l
-20 0 l
20 26 m 4 -2 l
3 -2 l
2 -5 l
0 -8 l
-2 -4 l
-3 -3 l
-4 -2 l
-29 -24 m 17 0 l
43 50 m 0 -50 l
2 50 m 0 -50 l
-9 50 m 9 0 l
-9 -50 m 17 0 l
16 29 m 0 -3 l
-2 0 l
0 3 l
2 2 l
5 2 l
10 0 l
5 -2 l
2 -2 l
2 -5 l
0 -17 l
3 -5 l
2 -2 l
-7 29 m 0 -22 l
2 -5 l
5 -2 l
3 0 l
-10 24 m -2 -3 l
-15 -2 l
-7 -2 l
-2 -5 l
0 -5 l
2 -5 l
7 -2 l
7 0 l
5 2 l
5 5 l
-17 12 m -5 -2 l
-2 -5 l
0 -5 l
2 -5 l
5 -2 l
63 29 m 2 4 l
0 -9 l
-2 5 l
-3 2 l
-4 2 l
-10 0 l
-5 -2 l
-2 -2 l
0 -5 l
2 -3 l
5 -2 l
12 -5 l
5 -2 l
2 -3 l
-26 17 m 2 -2 l
5 -3 l
12 -4 l
5 -3 l
2 -2 l
0 -7 l
-2 -3 l
-5 -2 l
-10 0 l
-4 2 l
-3 3 l
-2 4 l
0 -9 l
2 5 l
43 28 m 0 -33 l
3 33 m 0 -33 l
0 26 m 5 5 l
7 2 l
5 0 l
7 -2 l
2 -5 l
0 -26 l
-9 33 m 5 -2 l
2 -5 l
0 -26 l
2 26 m 5 5 l
7 2 l
5 0 l
7 -2 l
3 -5 l
0 -26 l
-10 33 m 5 -2 l
2 -5 l
0 -26 l
-60 33 m 10 0 l
-10 -33 m 17 0 l
10 0 m 17 0 l
CS M
9 0 m 17 0 l
17 29 m 0 -3 l
-3 0 l
0 3 l
3 2 l
5 2 l
9 0 l
5 -2 l
3 -2 l
2 -5 l
0 -17 l
2 -5 l
3 -2 l
-7 29 m 0 -22 l
2 -5 l
5 -2 l
2 0 l
-9 24 m -3 -3 l
-14 -2 l
-8 -2 l
-2 -5 l
0 -5 l
2 -5 l
8 -2 l
7 0 l
5 2 l
5 5 l
-17 12 m -5 -2 l
-3 -5 l
0 -5 l
3 -5 l
5 -2 l
31 0 m CS [] 0 setdash M
 0 0 255 C
CS [32 24] 0 setdash M
1425 2136 M 134 0 l
CS [] 0 setdash M
 0 0 0 C
1592 2111 M CS [] 0 setdash M
1633 2154 M 3 -7 l
0 14 l
-3 -7 l
-4 5 l
-8 2 l
-4 0 l
-8 -2 l
-5 -5 l
-2 -5 l
-2 -7 l
0 -12 l
2 -7 l
2 -5 l
5 -5 l
8 -2 l
4 0 l
8 2 l
4 5 l
-16 43 m -5 -2 l
-5 -5 l
-3 -5 l
-2 -7 l
0 -12 l
2 -7 l
3 -5 l
5 -5 l
5 -2 l
16 19 m 0 -19 l
3 19 m 0 -19 l
-10 19 m 17 0 l
14 14 m 15 -33 l
-12 33 m 12 -29 l
14 29 m -14 -33 l
-5 -10 l
-5 -5 l
-5 -2 l
-2 0 l
-2 2 l
2 2 l
2 -2 l
-4 48 m 14 0 l
10 0 m 14 0 l
15 0 m 0 -33 l
2 33 m 0 -33 l
0 19 m 2 7 l
5 5 l
5 2 l
7 0 l
3 -2 l
0 -3 l
-3 -2 l
-2 2 l
2 3 l
-29 2 m 10 0 l
-10 -33 m 17 0 l
41 33 m -7 -2 l
-5 -5 l
-2 -7 l
0 -5 l
2 -7 l
5 -5 l
7 -2 l
5 0 l
7 2 l
5 5 l
2 7 l
0 5 l
-2 7 l
-5 5 l
-7 2 l
-5 0 l
-5 -2 l
-5 -5 l
-2 -7 l
0 -5 l
2 -7 l
5 -5 l
5 -2 l
5 0 m 5 2 l
5 5 l
2 7 l
0 5 l
-2 7 l
-5 5 l
-5 2 l
34 17 m 0 -50 l
2 50 m 0 -50 l
24 33 m -24 -24 l
12 10 m 14 -19 l
-16 19 m 14 -19 l
-34 50 m 10 0 l
17 -17 m 14 0 l
-41 -33 m 17 0 l
10 0 m 14 0 l
17 50 m -2 -2 l
2 -3 l
3 3 l
-3 2 l
0 -17 m 0 -33 l
3 33 m 0 -33 l
-10 33 m 10 0 l
-10 -33 m 17 0 l
17 33 m 0 -33 l
2 33 m 0 -33 l
0 26 m 5 5 l
7 2 l
5 0 l
7 -2 l
3 -5 l
0 -26 l
-10 33 m 5 -2 l
2 -5 l
0 -26 l
-34 33 m 10 0 l
-10 -33 m 17 0 l
10 0 m 17 0 l
14 19 m 29 0 l
0 5 l
-2 4 l
-3 3 l
-5 2 l
-7 0 l
-7 -2 l
-5 -5 l
-2 -7 l
0 -5 l
2 -7 l
5 -5 l
7 -2 l
5 0 l
7 2 l
5 5 l
-2 12 m 0 7 l
-3 5 l
-12 2 m -5 -2 l
-4 -5 l
-3 -7 l
0 -5 l
3 -7 l
4 -5 l
5 -2 l
36 50 m 0 -41 l
3 -7 l
5 -2 l
4 0 l
5 2 l
3 5 l
-17 43 m 0 -41 l
2 -7 l
3 -2 l
-15 33 m 19 0 l
24 17 m -2 -2 l
2 -3 l
3 3 l
-3 2 l
0 -17 m 0 -33 l
3 33 m 0 -33 l
-10 33 m 10 0 l
-10 -33 m 17 0 l
41 26 m -2 -2 l
2 -3 l
2 3 l
0 2 l
-4 5 l
-5 2 l
-7 0 l
-8 -2 l
-5 -5 l
-2 -7 l
0 -5 l
2 -7 l
5 -5 l
8 -2 l
4 0 l
8 2 l
4 5 l
-16 26 m -5 -2 l
-5 -5 l
-3 -7 l
0 -5 l
3 -7 l
5 -5 l
5 -2 l
24 0 m CS [] 0 setdash M
CS [] 0 setdash M
1185 45 M 12 51 m 1197 45 L
2 51 m 1199 45 L
24 34 m -24 -24 l
12 10 m 15 -20 l
-17 20 m 14 -20 l
-33 51 m 9 0 l
17 -17 m 15 0 l
-41 -34 m 16 0 l
10 0 m 15 0 l
1240 22 M 26 0 l
-13 0 m 0 28 l
27 7 m 2 -7 l
2 -2 l
5 -3 l
5 0 l
7 3 l
5 7 l
2 7 l
0 7 l
-2 5 l
-2 3 l
-5 2 l
-5 0 l
-7 -2 l
-5 -8 l
-2 -7 l
1270 28 L
24 17 m 5 3 l
5 7 l
2 7 l
0 10 l
-2 5 l
-10 2 m -5 -2 l
-5 -8 l
-2 -7 l
1272 28 L
51 25 m -2 -2 l
2 -1 l
1 1 l
-1 2 l
0 -11 m 0 -20 l
1 20 m 0 -20 l
-5 20 m 5 0 l
-5 -20 m 10 0 l
CS [] 0 setdash M
CS [] 0 setdash M
67 1157 M 17 1169 M 50 0 l
17 1172 M 50 0 l
17 1162 M 0 29 l
2 7 l
3 2 l
4 3 l
8 0 l
5 -3 l
2 -2 l
2 -7 l
0 -19 l
17 1191 M 2 5 l
3 2 l
4 2 l
8 0 l
5 -2 l
2 -2 l
2 -5 l
24 -29 m 0 17 l
-7 38 m 2 -1 l
1 1 l
-1 2 l
-2 -2 l
10 0 m 21 0 l
-21 2 m 21 0 l
-21 -6 m 0 6 l
21 -6 m 0 10 l
7 1274 M 77 -43 l
17 1291 M 50 0 l
17 1293 M 50 0 l
17 1284 M 0 29 l
2 7 l
3 2 l
4 3 l
8 0 l
5 -3 l
2 -2 l
2 -7 l
0 -20 l
17 1313 M 2 4 l
CS M
3 3 l
4 2 l
8 0 l
5 -2 l
2 -3 l
2 -4 l
24 -29 m 0 16 l
12 38 m 0 17 l
-3 0 l
-3 -2 l
-1 -1 l
-2 -3 l
0 -4 l
2 -5 l
3 -2 l
4 -2 l
3 0 l
4 2 l
3 2 l
2 5 l
0 3 l
-2 4 l
-3 3 l
-7 -2 m -4 0 l
-3 -1 l
-2 -7 m 2 -3 l
3 -3 l
4 -1 l
3 0 l
4 1 l
3 3 l
2 3 l
CS [] 0 setdash M
CS [] 0 setdash M
255 255 M 2006 0 l
0 2006 l
255 2261 L
255 255 L
2006 0 l
255 255 M 2006 0 l
255 255 M 0 41 l
-48 -116 m 17 40 m -5 -2 l
-4 -5 l
-2 -10 l
0 -6 l
2 -9 l
4 -6 l
5 -2 l
4 0 l
6 2 l
4 6 l
2 9 l
0 6 l
-2 10 l
-4 5 l
-6 2 l
-4 0 l
-3 -2 l
-2 -2 l
-2 -3 l
-2 -10 l
0 -6 l
2 -9 l
2 -4 l
2 -2 l
3 -2 l
4 0 m 4 2 l
2 2 l
2 4 l
2 9 l
0 6 l
-2 10 l
-2 3 l
-2 2 l
-4 2 l
27 -36 m -2 -2 l
2 -2 l
2 2 l
-2 2 l
21 29 m 4 2 l
6 5 l
0 -40 l
-2 38 m 0 -38 l
-8 0 m 18 0 l
163 75 m 0 21 l
117 -21 m 0 21 l
84 -21 m 0 21 l
65 -21 m 0 21 l
53 -21 m 0 21 l
44 -21 m 0 21 l
39 -21 m 0 21 l
34 -21 m 0 21 l
31 -21 m 0 41 l
-19 -116 m 11 33 m 4 2 l
6 5 l
0 -40 l
-2 38 m 0 -38 l
-8 0 m 18 0 l
191 75 m 0 21 l
118 -21 m 0 21 l
83 -21 m 0 21 l
65 -21 m 0 21 l
53 -21 m 0 21 l
45 -21 m 0 21 l
39 -21 m 0 21 l
34 -21 m 0 21 l
30 -21 m 0 41 l
-38 -116 m 11 33 m 4 2 l
6 5 l
0 -40 l
-2 38 m 0 -38 l
-8 0 m 18 0 l
27 40 m -6 -2 l
-4 -5 l
-2 -10 l
0 -6 l
2 -9 l
4 -6 l
6 -2 l
4 0 l
5 2 l
4 6 l
2 9 l
0 6 l
-2 10 l
-4 5 l
-5 2 l
-4 0 l
-4 -2 l
-2 -2 l
-2 -3 l
-2 -10 l
0 -6 l
2 -9 l
2 -4 l
2 -2 l
4 -2 l
4 0 m 3 2 l
2 2 l
2 4 l
2 9 l
0 6 l
-2 10 l
-2 3 l
-2 2 l
-3 2 l
180 35 m 0 21 l
117 -21 m 0 21 l
84 -21 m 0 21 l
65 -21 m 0 21 l
53 -21 m 0 21 l
44 -21 m 0 21 l
39 -21 m 0 21 l
34 -21 m 0 21 l
31 -21 m 0 41 l
-58 -116 m 12 33 m 4 2 l
5 5 l
0 -40 l
-2 38 m 0 -38 l
-7 0 m 17 0 l
27 40 m -6 -2 l
-4 -5 l
-2 -10 l
0 -6 l
2 -9 l
4 -6 l
6 -2 l
4 0 l
6 2 l
3 6 l
2 9 l
0 6 l
-2 10 l
-3 5 l
-6 2 l
-4 0 l
-4 -2 l
-2 -2 l
-2 -3 l
-2 -10 l
0 -6 l
2 -9 l
2 -4 l
2 -2 l
4 -2 l
4 0 m 4 2 l
2 2 l
2 4 l
1 9 l
0 6 l
-1 10 l
-2 3 l
-2 2 l
-4 2 l
35 0 m -6 -2 l
-4 -5 l
-2 -10 l
0 -6 l
2 -9 l
4 -6 l
6 -2 l
3 0 l
6 2 l
4 6 l
2 9 l
0 6 l
-2 10 l
-4 5 l
-6 2 l
-3 0 l
-4 -2 l
-2 -2 l
-2 -3 l
-2 -10 l
0 -6 l
2 -9 l
2 -4 l
2 -2 l
4 -2 l
3 0 m 4 2 l
2 2 l
2 4 l
2 9 l
0 6 l
-2 10 l
-2 3 l
-2 2 l
-4 2 l
255 2261 M 2006 0 l
255 2261 M 0 -41 l
202 41 m 0 -20 l
117 20 m 0 -20 l
84 20 m 0 -20 l
65 20 m 0 -20 l
53 20 m 0 -20 l
44 20 m 0 -20 l
39 20 m 0 -20 l
34 20 m 0 -20 l
31 20 m 0 -41 l
201 41 m 0 -20 l
118 20 m 0 -20 l
83 20 m 0 -20 l
65 20 m 0 -20 l
53 20 m 0 -20 l
45 20 m 0 -20 l
39 20 m 0 -20 l
34 20 m 0 -20 l
30 20 m 0 -41 l
202 41 m 0 -20 l
117 20 m 0 -20 l
84 20 m 0 -20 l
65 20 m 0 -20 l
53 20 m 0 -20 l
44 20 m 0 -20 l
39 20 m 0 -20 l
34 20 m 0 -20 l
31 20 m 0 -41 l
255 255 M 0 2006 l
255 255 M 41 0 l
90 234 M 12 33 m 3 2 l
6 5 l
0 -40 l
-2 38 m 0 -38 l
-7 0 m 17 0 l
27 40 m -6 -2 l
-4 -5 l
-2 -10 l
0 -6 l
2 -9 l
4 -6 l
6 -2 l
4 0 l
6 2 l
3 6 l
2 9 l
0 6 l
-2 10 l
-3 5 l
-6 2 l
-4 0 l
-4 -2 l
-2 -1 l
-2 -4 l
-2 -10 l
0 -6 l
2 -9 l
2 -4 l
2 -2 l
4 -2 l
4 0 m 4 2 l
2 2 l
1 4 l
2 9 l
0 6 l
-2 10 l
-1 4 l
-2 1 l
-4 2 l
22 -11 m 20 0 l
11 14 m -2 -12 l
2 2 l
3 2 l
CS M
4 0 l
3 -2 l
3 -2 l
1 -3 l
0 -3 l
-1 -3 l
-3 -2 l
-3 -2 l
-4 0 l
-3 2 l
-1 1 l
-1 2 l
0 1 l
1 1 l
1 -1 l
-1 -1 l
8 12 m 2 -2 l
2 -2 l
2 -3 l
0 -3 l
-2 -3 l
-2 -2 l
-2 -2 l
-7 25 m 11 0 l
-11 -2 m 6 0 l
5 2 l
41 54 m 21 0 l
-21 44 m 21 0 l
-21 31 m 21 0 l
-21 25 m 21 0 l
-21 19 m 21 0 l
-21 17 m 21 0 l
-21 15 m 21 0 l
-21 13 m 21 0 l
-21 11 m 41 0 l
8 486 M 18 40 m -6 -2 l
-4 -5 l
-2 -10 l
0 -6 l
2 -10 l
4 -5 l
6 -2 l
3 0 l
6 2 l
4 5 l
2 10 l
0 6 l
-2 10 l
-4 5 l
-6 2 l
-3 0 l
-4 -2 l
-2 -2 l
-2 -3 l
-2 -10 l
0 -6 l
2 -10 l
2 -3 l
2 -2 l
4 -2 l
3 0 m 4 2 l
2 2 l
2 3 l
2 10 l
0 6 l
-2 10 l
-2 3 l
-2 2 l
-4 2 l
27 -36 m -2 -2 l
2 -2 l
2 2 l
-2 2 l
27 36 m -5 -2 l
-4 -5 l
-2 -10 l
0 -6 l
2 -10 l
4 -5 l
5 -2 l
4 0 l
6 2 l
4 5 l
2 10 l
0 6 l
-2 10 l
-4 5 l
-6 2 l
-4 0 l
-3 -2 l
-2 -2 l
-2 -3 l
-2 -10 l
0 -6 l
2 -10 l
2 -3 l
2 -2 l
3 -2 l
4 0 m 4 2 l
2 2 l
2 3 l
2 10 l
0 6 l
-2 10 l
-2 3 l
-2 2 l
-4 2 l
35 0 m -6 -2 l
-4 -5 l
-2 -10 l
0 -6 l
2 -10 l
4 -5 l
6 -2 l
4 0 l
6 2 l
3 5 l
2 10 l
0 6 l
-2 10 l
-3 5 l
-6 2 l
-4 0 l
-4 -2 l
-2 -2 l
-2 -3 l
-2 -10 l
0 -6 l
2 -10 l
2 -3 l
2 -2 l
4 -2 l
4 0 m 4 2 l
2 2 l
1 3 l
2 10 l
0 6 l
-2 10 l
-1 3 l
-2 2 l
-4 2 l
34 0 m -5 -2 l
-4 -5 l
-2 -10 l
0 -6 l
2 -10 l
4 -5 l
5 -2 l
4 0 l
6 2 l
4 5 l
2 10 l
0 6 l
-2 10 l
-4 5 l
-6 2 l
-4 0 l
-3 -2 l
-2 -2 l
-2 -3 l
-2 -10 l
0 -6 l
2 -10 l
2 -3 l
2 -2 l
3 -2 l
4 0 m 4 2 l
2 2 l
2 3 l
2 10 l
0 6 l
-2 10 l
-2 3 l
-2 2 l
-4 2 l
29 -7 m 4 1 l
6 6 l
0 -40 l
-2 38 m 0 -38 l
-8 0 m 17 0 l
45 95 m 21 0 l
-21 45 m 21 0 l
-21 31 m 21 0 l
-21 24 m 21 0 l
-21 20 m 21 0 l
-21 17 m 21 0 l
-21 14 m 21 0 l
-21 13 m 21 0 l
-21 12 m 41 0 l
47 737 M 17 40 m -6 -2 l
-3 -6 l
-2 -9 l
0 -6 l
2 -10 l
3 -6 l
6 -1 l
4 0 l
6 1 l
4 6 l
2 10 l
0 6 l
-2 9 l
-4 6 l
-6 2 l
-4 0 l
-4 -2 l
-2 -2 l
-1 -4 l
-2 -9 l
0 -6 l
2 -10 l
1 -4 l
2 -2 l
4 -1 l
4 0 m 4 1 l
2 2 l
2 4 l
2 10 l
0 6 l
-2 9 l
-2 4 l
-2 2 l
-4 2 l
27 -37 m -2 -2 l
2 -1 l
2 1 l
-2 2 l
27 37 m -6 -2 l
-4 -6 l
-2 -9 l
0 -6 l
2 -10 l
4 -6 l
6 -1 l
4 0 l
6 1 l
3 6 l
2 10 l
0 6 l
-2 9 l
-3 6 l
-6 2 l
-4 0 l
-4 -2 l
-2 -2 l
-2 -4 l
-2 -9 l
0 -6 l
2 -10 l
2 -4 l
2 -2 l
4 -1 l
4 0 m 4 1 l
2 2 l
2 4 l
1 10 l
0 6 l
-1 9 l
-2 4 l
-2 2 l
-4 2 l
34 0 m -5 -2 l
-4 -6 l
-2 -9 l
0 -6 l
2 -10 l
4 -6 l
5 -1 l
4 0 l
6 1 l
4 6 l
2 10 l
0 6 l
-2 9 l
-4 6 l
-6 2 l
-4 0 l
-3 -2 l
-2 -2 l
-2 -4 l
-2 -9 l
0 -6 l
2 -10 l
2 -4 l
2 -2 l
3 -1 l
4 0 m 4 1 l
2 2 l
2 4 l
2 10 l
0 6 l
-2 9 l
-2 4 l
-2 2 l
-4 2 l
29 -8 m 4 2 l
6 6 l
0 -40 l
-2 38 m 0 -38 l
-8 0 m 18 0 l
CS M
44 95 m 21 0 l
-21 44 m 21 0 l
-21 32 m 21 0 l
-21 24 m 21 0 l
-21 20 m 21 0 l
-21 17 m 21 0 l
-21 14 m 21 0 l
-21 13 m 21 0 l
-21 11 m 41 0 l
85 987 M 18 41 m -6 -2 l
-4 -6 l
-2 -10 l
0 -5 l
2 -10 l
4 -6 l
6 -2 l
4 0 l
5 2 l
4 6 l
2 10 l
0 5 l
-2 10 l
-4 6 l
-5 2 l
-4 0 l
-4 -2 l
-2 -2 l
-2 -4 l
-2 -10 l
0 -5 l
2 -10 l
2 -4 l
2 -2 l
4 -2 l
4 0 m 3 2 l
2 2 l
2 4 l
2 10 l
0 5 l
-2 10 l
-2 4 l
-2 2 l
-3 2 l
27 -37 m -2 -2 l
2 -2 l
1 2 l
-1 2 l
26 37 m -5 -2 l
-4 -6 l
-2 -10 l
0 -5 l
2 -10 l
4 -6 l
5 -2 l
4 0 l
6 2 l
4 6 l
2 10 l
0 5 l
-2 10 l
-4 6 l
-6 2 l
-4 0 l
-3 -2 l
-2 -2 l
-2 -4 l
-2 -10 l
0 -5 l
2 -10 l
2 -4 l
2 -2 l
3 -2 l
4 0 m 4 2 l
2 2 l
2 4 l
2 10 l
0 5 l
-2 10 l
-2 4 l
-2 2 l
-4 2 l
29 -8 m 4 2 l
6 6 l
0 -41 l
-2 39 m 0 -39 l
-8 0 m 18 0 l
44 96 m 21 0 l
-21 44 m 21 0 l
-21 31 m 21 0 l
-21 25 m 21 0 l
-21 20 m 21 0 l
-21 16 m 21 0 l
-21 15 m 21 0 l
-21 13 m 21 0 l
-21 11 m 41 0 l
124 1238 M 17 40 m -6 -2 l
-3 -5 l
-2 -10 l
0 -6 l
2 -9 l
3 -6 l
6 -2 l
4 0 l
6 2 l
4 6 l
2 9 l
0 6 l
-2 10 l
-4 5 l
-6 2 l
-4 0 l
-4 -2 l
-2 -1 l
-1 -4 l
-2 -10 l
0 -6 l
2 -9 l
1 -4 l
2 -2 l
4 -2 l
4 0 m 4 2 l
2 2 l
2 4 l
2 9 l
0 6 l
-2 10 l
-2 4 l
-2 1 l
-4 2 l
27 -36 m -2 -2 l
2 -2 l
2 2 l
-2 2 l
21 29 m 4 2 l
6 5 l
0 -40 l
-2 38 m 0 -38 l
-8 0 m 18 0 l
44 96 m 21 0 l
-21 44 m 21 0 l
-21 31 m 21 0 l
-21 24 m 21 0 l
-21 20 m 21 0 l
-21 17 m 21 0 l
-21 15 m 21 0 l
-21 12 m 21 0 l
-21 12 m 41 0 l
-114 -20 m 11 32 m 4 2 l
6 6 l
0 -40 l
-2 38 m 0 -38 l
-8 0 m 18 0 l
44 95 m 21 0 l
-21 45 m 21 0 l
-21 31 m 21 0 l
-21 24 m 21 0 l
-21 20 m 21 0 l
-21 17 m 21 0 l
-21 14 m 21 0 l
-21 13 m 21 0 l
-21 12 m 41 0 l
143 1739 M 12 33 m 4 2 l
5 6 l
0 -41 l
-1 39 m 0 -39 l
-8 0 m 17 0 l
27 41 m -6 -2 l
-4 -6 l
-1 -9 l
0 -6 l
1 -10 l
4 -6 l
6 -2 l
4 0 l
6 2 l
4 6 l
2 10 l
0 6 l
-2 9 l
-4 6 l
-6 2 l
-4 0 l
-4 -2 l
-2 -2 l
-2 -4 l
-2 -9 l
0 -6 l
2 -10 l
2 -4 l
2 -2 l
4 -2 l
4 0 m 4 2 l
2 2 l
2 4 l
2 10 l
0 6 l
-2 9 l
-2 4 l
-2 2 l
-4 2 l
52 55 m 21 0 l
-21 44 m 21 0 l
-21 32 m 21 0 l
-21 24 m 21 0 l
-21 20 m 21 0 l
-21 16 m 21 0 l
-21 15 m 21 0 l
-21 13 m 21 0 l
-21 11 m 41 0 l
105 1990 M 11 33 m 4 2 l
6 5 l
0 -40 l
-2 39 m 0 -39 l
-8 0 m 18 0 l
26 40 m -5 -1 l
-4 -6 l
-2 -10 l
0 -6 l
2 -9 l
4 -6 l
5 -2 l
4 0 l
6 2 l
4 6 l
2 9 l
0 6 l
-2 10 l
-4 6 l
-6 1 l
-4 0 l
-3 -1 l
-2 -2 l
-2 -4 l
-2 -10 l
0 -6 l
2 -9 l
2 -4 l
2 -2 l
3 -2 l
4 0 m 4 2 l
2 2 l
2 4 l
2 9 l
0 6 l
-2 10 l
-2 4 l
-2 2 l
-4 1 l
35 0 m -6 -1 l
-4 -6 l
-2 -10 l
0 -6 l
2 -9 l
4 -6 l
6 -2 l
4 0 l
6 2 l
3 6 l
2 9 l
0 6 l
-2 10 l
-3 6 l
-6 1 l
-4 0 l
-4 -1 l
-2 -2 l
-2 -4 l
-2 -10 l
0 -6 l
2 -9 l
2 -4 l
2 -2 l
4 -2 l
4 0 m 4 2 l
2 2 l
2 4 l
1 9 l
0 6 l
-1 10 l
-2 4 l
-2 2 l
-4 1 l
52 56 m 21 0 l
-21 44 m 21 0 l
-21 31 m 21 0 l
-21 25 m 21 0 l
-21 19 m 21 0 l
-21 17 m 21 0 l
-21 15 m 21 0 l
-21 13 m 21 0 l
-21 11 m 41 0 l
66 2241 M 12 33 m 4 1 l
5 6 l
0 -40 l
-2 38 m 0 -38 l
-7 0 m 17 0 l
27 40 m -6 -2 l
-4 -5 l
-2 -10 l
0 -6 l
CS M
2 -9 l
4 -6 l
6 -2 l
4 0 l
6 2 l
3 6 l
2 9 l
0 6 l
-2 10 l
-3 5 l
-6 2 l
-4 0 l
-4 -2 l
-2 -2 l
-2 -3 l
-2 -10 l
0 -6 l
2 -9 l
2 -4 l
2 -2 l
4 -2 l
4 0 m 4 2 l
2 2 l
2 4 l
1 9 l
0 6 l
-1 10 l
-2 3 l
-2 2 l
-4 2 l
34 0 m -5 -2 l
-4 -5 l
-2 -10 l
0 -6 l
2 -9 l
4 -6 l
5 -2 l
4 0 l
6 2 l
4 6 l
2 9 l
0 6 l
-2 10 l
-4 5 l
-6 2 l
-4 0 l
-3 -2 l
-2 -2 l
-2 -3 l
-2 -10 l
0 -6 l
2 -9 l
2 -4 l
2 -2 l
3 -2 l
4 0 m 4 2 l
2 2 l
2 4 l
2 9 l
0 6 l
-2 10 l
-2 3 l
-2 2 l
-4 2 l
35 0 m -6 -2 l
-4 -5 l
-2 -10 l
0 -6 l
2 -9 l
4 -6 l
6 -2 l
4 0 l
6 2 l
3 6 l
2 9 l
0 6 l
-2 10 l
-3 5 l
-6 2 l
-4 0 l
-4 -2 l
-2 -2 l
-2 -3 l
-2 -10 l
0 -6 l
2 -9 l
2 -4 l
2 -2 l
4 -2 l
4 0 m 4 2 l
2 2 l
2 4 l
1 9 l
0 6 l
-1 10 l
-2 3 l
-2 2 l
-4 2 l
2261 255 M 0 2006 l
2261 255 M -41 0 l
41 76 m -20 0 l
20 44 m -20 0 l
20 31 m -20 0 l
20 25 m -20 0 l
20 19 m -20 0 l
20 17 m -20 0 l
20 15 m -20 0 l
20 13 m -20 0 l
20 11 m -41 0 l
41 75 m -20 0 l
20 45 m -20 0 l
20 31 m -20 0 l
20 24 m -20 0 l
20 20 m -20 0 l
20 17 m -20 0 l
20 14 m -20 0 l
20 13 m -20 0 l
20 12 m -41 0 l
41 75 m -20 0 l
20 44 m -20 0 l
20 32 m -20 0 l
20 24 m -20 0 l
20 20 m -20 0 l
20 17 m -20 0 l
20 14 m -20 0 l
20 13 m -20 0 l
20 11 m -41 0 l
41 76 m -20 0 l
20 44 m -20 0 l
20 31 m -20 0 l
20 25 m -20 0 l
20 20 m -20 0 l
20 16 m -20 0 l
20 15 m -20 0 l
20 13 m -20 0 l
20 11 m -41 0 l
41 76 m -20 0 l
20 44 m -20 0 l
20 31 m -20 0 l
20 24 m -20 0 l
20 20 m -20 0 l
20 17 m -20 0 l
20 15 m -20 0 l
20 12 m -20 0 l
20 12 m -41 0 l
41 75 m -20 0 l
20 45 m -20 0 l
20 31 m -20 0 l
20 24 m -20 0 l
20 20 m -20 0 l
20 17 m -20 0 l
20 14 m -20 0 l
20 13 m -20 0 l
20 12 m -41 0 l
41 75 m -20 0 l
20 44 m -20 0 l
20 32 m -20 0 l
20 24 m -20 0 l
20 20 m -20 0 l
20 16 m -20 0 l
20 15 m -20 0 l
20 13 m -20 0 l
20 11 m -41 0 l
41 76 m -20 0 l
20 44 m -20 0 l
20 31 m -20 0 l
20 25 m -20 0 l
20 19 m -20 0 l
20 17 m -20 0 l
20 15 m -20 0 l
20 13 m -20 0 l
20 11 m -41 0 l
CS [] 0 setdash M
stroke
grestore
showpage
end
