%!PS-Adobe-2.0 EPSF-2.0
%%Creator: SM
%%BoundingBox: 18 144 592 718
%%DocumentFonts: Helvetica
%%EndComments
 20 dict begin
72 300 div dup scale
1 setlinejoin 0 setlinecap
/Helvetica findfont 55 scalefont setfont 
/B {CS newpath moveto} def
/F {moveto 0 setlinecap} def
/C {CS M 1 1 3 {pop 3 1 roll 255 div} for SET_COLOUR} def
/CS {currentpoint stroke} def
/CF {currentpoint eofill} def
/L {lineto} def /l {rlineto} def /M {moveto} def /m {rmoveto} def
/P {currentpoint 0 1 rlineto stroke moveto} def
/T {currentlinecap exch 1 setlinecap show setlinecap} def
errordict /nocurrentpoint {pop 0 0 M currentpoint} put
/SET_COLOUR statusdict begin /processcolors where
  {pop processcolors 1 gt} {false} ifelse
  {(setrgbcolor)} {(pop pop pop)} ifelse cvx end def
 80 600 translate
gsave
CS [] 0 setdash M
CS M 1 100 mul 72 div dup setlinewidth
/P [ /currentpoint cvx 0 5 -1 roll .05 add dup -2 div 0 exch /rmoveto cvx /rlineto cvx /stroke cvx /moveto cvx ] cvx def
 0 0 0 C
CS M 4 100 mul 72 div dup setlinewidth
/P [ /currentpoint cvx 0 5 -1 roll .05 add dup -2 div 0 exch /rmoveto cvx /rlineto cvx /stroke cvx /moveto cvx ] cvx def
 255 0 0 C
523 1977 M 201 -67 l
201 -144 l
65 -130 l
136 28 l
35 -23 l
30 -141 l
76 113 l
61 -107 l
17 76 l
17 -73 l
31 -78 l
64 32 l
12 -158 l
31 144 l
29 -127 l
18 92 l
16 -4 l
8 -58 l
23 -7 l
7 -22 l
27 -10 l
25 29 l
6 -62 l
11 49 l
6 -44 l
26 -182 l
14 36 l
14 56 l
5 -32 l
13 30 l
16 56 l
5 7 l
3 31 l
23 -4 l
4 -75 l
3 45 l
11 -66 l
13 -4 l
3 37 l
22 -28 l
3 51 l
6 -32 l
3 -17 l
8 -138 l
6 140 l
8 -78 l
10 -48 l
8 27 l
3 54 l
19 -6 l
6 32 l
5 -29 l
13 44 l
19 -144 l
8 84 l
24 -89 l
4 44 l
28 -145 l
29 194 l
523 1977 M B
3 -9 m 531 1973 L
531 1980 L
526 1985 L
519 1985 L
514 1980 L
514 1973 L
519 1968 L
526 1968 L
CF M
198 -58 m B
3 -9 m 732 1906 L
732 1913 L
727 1918 L
720 1918 L
715 1913 L
715 1906 L
720 1901 L
727 1901 L
CF M
198 -135 m B
4 -8 m 934 1763 L
934 1770 L
929 1775 L
922 1775 L
917 1770 L
917 1763 L
922 1758 L
929 1758 L
CF M
61 -122 m B
3 -9 m 999 1633 L
999 1640 L
994 1645 L
986 1645 L
981 1640 L
981 1633 L
986 1627 L
994 1627 L
CF M
132 37 m B
4 -9 m 1135 1660 L
1135 1668 L
1130 1673 L
1123 1673 L
1118 1668 L
1118 1660 L
1123 1655 L
1130 1655 L
CF M
31 -14 m B
3 -9 m 1169 1637 L
1169 1644 L
1164 1649 L
1157 1649 L
1152 1644 L
1152 1637 L
1157 1632 L
1164 1632 L
CF M
27 -132 m B
4 -9 m 1200 1496 L
1200 1503 L
1195 1508 L
1188 1508 L
1183 1503 L
1183 1496 L
1188 1491 L
1195 1491 L
CF M
72 122 m B
4 -8 m 1276 1610 L
1276 1617 L
1271 1622 L
1264 1622 L
1259 1617 L
1259 1610 L
1264 1605 L
1271 1605 L
CF M
57 -99 m B
3 -9 m 1336 1502 L
1336 1509 L
1331 1514 L
1324 1514 L
1319 1509 L
1319 1502 L
1324 1497 L
1331 1497 L
CF M
14 85 m B
4 -8 m 1354 1579 L
1354 1586 L
1349 1591 L
1342 1591 L
1337 1586 L
1337 1579 L
1342 1574 L
1349 1574 L
CF M
13 -65 m B
4 -9 m 1371 1505 L
1371 1513 L
1366 1518 L
1358 1518 L
1353 1513 L
1353 1505 L
1358 1500 L
1366 1500 L
CF M
27 -69 m B
3 -8 m 1401 1428 L
1401 1435 L
1396 1440 L
1389 1440 L
1384 1435 L
1384 1428 L
1389 1423 L
1396 1423 L
CF M
61 40 m B
4 -9 m 1466 1459 L
1466 1467 L
1461 1472 L
1454 1472 L
1449 1467 L
1449 1459 L
1454 1454 L
1461 1454 L
CF M
8 -149 m B
3 -8 m 1477 1302 L
1477 1309 L
1472 1314 L
1465 1314 L
1460 1309 L
1460 1302 L
1465 1297 L
1472 1297 L
CF M
28 152 m B
4 -9 m 1509 1445 L
1509 1452 L
1504 1458 L
1497 1458 L
1492 1452 L
1492 1445 L
1497 1440 L
1504 1440 L
CF M
25 -118 m B
4 -8 m 1538 1319 L
1538 1326 L
1533 1331 L
1525 1331 L
1520 1326 L
1520 1319 L
1525 1314 L
1533 1314 L
CF M
14 100 m B
3 -9 m 1555 1410 L
1555 1417 L
1550 1422 L
1543 1422 L
1538 1417 L
1538 1410 L
1543 1405 L
1550 1405 L
CF M
13 5 m B
4 -8 m 1572 1407 L
1572 1414 L
1567 1419 L
1560 1419 L
1555 1414 L
1555 1407 L
1560 1402 L
1567 1402 L
CF M
4 -50 m B
4 -9 m 1580 1348 L
1580 1356 L
1575 1361 L
1568 1361 L
1563 1356 L
1563 1348 L
1568 1343 L
1575 1343 L
CF M
19 2 m B
3 -9 m 1602 1341 L
1602 1348 L
1597 1353 L
1590 1353 L
1585 1348 L
1585 1341 L
1590 1336 L
1597 1336 L
CF M
4 -13 m B
3 -9 m 1610 1319 L
1610 1326 L
1605 1331 L
1597 1331 L
1592 1326 L
1592 1319 L
1597 1314 L
1605 1314 L
CF M
23 -1 m B
3 -8 m 1637 1310 L
1637 1317 L
1632 1322 L
1624 1322 L
1619 1317 L
1619 1310 L
1624 1305 L
1632 1305 L
CF M
21 37 m B
3 -8 m 1661 1339 L
1661 1346 L
1656 1351 L
1649 1351 L
1644 1346 L
1644 1339 L
1649 1334 L
1656 1334 L
CF M
3 -54 m B
3 -8 m 1667 1277 L
1667 1284 L
1662 1289 L
1655 1289 L
1650 1284 L
1650 1277 L
1655 1272 L
1662 1272 L
CF M
8 57 m B
3 -9 m 1679 1325 L
1679 1333 L
1674 1338 L
1666 1338 L
1661 1333 L
1661 1325 L
1666 1320 L
1674 1320 L
CF M
2 -35 m B
3 -9 m 1684 1281 L
1684 1288 L
1679 1293 L
1672 1293 L
1667 1288 L
1667 1281 L
1672 1276 L
1679 1276 L
CF M
23 -173 m B
3 -9 m 1710 1099 L
1710 1106 L
1705 1111 L
1698 1111 L
1693 1106 L
1693 1099 L
1698 1094 L
1705 1094 L
CF M
11 45 m B
4 -9 m 1725 1135 L
1725 1142 L
1720 1147 L
1713 1147 L
1708 1142 L
1708 1135 L
1713 1130 L
1720 1130 L
CF M
10 65 m B
4 -9 m 1739 1192 L
1739 1199 L
1734 1204 L
1727 1204 L
1722 1199 L
1722 1192 L
1727 1187 L
1734 1187 L
CF M
1 -24 m B
3 -9 m 1743 1159 L
1743 1166 L
1738 1171 L
1731 1171 L
1726 1166 L
1726 1159 L
1731 1154 L
1738 1154 L
CF M
10 39 m B
3 -9 m 1756 1189 L
1756 1196 L
1751 1201 L
1744 1201 L
1739 1196 L
1739 1189 L
1744 1184 L
1751 1184 L
CF M
13 65 m B
4 -9 m 1773 1245 L
1773 1252 L
1768 1258 L
1761 1258 L
1756 1252 L
1756 1245 L
1761 1240 L
1768 1240 L
CF M
1 16 m B
3 -9 m 1777 1252 L
1777 1260 L
1772 1265 L
1765 1265 L
1760 1260 L
1760 1252 L
1765 1247 L
1772 1247 L
CF M
0 40 m B
4 -8 m 1781 1284 L
1781 1291 L
1776 1296 L
1769 1296 L
1764 1291 L
1764 1284 L
1769 1279 L
1776 1279 L
CF M
19 4 m B
4 -8 m 1804 1280 L
1804 1287 L
1799 1292 L
1791 1292 L
1786 1287 L
1786 1280 L
1791 1275 L
1799 1275 L
CF M
0 -67 m B
3 -8 m 1807 1205 L
1807 1212 L
1802 1217 L
1795 1217 L
1790 1212 L
1790 1205 L
1795 1200 L
1802 1200 L
CF M
0 53 m B
4 -8 m 1811 1250 L
1811 1257 L
1806 1262 L
1799 1262 L
1794 1257 L
1794 1250 L
1799 1245 L
1806 1245 L
CF M
7 -58 m B
3 -9 m 1821 1183 L
1821 1191 L
1816 1196 L
1809 1196 L
1804 1191 L
1804 1183 L
1809 1178 L
1816 1178 L
CF M
10 5 m B
4 -8 m 1835 1180 L
1835 1187 L
1830 1192 L
1822 1192 L
1817 1187 L
1817 1180 L
1822 1175 L
1830 1175 L
CF M
-1 45 m B
4 -8 m 1838 1217 L
1838 1224 L
1833 1229 L
1826 1229 L
1821 1224 L
1821 1217 L
1826 1212 L
1833 1212 L
CF M
18 -20 m B
3 -9 m 1860 1189 L
1860 1196 L
1855 1201 L
1847 1201 L
1842 1196 L
1842 1189 L
1847 1183 L
1855 1183 L
CF M
-1 60 m B
3 -8 m 1863 1240 L
1863 1247 L
1858 1252 L
1850 1252 L
1845 1247 L
1845 1240 L
1850 1235 L
1858 1235 L
CF M
2 -24 m B
3 -9 m 1869 1207 L
1869 1214 L
1863 1219 L
1856 1219 L
1851 1214 L
1851 1207 L
1856 1202 L
1863 1202 L
CF M
0 -8 m B
3 -8 m 1871 1191 L
1871 1198 L
1866 1203 L
1859 1203 L
1854 1198 L
1854 1191 L
1859 1186 L
1866 1186 L
CF M
5 -130 m B
4 -9 m 1880 1052 L
1880 1059 L
1875 1064 L
1868 1064 L
1863 1059 L
1863 1052 L
1868 1047 L
1875 1047 L
CF M
2 149 m B
4 -9 m 1886 1192 L
1886 1200 L
1881 1205 L
1873 1205 L
1868 1200 L
1868 1192 L
1873 1187 L
1881 1187 L
CF M
4 -69 m B
3 -9 m 1893 1115 L
1893 1122 L
1888 1127 L
1881 1127 L
1876 1122 L
1876 1115 L
1881 1109 L
1888 1109 L
CF M
7 -39 m B
4 -9 m 1904 1066 L
1904 1073 L
1899 1079 L
1892 1079 L
1887 1073 L
1887 1066 L
1892 1061 L
1899 1061 L
CF M
4 36 m B
3 -8 m 1912 1094 L
1912 1101 L
1906 1106 L
1899 1106 L
1894 1101 L
1894 1094 L
1899 1089 L
1906 1089 L
CF M
0 62 m B
3 -8 m 1914 1148 L
1914 1155 L
1909 1160 L
1902 1160 L
1897 1155 L
1897 1148 L
1902 1143 L
1909 1143 L
CF M
16 2 m B
3 -9 m 1933 1141 L
1933 1149 L
1928 1154 L
1921 1154 L
1916 1149 L
1916 1141 L
1921 1136 L
1928 1136 L
CF M
3 41 m B
4 -9 m 1940 1174 L
1940 1181 L
1935 1186 L
1928 1186 L
1923 1181 L
1923 1174 L
1928 1169 L
1935 1169 L
CF M
1 -21 m B
3 -8 m 1945 1145 L
1945 1152 L
1940 1157 L
1932 1157 L
1927 1152 L
1927 1145 L
1932 1140 L
1940 1140 L
CF M
9 52 m B
4 -9 m 1958 1189 L
1958 1196 L
1953 1201 L
1945 1201 L
1940 1196 L
1940 1189 L
1945 1183 L
1953 1183 L
CF M
15 -135 m B
3 -9 m 1976 1045 L
1976 1052 L
1971 1057 L
1964 1057 L
1959 1052 L
1959 1045 L
1964 1040 L
1971 1040 L
CF M
5 92 m B
3 -9 m 1984 1128 L
1984 1135 L
1979 1140 L
1972 1140 L
1967 1135 L
1967 1128 L
1972 1123 L
1979 1123 L
CF M
21 -80 m B
4 -9 m 2009 1040 L
2009 1047 L
2004 1052 L
1996 1052 L
1991 1047 L
1991 1040 L
1996 1035 L
2004 1035 L
CF M
0 52 m B
3 -9 m 2012 1083 L
2012 1090 L
2007 1095 L
2000 1095 L
1995 1090 L
1995 1083 L
2000 1078 L
2007 1078 L
CF M
25 -136 m B
3 -9 m 2041 938 L
2041 945 L
2036 951 L
2028 951 L
2023 945 L
2023 938 L
2028 933 L
2036 933 L
CF M
25 203 m B
4 -9 m 2070 1132 L
2070 1139 L
2065 1144 L
2057 1144 L
2052 1139 L
2052 1132 L
2057 1127 L
2065 1127 L
CF M
 0 0 255 C
623 1943 M 391 -254 l
192 -104 l
151 -78 l
143 -116 l
91 -42 l
88 -103 l
80 -14 l
66 -19 l
58 -76 l
52 29 l
52 -89 l
45 -135 l
29 194 l
623 1943 M B
4 -8 m 632 1940 L
632 1947 L
627 1952 L
620 1952 L
615 1947 L
615 1940 L
620 1935 L
627 1935 L
CF M
387 -246 m B
3 -9 m 1023 1685 L
1023 1692 L
1017 1697 L
1010 1697 L
1005 1692 L
1005 1685 L
1010 1680 L
1017 1680 L
CF M
189 -95 m B
4 -9 m 1215 1581 L
1215 1588 L
1210 1593 L
1203 1593 L
1198 1588 L
1198 1581 L
1203 1576 L
1210 1576 L
CF M
147 -69 m B
3 -9 m 1366 1504 L
1366 1511 L
1360 1516 L
1353 1516 L
1348 1511 L
1348 1504 L
1353 1498 L
1360 1498 L
CF M
140 -107 m B
4 -9 m 1509 1387 L
1509 1394 L
1504 1399 L
1497 1399 L
1492 1394 L
1492 1387 L
1497 1382 L
1504 1382 L
CF M
87 -33 m B
4 -9 m 1600 1345 L
1600 1352 L
1595 1357 L
1588 1357 L
1583 1352 L
1583 1345 L
1588 1340 L
1595 1340 L
CF M
84 -94 m B
4 -8 m 1688 1243 L
1688 1250 L
1683 1255 L
1676 1255 L
1671 1250 L
1671 1243 L
1676 1238 L
1683 1238 L
CF M
76 -6 m B
4 -8 m 1768 1229 L
1768 1236 L
1763 1241 L
1755 1241 L
1750 1236 L
1750 1229 L
1755 1224 L
1763 1224 L
CF M
62 -11 m B
3 -9 m 1834 1209 L
1834 1216 L
1828 1221 L
1821 1221 L
1816 1216 L
1816 1209 L
1821 1204 L
1828 1204 L
CF M
55 -67 m B
3 -9 m 1891 1133 L
1891 1140 L
1886 1145 L
1879 1145 L
1874 1140 L
1874 1133 L
1879 1128 L
1886 1128 L
CF M
49 38 m B
4 -9 m 1944 1162 L
1944 1169 L
1939 1174 L
1932 1174 L
1927 1169 L
1927 1162 L
1932 1157 L
1939 1157 L
CF M
48 -80 m B
3 -8 m 1995 1074 L
1995 1081 L
1990 1086 L
1983 1086 L
1978 1081 L
1978 1074 L
1983 1069 L
1990 1069 L
CF M
42 -127 m B
3 -9 m 2041 938 L
2041 945 L
2036 951 L
2028 951 L
2023 945 L
2023 938 L
2028 933 L
2036 933 L
CF M
25 203 m B
4 -9 m 2070 1132 L
2070 1139 L
2065 1144 L
2057 1144 L
2052 1139 L
2052 1132 L
2057 1127 L
2065 1127 L
CF M
 0 255 0 C
523 2031 M 402 -316 l
236 -129 l
167 24 l
129 -199 l
106 -24 l
90 -92 l
77 -129 l
69 114 l
61 -121 l
55 -128 l
51 -147 l
46 -160 l
43 -264 l
523 2031 M B
3 -8 m 531 2028 L
531 2035 L
526 2040 L
519 2040 L
514 2035 L
514 2028 L
519 2023 L
526 2023 L
CF M
399 -308 m B
4 -9 m 934 1711 L
934 1719 L
929 1724 L
922 1724 L
917 1719 L
917 1711 L
922 1706 L
929 1706 L
CF M
232 -120 m B
3 -8 m 1169 1583 L
1169 1590 L
1164 1595 L
1157 1595 L
1152 1590 L
1152 1583 L
1157 1578 L
1164 1578 L
CF M
164 32 m B
3 -9 m 1336 1606 L
1336 1613 L
1331 1618 L
1324 1618 L
1319 1613 L
1319 1606 L
1324 1601 L
1331 1601 L
CF M
126 -190 m B
4 -8 m 1466 1408 L
1466 1415 L
1461 1420 L
1454 1420 L
1449 1415 L
1449 1408 L
1454 1403 L
1461 1403 L
CF M
102 -16 m B
4 -9 m 1572 1383 L
1572 1390 L
1567 1395 L
1560 1395 L
1555 1390 L
1555 1383 L
1560 1378 L
1567 1378 L
CF M
86 -83 m B
3 -8 m 1661 1292 L
1661 1299 L
1656 1304 L
1649 1304 L
1644 1299 L
1644 1292 L
1649 1287 L
1656 1287 L
CF M
74 -121 m B
4 -9 m 1739 1163 L
1739 1170 L
1734 1175 L
1727 1175 L
1722 1170 L
1722 1163 L
1727 1157 L
1734 1157 L
CF M
65 123 m B
3 -8 m 1807 1277 L
1807 1284 L
1802 1289 L
1795 1289 L
1790 1284 L
1790 1277 L
1795 1272 L
1802 1272 L
CF M
58 -113 m B
3 -8 m 1869 1156 L
1869 1163 L
1863 1168 L
1856 1168 L
1851 1163 L
1851 1156 L
1856 1151 L
1863 1151 L
CF M
52 -120 m B
4 -8 m 1924 1028 L
1924 1035 L
1919 1040 L
1912 1040 L
1907 1035 L
1907 1028 L
1912 1023 L
1919 1023 L
CF M
47 -139 m B
3 -9 m 1974 880 L
1974 888 L
1969 893 L
1962 893 L
1957 888 L
1957 880 L
1962 875 L
1969 875 L
CF M
43 -151 m B
4 -9 m 2021 720 L
2021 727 L
2016 733 L
2009 733 L
2004 727 L
2004 720 L
2009 715 L
2016 715 L
CF M
39 -255 m B
4 -8 m 2064 457 L
2064 464 L
2059 469 L
2052 469 L
2047 464 L
2047 457 L
2052 452 L
2059 452 L
CF M
 255 0 255 C
523 1930 M 402 -238 l
236 -95 l
167 -53 l
129 -123 l
106 -58 l
90 -58 l
77 -138 l
69 67 l
61 -57 l
55 -47 l
51 3 l
46 -103 l
43 103 l
523 1930 M B
3 -8 m 531 1927 L
531 1934 L
526 1939 L
519 1939 L
514 1934 L
514 1927 L
519 1922 L
526 1922 L
CF M
399 -230 m B
4 -9 m 934 1688 L
934 1695 L
929 1700 L
922 1700 L
917 1695 L
917 1688 L
922 1683 L
929 1683 L
CF M
232 -86 m B
3 -9 m 1169 1593 L
1169 1600 L
1164 1605 L
1157 1605 L
1152 1600 L
1152 1593 L
1157 1588 L
1164 1588 L
CF M
164 -44 m B
3 -9 m 1336 1540 L
1336 1547 L
1331 1552 L
1324 1552 L
1319 1547 L
1319 1540 L
1324 1535 L
1331 1535 L
CF M
126 -114 m B
4 -8 m 1466 1418 L
1466 1425 L
1461 1430 L
1454 1430 L
1449 1425 L
1449 1418 L
1454 1413 L
1461 1413 L
CF M
102 -50 m B
4 -8 m 1572 1360 L
1572 1367 L
1567 1372 L
1560 1372 L
1555 1367 L
1555 1360 L
1560 1355 L
1567 1355 L
CF M
86 -50 m B
3 -8 m 1661 1302 L
1661 1309 L
1656 1314 L
1649 1314 L
1644 1309 L
1644 1302 L
1649 1297 L
1656 1297 L
CF M
74 -130 m B
4 -8 m 1739 1164 L
1739 1171 L
1734 1176 L
1727 1176 L
1722 1171 L
1722 1164 L
1727 1159 L
1734 1159 L
CF M
65 75 m B
3 -9 m 1807 1230 L
1807 1237 L
1802 1242 L
1795 1242 L
1790 1237 L
1790 1230 L
1795 1225 L
1802 1225 L
CF M
58 -48 m B
3 -9 m 1869 1173 L
1869 1180 L
1863 1186 L
1856 1186 L
1851 1180 L
1851 1173 L
1856 1168 L
1863 1168 L
CF M
52 -38 m B
4 -9 m 1924 1126 L
1924 1133 L
1919 1138 L
1912 1138 L
1907 1133 L
1907 1126 L
1912 1121 L
1919 1121 L
CF M
47 12 m B
3 -8 m 1974 1130 L
1974 1137 L
1969 1142 L
1962 1142 L
1957 1137 L
1957 1130 L
1962 1125 L
1969 1125 L
CF M
43 -95 m B
4 -8 m 2021 1027 L
2021 1034 L
2016 1039 L
2009 1039 L
2004 1034 L
2004 1027 L
2009 1022 L
2016 1022 L
CF M
39 111 m B
4 -8 m 2064 1130 L
2064 1137 L
2059 1142 L
2052 1142 L
2047 1137 L
2047 1130 L
2052 1125 L
2059 1125 L
CF M
CS [6 12] 0 setdash M
 0 0 0 C
255 2176 M 14 -8 l
13 -9 l
13 -8 l
14 -8 l
13 -9 l
13 -8 l
14 -8 l
13 -9 l
14 -8 l
13 -9 l
13 -8 l
14 -8 l
13 -9 l
13 -8 l
14 -8 l
13 -9 l
14 -8 l
13 -8 l
13 -9 l
14 -8 l
13 -8 l
13 -9 l
14 -8 l
13 -9 l
14 -8 l
13 -8 l
13 -9 l
14 -8 l
13 -8 l
13 -9 l
14 -8 l
13 -8 l
13 -9 l
14 -8 l
13 -8 l
14 -9 l
13 -8 l
13 -9 l
14 -8 l
13 -8 l
13 -9 l
14 -8 l
13 -8 l
14 -9 l
13 -8 l
13 -8 l
14 -9 l
13 -8 l
13 -9 l
14 -8 l
13 -8 l
14 -9 l
13 -8 l
13 -8 l
14 -9 l
13 -8 l
13 -8 l
14 -9 l
13 -8 l
14 -8 l
13 -9 l
13 -8 l
14 -9 l
13 -8 l
13 -8 l
14 -9 l
13 -8 l
14 -8 l
13 -9 l
13 -8 l
14 -8 l
13 -9 l
13 -8 l
14 -8 l
13 -9 l
14 -8 l
13 -9 l
13 -8 l
14 -8 l
13 -9 l
13 -8 l
14 -8 l
13 -9 l
13 -8 l
14 -8 l
13 -9 l
14 -8 l
13 -8 l
13 -9 l
14 -8 l
13 -9 l
13 -8 l
14 -8 l
13 -9 l
14 -8 l
13 -8 l
13 -9 l
14 -8 l
13 -8 l
13 -9 l
14 -8 l
13 -8 l
14 -9 l
13 -8 l
13 -9 l
14 -8 l
13 -8 l
13 -9 l
14 -8 l
13 -8 l
13 -9 l
14 -8 l
13 -8 l
14 -9 l
13 -8 l
13 -8 l
14 -9 l
13 -8 l
13 -8 l
14 -9 l
13 -8 l
14 -9 l
13 -8 l
13 -8 l
14 -9 l
13 -8 l
13 -8 l
14 -9 l
13 -8 l
14 -8 l
13 -9 l
13 -8 l
14 -9 l
13 -8 l
13 -8 l
14 -9 l
13 -8 l
14 -8 l
13 -9 l
13 -8 l
14 -8 l
13 -9 l
13 -8 l
14 -8 l
13 -9 l
14 -8 l
13 -9 l
13 -8 l
14 -8 l
13 -9 l
0 0 l
CS [6 12] 0 setdash M
322 1258 M 201 0 l
67 -25 m CS [] 0 setdash M
640 1243 M -5 0 l
-5 2 l
-4 5 l
-8 10 l
-2 2 l
-5 2 l
-5 0 l
-4 -2 l
-3 -5 l
0 -5 l
3 -4 l
4 -3 l
5 0 l
5 3 l
2 2 l
8 10 l
4 4 l
5 3 l
5 0 l
22 17 m 0 -51 l
2 51 m 0 -51 l
24 34 m -24 -24 l
12 9 m 15 -19 l
-17 19 m 14 -19 l
-33 51 m 9 0 l
17 -17 m 14 0 l
-40 -34 m 16 0 l
10 0 m 14 0 l
10 -23 m 26 0 l
-13 0 m 0 27 l
-12 32 m 26 0 l
13 17 m -3 -14 l
3 3 l
4 1 l
5 0 l
4 -1 l
3 -3 l
1 -4 l
0 -3 l
-1 -5 l
-3 -2 l
-4 -2 l
-5 0 l
-4 2 l
-1 1 l
-2 3 l
0 1 l
2 2 l
1 -2 l
-1 -1 l
10 14 m 3 -1 l
2 -3 l
2 -4 l
0 -3 l
-2 -5 l
-2 -2 l
-3 -2 l
-9 30 m 14 0 l
-14 -1 m 7 0 l
7 1 l
37 6 m -27 -46 l
35 35 m 2 -2 l
-2 -1 l
-1 1 l
0 2 l
1 3 l
2 1 l
4 1 l
6 0 l
4 -1 l
1 -3 l
0 -4 l
-1 -3 l
-4 -2 l
-5 0 l
5 13 m 3 -1 l
1 -3 l
0 -4 l
-1 -3 l
-3 -2 l
3 -1 l
2 -3 l
2 -3 l
0 -4 l
-2 -3 l
-1 -1 l
-4 -2 l
-6 0 l
-4 2 l
-2 1 l
-1 3 l
0 1 l
1 2 l
2 -2 l
-2 -1 l
16 9 m 1 -5 l
0 -4 l
-1 -3 l
-1 -1 l
-3 -2 l
11 -23 m CS [6 12] 0 setdash M
CS [] 0 setdash M
 255 0 0 C
322 1158 M 201 0 l
67 -25 m CS [] 0 setdash M
602 1183 M 0 -50 l
2 50 m 0 -50 l
-10 50 m 29 0 l
7 -2 l
3 -2 l
2 -5 l
0 -5 l
-2 -5 l
-3 -2 l
-7 -3 l
-19 0 l
19 24 m 5 -2 l
2 -2 l
3 -5 l
0 -5 l
-3 -5 l
-2 -2 l
-5 -3 l
-29 -26 m 17 0 l
5 26 m 5 -2 l
2 -3 l
7 -16 l
3 -3 l
2 0 l
3 3 l
-17 19 m 2 -5 l
5 -17 l
2 -2 l
5 0 l
3 5 l
0 2 l
17 22 m 0 -3 l
-3 0 l
0 3 l
3 2 l
4 2 l
10 0 l
5 -2 l
2 -2 l
3 -5 l
0 -17 l
2 -5 l
2 -2 l
-7 29 m 0 -22 l
3 -5 l
4 -2 l
3 0 l
CS M
-10 24 m -2 -3 l
-15 -2 l
-7 -2 l
-2 -5 l
0 -5 l
2 -5 l
7 -2 l
8 0 l
4 2 l
5 5 l
-17 12 m -4 -2 l
-3 -5 l
0 -5 l
3 -5 l
4 -2 l
41 33 m 10 -33 l
-7 33 m 7 -26 l
10 26 m -10 -33 l
10 33 m 9 -33 l
-7 33 m 7 -26 l
10 26 m -10 -33 l
-36 33 m 17 0 l
22 0 m 14 0 l
2 -33 m CS [] 0 setdash M
 0 0 255 C
322 1058 M 201 0 l
67 -26 m CS [] 0 setdash M
614 1083 M -17 -51 l
17 51 m 16 -51 l
-16 44 m 14 -44 l
-26 15 m 21 0 l
-31 -15 m 14 0 l
15 0 m 14 0 l
10 34 m 14 -34 l
-12 34 m 12 -29 l
15 29 m -15 -34 l
-19 34 m 15 0 l
9 0 m 15 0 l
12 -14 m 29 0 l
0 5 l
-3 4 l
-2 3 l
-5 2 l
-7 0 l
-8 -2 l
-4 -5 l
-3 -7 l
0 -5 l
3 -7 l
4 -5 l
8 -3 l
4 0 l
8 3 l
5 5 l
-3 12 m 0 7 l
-2 5 l
-12 2 m -5 -2 l
-5 -5 l
-2 -7 l
0 -5 l
2 -7 l
5 -5 l
5 -3 l
36 34 m 0 -34 l
2 34 m 0 -34 l
0 20 m 3 7 l
4 5 l
5 2 l
7 0 l
3 -2 l
0 -3 l
-3 -2 l
-2 2 l
2 3 l
-28 2 m 9 0 l
-9 -34 m 16 0 l
32 29 m 0 -2 l
-3 0 l
0 2 l
3 3 l
5 2 l
9 0 l
5 -2 l
2 -3 l
3 -4 l
0 -17 l
2 -5 l
3 -3 l
-8 29 m 0 -21 l
3 -5 l
5 -3 l
2 0 l
-10 25 m -2 -3 l
-14 -2 l
-8 -3 l
-2 -4 l
0 -5 l
2 -5 l
8 -3 l
7 0 l
5 3 l
4 5 l
-16 12 m -5 -3 l
-3 -4 l
0 -5 l
3 -5 l
5 -3 l
50 34 m -5 -2 l
-2 -3 l
-3 -4 l
0 -5 l
3 -5 l
2 -2 l
5 -3 l
5 0 l
5 3 l
2 2 l
2 5 l
0 5 l
-2 4 l
-2 3 l
-5 2 l
-5 0 l
-5 -2 m -2 -5 l
0 -10 l
2 -4 l
15 0 m 2 4 l
0 10 l
-2 5 l
2 -3 m 2 3 l
5 2 l
0 -2 l
-5 0 l
-21 -17 m -3 -2 l
-2 -5 l
0 -3 l
2 -5 l
8 -2 l
12 0 l
7 -2 l
2 -3 l
-31 12 m 2 -2 l
8 -3 l
12 0 l
7 -2 l
2 -5 l
0 -2 l
-2 -5 l
-7 -2 l
-15 0 l
-7 2 l
-2 5 l
0 2 l
2 5 l
7 2 l
41 20 m 29 0 l
0 5 l
-2 4 l
-3 3 l
-5 2 l
-7 0 l
-7 -2 l
-5 -5 l
-2 -7 l
0 -5 l
2 -7 l
5 -5 l
7 -3 l
5 0 l
7 3 l
5 5 l
-2 12 m 0 7 l
-3 5 l
-12 2 m -5 -2 l
-4 -5 l
-3 -7 l
0 -5 l
3 -7 l
4 -5 l
5 -3 l
60 51 m 0 -51 l
3 51 m 0 -51 l
-3 27 m -4 5 l
-5 2 l
-5 0 l
-7 -2 l
-5 -5 l
-3 -7 l
0 -5 l
3 -7 l
5 -5 l
7 -3 l
5 0 l
5 3 l
4 5 l
-14 26 m -5 -2 l
-5 -5 l
-2 -7 l
0 -5 l
2 -7 l
5 -5 l
5 -3 l
7 51 m 10 0 l
-3 -51 m 10 0 l
5 0 m CS [] 0 setdash M
 0 255 0 C
322 957 M 201 0 l
67 -25 m CS [] 0 setdash M
602 983 M 0 -51 l
2 51 m 0 -51 l
-10 51 m 29 0 l
7 -3 l
3 -2 l
2 -5 l
0 -5 l
-2 -5 l
-3 -2 l
-7 -2 l
0 24 m 5 -3 l
2 -2 l
3 -5 l
0 -5 l
-3 -5 l
-2 -2 l
-5 -2 l
-19 0 m 19 0 l
7 -3 l
3 -2 l
2 -5 l
0 -7 l
-2 -5 l
-3 -2 l
-7 -3 l
-29 0 l
29 27 m 5 -3 l
2 -2 l
3 -5 l
0 -7 l
-3 -5 l
-2 -2 l
-5 -3 l
32 51 m -3 -3 l
3 -2 l
2 2 l
-2 3 l
0 -17 m 0 -34 l
2 34 m 0 -34 l
-10 34 m 10 0 l
-10 -34 m 17 0 l
17 34 m 0 -34 l
2 34 m 0 -34 l
0 27 m 5 4 l
7 3 l
5 0 l
7 -3 l
3 -4 l
0 -27 l
-10 34 m 5 -3 l
2 -4 l
0 -27 l
-33 34 m 9 0 l
-9 -34 m 17 0 l
9 0 m 17 0 l
17 34 m 0 -34 l
2 34 m 0 -34 l
0 27 m 5 4 l
7 3 l
5 0 l
7 -3 l
3 -4 l
0 -27 l
-10 34 m 5 -3 l
2 -4 l
0 -27 l
-33 34 m 9 0 l
-9 -34 m 17 0 l
9 0 m 17 0 l
15 19 m 28 0 l
0 5 l
-2 5 l
-2 2 l
-5 3 l
-7 0 l
-8 -3 l
-4 -4 l
-3 -8 l
0 -4 l
3 -8 l
4 -4 l
8 -3 l
4 0 l
8 3 l
4 4 l
-2 12 m 0 8 l
-2 4 l
-12 3 m -5 -3 l
-5 -4 l
-2 -8 l
0 -4 l
2 -8 l
5 -4 l
5 -3 l
60 51 m 0 -51 l
2 51 m 0 -51 l
-2 27 m -5 4 l
-5 3 l
CS M
-5 0 l
-7 -3 l
-5 -4 l
-2 -8 l
0 -4 l
2 -8 l
5 -4 l
7 -3 l
5 0 l
5 3 l
5 4 l
-15 27 m -5 -3 l
-4 -4 l
-3 -8 l
0 -4 l
3 -8 l
4 -4 l
5 -3 l
7 51 m 10 0 l
-2 -51 m 9 0 l
5 0 m CS [] 0 setdash M
 255 0 255 C
322 857 M 201 0 l
67 -25 m CS [] 0 setdash M
630 875 M 3 -7 l
0 14 l
-3 -7 l
-4 5 l
-8 2 l
-4 0 l
-8 -2 l
-4 -5 l
-3 -5 l
-2 -7 l
0 -12 l
2 -7 l
3 -5 l
4 -5 l
8 -2 l
4 0 l
8 2 l
4 5 l
3 5 l
-19 38 m -5 -2 l
-5 -5 l
-2 -5 l
-3 -7 l
0 -12 l
3 -7 l
2 -5 l
5 -5 l
5 -2 l
48 34 m -7 -3 l
-5 -5 l
-3 -7 l
0 -5 l
3 -7 l
5 -5 l
7 -2 l
5 0 l
7 2 l
5 5 l
2 7 l
0 5 l
-2 7 l
-5 5 l
-7 3 l
-5 0 l
-5 -3 l
-5 -5 l
-2 -7 l
0 -5 l
2 -7 l
5 -5 l
5 -2 l
5 0 m 4 2 l
5 5 l
3 7 l
0 5 l
-3 7 l
-5 5 l
-4 3 l
33 0 m 0 -34 l
3 34 m 0 -34 l
0 19 m 2 7 l
5 5 l
5 3 l
7 0 l
2 -3 l
0 -2 l
-2 -3 l
-2 3 l
2 2 l
-29 3 m 10 0 l
-10 -34 m 17 0 l
31 34 m 0 -34 l
3 34 m 0 -34 l
0 19 m 2 7 l
5 5 l
5 3 l
7 0 l
2 -3 l
0 -2 l
-2 -3 l
-3 3 l
3 2 l
-29 3 m 10 0 l
-10 -34 m 17 0 l
29 19 m 29 0 l
0 5 l
-3 5 l
-2 2 l
-5 3 l
-7 0 l
-7 -3 l
-5 -5 l
-3 -7 l
0 -5 l
3 -7 l
5 -5 l
7 -2 l
5 0 l
7 2 l
5 5 l
-3 12 m 0 7 l
-2 5 l
-12 3 m -5 -3 l
-5 -5 l
-2 -7 l
0 -5 l
2 -7 l
5 -5 l
5 -2 l
60 26 m -3 -2 l
3 -2 l
2 2 l
0 2 l
-5 5 l
-4 3 l
-8 0 l
-7 -3 l
-5 -5 l
-2 -7 l
0 -5 l
2 -7 l
5 -5 l
7 -2 l
5 0 l
7 2 l
5 5 l
-17 27 m -4 -3 l
-5 -5 l
-3 -7 l
0 -5 l
3 -7 l
5 -5 l
4 -2 l
37 50 m 0 -40 l
2 -8 l
5 -2 l
5 0 l
4 2 l
3 5 l
-17 43 m 0 -40 l
2 -8 l
3 -2 l
-15 34 m 20 0 l
21 -15 m 29 0 l
0 5 l
-2 5 l
-3 2 l
-4 3 l
-8 0 l
-7 -3 l
-5 -5 l
-2 -7 l
0 -5 l
2 -7 l
5 -5 l
7 -2 l
5 0 l
7 2 l
5 5 l
-2 12 m 0 7 l
-3 5 l
-12 3 m -5 -3 l
-4 -5 l
-3 -7 l
0 -5 l
3 -7 l
4 -5 l
5 -2 l
60 50 m 0 -50 l
3 50 m 0 -50 l
-3 26 m -4 5 l
-5 3 l
-5 0 l
-7 -3 l
-5 -5 l
-2 -7 l
0 -5 l
2 -7 l
5 -5 l
7 -2 l
5 0 l
5 2 l
4 5 l
-14 27 m -5 -3 l
-5 -5 l
-2 -7 l
0 -5 l
2 -7 l
5 -5 l
5 -2 l
7 50 m 10 0 l
-3 -50 m 10 0 l
55 50 m 0 -50 l
3 50 m 0 -50 l
-10 50 m 29 0 l
7 -2 l
3 -2 l
2 -5 l
0 -5 l
-2 -5 l
-3 -2 l
-7 -3 l
0 24 m 5 -2 l
2 -2 l
3 -5 l
0 -5 l
-3 -5 l
-2 -2 l
-5 -3 l
-19 0 m 19 0 l
7 -2 l
3 -2 l
2 -5 l
0 -7 l
-2 -5 l
-3 -3 l
-7 -2 l
-29 0 l
29 26 m 5 -2 l
2 -2 l
3 -5 l
0 -7 l
-3 -5 l
-2 -3 l
-5 -2 l
31 50 m -2 -2 l
2 -2 l
3 2 l
-3 2 l
0 -16 m 0 -34 l
3 34 m 0 -34 l
-10 34 m 10 0 l
-10 -34 m 17 0 l
17 34 m 0 -34 l
2 34 m 0 -34 l
0 26 m 5 5 l
7 3 l
5 0 l
7 -3 l
3 -5 l
0 -26 l
-10 34 m 5 -3 l
2 -5 l
0 -26 l
-33 34 m 9 0 l
-9 -34 m 17 0 l
9 0 m 17 0 l
17 34 m 0 -34 l
2 34 m 0 -34 l
0 26 m 5 5 l
7 3 l
5 0 l
7 -3 l
3 -5 l
0 -26 l
-10 34 m 5 -3 l
2 -5 l
0 -26 l
-33 34 m 9 0 l
-9 -34 m 16 0 l
10 0 m 17 0 l
14 19 m 29 0 l
0 5 l
-2 5 l
-3 2 l
-4 3 l
-8 0 l
-7 -3 l
-5 -5 l
-2 -7 l
0 -5 l
2 -7 l
5 -5 l
7 -2 l
5 0 l
7 2 l
5 5 l
-2 12 m 0 7 l
-3 5 l
CS M
-12 3 m -4 -3 l
-5 -5 l
-3 -7 l
0 -5 l
3 -7 l
5 -5 l
4 -2 l
61 50 m 0 -50 l
2 50 m 0 -50 l
-2 26 m -5 5 l
-5 3 l
-5 0 l
-7 -3 l
-5 -5 l
-2 -7 l
0 -5 l
2 -7 l
5 -5 l
7 -2 l
5 0 l
5 2 l
5 5 l
-15 27 m -5 -3 l
-4 -5 l
-3 -7 l
0 -5 l
3 -7 l
4 -5 l
5 -2 l
7 50 m 10 0 l
-2 -50 m 9 0 l
5 0 m CS [] 0 setdash M
 0 0 0 C
590 707 M CS [] 0 setdash M
614 755 M -3 -3 l
3 -2 l
2 2 l
0 3 l
-2 2 l
-5 0 l
-5 -2 l
-2 -5 l
0 -43 l
7 50 m -3 -2 l
-2 -5 l
0 -43 l
-10 33 m 20 0 l
-20 -33 m 17 0 l
17 -3 m 0 -21 l
1 21 m 0 -21 l
0 16 m 3 3 l
5 2 l
3 0 l
4 -2 l
1 -3 l
0 -16 l
-5 21 m 3 -2 l
1 -3 l
0 -16 l
-20 21 m 5 0 l
-5 -21 m 10 0 l
6 0 m 10 0 l
16 21 m -5 -2 l
-3 -3 l
-1 -4 l
0 -3 l
1 -4 l
3 -3 l
5 -2 l
2 0 l
5 2 l
3 3 l
1 4 l
0 3 l
-1 4 l
-3 3 l
-5 2 l
-2 0 l
-3 -2 l
-3 -3 l
-2 -4 l
0 -3 l
2 -4 l
3 -3 l
3 -2 l
2 0 m 3 2 l
3 3 l
2 4 l
0 3 l
-2 4 l
-3 3 l
-3 2 l
21 10 m -2 -2 l
2 -1 l
1 1 l
-1 2 l
0 -10 m 0 -21 l
1 21 m 0 -21 l
-6 21 m 6 0 l
-6 -21 m 10 0 l
22 18 m 1 3 l
0 -6 l
-1 3 l
-1 1 l
-3 2 l
-6 0 l
-3 -2 l
-1 -1 l
0 -3 l
1 -2 l
3 -1 l
7 -3 l
3 -1 l
1 -2 l
-15 10 m 1 -1 l
3 -2 l
7 -3 l
3 -1 l
1 -1 l
0 -5 l
-1 -1 l
-3 -2 l
-6 0 l
-3 2 l
-1 1 l
-1 3 l
0 -6 l
1 3 l
25 9 m 17 0 l
0 3 l
-2 3 l
-1 1 l
-3 2 l
-4 0 l
-5 -2 l
-2 -3 l
-2 -4 l
0 -3 l
2 -4 l
2 -3 l
5 -2 l
3 0 l
4 2 l
3 3 l
-2 7 m 0 4 l
-1 3 l
-7 2 m -3 -2 l
-3 -3 l
-1 -4 l
0 -3 l
1 -4 l
3 -3 l
3 -2 l
24 52 m 43 0 l
-43 -14 m 43 0 l
24 26 m 5 3 l
7 7 l
0 -50 l
-2 48 m 0 -48 l
-10 0 m 22 0 l
24 4 m -2 -2 l
2 -2 l
2 2 l
-2 2 l
34 46 m -8 -2 l
-4 -8 l
-3 -12 l
0 -7 l
3 -12 l
4 -7 l
8 -2 l
4 0 l
8 2 l
5 7 l
2 12 l
0 7 l
-2 12 l
-5 8 l
-8 2 l
-4 0 l
-5 -2 l
-3 -3 l
-2 -5 l
-2 -12 l
0 -7 l
2 -12 l
2 -5 l
3 -2 l
5 -2 l
4 0 m 5 2 l
3 2 l
2 5 l
3 12 l
0 7 l
-3 12 l
-2 5 l
-3 3 l
-5 2 l
22 -50 m CS [] 0 setdash M
 0 0 0 C
CS [] 0 setdash M
415 80 M 32 36 m 2 6 l
0 -12 l
-2 6 l
-4 4 l
-6 2 l
-6 0 l
-6 -2 l
-4 -4 l
0 -4 l
2 -4 l
2 -2 l
4 -2 l
12 -4 l
4 -2 l
4 -4 l
-28 18 m 4 -4 l
4 -2 l
12 -4 l
4 -2 l
2 -2 l
2 -4 l
0 -8 l
-4 -4 l
-6 -2 l
-6 0 l
-6 2 l
-4 4 l
-2 6 l
0 -12 l
2 6 l
42 22 m 0 -42 l
2 42 m 0 -42 l
0 36 m 4 4 l
4 2 l
4 0 l
6 -2 l
4 -4 l
2 -6 l
0 -4 l
-2 -6 l
-4 -4 l
-6 -2 l
-4 0 l
-4 2 l
-4 4 l
12 22 m 4 -2 l
4 -4 l
2 -6 l
0 -4 l
-2 -6 l
-4 -4 l
-4 -2 l
-20 28 m 8 0 l
-8 -42 m 14 0 l
32 30 m 24 0 l
0 4 l
-2 4 l
-2 2 l
-4 2 l
-6 0 l
-6 -2 l
-4 -4 l
-2 -6 l
0 -4 l
2 -6 l
4 -4 l
6 -2 l
4 0 l
6 2 l
4 4 l
-2 10 m 0 6 l
-2 4 l
-10 2 m -4 -2 l
-4 -4 l
-2 -6 l
0 -4 l
2 -6 l
4 -4 l
4 -2 l
50 22 m -2 -2 l
2 -2 l
2 2 l
0 2 l
-4 4 l
-4 2 l
-6 0 l
-6 -2 l
-4 -4 l
-2 -6 l
0 -4 l
2 -6 l
4 -4 l
6 -2 l
4 0 l
6 2 l
4 4 l
-14 22 m -4 -2 l
-4 -4 l
-2 -6 l
0 -4 l
2 -6 l
4 -4 l
4 -2 l
30 42 m 0 -34 l
2 -6 l
CS M
4 -2 l
4 0 l
4 2 l
2 4 l
-14 36 m 0 -34 l
2 -6 l
2 -2 l
-12 28 m 16 0 l
20 0 m 0 -28 l
2 28 m 0 -28 l
0 16 m 2 6 l
4 4 l
4 2 l
6 0 l
2 -2 l
0 -2 l
-2 -2 l
-2 2 l
2 2 l
-24 2 m 8 0 l
-8 -28 m 14 0 l
26 28 m 0 -22 l
2 -4 l
6 -2 l
4 0 l
6 2 l
4 4 l
-20 22 m 0 -22 l
2 -4 l
4 -2 l
14 28 m 0 -28 l
2 28 m 0 -28 l
-30 28 m 8 0 l
14 0 m 8 0 l
-2 -28 m 8 0 l
14 28 m 0 -28 l
2 28 m 0 -28 l
0 22 m 4 4 l
6 2 l
4 0 l
6 -2 l
2 -4 l
0 -22 l
-8 28 m 4 -2 l
2 -4 l
0 -22 l
2 22 m 4 4 l
7 2 l
4 0 l
5 -2 l
3 -4 l
0 -22 l
-8 28 m 4 -2 l
1 -4 l
0 -22 l
-50 28 m 8 0 l
-8 -28 m 14 0 l
8 0 m 14 0 l
9 0 m 14 0 l
54 42 m 0 -42 l
2 42 m 0 -42 l
-14 42 m -2 -12 l
0 12 l
30 0 l
0 -12 l
-2 12 l
-20 -42 m 14 0 l
20 16 m 24 0 l
0 4 l
-2 4 l
-2 2 l
-4 2 l
-6 0 l
-6 -2 l
-4 -4 l
-2 -6 l
0 -4 l
2 -6 l
4 -4 l
6 -2 l
4 0 l
6 2 l
4 4 l
-2 10 m 0 6 l
-2 4 l
-10 2 m -4 -2 l
-4 -4 l
-2 -6 l
0 -4 l
2 -6 l
4 -4 l
4 -2 l
46 24 m 2 4 l
0 -8 l
-2 4 l
-2 2 l
-4 2 l
-8 0 l
-4 -2 l
-2 -2 l
0 -4 l
2 -2 l
4 -2 l
10 -4 l
4 -2 l
2 -2 l
-22 14 m 2 -2 l
4 -2 l
10 -4 l
4 -2 l
2 -2 l
0 -6 l
-2 -2 l
-4 -2 l
-8 0 l
-4 2 l
-2 2 l
-2 4 l
0 -8 l
2 4 l
36 38 m 0 -34 l
2 -6 l
4 -2 l
4 0 l
4 2 l
2 4 l
-14 36 m 0 -34 l
2 -6 l
2 -2 l
-12 28 m 16 0 l
309 14 m 0 -42 l
2 42 m 0 -42 l
20 28 m -20 -20 l
10 8 m 12 -16 l
-14 16 m 12 -16 l
-28 42 m 8 0 l
14 -14 m 12 0 l
-34 -28 m 14 0 l
8 0 m 12 0 l
7 -19 m 22 0 l
-11 0 m 0 23 l
23 6 m 2 -6 l
2 -2 l
4 -2 l
4 0 l
6 2 l
4 6 l
2 6 l
0 6 l
-2 4 l
-2 2 l
-4 2 l
-4 0 l
-6 -2 l
-4 -6 l
-2 -6 l
-8 -28 l
20 14 m 4 2 l
4 6 l
2 6 l
0 8 l
-2 4 l
-8 2 m -4 -2 l
-4 -6 l
-2 -6 l
-8 -28 l
42 20 m -1 -1 l
1 -1 l
1 1 l
-1 1 l
0 -8 m 0 -17 l
1 17 m 0 -17 l
-5 17 m 5 0 l
-5 -17 m 9 0 l
CS [] 0 setdash M
CS [] 0 setdash M
49 1141 M 7 1151 M 42 0 l
7 1153 M 42 0 l
19 1165 M 16 0 l
7 1145 M 0 32 l
12 0 l
7 1175 L
20 -22 m 0 12 l
22 -20 m 0 32 l
-12 0 l
12 -2 l
21 1193 M 28 0 l
21 1195 M 28 0 l
-22 0 m -4 4 l
-2 6 l
0 4 l
2 6 l
4 2 l
22 0 l
21 1209 M 2 4 l
4 2 l
22 0 l
21 1187 M 0 8 l
28 -8 m 0 14 l
0 8 m 0 14 l
-16 12 m 0 24 l
-4 0 l
-4 -2 l
-2 -2 l
-2 -4 l
0 -6 l
2 -6 l
4 -4 l
6 -2 l
4 0 l
6 2 l
4 4 l
2 6 l
0 4 l
-2 6 l
-4 4 l
-10 -2 m -6 0 l
-4 -2 l
-2 -10 m 2 -4 l
4 -4 l
6 -2 l
4 0 l
6 2 l
4 4 l
2 4 l
21 1275 M 28 0 l
21 1277 M 28 0 l
-16 0 m -6 2 l
-4 4 l
-2 4 l
0 6 l
2 2 l
2 0 l
2 -2 l
-2 -2 l
-2 2 l
-2 -24 m 0 8 l
28 -8 m 0 14 l
21 1315 M 2 -4 l
2 -2 l
4 -2 l
4 0 l
4 2 l
2 2 l
2 4 l
0 4 l
-2 4 l
-2 2 l
-4 2 l
-4 0 l
-4 -2 l
-2 -2 l
-2 -4 l
0 -4 l
2 -4 m 4 -2 l
8 0 l
4 2 l
0 12 m -4 2 l
-8 0 l
-4 -2 l
2 2 m -2 2 l
-2 4 l
2 0 l
0 -4 l
14 -18 m 2 -2 l
4 -2 l
2 0 l
4 2 l
2 6 l
0 10 l
2 6 l
2 2 l
-10 -26 m 2 2 l
2 6 l
0 10 l
2 6 l
4 2 l
2 0 l
4 -2 l
2 -6 l
0 -12 l
-2 -6 l
-4 -2 l
-2 0 l
-4 2 l
-2 6 l
21 1345 M 28 12 l
21 1347 M 24 10 l
21 1369 M 28 -12 l
8 -4 l
4 -4 l
2 -4 l
0 -2 l
-2 -2 l
-2 2 l
2 2 l
21 1341 M 0 12 l
0 8 m 0 12 l
CS [] 0 setdash M
CS [] 0 setdash M
255 255 M 2006 0 l
0 2006 l
255 2261 L
255 255 L
CS M
2006 0 l
255 255 M 2006 0 l
316 255 M 0 22 l
77 -22 m 0 22 l
69 -22 m 0 22 l
61 -22 m 0 43 l
-70 -121 m 18 42 m -6 -2 l
-4 -6 l
-3 -10 l
0 -6 l
3 -10 l
4 -6 l
6 -2 l
4 0 l
6 2 l
4 6 l
2 10 l
0 6 l
-2 10 l
-4 6 l
-6 2 l
-4 0 l
-4 -2 l
-2 -2 l
-3 -4 l
-1 -10 l
0 -6 l
1 -10 l
3 -4 l
2 -2 l
4 -2 l
4 0 m 4 2 l
2 2 l
2 4 l
2 10 l
0 6 l
-2 10 l
-2 4 l
-2 2 l
-4 2 l
28 -38 m -2 -2 l
2 -2 l
2 2 l
-2 2 l
28 38 m -6 -2 l
-4 -6 l
-2 -10 l
0 -6 l
2 -10 l
4 -6 l
6 -2 l
4 0 l
6 2 l
4 6 l
2 10 l
0 6 l
-2 10 l
-4 6 l
-6 2 l
-4 0 l
-4 -2 l
-2 -2 l
-2 -4 l
-2 -10 l
0 -6 l
2 -10 l
2 -4 l
2 -2 l
4 -2 l
4 0 m 4 2 l
2 2 l
2 4 l
2 10 l
0 6 l
-2 10 l
-2 4 l
-2 2 l
-4 2 l
30 -8 m 4 2 l
6 6 l
0 -42 l
-2 40 m 0 -40 l
-8 0 m 18 0 l
342 78 m 0 22 l
236 -22 m 0 22 l
167 -22 m 0 22 l
129 -22 m 0 22 l
106 -22 m 0 22 l
90 -22 m 0 22 l
77 -22 m 0 22 l
69 -22 m 0 22 l
61 -22 m 0 43 l
-50 -121 m 18 42 m -6 -2 l
-4 -6 l
-2 -10 l
0 -6 l
2 -10 l
4 -6 l
6 -2 l
4 0 l
6 2 l
4 6 l
2 10 l
0 6 l
-2 10 l
-4 6 l
-6 2 l
-4 0 l
-4 -2 l
-2 -2 l
-2 -4 l
-2 -10 l
0 -6 l
2 -10 l
2 -4 l
2 -2 l
4 -2 l
4 0 m 4 2 l
2 2 l
2 4 l
2 10 l
0 6 l
-2 10 l
-2 4 l
-2 2 l
-4 2 l
28 -38 m -2 -2 l
2 -2 l
2 2 l
-2 2 l
22 30 m 4 2 l
6 6 l
0 -42 l
-2 40 m 0 -40 l
-8 0 m 18 0 l
255 2261 M 2006 0 l
316 2261 M 0 -21 l
77 21 m 0 -21 l
69 21 m 0 -21 l
61 21 m 0 -43 l
402 43 m 0 -21 l
236 21 m 0 -21 l
167 21 m 0 -21 l
129 21 m 0 -21 l
106 21 m 0 -21 l
90 21 m 0 -21 l
77 21 m 0 -21 l
69 21 m 0 -21 l
61 21 m 0 -43 l
255 255 M 0 2006 l
255 255 M 43 0 l
119 234 M 18 42 m -6 -2 l
-4 -6 l
-2 -10 l
0 -6 l
2 -10 l
4 -6 l
6 -2 l
4 0 l
6 2 l
4 6 l
2 10 l
0 6 l
-2 10 l
-4 6 l
-6 2 l
-4 0 l
-4 -2 l
-2 -2 l
-2 -4 l
-2 -10 l
0 -6 l
2 -10 l
2 -4 l
2 -2 l
4 -2 l
4 0 m 4 2 l
2 2 l
2 4 l
2 10 l
0 6 l
-2 10 l
-2 4 l
-2 2 l
-4 2 l
28 -38 m -2 -2 l
2 -2 l
2 2 l
-2 2 l
22 30 m 4 2 l
6 6 l
0 -42 l
-2 40 m 0 -40 l
-8 0 m 18 0 l
46 172 m 22 0 l
-22 89 m 22 0 l
-22 62 m 22 0 l
-22 49 m 22 0 l
-22 39 m 22 0 l
-22 34 m 22 0 l
-22 29 m 22 0 l
-22 26 m 22 0 l
-22 23 m 43 0 l
-119 -21 m 12 34 m 4 2 l
6 6 l
0 -42 l
-2 40 m 0 -40 l
-8 0 m 18 0 l
46 172 m 22 0 l
-22 88 m 22 0 l
-22 63 m 22 0 l
-22 48 m 22 0 l
-22 40 m 22 0 l
-22 33 m 22 0 l
-22 30 m 22 0 l
-22 25 m 22 0 l
-22 23 m 43 0 l
139 1237 M 12 34 m 4 2 l
6 6 l
0 -42 l
-2 40 m 0 -40 l
-8 0 m 18 0 l
28 42 m -6 -2 l
-4 -6 l
-2 -10 l
0 -6 l
2 -10 l
4 -6 l
6 -2 l
4 0 l
6 2 l
4 6 l
2 10 l
0 6 l
-2 10 l
-4 6 l
-6 2 l
-4 0 l
-4 -2 l
-2 -2 l
-2 -4 l
-2 -10 l
0 -6 l
2 -10 l
2 -4 l
2 -2 l
4 -2 l
4 0 m 4 2 l
2 2 l
2 4 l
2 10 l
0 6 l
-2 10 l
-2 4 l
-2 2 l
-4 2 l
54 130 m 22 0 l
-22 88 m 22 0 l
-22 63 m 22 0 l
-22 49 m 22 0 l
-22 39 m 22 0 l
-22 34 m 22 0 l
-22 29 m 22 0 l
-22 26 m 22 0 l
-22 23 m 43 0 l
98 1739 M 12 34 m 5 2 l
5 6 l
0 -42 l
-1 40 m 0 -40 l
-9 0 m 19 0 l
28 42 m -6 -2 l
-4 -6 l
-2 -10 l
0 -6 l
2 -10 l
4 -7 l
6 -1 l
4 0 l
6 1 l
4 7 l
2 10 l
0 6 l
-2 10 l
-4 6 l
-6 2 l
-4 0 l
-4 -2 l
-2 -2 l
-2 -4 l
-2 -10 l
0 -6 l
2 -10 l
2 -4 l
2 -3 l
4 -1 l
4 0 m 4 1 l
2 3 l
2 4 l
2 10 l
0 6 l
CS M
-2 10 l
-2 4 l
-2 2 l
-4 2 l
36 0 m -6 -2 l
-4 -6 l
-2 -10 l
0 -6 l
2 -10 l
4 -7 l
6 -1 l
4 0 l
6 1 l
4 7 l
2 10 l
0 6 l
-2 10 l
-4 6 l
-6 2 l
-4 0 l
-4 -2 l
-2 -2 l
-2 -4 l
-2 -10 l
0 -6 l
2 -10 l
2 -4 l
2 -3 l
4 -1 l
4 0 m 4 1 l
2 3 l
2 4 l
2 10 l
0 6 l
-2 10 l
-2 4 l
-2 2 l
-4 2 l
54 130 m 22 0 l
-22 88 m 22 0 l
-22 62 m 22 0 l
-22 49 m 22 0 l
-22 40 m 22 0 l
-22 33 m 22 0 l
-22 29 m 22 0 l
-22 26 m 22 0 l
-22 23 m 43 0 l
58 2240 M 12 34 m 4 2 l
6 6 l
0 -42 l
-2 40 m 0 -40 l
-8 0 m 18 0 l
28 42 m -6 -2 l
-4 -6 l
-2 -10 l
0 -6 l
2 -10 l
4 -6 l
6 -2 l
4 0 l
7 2 l
4 6 l
2 10 l
0 6 l
-2 10 l
-4 6 l
-7 2 l
-4 0 l
-4 -2 l
-2 -2 l
-2 -4 l
-2 -10 l
0 -6 l
2 -10 l
2 -4 l
2 -2 l
4 -2 l
4 0 m 5 2 l
2 2 l
2 4 l
2 10 l
0 6 l
-2 10 l
-2 4 l
-2 2 l
-5 2 l
37 0 m -6 -2 l
-4 -6 l
-2 -10 l
0 -6 l
2 -10 l
4 -6 l
6 -2 l
4 0 l
6 2 l
4 6 l
2 10 l
0 6 l
-2 10 l
-4 6 l
-6 2 l
-4 0 l
-4 -2 l
-2 -2 l
-2 -4 l
-2 -10 l
0 -6 l
2 -10 l
2 -4 l
2 -2 l
4 -2 l
4 0 m 4 2 l
2 2 l
2 4 l
2 10 l
0 6 l
-2 10 l
-2 4 l
-2 2 l
-4 2 l
36 0 m -6 -2 l
-4 -6 l
-2 -10 l
0 -6 l
2 -10 l
4 -6 l
6 -2 l
4 0 l
6 2 l
4 6 l
2 10 l
0 6 l
-2 10 l
-4 6 l
-6 2 l
-4 0 l
-4 -2 l
-2 -2 l
-2 -4 l
-2 -10 l
0 -6 l
2 -10 l
2 -4 l
2 -2 l
4 -2 l
4 0 m 4 2 l
2 2 l
2 4 l
2 10 l
0 6 l
-2 10 l
-2 4 l
-2 2 l
-4 2 l
2261 255 M 0 2006 l
2261 255 M -43 0 l
43 151 m -21 0 l
21 89 m -21 0 l
21 62 m -21 0 l
21 49 m -21 0 l
21 39 m -21 0 l
21 34 m -21 0 l
21 29 m -21 0 l
21 26 m -21 0 l
21 23 m -43 0 l
43 151 m -21 0 l
21 88 m -21 0 l
21 63 m -21 0 l
21 48 m -21 0 l
21 40 m -21 0 l
21 33 m -21 0 l
21 30 m -21 0 l
21 25 m -21 0 l
21 23 m -43 0 l
43 151 m -21 0 l
21 88 m -21 0 l
21 63 m -21 0 l
21 49 m -21 0 l
21 39 m -21 0 l
21 34 m -21 0 l
21 29 m -21 0 l
21 26 m -21 0 l
21 23 m -43 0 l
43 151 m -21 0 l
21 88 m -21 0 l
21 62 m -21 0 l
21 49 m -21 0 l
21 40 m -21 0 l
21 33 m -21 0 l
21 29 m -21 0 l
21 26 m -21 0 l
21 23 m -43 0 l
CS [] 0 setdash M
stroke
grestore
showpage
end
