%!PS-Adobe-2.0 EPSF-2.0
%%Creator: SM
%%BoundingBox: 18 144 592 718
%%DocumentFonts: Helvetica
%%EndComments
 20 dict begin
72 300 div dup scale
1 setlinejoin 0 setlinecap
/Helvetica findfont 55 scalefont setfont 
/B {CS newpath moveto} def
/F {moveto 0 setlinecap} def
/C {CS M 1 1 3 {pop 3 1 roll 255 div} for SET_COLOUR} def
/CS {currentpoint stroke} def
/CF {currentpoint eofill} def
/L {lineto} def /l {rlineto} def /M {moveto} def /m {rmoveto} def
/P {currentpoint 0 1 rlineto stroke moveto} def
/T {currentlinecap exch 1 setlinecap show setlinecap} def
errordict /nocurrentpoint {pop 0 0 M currentpoint} put
/SET_COLOUR statusdict begin /processcolors where
  {pop processcolors 1 gt} {false} ifelse
  {(setrgbcolor)} {(pop pop pop)} ifelse cvx end def
 80 600 translate
gsave
CS [] 0 setdash M
CS M 1 100 mul 72 div dup setlinewidth
/P [ /currentpoint cvx 0 5 -1 roll .05 add dup -2 div 0 exch /rmoveto cvx /rlineto cvx /stroke cvx /moveto cvx ] cvx def
 0 0 0 C
CS M 4 100 mul 72 div dup setlinewidth
/P [ /currentpoint cvx 0 5 -1 roll .05 add dup -2 div 0 exch /rmoveto cvx /rlineto cvx /stroke cvx /moveto cvx ] cvx def
 255 0 0 C
523 2009 M 201 -126 l
201 -126 l
65 -40 l
136 -85 l
35 -22 l
30 -19 l
76 -48 l
61 -37 l
17 -11 l
17 -11 l
31 -19 l
64 -40 l
12 -7 l
31 -20 l
29 -18 l
18 -11 l
16 -10 l
8 -5 l
23 -15 l
7 -4 l
27 -17 l
25 -15 l
6 -4 l
11 -7 l
6 -4 l
26 -16 l
14 -9 l
14 -9 l
5 -3 l
13 -8 l
16 -10 l
5 -3 l
3 -2 l
23 -14 l
4 -3 l
3 -2 l
11 -6 l
13 -9 l
3 -2 l
22 -13 l
3 -2 l
6 -4 l
3 -2 l
8 -5 l
6 -3 l
8 -6 l
10 -6 l
8 -5 l
3 -1 l
19 -12 l
6 -5 l
5 -3 l
13 -8 l
19 -11 l
8 -5 l
24 -15 l
4 -3 l
28 -18 l
29 -18 l
523 2009 M B
3 -9 m 531 2005 L
531 2012 L
526 2018 L
519 2018 L
514 2012 L
514 2005 L
519 2000 L
526 2000 L
CF M
198 -117 m B
3 -9 m 732 1879 L
732 1887 L
727 1892 L
720 1892 L
715 1887 L
715 1879 L
720 1874 L
727 1874 L
CF M
198 -117 m B
4 -8 m 934 1754 L
934 1761 L
929 1766 L
922 1766 L
917 1761 L
917 1754 L
922 1749 L
929 1749 L
CF M
61 -32 m B
3 -9 m 999 1713 L
999 1720 L
994 1725 L
986 1725 L
981 1720 L
981 1713 L
986 1708 L
994 1708 L
CF M
132 -76 m B
4 -9 m 1135 1628 L
1135 1635 L
1130 1640 L
1123 1640 L
1118 1635 L
1118 1628 L
1123 1623 L
1130 1623 L
CF M
31 -13 m B
3 -9 m 1169 1607 L
1169 1614 L
1164 1619 L
1157 1619 L
1152 1614 L
1152 1607 L
1157 1601 L
1164 1601 L
CF M
27 -10 m B
4 -9 m 1200 1587 L
1200 1595 L
1195 1600 L
1188 1600 L
1183 1595 L
1183 1587 L
1188 1582 L
1195 1582 L
CF M
72 -39 m B
4 -8 m 1276 1540 L
1276 1547 L
1271 1552 L
1264 1552 L
1259 1547 L
1259 1540 L
1264 1535 L
1271 1535 L
CF M
57 -29 m B
3 -9 m 1336 1502 L
1336 1509 L
1331 1514 L
1324 1514 L
1319 1509 L
1319 1502 L
1324 1497 L
1331 1497 L
CF M
14 -2 m B
4 -9 m 1354 1491 L
1354 1498 L
1349 1503 L
1342 1503 L
1337 1498 L
1337 1491 L
1342 1486 L
1349 1486 L
CF M
13 -2 m B
4 -8 m 1371 1481 L
1371 1488 L
1366 1493 L
1358 1493 L
1353 1488 L
1353 1481 L
1358 1476 L
1366 1476 L
CF M
27 -11 m B
3 -8 m 1401 1462 L
1401 1469 L
1396 1474 L
1389 1474 L
1384 1469 L
1384 1462 L
1389 1457 L
1396 1457 L
CF M
61 -32 m B
4 -9 m 1466 1421 L
1466 1428 L
1461 1433 L
1454 1433 L
1449 1428 L
1449 1421 L
1454 1416 L
1461 1416 L
CF M
8 2 m B
3 -9 m 1477 1414 L
1477 1421 L
1472 1426 L
1465 1426 L
1460 1421 L
1460 1414 L
1465 1409 L
1472 1409 L
CF M
28 -11 m B
4 -9 m 1509 1394 L
1509 1401 L
1504 1406 L
1497 1406 L
1492 1401 L
1492 1394 L
1497 1389 L
1504 1389 L
CF M
25 -9 m B
4 -9 m 1538 1376 L
1538 1383 L
1533 1389 L
1525 1389 L
1520 1383 L
1520 1376 L
1525 1371 L
1533 1371 L
CF M
14 -2 m B
3 -9 m 1555 1365 L
1555 1372 L
1550 1378 L
1543 1378 L
1538 1372 L
1538 1365 L
1543 1360 L
1550 1360 L
CF M
13 -1 m B
4 -9 m 1572 1355 L
1572 1362 L
1567 1367 L
1560 1367 L
1555 1362 L
1555 1355 L
1560 1350 L
1567 1350 L
CF M
4 4 m B
4 -9 m 1580 1350 L
1580 1357 L
1575 1362 L
1568 1362 L
1563 1357 L
1563 1350 L
1568 1345 L
1575 1345 L
CF M
19 -6 m B
3 -8 m 1602 1336 L
1602 1343 L
1597 1348 L
1590 1348 L
1585 1343 L
1585 1336 L
1590 1331 L
1597 1331 L
CF M
4 4 m B
3 -9 m 1610 1331 L
1610 1339 L
1605 1344 L
1597 1344 L
1592 1339 L
1592 1331 L
1597 1326 L
1605 1326 L
CF M
23 -8 m B
3 -9 m 1637 1315 L
1637 1322 L
1632 1327 L
1624 1327 L
1619 1322 L
1619 1315 L
1624 1309 L
1632 1309 L
CF M
21 -6 m B
3 -9 m 1661 1299 L
1661 1306 L
1656 1311 L
1649 1311 L
1644 1306 L
1644 1299 L
1649 1294 L
1656 1294 L
CF M
3 5 m B
3 -9 m 1667 1295 L
1667 1303 L
1662 1308 L
1655 1308 L
1650 1303 L
1650 1295 L
1655 1290 L
1662 1290 L
CF M
8 2 m B
3 -9 m 1679 1288 L
1679 1295 L
1674 1300 L
1666 1300 L
1661 1295 L
1661 1288 L
1666 1283 L
1674 1283 L
CF M
2 5 m B
3 -8 m 1684 1285 L
1684 1292 L
1679 1297 L
1672 1297 L
1667 1292 L
1667 1285 L
1672 1280 L
1679 1280 L
CF M
23 -8 m B
3 -9 m 1710 1268 L
1710 1276 L
1705 1281 L
1698 1281 L
1693 1276 L
1693 1268 L
1698 1263 L
1705 1263 L
CF M
11 0 m B
4 -9 m 1725 1259 L
1725 1266 L
1720 1271 L
1713 1271 L
1708 1266 L
1708 1259 L
1713 1254 L
1720 1254 L
CF M
10 0 m B
4 -9 m 1739 1251 L
1739 1258 L
1734 1263 L
1727 1263 L
1722 1258 L
1722 1251 L
1727 1245 L
1734 1245 L
CF M
1 6 m B
3 -8 m 1743 1248 L
1743 1255 L
1738 1260 L
1731 1260 L
1726 1255 L
1726 1248 L
1731 1243 L
1738 1243 L
CF M
10 0 m B
3 -9 m 1756 1240 L
1756 1247 L
1751 1252 L
1744 1252 L
1739 1247 L
1739 1240 L
1744 1235 L
1751 1235 L
CF M
13 -2 m B
4 -9 m 1773 1229 L
1773 1236 L
1768 1241 L
1761 1241 L
1756 1236 L
1756 1229 L
1761 1224 L
1768 1224 L
CF M
1 6 m B
3 -8 m 1777 1227 L
1777 1234 L
1772 1239 L
1765 1239 L
1760 1234 L
1760 1227 L
1765 1222 L
1772 1222 L
CF M
0 6 m B
4 -9 m 1781 1224 L
1781 1231 L
1776 1236 L
1769 1236 L
1764 1231 L
1764 1224 L
1769 1219 L
1776 1219 L
CF M
19 -5 m B
4 -9 m 1804 1210 L
1804 1217 L
1799 1222 L
1791 1222 L
1786 1217 L
1786 1210 L
1791 1205 L
1799 1205 L
CF M
0 6 m B
3 -8 m 1807 1208 L
1807 1215 L
1802 1220 L
1795 1220 L
1790 1215 L
1790 1208 L
1795 1203 L
1802 1203 L
CF M
0 6 m B
4 -9 m 1811 1206 L
1811 1213 L
1806 1218 L
1799 1218 L
1794 1213 L
1794 1206 L
1799 1201 L
1806 1201 L
CF M
7 2 m B
3 -9 m 1821 1199 L
1821 1206 L
1816 1211 L
1809 1211 L
1804 1206 L
1804 1199 L
1809 1194 L
1816 1194 L
CF M
10 0 m B
4 -8 m 1835 1191 L
1835 1198 L
1830 1203 L
1822 1203 L
1817 1198 L
1817 1191 L
1822 1186 L
1830 1186 L
CF M
-1 6 m B
4 -8 m 1838 1189 L
1838 1196 L
1833 1201 L
1826 1201 L
1821 1196 L
1821 1189 L
1826 1184 L
1833 1184 L
CF M
18 -5 m B
3 -9 m 1860 1175 L
1860 1182 L
1855 1187 L
1847 1187 L
1842 1182 L
1842 1175 L
1847 1170 L
1855 1170 L
CF M
-1 7 m B
3 -9 m 1863 1173 L
1863 1180 L
1858 1185 L
1850 1185 L
1845 1180 L
1845 1173 L
1850 1168 L
1858 1168 L
CF M
2 5 m B
3 -9 m 1869 1170 L
1869 1177 L
1863 1182 L
1856 1182 L
1851 1177 L
1851 1170 L
1856 1164 L
1863 1164 L
CF M
0 7 m B
3 -8 m 1871 1168 L
1871 1175 L
1866 1180 L
1859 1180 L
1854 1175 L
1854 1168 L
1859 1163 L
1866 1163 L
CF M
5 3 m B
4 -9 m 1880 1162 L
1880 1170 L
1875 1175 L
1868 1175 L
1863 1170 L
1863 1162 L
1868 1157 L
1875 1157 L
CF M
2 6 m B
4 -9 m 1886 1159 L
1886 1166 L
1881 1171 L
1873 1171 L
1868 1166 L
1868 1159 L
1873 1154 L
1881 1154 L
CF M
4 3 m B
3 -8 m 1893 1154 L
1893 1161 L
1888 1166 L
1881 1166 L
1876 1161 L
1876 1154 L
1881 1149 L
1888 1149 L
CF M
7 2 m B
4 -9 m 1904 1147 L
1904 1155 L
1899 1160 L
1892 1160 L
1887 1155 L
1887 1147 L
1892 1142 L
1899 1142 L
CF M
4 4 m B
3 -8 m 1912 1143 L
1912 1150 L
1906 1155 L
1899 1155 L
1894 1150 L
1894 1143 L
1899 1138 L
1906 1138 L
CF M
0 7 m B
3 -9 m 1914 1141 L
1914 1148 L
1909 1153 L
1902 1153 L
1897 1148 L
1897 1141 L
1902 1136 L
1909 1136 L
CF M
16 -3 m B
3 -9 m 1933 1129 L
1933 1136 L
1928 1141 L
1921 1141 L
1916 1136 L
1916 1129 L
1921 1124 L
1928 1124 L
CF M
3 4 m B
4 -8 m 1940 1125 L
1940 1132 L
1935 1137 L
1928 1137 L
1923 1132 L
1923 1125 L
1928 1120 L
1935 1120 L
CF M
1 5 m B
3 -8 m 1945 1122 L
1945 1129 L
1940 1134 L
1932 1134 L
1927 1129 L
1927 1122 L
1932 1117 L
1940 1117 L
CF M
9 0 m B
4 -8 m 1958 1114 L
1958 1121 L
1953 1126 L
1945 1126 L
1940 1121 L
1940 1114 L
1945 1109 L
1953 1109 L
CF M
15 -3 m B
3 -9 m 1976 1102 L
1976 1109 L
1971 1114 L
1964 1114 L
1959 1109 L
1959 1102 L
1964 1097 L
1971 1097 L
CF M
5 4 m B
3 -9 m 1984 1097 L
1984 1104 L
1979 1109 L
1972 1109 L
1967 1104 L
1967 1097 L
1972 1092 L
1979 1092 L
CF M
21 -6 m B
4 -9 m 2009 1082 L
2009 1089 L
2004 1094 L
1996 1094 L
1991 1089 L
1991 1082 L
1996 1077 L
2004 1077 L
CF M
0 6 m B
3 -8 m 2012 1080 L
2012 1087 L
2007 1092 L
2000 1092 L
1995 1087 L
1995 1080 L
2000 1075 L
2007 1075 L
CF M
25 -10 m B
3 -8 m 2041 1062 L
2041 1069 L
2036 1074 L
2028 1074 L
2023 1069 L
2023 1062 L
2028 1057 L
2036 1057 L
CF M
25 -10 m B
4 -8 m 2070 1044 L
2070 1051 L
2065 1056 L
2057 1056 L
2052 1051 L
2052 1044 L
2057 1039 L
2065 1039 L
CF M
 0 0 255 C
623 1946 M 391 -244 l
192 -121 l
151 -94 l
143 -89 l
91 -57 l
88 -55 l
80 -50 l
66 -41 l
58 -36 l
52 -33 l
52 -32 l
45 -29 l
29 -18 l
623 1946 M B
4 -9 m 632 1942 L
632 1950 L
627 1955 L
620 1955 L
615 1950 L
615 1942 L
620 1937 L
627 1937 L
CF M
387 -235 m B
3 -9 m 1023 1698 L
1023 1705 L
1017 1710 L
1010 1710 L
1005 1705 L
1005 1698 L
1010 1693 L
1017 1693 L
CF M
189 -112 m B
4 -8 m 1215 1578 L
1215 1585 L
1210 1590 L
1203 1590 L
1198 1585 L
1198 1578 L
1203 1573 L
1210 1573 L
CF M
147 -86 m B
3 -8 m 1366 1484 L
1366 1491 L
1360 1496 L
1353 1496 L
1348 1491 L
1348 1484 L
1353 1479 L
1360 1479 L
CF M
140 -81 m B
4 -9 m 1509 1394 L
1509 1401 L
1504 1406 L
1497 1406 L
1492 1401 L
1492 1394 L
1497 1389 L
1504 1389 L
CF M
87 -48 m B
4 -9 m 1600 1337 L
1600 1344 L
1595 1349 L
1588 1349 L
1583 1344 L
1583 1337 L
1588 1332 L
1595 1332 L
CF M
84 -46 m B
4 -9 m 1688 1283 L
1688 1290 L
1683 1295 L
1676 1295 L
1671 1290 L
1671 1283 L
1676 1277 L
1683 1277 L
CF M
76 -41 m B
4 -9 m 1768 1233 L
1768 1240 L
1763 1245 L
1755 1245 L
1750 1240 L
1750 1233 L
1755 1228 L
1763 1228 L
CF M
62 -33 m B
3 -9 m 1834 1191 L
1834 1199 L
1828 1204 L
1821 1204 L
1816 1199 L
1816 1191 L
1821 1186 L
1828 1186 L
CF M
55 -27 m B
3 -9 m 1891 1155 L
1891 1163 L
1886 1168 L
1879 1168 L
1874 1163 L
1874 1155 L
1879 1150 L
1886 1150 L
CF M
49 -24 m B
4 -9 m 1944 1122 L
1944 1130 L
1939 1135 L
1932 1135 L
1927 1130 L
1927 1122 L
1932 1117 L
1939 1117 L
CF M
48 -23 m B
3 -9 m 1995 1090 L
1995 1097 L
1990 1102 L
1983 1102 L
1978 1097 L
1978 1090 L
1983 1085 L
1990 1085 L
CF M
42 -20 m B
3 -8 m 2041 1062 L
2041 1069 L
2036 1074 L
2028 1074 L
2023 1069 L
2023 1062 L
2028 1057 L
2036 1057 L
CF M
25 -10 m B
4 -8 m 2070 1044 L
2070 1051 L
2065 1056 L
2057 1056 L
2052 1051 L
2052 1044 L
2057 1039 L
2065 1039 L
CF M
 0 255 0 C
523 2050 M 402 -304 l
236 -150 l
167 -29 l
129 -166 l
106 -26 l
90 -86 l
77 -36 l
69 2 l
61 -105 l
55 -109 l
51 -182 l
46 -89 l
2055 372 L
523 2050 M B
3 -9 m 531 2046 L
531 2054 L
526 2059 L
519 2059 L
514 2054 L
514 2046 L
519 2041 L
526 2041 L
CF M
399 -295 m B
4 -8 m 934 1743 L
934 1750 L
929 1755 L
922 1755 L
917 1750 L
917 1743 L
922 1738 L
929 1738 L
CF M
232 -142 m B
3 -9 m 1169 1592 L
1169 1599 L
1164 1604 L
1157 1604 L
1152 1599 L
1152 1592 L
1157 1587 L
1164 1587 L
CF M
164 -20 m B
3 -9 m 1336 1563 L
1336 1570 L
1331 1576 L
1324 1576 L
1319 1570 L
1319 1563 L
1324 1558 L
1331 1558 L
CF M
126 -157 m B
4 -9 m 1466 1397 L
1466 1404 L
1461 1410 L
1454 1410 L
1449 1404 L
1449 1397 L
1454 1392 L
1461 1392 L
CF M
102 -17 m B
4 -8 m 1572 1372 L
1572 1379 L
1567 1384 L
1560 1384 L
1555 1379 L
1555 1372 L
1560 1367 L
1567 1367 L
CF M
86 -78 m B
3 -9 m 1661 1285 L
1661 1292 L
1656 1297 L
1649 1297 L
1644 1292 L
1644 1285 L
1649 1280 L
1656 1280 L
CF M
74 -27 m B
4 -8 m 1739 1250 L
1739 1257 L
1734 1262 L
1727 1262 L
1722 1257 L
1722 1250 L
1727 1245 L
1734 1245 L
CF M
65 10 m B
3 -8 m 1807 1252 L
1807 1259 L
1802 1264 L
1795 1264 L
1790 1259 L
1790 1252 L
1795 1247 L
1802 1247 L
CF M
58 -97 m B
3 -9 m 1869 1146 L
1869 1153 L
1863 1158 L
1856 1158 L
1851 1153 L
1851 1146 L
1856 1141 L
1863 1141 L
CF M
52 -100 m B
4 -8 m 1924 1038 L
1924 1045 L
1919 1050 L
1912 1050 L
1907 1045 L
1907 1038 L
1912 1033 L
1919 1033 L
CF M
47 -174 m B
3 -8 m 1974 856 L
1974 863 L
1969 868 L
1962 868 L
1957 863 L
1957 856 L
1962 851 L
1969 851 L
CF M
43 -81 m B
4 -9 m 2021 766 L
2021 774 L
2016 779 L
2009 779 L
2004 774 L
2004 766 L
2009 761 L
2016 761 L
CF M
2055 372 M B
4 -9 m 2064 368 L
2064 376 L
2059 381 L
2052 381 L
2047 376 L
2047 368 L
2052 363 L
2059 363 L
CF M
 255 0 255 C
523 1949 M 402 -226 l
236 -117 l
167 -105 l
129 -90 l
106 -59 l
90 -53 l
77 -44 l
69 -46 l
61 -42 l
55 -27 l
51 -31 l
46 -33 l
43 -31 l
523 1949 M B
3 -9 m 531 1945 L
531 1952 L
526 1957 L
519 1957 L
514 1952 L
514 1945 L
519 1940 L
526 1940 L
CF M
399 -217 m B
4 -9 m 934 1719 L
934 1726 L
929 1731 L
922 1731 L
917 1726 L
917 1719 L
922 1714 L
929 1714 L
CF M
232 -108 m B
3 -9 m 1169 1602 L
1169 1609 L
1164 1614 L
1157 1614 L
1152 1609 L
1152 1602 L
1157 1597 L
1164 1597 L
CF M
164 -96 m B
3 -9 m 1336 1498 L
1336 1505 L
1331 1510 L
1324 1510 L
1319 1505 L
1319 1498 L
1324 1492 L
1331 1492 L
CF M
126 -81 m B
4 -9 m 1466 1407 L
1466 1414 L
1461 1420 L
1454 1420 L
1449 1414 L
1449 1407 L
1454 1402 L
1461 1402 L
CF M
102 -50 m B
4 -9 m 1572 1348 L
1572 1355 L
1567 1360 L
1560 1360 L
1555 1355 L
1555 1348 L
1560 1343 L
1567 1343 L
CF M
86 -44 m B
3 -9 m 1661 1295 L
1661 1302 L
1656 1307 L
1649 1307 L
1644 1302 L
1644 1295 L
1649 1290 L
1656 1290 L
CF M
74 -35 m B
4 -9 m 1739 1251 L
1739 1258 L
1734 1263 L
1727 1263 L
1722 1258 L
1722 1251 L
1727 1246 L
1734 1246 L
CF M
65 -37 m B
3 -9 m 1807 1205 L
1807 1213 L
1802 1218 L
1795 1218 L
1790 1213 L
1790 1205 L
1795 1200 L
1802 1200 L
CF M
58 -33 m B
3 -8 m 1869 1164 L
1869 1171 L
1863 1176 L
1856 1176 L
1851 1171 L
1851 1164 L
1856 1159 L
1863 1159 L
CF M
52 -19 m B
4 -9 m 1924 1136 L
1924 1143 L
1919 1148 L
1912 1148 L
1907 1143 L
1907 1136 L
1912 1131 L
1919 1131 L
CF M
47 -22 m B
3 -9 m 1974 1105 L
1974 1112 L
1969 1117 L
1962 1117 L
1957 1112 L
1957 1105 L
1962 1100 L
1969 1100 L
CF M
43 -24 m B
4 -8 m 2021 1073 L
2021 1080 L
2016 1085 L
2009 1085 L
2004 1080 L
2004 1073 L
2009 1068 L
2016 1068 L
CF M
39 -23 m B
4 -9 m 2064 1042 L
2064 1049 L
2059 1054 L
2052 1054 L
2047 1049 L
2047 1042 L
2052 1036 L
2059 1036 L
CF M
CS [6 12] 0 setdash M
 0 0 0 C
255 2176 M 14 -8 l
13 -9 l
13 -8 l
14 -8 l
13 -9 l
13 -8 l
14 -8 l
13 -9 l
14 -8 l
13 -9 l
13 -8 l
14 -8 l
13 -9 l
13 -8 l
14 -8 l
13 -9 l
14 -8 l
13 -8 l
13 -9 l
14 -8 l
13 -8 l
13 -9 l
14 -8 l
13 -9 l
14 -8 l
13 -8 l
13 -9 l
14 -8 l
13 -8 l
13 -9 l
14 -8 l
13 -8 l
13 -9 l
14 -8 l
13 -8 l
14 -9 l
13 -8 l
13 -9 l
14 -8 l
13 -8 l
13 -9 l
14 -8 l
13 -8 l
14 -9 l
13 -8 l
13 -8 l
14 -9 l
13 -8 l
13 -9 l
14 -8 l
13 -8 l
14 -9 l
13 -8 l
13 -8 l
14 -9 l
13 -8 l
13 -8 l
14 -9 l
13 -8 l
14 -8 l
13 -9 l
13 -8 l
14 -9 l
13 -8 l
13 -8 l
14 -9 l
13 -8 l
14 -8 l
13 -9 l
13 -8 l
14 -8 l
13 -9 l
13 -8 l
14 -8 l
13 -9 l
14 -8 l
13 -9 l
13 -8 l
14 -8 l
13 -9 l
13 -8 l
14 -8 l
13 -9 l
13 -8 l
14 -8 l
13 -9 l
14 -8 l
13 -8 l
13 -9 l
14 -8 l
13 -9 l
13 -8 l
14 -8 l
13 -9 l
14 -8 l
13 -8 l
13 -9 l
14 -8 l
13 -8 l
13 -9 l
14 -8 l
13 -8 l
14 -9 l
13 -8 l
13 -9 l
14 -8 l
13 -8 l
13 -9 l
14 -8 l
13 -8 l
13 -9 l
14 -8 l
13 -8 l
14 -9 l
13 -8 l
13 -8 l
14 -9 l
13 -8 l
13 -8 l
14 -9 l
13 -8 l
14 -9 l
13 -8 l
13 -8 l
14 -9 l
13 -8 l
13 -8 l
14 -9 l
13 -8 l
14 -8 l
13 -9 l
13 -8 l
14 -9 l
13 -8 l
13 -8 l
14 -9 l
13 -8 l
14 -8 l
13 -9 l
13 -8 l
14 -8 l
13 -9 l
13 -8 l
14 -8 l
13 -9 l
14 -8 l
13 -9 l
13 -8 l
14 -8 l
13 -9 l
0 0 l
CS [6 12] 0 setdash M
322 1258 M 201 0 l
67 -25 m CS [] 0 setdash M
640 1243 M -5 0 l
-5 2 l
-4 5 l
-8 10 l
-2 2 l
-5 2 l
-5 0 l
-4 -2 l
-3 -5 l
0 -5 l
3 -4 l
4 -3 l
5 0 l
5 3 l
2 2 l
8 10 l
4 4 l
5 3 l
5 0 l
22 17 m 0 -51 l
2 51 m 0 -51 l
24 34 m -24 -24 l
12 9 m 15 -19 l
-17 19 m 14 -19 l
-33 51 m 9 0 l
17 -17 m 14 0 l
-40 -34 m 16 0 l
10 0 m 14 0 l
10 -23 m 26 0 l
-13 0 m 0 27 l
-12 32 m 26 0 l
13 17 m -3 -14 l
3 3 l
4 1 l
5 0 l
4 -1 l
3 -3 l
1 -4 l
0 -3 l
-1 -5 l
-3 -2 l
-4 -2 l
-5 0 l
-4 2 l
-1 1 l
-2 3 l
0 1 l
2 2 l
1 -2 l
-1 -1 l
10 14 m 3 -1 l
2 -3 l
2 -4 l
0 -3 l
-2 -5 l
-2 -2 l
-3 -2 l
-9 30 m 14 0 l
-14 -1 m 7 0 l
7 1 l
37 6 m -27 -46 l
35 35 m 2 -2 l
-2 -1 l
-1 1 l
0 2 l
1 3 l
2 1 l
4 1 l
6 0 l
4 -1 l
1 -3 l
0 -4 l
-1 -3 l
-4 -2 l
-5 0 l
5 13 m 3 -1 l
1 -3 l
0 -4 l
-1 -3 l
-3 -2 l
3 -1 l
2 -3 l
2 -3 l
0 -4 l
-2 -3 l
-1 -1 l
-4 -2 l
-6 0 l
-4 2 l
-2 1 l
-1 3 l
0 1 l
1 2 l
2 -2 l
-2 -1 l
16 9 m 1 -5 l
0 -4 l
-1 -3 l
-1 -1 l
-3 -2 l
11 -23 m CS [6 12] 0 setdash M
CS [] 0 setdash M
 255 0 0 C
322 1158 M 201 0 l
67 -25 m CS [] 0 setdash M
602 1183 M 0 -50 l
2 50 m 0 -50 l
-10 50 m 29 0 l
7 -2 l
3 -2 l
2 -5 l
0 -5 l
-2 -5 l
-3 -2 l
-7 -3 l
-19 0 l
19 24 m 5 -2 l
2 -2 l
3 -5 l
0 -5 l
-3 -5 l
-2 -2 l
-5 -3 l
-29 -26 m 17 0 l
5 26 m 5 -2 l
2 -3 l
7 -16 l
3 -3 l
2 0 l
3 3 l
-17 19 m 2 -5 l
5 -17 l
2 -2 l
5 0 l
3 5 l
0 2 l
17 22 m 0 -3 l
-3 0 l
0 3 l
3 2 l
4 2 l
10 0 l
5 -2 l
2 -2 l
3 -5 l
0 -17 l
2 -5 l
2 -2 l
-7 29 m 0 -22 l
3 -5 l
4 -2 l
3 0 l
CS M
-10 24 m -2 -3 l
-15 -2 l
-7 -2 l
-2 -5 l
0 -5 l
2 -5 l
7 -2 l
8 0 l
4 2 l
5 5 l
-17 12 m -4 -2 l
-3 -5 l
0 -5 l
3 -5 l
4 -2 l
41 33 m 10 -33 l
-7 33 m 7 -26 l
10 26 m -10 -33 l
10 33 m 9 -33 l
-7 33 m 7 -26 l
10 26 m -10 -33 l
-36 33 m 17 0 l
22 0 m 14 0 l
2 -33 m CS [] 0 setdash M
 0 0 255 C
322 1058 M 201 0 l
67 -26 m CS [] 0 setdash M
614 1083 M -17 -51 l
17 51 m 16 -51 l
-16 44 m 14 -44 l
-26 15 m 21 0 l
-31 -15 m 14 0 l
15 0 m 14 0 l
10 34 m 14 -34 l
-12 34 m 12 -29 l
15 29 m -15 -34 l
-19 34 m 15 0 l
9 0 m 15 0 l
12 -14 m 29 0 l
0 5 l
-3 4 l
-2 3 l
-5 2 l
-7 0 l
-8 -2 l
-4 -5 l
-3 -7 l
0 -5 l
3 -7 l
4 -5 l
8 -3 l
4 0 l
8 3 l
5 5 l
-3 12 m 0 7 l
-2 5 l
-12 2 m -5 -2 l
-5 -5 l
-2 -7 l
0 -5 l
2 -7 l
5 -5 l
5 -3 l
36 34 m 0 -34 l
2 34 m 0 -34 l
0 20 m 3 7 l
4 5 l
5 2 l
7 0 l
3 -2 l
0 -3 l
-3 -2 l
-2 2 l
2 3 l
-28 2 m 9 0 l
-9 -34 m 16 0 l
32 29 m 0 -2 l
-3 0 l
0 2 l
3 3 l
5 2 l
9 0 l
5 -2 l
2 -3 l
3 -4 l
0 -17 l
2 -5 l
3 -3 l
-8 29 m 0 -21 l
3 -5 l
5 -3 l
2 0 l
-10 25 m -2 -3 l
-14 -2 l
-8 -3 l
-2 -4 l
0 -5 l
2 -5 l
8 -3 l
7 0 l
5 3 l
4 5 l
-16 12 m -5 -3 l
-3 -4 l
0 -5 l
3 -5 l
5 -3 l
50 34 m -5 -2 l
-2 -3 l
-3 -4 l
0 -5 l
3 -5 l
2 -2 l
5 -3 l
5 0 l
5 3 l
2 2 l
2 5 l
0 5 l
-2 4 l
-2 3 l
-5 2 l
-5 0 l
-5 -2 m -2 -5 l
0 -10 l
2 -4 l
15 0 m 2 4 l
0 10 l
-2 5 l
2 -3 m 2 3 l
5 2 l
0 -2 l
-5 0 l
-21 -17 m -3 -2 l
-2 -5 l
0 -3 l
2 -5 l
8 -2 l
12 0 l
7 -2 l
2 -3 l
-31 12 m 2 -2 l
8 -3 l
12 0 l
7 -2 l
2 -5 l
0 -2 l
-2 -5 l
-7 -2 l
-15 0 l
-7 2 l
-2 5 l
0 2 l
2 5 l
7 2 l
41 20 m 29 0 l
0 5 l
-2 4 l
-3 3 l
-5 2 l
-7 0 l
-7 -2 l
-5 -5 l
-2 -7 l
0 -5 l
2 -7 l
5 -5 l
7 -3 l
5 0 l
7 3 l
5 5 l
-2 12 m 0 7 l
-3 5 l
-12 2 m -5 -2 l
-4 -5 l
-3 -7 l
0 -5 l
3 -7 l
4 -5 l
5 -3 l
60 51 m 0 -51 l
3 51 m 0 -51 l
-3 27 m -4 5 l
-5 2 l
-5 0 l
-7 -2 l
-5 -5 l
-3 -7 l
0 -5 l
3 -7 l
5 -5 l
7 -3 l
5 0 l
5 3 l
4 5 l
-14 26 m -5 -2 l
-5 -5 l
-2 -7 l
0 -5 l
2 -7 l
5 -5 l
5 -3 l
7 51 m 10 0 l
-3 -51 m 10 0 l
5 0 m CS [] 0 setdash M
 0 255 0 C
322 957 M 201 0 l
67 -25 m CS [] 0 setdash M
602 983 M 0 -51 l
2 51 m 0 -51 l
-10 51 m 29 0 l
7 -3 l
3 -2 l
2 -5 l
0 -5 l
-2 -5 l
-3 -2 l
-7 -2 l
0 24 m 5 -3 l
2 -2 l
3 -5 l
0 -5 l
-3 -5 l
-2 -2 l
-5 -2 l
-19 0 m 19 0 l
7 -3 l
3 -2 l
2 -5 l
0 -7 l
-2 -5 l
-3 -2 l
-7 -3 l
-29 0 l
29 27 m 5 -3 l
2 -2 l
3 -5 l
0 -7 l
-3 -5 l
-2 -2 l
-5 -3 l
32 51 m -3 -3 l
3 -2 l
2 2 l
-2 3 l
0 -17 m 0 -34 l
2 34 m 0 -34 l
-10 34 m 10 0 l
-10 -34 m 17 0 l
17 34 m 0 -34 l
2 34 m 0 -34 l
0 27 m 5 4 l
7 3 l
5 0 l
7 -3 l
3 -4 l
0 -27 l
-10 34 m 5 -3 l
2 -4 l
0 -27 l
-33 34 m 9 0 l
-9 -34 m 17 0 l
9 0 m 17 0 l
17 34 m 0 -34 l
2 34 m 0 -34 l
0 27 m 5 4 l
7 3 l
5 0 l
7 -3 l
3 -4 l
0 -27 l
-10 34 m 5 -3 l
2 -4 l
0 -27 l
-33 34 m 9 0 l
-9 -34 m 17 0 l
9 0 m 17 0 l
15 19 m 28 0 l
0 5 l
-2 5 l
-2 2 l
-5 3 l
-7 0 l
-8 -3 l
-4 -4 l
-3 -8 l
0 -4 l
3 -8 l
4 -4 l
8 -3 l
4 0 l
8 3 l
4 4 l
-2 12 m 0 8 l
-2 4 l
-12 3 m -5 -3 l
-5 -4 l
-2 -8 l
0 -4 l
2 -8 l
5 -4 l
5 -3 l
60 51 m 0 -51 l
2 51 m 0 -51 l
-2 27 m -5 4 l
-5 3 l
CS M
-5 0 l
-7 -3 l
-5 -4 l
-2 -8 l
0 -4 l
2 -8 l
5 -4 l
7 -3 l
5 0 l
5 3 l
5 4 l
-15 27 m -5 -3 l
-4 -4 l
-3 -8 l
0 -4 l
3 -8 l
4 -4 l
5 -3 l
7 51 m 10 0 l
-2 -51 m 9 0 l
5 0 m CS [] 0 setdash M
 255 0 255 C
322 857 M 201 0 l
67 -25 m CS [] 0 setdash M
630 875 M 3 -7 l
0 14 l
-3 -7 l
-4 5 l
-8 2 l
-4 0 l
-8 -2 l
-4 -5 l
-3 -5 l
-2 -7 l
0 -12 l
2 -7 l
3 -5 l
4 -5 l
8 -2 l
4 0 l
8 2 l
4 5 l
3 5 l
-19 38 m -5 -2 l
-5 -5 l
-2 -5 l
-3 -7 l
0 -12 l
3 -7 l
2 -5 l
5 -5 l
5 -2 l
48 34 m -7 -3 l
-5 -5 l
-3 -7 l
0 -5 l
3 -7 l
5 -5 l
7 -2 l
5 0 l
7 2 l
5 5 l
2 7 l
0 5 l
-2 7 l
-5 5 l
-7 3 l
-5 0 l
-5 -3 l
-5 -5 l
-2 -7 l
0 -5 l
2 -7 l
5 -5 l
5 -2 l
5 0 m 4 2 l
5 5 l
3 7 l
0 5 l
-3 7 l
-5 5 l
-4 3 l
33 0 m 0 -34 l
3 34 m 0 -34 l
0 19 m 2 7 l
5 5 l
5 3 l
7 0 l
2 -3 l
0 -2 l
-2 -3 l
-2 3 l
2 2 l
-29 3 m 10 0 l
-10 -34 m 17 0 l
31 34 m 0 -34 l
3 34 m 0 -34 l
0 19 m 2 7 l
5 5 l
5 3 l
7 0 l
2 -3 l
0 -2 l
-2 -3 l
-3 3 l
3 2 l
-29 3 m 10 0 l
-10 -34 m 17 0 l
29 19 m 29 0 l
0 5 l
-3 5 l
-2 2 l
-5 3 l
-7 0 l
-7 -3 l
-5 -5 l
-3 -7 l
0 -5 l
3 -7 l
5 -5 l
7 -2 l
5 0 l
7 2 l
5 5 l
-3 12 m 0 7 l
-2 5 l
-12 3 m -5 -3 l
-5 -5 l
-2 -7 l
0 -5 l
2 -7 l
5 -5 l
5 -2 l
60 26 m -3 -2 l
3 -2 l
2 2 l
0 2 l
-5 5 l
-4 3 l
-8 0 l
-7 -3 l
-5 -5 l
-2 -7 l
0 -5 l
2 -7 l
5 -5 l
7 -2 l
5 0 l
7 2 l
5 5 l
-17 27 m -4 -3 l
-5 -5 l
-3 -7 l
0 -5 l
3 -7 l
5 -5 l
4 -2 l
37 50 m 0 -40 l
2 -8 l
5 -2 l
5 0 l
4 2 l
3 5 l
-17 43 m 0 -40 l
2 -8 l
3 -2 l
-15 34 m 20 0 l
21 -15 m 29 0 l
0 5 l
-2 5 l
-3 2 l
-4 3 l
-8 0 l
-7 -3 l
-5 -5 l
-2 -7 l
0 -5 l
2 -7 l
5 -5 l
7 -2 l
5 0 l
7 2 l
5 5 l
-2 12 m 0 7 l
-3 5 l
-12 3 m -5 -3 l
-4 -5 l
-3 -7 l
0 -5 l
3 -7 l
4 -5 l
5 -2 l
60 50 m 0 -50 l
3 50 m 0 -50 l
-3 26 m -4 5 l
-5 3 l
-5 0 l
-7 -3 l
-5 -5 l
-2 -7 l
0 -5 l
2 -7 l
5 -5 l
7 -2 l
5 0 l
5 2 l
4 5 l
-14 27 m -5 -3 l
-5 -5 l
-2 -7 l
0 -5 l
2 -7 l
5 -5 l
5 -2 l
7 50 m 10 0 l
-3 -50 m 10 0 l
55 50 m 0 -50 l
3 50 m 0 -50 l
-10 50 m 29 0 l
7 -2 l
3 -2 l
2 -5 l
0 -5 l
-2 -5 l
-3 -2 l
-7 -3 l
0 24 m 5 -2 l
2 -2 l
3 -5 l
0 -5 l
-3 -5 l
-2 -2 l
-5 -3 l
-19 0 m 19 0 l
7 -2 l
3 -2 l
2 -5 l
0 -7 l
-2 -5 l
-3 -3 l
-7 -2 l
-29 0 l
29 26 m 5 -2 l
2 -2 l
3 -5 l
0 -7 l
-3 -5 l
-2 -3 l
-5 -2 l
31 50 m -2 -2 l
2 -2 l
3 2 l
-3 2 l
0 -16 m 0 -34 l
3 34 m 0 -34 l
-10 34 m 10 0 l
-10 -34 m 17 0 l
17 34 m 0 -34 l
2 34 m 0 -34 l
0 26 m 5 5 l
7 3 l
5 0 l
7 -3 l
3 -5 l
0 -26 l
-10 34 m 5 -3 l
2 -5 l
0 -26 l
-33 34 m 9 0 l
-9 -34 m 17 0 l
9 0 m 17 0 l
17 34 m 0 -34 l
2 34 m 0 -34 l
0 26 m 5 5 l
7 3 l
5 0 l
7 -3 l
3 -5 l
0 -26 l
-10 34 m 5 -3 l
2 -5 l
0 -26 l
-33 34 m 9 0 l
-9 -34 m 16 0 l
10 0 m 17 0 l
14 19 m 29 0 l
0 5 l
-2 5 l
-3 2 l
-4 3 l
-8 0 l
-7 -3 l
-5 -5 l
-2 -7 l
0 -5 l
2 -7 l
5 -5 l
7 -2 l
5 0 l
7 2 l
5 5 l
-2 12 m 0 7 l
-3 5 l
CS M
-12 3 m -4 -3 l
-5 -5 l
-3 -7 l
0 -5 l
3 -7 l
5 -5 l
4 -2 l
61 50 m 0 -50 l
2 50 m 0 -50 l
-2 26 m -5 5 l
-5 3 l
-5 0 l
-7 -3 l
-5 -5 l
-2 -7 l
0 -5 l
2 -7 l
5 -5 l
7 -2 l
5 0 l
5 2 l
5 5 l
-15 27 m -5 -3 l
-4 -5 l
-3 -7 l
0 -5 l
3 -7 l
4 -5 l
5 -2 l
7 50 m 10 0 l
-2 -50 m 9 0 l
5 0 m CS [] 0 setdash M
 0 0 0 C
590 707 M CS [] 0 setdash M
614 755 M -3 -3 l
3 -2 l
2 2 l
0 3 l
-2 2 l
-5 0 l
-5 -2 l
-2 -5 l
0 -43 l
7 50 m -3 -2 l
-2 -5 l
0 -43 l
-10 33 m 20 0 l
-20 -33 m 17 0 l
17 -3 m 0 -21 l
1 21 m 0 -21 l
0 16 m 3 3 l
5 2 l
3 0 l
4 -2 l
1 -3 l
0 -16 l
-5 21 m 3 -2 l
1 -3 l
0 -16 l
-20 21 m 5 0 l
-5 -21 m 10 0 l
6 0 m 10 0 l
16 21 m -5 -2 l
-3 -3 l
-1 -4 l
0 -3 l
1 -4 l
3 -3 l
5 -2 l
2 0 l
5 2 l
3 3 l
1 4 l
0 3 l
-1 4 l
-3 3 l
-5 2 l
-2 0 l
-3 -2 l
-3 -3 l
-2 -4 l
0 -3 l
2 -4 l
3 -3 l
3 -2 l
2 0 m 3 2 l
3 3 l
2 4 l
0 3 l
-2 4 l
-3 3 l
-3 2 l
21 10 m -2 -2 l
2 -1 l
1 1 l
-1 2 l
0 -10 m 0 -21 l
1 21 m 0 -21 l
-6 21 m 6 0 l
-6 -21 m 10 0 l
22 18 m 1 3 l
0 -6 l
-1 3 l
-1 1 l
-3 2 l
-6 0 l
-3 -2 l
-1 -1 l
0 -3 l
1 -2 l
3 -1 l
7 -3 l
3 -1 l
1 -2 l
-15 10 m 1 -1 l
3 -2 l
7 -3 l
3 -1 l
1 -1 l
0 -5 l
-1 -1 l
-3 -2 l
-6 0 l
-3 2 l
-1 1 l
-1 3 l
0 -6 l
1 3 l
25 9 m 17 0 l
0 3 l
-2 3 l
-1 1 l
-3 2 l
-4 0 l
-5 -2 l
-2 -3 l
-2 -4 l
0 -3 l
2 -4 l
2 -3 l
5 -2 l
3 0 l
4 2 l
3 3 l
-2 7 m 0 4 l
-1 3 l
-7 2 m -3 -2 l
-3 -3 l
-1 -4 l
0 -3 l
1 -4 l
3 -3 l
3 -2 l
24 52 m 43 0 l
-43 -14 m 43 0 l
31 36 m -7 -2 l
-5 -8 l
-2 -12 l
0 -7 l
2 -12 l
5 -7 l
7 -2 l
5 0 l
7 2 l
5 7 l
3 12 l
0 7 l
-3 12 l
-5 8 l
-7 2 l
-5 0 l
-4 -2 l
-3 -3 l
-2 -5 l
-3 -12 l
0 -7 l
3 -12 l
2 -5 l
3 -2 l
4 -2 l
5 0 m 5 2 l
2 2 l
3 5 l
2 12 l
0 7 l
-2 12 l
-3 5 l
-2 3 l
-5 2 l
34 -46 m -2 -2 l
2 -2 l
2 2 l
-2 2 l
34 46 m -8 -2 l
-4 -8 l
-3 -12 l
0 -7 l
3 -12 l
4 -7 l
8 -2 l
4 0 l
8 2 l
5 7 l
2 12 l
0 7 l
-2 12 l
-5 8 l
-8 2 l
-4 0 l
-5 -2 l
-3 -3 l
-2 -5 l
-2 -12 l
0 -7 l
2 -12 l
2 -5 l
3 -2 l
5 -2 l
4 0 m 5 2 l
3 2 l
2 5 l
3 12 l
0 7 l
-3 12 l
-2 5 l
-3 3 l
-5 2 l
22 -50 m CS [] 0 setdash M
 0 0 0 C
CS [] 0 setdash M
415 80 M 32 36 m 2 6 l
0 -12 l
-2 6 l
-4 4 l
-6 2 l
-6 0 l
-6 -2 l
-4 -4 l
0 -4 l
2 -4 l
2 -2 l
4 -2 l
12 -4 l
4 -2 l
4 -4 l
-28 18 m 4 -4 l
4 -2 l
12 -4 l
4 -2 l
2 -2 l
2 -4 l
0 -8 l
-4 -4 l
-6 -2 l
-6 0 l
-6 2 l
-4 4 l
-2 6 l
0 -12 l
2 6 l
42 22 m 0 -42 l
2 42 m 0 -42 l
0 36 m 4 4 l
4 2 l
4 0 l
6 -2 l
4 -4 l
2 -6 l
0 -4 l
-2 -6 l
-4 -4 l
-6 -2 l
-4 0 l
-4 2 l
-4 4 l
12 22 m 4 -2 l
4 -4 l
2 -6 l
0 -4 l
-2 -6 l
-4 -4 l
-4 -2 l
-20 28 m 8 0 l
-8 -42 m 14 0 l
32 30 m 24 0 l
0 4 l
-2 4 l
-2 2 l
-4 2 l
-6 0 l
-6 -2 l
-4 -4 l
-2 -6 l
0 -4 l
2 -6 l
4 -4 l
6 -2 l
4 0 l
6 2 l
4 4 l
-2 10 m 0 6 l
-2 4 l
-10 2 m -4 -2 l
-4 -4 l
-2 -6 l
0 -4 l
CS M
2 -6 l
4 -4 l
4 -2 l
50 22 m -2 -2 l
2 -2 l
2 2 l
0 2 l
-4 4 l
-4 2 l
-6 0 l
-6 -2 l
-4 -4 l
-2 -6 l
0 -4 l
2 -6 l
4 -4 l
6 -2 l
4 0 l
6 2 l
4 4 l
-14 22 m -4 -2 l
-4 -4 l
-2 -6 l
0 -4 l
2 -6 l
4 -4 l
4 -2 l
30 42 m 0 -34 l
2 -6 l
4 -2 l
4 0 l
4 2 l
2 4 l
-14 36 m 0 -34 l
2 -6 l
2 -2 l
-12 28 m 16 0 l
20 0 m 0 -28 l
2 28 m 0 -28 l
0 16 m 2 6 l
4 4 l
4 2 l
6 0 l
2 -2 l
0 -2 l
-2 -2 l
-2 2 l
2 2 l
-24 2 m 8 0 l
-8 -28 m 14 0 l
26 28 m 0 -22 l
2 -4 l
6 -2 l
4 0 l
6 2 l
4 4 l
-20 22 m 0 -22 l
2 -4 l
4 -2 l
14 28 m 0 -28 l
2 28 m 0 -28 l
-30 28 m 8 0 l
14 0 m 8 0 l
-2 -28 m 8 0 l
14 28 m 0 -28 l
2 28 m 0 -28 l
0 22 m 4 4 l
6 2 l
4 0 l
6 -2 l
2 -4 l
0 -22 l
-8 28 m 4 -2 l
2 -4 l
0 -22 l
2 22 m 4 4 l
7 2 l
4 0 l
5 -2 l
3 -4 l
0 -22 l
-8 28 m 4 -2 l
1 -4 l
0 -22 l
-50 28 m 8 0 l
-8 -28 m 14 0 l
8 0 m 14 0 l
9 0 m 14 0 l
54 42 m 0 -42 l
2 42 m 0 -42 l
-14 42 m -2 -12 l
0 12 l
30 0 l
0 -12 l
-2 12 l
-20 -42 m 14 0 l
20 16 m 24 0 l
0 4 l
-2 4 l
-2 2 l
-4 2 l
-6 0 l
-6 -2 l
-4 -4 l
-2 -6 l
0 -4 l
2 -6 l
4 -4 l
6 -2 l
4 0 l
6 2 l
4 4 l
-2 10 m 0 6 l
-2 4 l
-10 2 m -4 -2 l
-4 -4 l
-2 -6 l
0 -4 l
2 -6 l
4 -4 l
4 -2 l
46 24 m 2 4 l
0 -8 l
-2 4 l
-2 2 l
-4 2 l
-8 0 l
-4 -2 l
-2 -2 l
0 -4 l
2 -2 l
4 -2 l
10 -4 l
4 -2 l
2 -2 l
-22 14 m 2 -2 l
4 -2 l
10 -4 l
4 -2 l
2 -2 l
0 -6 l
-2 -2 l
-4 -2 l
-8 0 l
-4 2 l
-2 2 l
-2 4 l
0 -8 l
2 4 l
36 38 m 0 -34 l
2 -6 l
4 -2 l
4 0 l
4 2 l
2 4 l
-14 36 m 0 -34 l
2 -6 l
2 -2 l
-12 28 m 16 0 l
309 14 m 0 -42 l
2 42 m 0 -42 l
20 28 m -20 -20 l
10 8 m 12 -16 l
-14 16 m 12 -16 l
-28 42 m 8 0 l
14 -14 m 12 0 l
-34 -28 m 14 0 l
8 0 m 12 0 l
7 -19 m 22 0 l
-11 0 m 0 23 l
23 6 m 2 -6 l
2 -2 l
4 -2 l
4 0 l
6 2 l
4 6 l
2 6 l
0 6 l
-2 4 l
-2 2 l
-4 2 l
-4 0 l
-6 -2 l
-4 -6 l
-2 -6 l
-8 -28 l
20 14 m 4 2 l
4 6 l
2 6 l
0 8 l
-2 4 l
-8 2 m -4 -2 l
-4 -6 l
-2 -6 l
-8 -28 l
42 20 m -1 -1 l
1 -1 l
1 1 l
-1 1 l
0 -8 m 0 -17 l
1 17 m 0 -17 l
-5 17 m 5 0 l
-5 -17 m 9 0 l
CS [] 0 setdash M
CS [] 0 setdash M
49 1141 M 7 1151 M 42 0 l
7 1153 M 42 0 l
19 1165 M 16 0 l
7 1145 M 0 32 l
12 0 l
7 1175 L
20 -22 m 0 12 l
22 -20 m 0 32 l
-12 0 l
12 -2 l
21 1193 M 28 0 l
21 1195 M 28 0 l
-22 0 m -4 4 l
-2 6 l
0 4 l
2 6 l
4 2 l
22 0 l
21 1209 M 2 4 l
4 2 l
22 0 l
21 1187 M 0 8 l
28 -8 m 0 14 l
0 8 m 0 14 l
-16 12 m 0 24 l
-4 0 l
-4 -2 l
-2 -2 l
-2 -4 l
0 -6 l
2 -6 l
4 -4 l
6 -2 l
4 0 l
6 2 l
4 4 l
2 6 l
0 4 l
-2 6 l
-4 4 l
-10 -2 m -6 0 l
-4 -2 l
-2 -10 m 2 -4 l
4 -4 l
6 -2 l
4 0 l
6 2 l
4 4 l
2 4 l
21 1275 M 28 0 l
21 1277 M 28 0 l
-16 0 m -6 2 l
-4 4 l
-2 4 l
0 6 l
2 2 l
2 0 l
2 -2 l
-2 -2 l
-2 2 l
-2 -24 m 0 8 l
28 -8 m 0 14 l
21 1315 M 2 -4 l
2 -2 l
4 -2 l
4 0 l
4 2 l
2 2 l
2 4 l
0 4 l
-2 4 l
-2 2 l
-4 2 l
-4 0 l
-4 -2 l
-2 -2 l
-2 -4 l
0 -4 l
2 -4 m 4 -2 l
8 0 l
4 2 l
0 12 m -4 2 l
-8 0 l
-4 -2 l
2 2 m -2 2 l
-2 4 l
2 0 l
0 -4 l
14 -18 m 2 -2 l
4 -2 l
2 0 l
4 2 l
2 6 l
0 10 l
2 6 l
2 2 l
-10 -26 m 2 2 l
CS M
2 6 l
0 10 l
2 6 l
4 2 l
2 0 l
4 -2 l
2 -6 l
0 -12 l
-2 -6 l
-4 -2 l
-2 0 l
-4 2 l
-2 6 l
21 1345 M 28 12 l
21 1347 M 24 10 l
21 1369 M 28 -12 l
8 -4 l
4 -4 l
2 -4 l
0 -2 l
-2 -2 l
-2 2 l
2 2 l
21 1341 M 0 12 l
0 8 m 0 12 l
CS [] 0 setdash M
CS [] 0 setdash M
255 255 M 2006 0 l
0 2006 l
255 2261 L
255 255 L
2006 0 l
255 255 M 2006 0 l
316 255 M 0 22 l
77 -22 m 0 22 l
69 -22 m 0 22 l
61 -22 m 0 43 l
-70 -121 m 18 42 m -6 -2 l
-4 -6 l
-3 -10 l
0 -6 l
3 -10 l
4 -6 l
6 -2 l
4 0 l
6 2 l
4 6 l
2 10 l
0 6 l
-2 10 l
-4 6 l
-6 2 l
-4 0 l
-4 -2 l
-2 -2 l
-3 -4 l
-1 -10 l
0 -6 l
1 -10 l
3 -4 l
2 -2 l
4 -2 l
4 0 m 4 2 l
2 2 l
2 4 l
2 10 l
0 6 l
-2 10 l
-2 4 l
-2 2 l
-4 2 l
28 -38 m -2 -2 l
2 -2 l
2 2 l
-2 2 l
28 38 m -6 -2 l
-4 -6 l
-2 -10 l
0 -6 l
2 -10 l
4 -6 l
6 -2 l
4 0 l
6 2 l
4 6 l
2 10 l
0 6 l
-2 10 l
-4 6 l
-6 2 l
-4 0 l
-4 -2 l
-2 -2 l
-2 -4 l
-2 -10 l
0 -6 l
2 -10 l
2 -4 l
2 -2 l
4 -2 l
4 0 m 4 2 l
2 2 l
2 4 l
2 10 l
0 6 l
-2 10 l
-2 4 l
-2 2 l
-4 2 l
30 -8 m 4 2 l
6 6 l
0 -42 l
-2 40 m 0 -40 l
-8 0 m 18 0 l
342 78 m 0 22 l
236 -22 m 0 22 l
167 -22 m 0 22 l
129 -22 m 0 22 l
106 -22 m 0 22 l
90 -22 m 0 22 l
77 -22 m 0 22 l
69 -22 m 0 22 l
61 -22 m 0 43 l
-50 -121 m 18 42 m -6 -2 l
-4 -6 l
-2 -10 l
0 -6 l
2 -10 l
4 -6 l
6 -2 l
4 0 l
6 2 l
4 6 l
2 10 l
0 6 l
-2 10 l
-4 6 l
-6 2 l
-4 0 l
-4 -2 l
-2 -2 l
-2 -4 l
-2 -10 l
0 -6 l
2 -10 l
2 -4 l
2 -2 l
4 -2 l
4 0 m 4 2 l
2 2 l
2 4 l
2 10 l
0 6 l
-2 10 l
-2 4 l
-2 2 l
-4 2 l
28 -38 m -2 -2 l
2 -2 l
2 2 l
-2 2 l
22 30 m 4 2 l
6 6 l
0 -42 l
-2 40 m 0 -40 l
-8 0 m 18 0 l
255 2261 M 2006 0 l
316 2261 M 0 -21 l
77 21 m 0 -21 l
69 21 m 0 -21 l
61 21 m 0 -43 l
402 43 m 0 -21 l
236 21 m 0 -21 l
167 21 m 0 -21 l
129 21 m 0 -21 l
106 21 m 0 -21 l
90 21 m 0 -21 l
77 21 m 0 -21 l
69 21 m 0 -21 l
61 21 m 0 -43 l
255 255 M 0 2006 l
255 255 M 43 0 l
119 234 M 18 42 m -6 -2 l
-4 -6 l
-2 -10 l
0 -6 l
2 -10 l
4 -6 l
6 -2 l
4 0 l
6 2 l
4 6 l
2 10 l
0 6 l
-2 10 l
-4 6 l
-6 2 l
-4 0 l
-4 -2 l
-2 -2 l
-2 -4 l
-2 -10 l
0 -6 l
2 -10 l
2 -4 l
2 -2 l
4 -2 l
4 0 m 4 2 l
2 2 l
2 4 l
2 10 l
0 6 l
-2 10 l
-2 4 l
-2 2 l
-4 2 l
28 -38 m -2 -2 l
2 -2 l
2 2 l
-2 2 l
22 30 m 4 2 l
6 6 l
0 -42 l
-2 40 m 0 -40 l
-8 0 m 18 0 l
46 172 m 22 0 l
-22 89 m 22 0 l
-22 62 m 22 0 l
-22 49 m 22 0 l
-22 39 m 22 0 l
-22 34 m 22 0 l
-22 29 m 22 0 l
-22 26 m 22 0 l
-22 23 m 43 0 l
-119 -21 m 12 34 m 4 2 l
6 6 l
0 -42 l
-2 40 m 0 -40 l
-8 0 m 18 0 l
46 172 m 22 0 l
-22 88 m 22 0 l
-22 63 m 22 0 l
-22 48 m 22 0 l
-22 40 m 22 0 l
-22 33 m 22 0 l
-22 30 m 22 0 l
-22 25 m 22 0 l
-22 23 m 43 0 l
139 1237 M 12 34 m 4 2 l
6 6 l
0 -42 l
-2 40 m 0 -40 l
-8 0 m 18 0 l
28 42 m -6 -2 l
-4 -6 l
-2 -10 l
0 -6 l
2 -10 l
4 -6 l
6 -2 l
4 0 l
6 2 l
4 6 l
2 10 l
0 6 l
-2 10 l
-4 6 l
-6 2 l
-4 0 l
-4 -2 l
-2 -2 l
-2 -4 l
-2 -10 l
0 -6 l
2 -10 l
2 -4 l
2 -2 l
4 -2 l
4 0 m 4 2 l
2 2 l
2 4 l
2 10 l
0 6 l
-2 10 l
-2 4 l
-2 2 l
-4 2 l
54 130 m 22 0 l
-22 88 m 22 0 l
-22 63 m 22 0 l
-22 49 m 22 0 l
-22 39 m 22 0 l
-22 34 m 22 0 l
-22 29 m 22 0 l
-22 26 m 22 0 l
-22 23 m 43 0 l
98 1739 M 12 34 m 5 2 l
5 6 l
0 -42 l
-1 40 m 0 -40 l
-9 0 m 19 0 l
28 42 m -6 -2 l
CS M
-4 -6 l
-2 -10 l
0 -6 l
2 -10 l
4 -7 l
6 -1 l
4 0 l
6 1 l
4 7 l
2 10 l
0 6 l
-2 10 l
-4 6 l
-6 2 l
-4 0 l
-4 -2 l
-2 -2 l
-2 -4 l
-2 -10 l
0 -6 l
2 -10 l
2 -4 l
2 -3 l
4 -1 l
4 0 m 4 1 l
2 3 l
2 4 l
2 10 l
0 6 l
-2 10 l
-2 4 l
-2 2 l
-4 2 l
36 0 m -6 -2 l
-4 -6 l
-2 -10 l
0 -6 l
2 -10 l
4 -7 l
6 -1 l
4 0 l
6 1 l
4 7 l
2 10 l
0 6 l
-2 10 l
-4 6 l
-6 2 l
-4 0 l
-4 -2 l
-2 -2 l
-2 -4 l
-2 -10 l
0 -6 l
2 -10 l
2 -4 l
2 -3 l
4 -1 l
4 0 m 4 1 l
2 3 l
2 4 l
2 10 l
0 6 l
-2 10 l
-2 4 l
-2 2 l
-4 2 l
54 130 m 22 0 l
-22 88 m 22 0 l
-22 62 m 22 0 l
-22 49 m 22 0 l
-22 40 m 22 0 l
-22 33 m 22 0 l
-22 29 m 22 0 l
-22 26 m 22 0 l
-22 23 m 43 0 l
58 2240 M 12 34 m 4 2 l
6 6 l
0 -42 l
-2 40 m 0 -40 l
-8 0 m 18 0 l
28 42 m -6 -2 l
-4 -6 l
-2 -10 l
0 -6 l
2 -10 l
4 -6 l
6 -2 l
4 0 l
7 2 l
4 6 l
2 10 l
0 6 l
-2 10 l
-4 6 l
-7 2 l
-4 0 l
-4 -2 l
-2 -2 l
-2 -4 l
-2 -10 l
0 -6 l
2 -10 l
2 -4 l
2 -2 l
4 -2 l
4 0 m 5 2 l
2 2 l
2 4 l
2 10 l
0 6 l
-2 10 l
-2 4 l
-2 2 l
-5 2 l
37 0 m -6 -2 l
-4 -6 l
-2 -10 l
0 -6 l
2 -10 l
4 -6 l
6 -2 l
4 0 l
6 2 l
4 6 l
2 10 l
0 6 l
-2 10 l
-4 6 l
-6 2 l
-4 0 l
-4 -2 l
-2 -2 l
-2 -4 l
-2 -10 l
0 -6 l
2 -10 l
2 -4 l
2 -2 l
4 -2 l
4 0 m 4 2 l
2 2 l
2 4 l
2 10 l
0 6 l
-2 10 l
-2 4 l
-2 2 l
-4 2 l
36 0 m -6 -2 l
-4 -6 l
-2 -10 l
0 -6 l
2 -10 l
4 -6 l
6 -2 l
4 0 l
6 2 l
4 6 l
2 10 l
0 6 l
-2 10 l
-4 6 l
-6 2 l
-4 0 l
-4 -2 l
-2 -2 l
-2 -4 l
-2 -10 l
0 -6 l
2 -10 l
2 -4 l
2 -2 l
4 -2 l
4 0 m 4 2 l
2 2 l
2 4 l
2 10 l
0 6 l
-2 10 l
-2 4 l
-2 2 l
-4 2 l
2261 255 M 0 2006 l
2261 255 M -43 0 l
43 151 m -21 0 l
21 89 m -21 0 l
21 62 m -21 0 l
21 49 m -21 0 l
21 39 m -21 0 l
21 34 m -21 0 l
21 29 m -21 0 l
21 26 m -21 0 l
21 23 m -43 0 l
43 151 m -21 0 l
21 88 m -21 0 l
21 63 m -21 0 l
21 48 m -21 0 l
21 40 m -21 0 l
21 33 m -21 0 l
21 30 m -21 0 l
21 25 m -21 0 l
21 23 m -43 0 l
43 151 m -21 0 l
21 88 m -21 0 l
21 63 m -21 0 l
21 49 m -21 0 l
21 39 m -21 0 l
21 34 m -21 0 l
21 29 m -21 0 l
21 26 m -21 0 l
21 23 m -43 0 l
43 151 m -21 0 l
21 88 m -21 0 l
21 62 m -21 0 l
21 49 m -21 0 l
21 40 m -21 0 l
21 33 m -21 0 l
21 29 m -21 0 l
21 26 m -21 0 l
21 23 m -43 0 l
CS [] 0 setdash M
stroke
grestore
showpage
end
