%!PS-Adobe-2.0 EPSF-2.0
%%Creator: SM
%%BoundingBox: 18 144 592 718
%%DocumentFonts: Helvetica
%%EndComments
 20 dict begin
72 300 div dup scale
1 setlinejoin 0 setlinecap
/Helvetica findfont 55 scalefont setfont 
/B {CS newpath moveto} def
/F {moveto 0 setlinecap} def
/C {CS M 1 1 3 {pop 3 1 roll 255 div} for SET_COLOUR} def
/CS {currentpoint stroke} def
/CF {currentpoint eofill} def
/L {lineto} def /l {rlineto} def /M {moveto} def /m {rmoveto} def
/P {currentpoint 0 1 rlineto stroke moveto} def
/T {currentlinecap exch 1 setlinecap show setlinecap} def
errordict /nocurrentpoint {pop 0 0 M currentpoint} put
/SET_COLOUR statusdict begin /processcolors where
  {pop processcolors 1 gt} {false} ifelse
  {(setrgbcolor)} {(pop pop pop)} ifelse cvx end def
 80 600 translate
gsave
CS [] 0 setdash M
CS M 1 100 mul 72 div dup setlinewidth
/P [ /currentpoint cvx 0 5 -1 roll .05 add dup -2 div 0 exch /rmoveto cvx /rlineto cvx /stroke cvx /moveto cvx ] cvx def
 0 0 0 C
CS M 4 100 mul 72 div dup setlinewidth
/P [ /currentpoint cvx 0 5 -1 roll .05 add dup -2 div 0 exch /rmoveto cvx /rlineto cvx /stroke cvx /moveto cvx ] cvx def
 255 0 0 C
CS [] 0 setdash M
613 1989 M 469 -389 l
231 -59 l
180 -101 l
173 -129 l
109 -69 l
105 -68 l
94 -68 l
91 -74 l
CS [6 12] 0 setdash M
613 1893 M 469 -451 l
231 -18 l
180 -76 l
173 -97 l
109 -60 l
105 -77 l
94 -83 l
91 -79 l
CS [32 24] 0 setdash M
613 1930 M 469 -368 l
231 -78 l
180 -130 l
173 -251 l
109 -96 l
105 -186 l
94 -109 l
91 -51 l
CS [80 24] 0 setdash M
613 1469 M 469 -317 l
231 -18 l
180 -56 l
173 -15 l
109 -6 l
105 4 l
94 -39 l
91 -69 l
CS [6 12 32 12] 0 setdash M
613 1099 M 469 -428 l
231 -3 l
180 -77 l
173 -80 l
109 -33 l
105 -51 l
94 -60 l
91 -32 l
 0 0 255 C
CS [] 0 setdash M
613 2209 M 469 -26 l
231 -79 l
180 -56 l
173 -43 l
109 5 l
105 -1 l
94 -18 l
91 -17 l
CS [6 12] 0 setdash M
613 2089 M 469 11 l
231 -73 l
180 -48 l
173 -20 l
109 -14 l
105 -3 l
94 2 l
91 2 l
CS [32 24] 0 setdash M
613 2154 M 469 -42 l
231 -93 l
180 -79 l
173 -73 l
109 17 l
105 -2 l
94 -51 l
91 -96 l
CS [80 24] 0 setdash M
613 1756 M 469 -62 l
231 -7 l
180 -54 l
173 45 l
109 75 l
105 4 l
94 -14 l
91 -18 l
CS [6 12 32 12] 0 setdash M
613 1282 M 469 27 l
231 -90 l
180 -31 l
173 -33 l
109 3 l
105 7 l
94 -9 l
91 3 l
 0 0 0 C
CS M 2 100 mul 72 div dup setlinewidth
/P [ /currentpoint cvx 0 5 -1 roll .05 add dup -2 div 0 exch /rmoveto cvx /rlineto cvx /stroke cvx /moveto cvx ] cvx def
CS [] 0 setdash M
255 2073 M 16 -4 l
16 -4 l
16 -5 l
16 -4 l
17 -4 l
16 -4 l
16 -4 l
16 -4 l
16 -5 l
16 -4 l
16 -4 l
16 -4 l
16 -4 l
16 -5 l
16 -4 l
16 -4 l
16 -4 l
16 -4 l
16 -4 l
16 -5 l
16 -4 l
16 -4 l
16 -4 l
16 -4 l
16 -5 l
16 -4 l
16 -4 l
17 -4 l
16 -4 l
16 -4 l
16 -5 l
16 -4 l
16 -4 l
16 -4 l
16 -4 l
16 -4 l
16 -5 l
16 -4 l
16 -4 l
16 -4 l
16 -4 l
16 -5 l
16 -4 l
16 -4 l
16 -4 l
16 -4 l
16 -4 l
16 -5 l
16 -4 l
17 -4 l
16 -4 l
16 -4 l
16 -4 l
16 -5 l
16 -4 l
16 -4 l
16 -4 l
16 -4 l
16 -5 l
16 -4 l
16 -4 l
16 -4 l
16 -4 l
16 -4 l
16 -5 l
16 -4 l
16 -4 l
16 -4 l
16 -4 l
16 -5 l
16 -4 l
17 -4 l
16 -4 l
16 -4 l
16 -4 l
16 -5 l
16 -4 l
16 -4 l
16 -4 l
16 -4 l
16 -4 l
16 -5 l
16 -4 l
16 -4 l
16 -4 l
16 -4 l
16 -5 l
16 -4 l
16 -4 l
16 -4 l
16 -4 l
16 -4 l
16 -5 l
17 -4 l
16 -4 l
16 -4 l
16 -4 l
16 -5 l
16 -4 l
16 -4 l
16 -4 l
16 -4 l
16 -4 l
16 -5 l
16 -4 l
16 -4 l
16 -4 l
16 -4 l
16 -4 l
16 -5 l
16 -4 l
16 -4 l
16 -4 l
16 -4 l
17 -5 l
16 -4 l
16 -4 l
16 -4 l
16 -4 l
16 -4 l
16 -5 l
16 -4 l
16 -4 l
16 -4 l
16 -4 l
0 0 l
CS [] 0 setdash M
421 80 M 10 42 m 0 -34 l
2 -6 l
4 -2 l
4 0 l
4 2 l
2 4 l
-14 36 m 0 -34 l
2 -6 l
2 -2 l
-12 28 m 16 0 l
20 0 m 0 -28 l
2 28 m 0 -28 l
0 16 m 2 6 l
4 4 l
4 2 l
6 0 l
2 -2 l
0 -2 l
-2 -2 l
-2 2 l
2 2 l
-24 2 m 8 0 l
-8 -28 m 14 0 l
26 24 m 0 -2 l
-2 0 l
0 2 l
2 2 l
4 2 l
8 0 l
4 -2 l
2 -2 l
2 -4 l
0 -14 l
2 -4 l
2 -2 l
-6 24 m 0 -18 l
2 -4 l
4 -2 l
2 0 l
-8 20 m -2 -2 l
-12 -2 l
-6 -2 l
-2 -4 l
0 -4 l
2 -4 l
6 -2 l
6 0 l
4 2 l
4 4 l
-14 10 m -4 -2 l
-2 -4 l
0 -4 l
2 -4 l
4 -2 l
36 28 m 0 -28 l
2 28 m 0 -28 l
0 22 m 4 4 l
6 2 l
4 0 l
6 -2 l
2 -4 l
0 -22 l
-8 28 m 4 -2 l
2 -4 l
0 -22 l
-28 28 m 8 0 l
-8 -28 m 14 0 l
8 0 m 14 0 l
30 24 m 2 4 l
0 -8 l
-2 4 l
-2 2 l
-4 2 l
-8 0 l
-4 -2 l
-2 -2 l
0 -4 l
2 -2 l
4 -2 l
10 -4 l
4 -2 l
2 -2 l
-22 14 m 2 -2 l
4 -2 l
10 -4 l
4 -2 l
2 -2 l
0 -6 l
-2 -2 l
-4 -2 l
-8 0 l
-4 2 l
-2 2 l
-2 4 l
CS M
0 -8 l
2 4 l
34 30 m 2 -2 l
-2 -2 l
-2 2 l
0 2 l
2 4 l
2 2 l
6 2 l
8 0 l
6 -2 l
2 -2 l
2 -4 l
0 -4 l
-2 -4 l
-6 -4 l
-10 -4 l
-4 -2 l
-4 -4 l
-2 -6 l
0 -6 l
18 42 m 4 -2 l
2 -2 l
2 -4 l
0 -4 l
-2 -4 l
-6 -4 l
-8 -4 l
-10 -14 m 2 2 l
4 0 l
10 -4 l
6 0 l
4 2 l
2 2 l
-22 0 m 10 -6 l
8 0 l
2 2 l
2 4 l
0 4 l
44 18 m 12 -28 l
-10 28 m 10 -24 l
12 24 m -12 -28 l
-16 28 m 12 0 l
8 0 m 12 0 l
29 -4 m 2 4 l
0 -8 l
-2 4 l
-2 2 l
-4 2 l
-8 0 l
-4 -2 l
-3 -2 l
0 -4 l
3 -2 l
4 -2 l
10 -4 l
4 -2 l
2 -2 l
-23 14 m 3 -2 l
4 -2 l
10 -4 l
4 -2 l
2 -2 l
0 -6 l
-2 -2 l
-4 -2 l
-8 0 l
-5 2 l
-1 2 l
-3 4 l
0 -8 l
3 4 l
36 0 m -2 -2 l
2 -2 l
2 2 l
-2 2 l
52 38 m 0 -34 l
2 -6 l
4 -2 l
4 0 l
4 2 l
2 4 l
-14 36 m 0 -34 l
2 -6 l
2 -2 l
-12 28 m 16 0 l
20 0 m 0 -28 l
2 28 m 0 -28 l
0 16 m 2 6 l
4 4 l
4 2 l
6 0 l
2 -2 l
0 -2 l
-2 -2 l
-2 2 l
2 2 l
-24 2 m 8 0 l
-8 -28 m 14 0 l
26 24 m 0 -2 l
-2 0 l
0 2 l
2 2 l
4 2 l
8 0 l
4 -2 l
2 -2 l
2 -4 l
0 -14 l
2 -4 l
2 -2 l
-6 24 m 0 -18 l
2 -4 l
4 -2 l
2 0 l
-8 20 m -2 -2 l
-12 -2 l
-6 -2 l
-2 -4 l
0 -4 l
2 -4 l
6 -2 l
6 0 l
4 2 l
4 4 l
-14 10 m -4 -2 l
-2 -4 l
0 -4 l
2 -4 l
4 -2 l
36 28 m 0 -28 l
2 28 m 0 -28 l
0 22 m 4 4 l
6 2 l
4 0 l
6 -2 l
2 -4 l
0 -22 l
-8 28 m 4 -2 l
2 -4 l
0 -22 l
-28 28 m 8 0 l
-8 -28 m 14 0 l
8 0 m 14 0 l
30 24 m 2 4 l
0 -8 l
-2 4 l
-2 2 l
-4 2 l
-8 0 l
-4 -2 l
-2 -2 l
0 -4 l
2 -2 l
4 -2 l
10 -4 l
4 -2 l
2 -2 l
-22 14 m 2 -2 l
4 -2 l
10 -4 l
4 -2 l
2 -2 l
0 -6 l
-2 -2 l
-4 -2 l
-8 0 l
-4 2 l
-2 2 l
-2 4 l
0 -8 l
2 4 l
34 30 m 2 -2 l
-2 -2 l
-2 2 l
0 2 l
2 4 l
2 2 l
6 2 l
8 0 l
6 -2 l
2 -4 l
0 -6 l
-2 -4 l
-6 -2 l
-6 0 l
6 18 m 4 -2 l
2 -4 l
0 -6 l
-2 -4 l
-4 -2 l
4 -2 l
4 -4 l
2 -4 l
0 -6 l
-2 -4 l
-2 -2 l
-6 -2 l
-8 0 l
-6 2 l
-2 2 l
-2 4 l
0 2 l
2 2 l
2 -2 l
-2 -2 l
22 12 m 2 -6 l
0 -6 l
-2 -4 l
-2 -2 l
-4 -2 l
123 42 m 0 -42 l
2 42 m 0 -42 l
20 28 m -20 -20 l
10 8 m 12 -16 l
-14 16 m 12 -16 l
-28 42 m 8 0 l
14 -14 m 12 0 l
-34 -28 m 14 0 l
8 0 m 12 0 l
7 -19 m 22 0 l
-11 0 m 0 23 l
23 6 m 1 -6 l
3 -2 l
4 -2 l
4 0 l
6 2 l
4 6 l
2 6 l
0 6 l
-2 4 l
-2 2 l
-4 2 l
-4 0 l
-7 -2 l
-4 -6 l
-1 -6 l
-9 -28 l
21 14 m 4 2 l
4 6 l
2 6 l
0 8 l
-2 4 l
-8 2 m -4 -2 l
-4 -6 l
-3 -6 l
-8 -28 l
43 20 m -2 -1 l
2 -1 l
1 1 l
-1 1 l
0 -8 m 0 -17 l
1 17 m 0 -17 l
-5 17 m 5 0 l
-5 -17 m 8 0 l
334 61 m 0 -34 l
2 -6 l
4 -2 l
4 0 l
4 2 l
2 4 l
-14 36 m 0 -34 l
2 -6 l
2 -2 l
-12 28 m 16 0 l
18 -4 m 36 0 l
-36 -12 m 36 0 l
52 22 m 4 2 l
6 6 l
0 -42 l
-2 40 m 0 -40 l
-8 0 m 18 0 l
20 42 m -4 -20 l
4 4 l
6 2 l
6 0 l
6 -2 l
4 -4 l
2 -6 l
0 -4 l
-2 -6 l
-4 -4 l
-6 -2 l
-6 0 l
-6 2 l
-2 2 l
-2 4 l
0 2 l
2 2 l
2 -2 l
-2 -2 l
14 20 m 4 -2 l
4 -4 l
2 -6 l
0 -4 l
-2 -6 l
-4 -4 l
-4 -2 l
-12 42 m 20 0 l
-20 -2 m 10 0 l
CS M
10 2 l
20 -38 m -2 -2 l
2 -2 l
2 2 l
-2 2 l
20 38 m -4 -20 l
4 4 l
6 2 l
6 0 l
6 -2 l
4 -4 l
2 -6 l
0 -4 l
-2 -6 l
-4 -4 l
-6 -2 l
-6 0 l
-6 2 l
-2 2 l
-2 4 l
0 2 l
2 2 l
2 -2 l
-2 -2 l
14 20 m 4 -2 l
4 -4 l
2 -6 l
0 -4 l
-2 -6 l
-4 -4 l
-4 -2 l
-12 42 m 20 0 l
-20 -2 m 10 0 l
10 2 l
18 -8 m 2 -2 l
-2 -2 l
-2 2 l
0 2 l
2 4 l
2 2 l
6 2 l
8 0 l
6 -2 l
2 -4 l
0 -6 l
-2 -4 l
-6 -2 l
-6 0 l
6 18 m 4 -2 l
2 -4 l
0 -6 l
-2 -4 l
-4 -2 l
4 -2 l
4 -4 l
2 -4 l
0 -6 l
-2 -4 l
-2 -2 l
-6 -2 l
-8 0 l
-6 2 l
-2 2 l
-2 4 l
0 2 l
2 2 l
2 -2 l
-2 -2 l
22 12 m 2 -6 l
0 -6 l
-2 -4 l
-2 -2 l
-4 -2 l
49 28 m -2 -6 l
-4 -4 l
-6 -2 l
-2 0 l
-6 2 l
-4 4 l
-3 6 l
0 2 l
3 6 l
4 4 l
6 2 l
4 0 l
6 -2 l
4 -4 l
2 -6 l
0 -12 l
-2 -8 l
-2 -4 l
-4 -4 l
-6 -2 l
-6 0 l
-5 2 l
-1 4 l
0 2 l
1 2 l
3 -2 l
-3 -2 l
9 10 m -4 2 l
-5 4 l
-1 6 l
0 2 l
1 6 l
5 4 l
4 2 l
4 0 m 4 -2 l
4 -4 l
2 -6 l
0 -12 l
-2 -8 l
-2 -4 l
-4 -4 l
-4 -2 l
28 34 m 2 -2 l
-2 -2 l
-2 2 l
0 2 l
2 4 l
2 2 l
6 2 l
8 0 l
6 -2 l
2 -2 l
2 -4 l
0 -4 l
-2 -4 l
-6 -4 l
-10 -4 l
-4 -2 l
-4 -4 l
-2 -6 l
0 -6 l
18 42 m 4 -2 l
2 -2 l
2 -4 l
0 -4 l
-2 -4 l
-6 -4 l
-8 -4 l
-10 -14 m 2 2 l
4 0 l
10 -4 l
6 0 l
4 2 l
2 2 l
-22 0 m 10 -6 l
8 0 l
2 2 l
2 4 l
0 4 l
18 24 m 4 2 l
6 6 l
0 -42 l
-2 40 m 0 -40 l
-8 0 m 18 0 l
16 42 m 0 -12 l
0 4 m 2 4 l
4 4 l
4 0 l
10 -6 l
4 0 l
2 2 l
2 4 l
-26 -4 m 4 2 l
4 0 l
10 -4 l
8 6 m 0 -6 l
-2 -6 l
-8 -10 l
-2 -4 l
-2 -6 l
0 -10 l
12 30 m -10 -10 l
-2 -4 l
-2 -6 l
0 -10 l
54 28 m -2 -6 l
-4 -4 l
-6 -2 l
-2 0 l
-6 2 l
-4 4 l
-2 6 l
0 2 l
2 6 l
4 4 l
6 2 l
4 0 l
6 -2 l
4 -4 l
2 -6 l
0 -12 l
-2 -8 l
-2 -4 l
-4 -4 l
-6 -2 l
-6 0 l
-4 2 l
-2 4 l
0 2 l
2 2 l
2 -2 l
-2 -2 l
8 10 m -4 2 l
-4 4 l
-2 6 l
0 2 l
2 6 l
4 4 l
4 2 l
4 0 m 4 -2 l
4 -4 l
2 -6 l
0 -12 l
-2 -8 l
-2 -4 l
-4 -4 l
-4 -2 l
30 42 m -4 -20 l
4 4 l
6 2 l
6 0 l
6 -2 l
4 -4 l
2 -6 l
0 -4 l
-2 -6 l
-4 -4 l
-6 -2 l
-6 0 l
-6 2 l
-2 2 l
-2 4 l
0 2 l
2 2 l
2 -2 l
-2 -2 l
14 20 m 4 -2 l
4 -4 l
2 -6 l
0 -4 l
-2 -6 l
-4 -4 l
-4 -2 l
-12 42 m 20 0 l
-20 -2 m 10 0 l
10 2 l
CS [] 0 setdash M
CS [] 0 setdash M
49 756 M 7 1536 M 42 0 l
7 1538 M 42 0 l
19 1550 M 16 0 l
7 1530 M 0 32 l
12 0 l
7 1560 L
20 -22 m 0 12 l
22 -20 m 0 32 l
-12 0 l
12 -2 l
21 1578 M 28 0 l
21 1580 M 28 0 l
-22 0 m -4 4 l
-2 6 l
0 4 l
2 6 l
4 2 l
22 0 l
21 1594 M 2 4 l
4 2 l
22 0 l
21 1572 M 0 8 l
28 -8 m 0 14 l
0 8 m 0 14 l
-16 12 m 0 24 l
-4 0 l
-4 -2 l
-2 -2 l
-2 -4 l
0 -6 l
2 -6 l
4 -4 l
6 -2 l
4 0 l
6 2 l
4 4 l
2 6 l
0 4 l
-2 6 l
-4 4 l
-10 -2 m -6 0 l
-4 -2 l
-2 -10 m 2 -4 l
4 -4 l
6 -2 l
4 0 l
6 2 l
4 4 l
2 4 l
21 1660 M 28 0 l
21 1662 M 28 0 l
CS M
-16 0 m -6 2 l
-4 4 l
-2 4 l
0 6 l
2 2 l
2 0 l
2 -2 l
-2 -2 l
-2 2 l
-2 -24 m 0 8 l
28 -8 m 0 14 l
21 1700 M 2 -4 l
2 -2 l
4 -2 l
4 0 l
4 2 l
2 2 l
2 4 l
0 4 l
-2 4 l
-2 2 l
-4 2 l
-4 0 l
-4 -2 l
-2 -2 l
-2 -4 l
0 -4 l
2 -4 m 4 -2 l
8 0 l
4 2 l
0 12 m -4 2 l
-8 0 l
-4 -2 l
2 2 m -2 2 l
-2 4 l
2 0 l
0 -4 l
14 -18 m 2 -2 l
4 -2 l
2 0 l
4 2 l
2 6 l
0 10 l
2 6 l
2 2 l
-10 -26 m 2 2 l
2 6 l
0 10 l
2 6 l
4 2 l
2 0 l
4 -2 l
2 -6 l
0 -12 l
-2 -6 l
-4 -2 l
-2 0 l
-4 2 l
-2 6 l
21 1730 M 28 12 l
21 1732 M 24 10 l
21 1754 M 28 -12 l
8 -4 l
4 -4 l
2 -4 l
0 -2 l
-2 -2 l
-2 2 l
2 2 l
21 1726 M 0 12 l
0 8 m 0 12 l
CS [] 0 setdash M
CS [] 0 setdash M
255 255 M 2006 0 l
0 2006 l
255 2261 L
255 255 L
2006 0 l
255 255 M 2006 0 l
337 255 M 0 22 l
283 -22 m 0 22 l
200 -22 m 0 22 l
156 -22 m 0 22 l
127 -22 m 0 22 l
107 -22 m 0 22 l
93 -22 m 0 22 l
82 -22 m 0 22 l
74 -22 m 0 43 l
-20 -121 m 12 34 m 4 2 l
6 6 l
0 -42 l
-2 40 m 0 -40 l
-8 0 m 18 0 l
473 78 m 0 22 l
282 -22 m 0 22 l
255 2261 M 2006 0 l
337 2261 M 0 -21 l
283 21 m 0 -21 l
200 21 m 0 -21 l
156 21 m 0 -21 l
127 21 m 0 -21 l
107 21 m 0 -21 l
93 21 m 0 -21 l
82 21 m 0 -21 l
74 21 m 0 -43 l
483 43 m 0 -21 l
282 21 m 0 -21 l
255 255 M 0 2006 l
255 255 M 43 0 l
83 233 M 12 34 m 4 2 l
6 6 l
0 -42 l
-2 40 m 0 -40 l
-8 0 m 18 0 l
28 42 m -6 -2 l
-4 -6 l
-2 -10 l
0 -6 l
2 -10 l
4 -6 l
6 -2 l
4 0 l
6 2 l
5 6 l
1 10 l
0 6 l
-1 10 l
-5 6 l
-6 2 l
-4 0 l
-4 -2 l
-2 -2 l
-2 -4 l
-2 -10 l
0 -6 l
2 -10 l
2 -4 l
2 -2 l
4 -2 l
4 0 m 4 2 l
2 2 l
2 4 l
3 10 l
0 6 l
-3 10 l
-2 4 l
-2 2 l
-4 2 l
23 -12 m 22 0 l
14 15 m -3 -2 l
-1 -2 l
0 -4 l
1 -2 l
3 -1 l
5 0 l
4 1 l
1 2 l
0 4 l
-1 2 l
-4 2 l
-5 0 l
-2 -2 l
-1 -2 l
0 -4 l
1 -2 l
2 -1 l
5 0 m 3 1 l
1 2 l
0 4 l
-1 2 l
-3 2 l
-5 -11 m -3 -2 l
-1 -1 l
-2 -2 l
0 -5 l
2 -2 l
1 -2 l
3 -1 l
5 0 l
4 1 l
1 2 l
1 2 l
0 5 l
-1 2 l
-1 1 l
-4 2 l
-5 0 m -2 -2 l
-1 -1 l
-1 -2 l
0 -5 l
1 -2 l
1 -2 l
2 -1 l
5 0 m 3 1 l
1 2 l
1 2 l
0 5 l
-1 2 l
-1 1 l
-3 2 l
46 64 m 22 0 l
-22 44 m 22 0 l
-22 31 m 22 0 l
-22 25 m 22 0 l
-22 19 m 22 0 l
-22 17 m 22 0 l
-22 15 m 22 0 l
-22 13 m 22 0 l
-22 11 m 43 0 l
83 484 M 12 34 m 4 2 l
6 6 l
0 -42 l
-2 40 m 0 -40 l
-8 0 m 18 0 l
28 42 m -6 -2 l
-4 -6 l
-2 -10 l
0 -6 l
2 -10 l
4 -6 l
6 -2 l
4 0 l
6 2 l
5 6 l
1 10 l
0 6 l
-1 10 l
-5 6 l
-6 2 l
-4 0 l
-4 -2 l
-2 -2 l
-2 -4 l
-2 -10 l
0 -6 l
2 -10 l
2 -4 l
2 -2 l
4 -2 l
4 0 m 4 2 l
2 2 l
2 4 l
3 10 l
0 6 l
-3 10 l
-2 4 l
-2 2 l
-4 2 l
23 -12 m 22 0 l
8 14 m 0 -7 l
0 2 m 2 3 l
2 2 l
2 0 l
6 -3 l
3 0 l
1 1 l
1 2 l
-15 -2 m 2 1 l
2 0 l
6 -2 l
5 3 m 0 -3 l
-1 -4 l
-5 -6 l
-1 -2 l
-1 -4 l
0 -6 l
7 18 m -6 -6 l
-1 -2 l
-1 -4 l
0 -6 l
49 78 m 22 0 l
-22 45 m 22 0 l
-22 31 m 22 0 l
-22 24 m 22 0 l
-22 20 m 22 0 l
-22 17 m 22 0 l
-22 14 m 22 0 l
-22 13 m 22 0 l
-22 12 m 43 0 l
83 734 M 12 35 m 4 2 l
6 6 l
0 -43 l
-2 41 m 0 -41 l
-8 0 m 18 0 l
28 43 m -6 -2 l
-4 -6 l
-2 -10 l
0 -7 l
2 -10 l
4 -6 l
6 -2 l
4 0 l
6 2 l
5 6 l
1 10 l
0 7 l
-1 10 l
-5 6 l
-6 2 l
-4 0 l
-4 -2 l
-2 -2 l
CS M
-2 -4 l
-2 -10 l
0 -7 l
2 -10 l
2 -4 l
2 -2 l
4 -2 l
4 0 m 4 2 l
2 2 l
2 4 l
3 10 l
0 7 l
-3 10 l
-2 4 l
-2 2 l
-4 2 l
23 -12 m 22 0 l
23 10 m -1 -1 l
1 -1 l
1 1 l
0 1 l
-1 3 l
-3 1 l
-3 0 l
-4 -1 l
-2 -3 l
-1 -2 l
-2 -5 l
0 -7 l
2 -4 l
2 -2 l
4 -1 l
2 0 l
4 1 l
2 2 l
1 4 l
0 1 l
-1 4 l
-2 2 l
-4 1 l
-1 0 l
-4 -1 l
-2 -2 l
-1 -4 l
7 17 m -3 -1 l
-2 -3 l
-1 -2 l
-1 -5 l
0 -7 l
1 -4 l
2 -2 l
3 -1 l
2 0 m 2 1 l
3 2 l
1 4 l
0 1 l
-1 4 l
-3 2 l
-2 1 l
47 63 m 22 0 l
-22 44 m 22 0 l
-22 32 m 22 0 l
-22 24 m 22 0 l
-22 20 m 22 0 l
-22 17 m 22 0 l
-22 14 m 22 0 l
-22 13 m 22 0 l
-22 11 m 43 0 l
83 985 M 12 34 m 4 2 l
6 6 l
0 -42 l
-2 40 m 0 -40 l
-8 0 m 18 0 l
28 42 m -6 -2 l
-4 -6 l
-2 -10 l
0 -6 l
2 -10 l
4 -6 l
6 -2 l
4 0 l
6 2 l
5 6 l
1 10 l
0 6 l
-1 10 l
-5 6 l
-6 2 l
-4 0 l
-4 -2 l
-2 -2 l
-2 -4 l
-2 -10 l
0 -6 l
2 -10 l
2 -4 l
2 -2 l
4 -2 l
4 0 m 4 2 l
2 2 l
2 4 l
3 10 l
0 6 l
-3 10 l
-2 4 l
-2 2 l
-4 2 l
23 -12 m 22 0 l
11 15 m -3 -12 l
3 2 l
3 1 l
4 0 l
4 -1 l
2 -2 l
1 -4 l
0 -2 l
-1 -4 l
-2 -2 l
-4 -2 l
-4 0 l
-3 2 l
-1 1 l
-2 2 l
0 1 l
2 2 l
1 -2 l
-1 -1 l
8 12 m 2 -1 l
3 -2 l
1 -4 l
0 -2 l
-1 -4 l
-3 -2 l
-2 -2 l
-7 26 m 12 0 l
-12 -1 m 6 0 l
6 1 l
42 53 m 22 0 l
-22 44 m 22 0 l
-22 31 m 22 0 l
-22 25 m 22 0 l
-22 20 m 22 0 l
-22 16 m 22 0 l
-22 15 m 22 0 l
-22 13 m 22 0 l
-22 11 m 43 0 l
-1 1237 M 16 1279 M -6 -2 l
-4 -6 l
-2 -10 l
0 -6 l
2 -10 l
4 -6 l
6 -2 l
4 0 l
6 2 l
4 6 l
2 10 l
0 6 l
-2 10 l
-4 6 l
-6 2 l
-4 0 l
-4 -2 l
-2 -2 l
-2 -4 l
-2 -10 l
0 -6 l
2 -10 l
2 -4 l
2 -2 l
4 -2 l
4 0 m 4 2 l
2 2 l
2 4 l
2 10 l
0 6 l
-2 10 l
-2 4 l
-2 2 l
-4 2 l
28 -38 m -2 -2 l
2 -2 l
2 2 l
-2 2 l
28 38 m -6 -2 l
-4 -6 l
-2 -10 l
0 -6 l
2 -10 l
4 -6 l
6 -2 l
4 0 l
7 2 l
4 6 l
1 10 l
0 6 l
-1 10 l
-4 6 l
-7 2 l
-4 0 l
-4 -2 l
-2 -2 l
-2 -4 l
-2 -10 l
0 -6 l
2 -10 l
2 -4 l
2 -2 l
4 -2 l
4 0 m 4 2 l
3 2 l
1 4 l
3 10 l
0 6 l
-3 10 l
-1 4 l
-3 2 l
-4 2 l
37 0 m -6 -2 l
-4 -6 l
-2 -10 l
0 -6 l
2 -10 l
4 -6 l
6 -2 l
4 0 l
6 2 l
4 6 l
2 10 l
0 6 l
-2 10 l
-4 6 l
-6 2 l
-4 0 l
-4 -2 l
-2 -2 l
-2 -4 l
-2 -10 l
0 -6 l
2 -10 l
2 -4 l
2 -2 l
4 -2 l
4 0 m 4 2 l
2 2 l
2 4 l
2 10 l
0 6 l
-2 10 l
-2 4 l
-2 2 l
-4 2 l
36 0 m -6 -2 l
-4 -6 l
-2 -10 l
0 -6 l
2 -10 l
4 -6 l
6 -2 l
4 0 l
6 2 l
4 6 l
2 10 l
0 6 l
-2 10 l
-4 6 l
-6 2 l
-4 0 l
-4 -2 l
-2 -2 l
-2 -4 l
-2 -10 l
0 -6 l
2 -10 l
2 -4 l
2 -2 l
4 -2 l
4 0 m 4 2 l
2 2 l
2 4 l
2 10 l
0 6 l
-2 10 l
-2 4 l
-2 2 l
-4 2 l
30 -8 m 4 2 l
6 6 l
0 -42 l
-2 40 m 0 -40 l
-8 0 m 18 0 l
46 97 m 22 0 l
-22 44 m 22 0 l
-22 31 m 22 0 l
-22 24 m 22 0 l
-22 20 m 22 0 l
-22 17 m 22 0 l
-22 15 m 22 0 l
-22 12 m 22 0 l
-22 12 m 43 0 l
CS M
38 1488 M 18 42 m -6 -2 l
-4 -6 l
-2 -10 l
0 -6 l
2 -10 l
4 -6 l
6 -2 l
4 0 l
6 2 l
4 6 l
2 10 l
0 6 l
-2 10 l
-4 6 l
-6 2 l
-4 0 l
-4 -2 l
-2 -2 l
-2 -4 l
-2 -10 l
0 -6 l
2 -10 l
2 -4 l
2 -2 l
4 -2 l
4 0 m 4 2 l
2 2 l
2 4 l
2 10 l
0 6 l
-2 10 l
-2 4 l
-2 2 l
-4 2 l
28 -38 m -2 -2 l
2 -2 l
2 2 l
-2 2 l
28 38 m -6 -2 l
-4 -6 l
-2 -10 l
0 -6 l
2 -10 l
4 -6 l
6 -2 l
4 0 l
7 2 l
4 6 l
2 10 l
0 6 l
-2 10 l
-4 6 l
-7 2 l
-4 0 l
-4 -2 l
-2 -2 l
-2 -4 l
-2 -10 l
0 -6 l
2 -10 l
2 -4 l
2 -2 l
4 -2 l
4 0 m 5 2 l
2 2 l
2 4 l
2 10 l
0 6 l
-2 10 l
-2 4 l
-2 2 l
-5 2 l
37 0 m -6 -2 l
-4 -6 l
-2 -10 l
0 -6 l
2 -10 l
4 -6 l
6 -2 l
4 0 l
6 2 l
4 6 l
2 10 l
0 6 l
-2 10 l
-4 6 l
-6 2 l
-4 0 l
-4 -2 l
-2 -2 l
-2 -4 l
-2 -10 l
0 -6 l
2 -10 l
2 -4 l
2 -2 l
4 -2 l
4 0 m 4 2 l
2 2 l
2 4 l
2 10 l
0 6 l
-2 10 l
-2 4 l
-2 2 l
-4 2 l
30 -8 m 4 2 l
6 6 l
0 -42 l
-2 40 m 0 -40 l
-8 0 m 18 0 l
46 96 m 22 0 l
-22 45 m 22 0 l
-22 31 m 22 0 l
-22 24 m 22 0 l
-22 20 m 22 0 l
-22 17 m 22 0 l
-22 14 m 22 0 l
-22 13 m 22 0 l
-22 12 m 43 0 l
78 1739 M 18 42 m -6 -2 l
-4 -6 l
-2 -10 l
0 -6 l
2 -10 l
4 -7 l
6 -1 l
4 0 l
6 1 l
4 7 l
2 10 l
0 6 l
-2 10 l
-4 6 l
-6 2 l
-4 0 l
-4 -2 l
-2 -2 l
-2 -4 l
-2 -10 l
0 -6 l
2 -10 l
2 -4 l
2 -3 l
4 -1 l
4 0 m 4 1 l
2 3 l
2 4 l
2 10 l
0 6 l
-2 10 l
-2 4 l
-2 2 l
-4 2 l
29 -38 m -2 -3 l
2 -1 l
2 1 l
-2 3 l
28 38 m -6 -2 l
-4 -6 l
-2 -10 l
0 -6 l
2 -10 l
4 -7 l
6 -1 l
4 0 l
6 1 l
4 7 l
2 10 l
0 6 l
-2 10 l
-4 6 l
-6 2 l
-4 0 l
-4 -2 l
-2 -2 l
-2 -4 l
-2 -10 l
0 -6 l
2 -10 l
2 -4 l
2 -3 l
4 -1 l
4 0 m 4 1 l
2 3 l
2 4 l
2 10 l
0 6 l
-2 10 l
-2 4 l
-2 2 l
-4 2 l
30 -8 m 4 2 l
6 6 l
0 -42 l
-2 40 m 0 -40 l
-8 0 m 18 0 l
46 96 m 22 0 l
-22 44 m 22 0 l
-22 32 m 22 0 l
-22 24 m 22 0 l
-22 20 m 22 0 l
-22 16 m 22 0 l
-22 15 m 22 0 l
-22 13 m 22 0 l
-22 11 m 43 0 l
119 1989 M 18 42 m -6 -2 l
-4 -6 l
-2 -10 l
0 -6 l
2 -10 l
4 -6 l
6 -2 l
4 0 l
6 2 l
4 6 l
2 10 l
0 6 l
-2 10 l
-4 6 l
-6 2 l
-4 0 l
-4 -2 l
-2 -2 l
-2 -4 l
-2 -10 l
0 -6 l
2 -10 l
2 -4 l
2 -2 l
4 -2 l
4 0 m 4 2 l
2 2 l
2 4 l
2 10 l
0 6 l
-2 10 l
-2 4 l
-2 2 l
-4 2 l
28 -38 m -2 -2 l
2 -2 l
2 2 l
-2 2 l
22 30 m 4 2 l
6 6 l
0 -42 l
-2 40 m 0 -40 l
-8 0 m 18 0 l
46 97 m 22 0 l
-22 44 m 22 0 l
-22 31 m 22 0 l
-22 25 m 22 0 l
-22 19 m 22 0 l
-22 17 m 22 0 l
-22 15 m 22 0 l
-22 13 m 22 0 l
-22 11 m 43 0 l
-119 -21 m 12 34 m 4 2 l
6 6 l
0 -42 l
-2 40 m 0 -40 l
-8 0 m 18 0 l
2261 255 M 0 2006 l
2261 255 M -43 0 l
43 76 m -21 0 l
21 44 m -21 0 l
21 31 m -21 0 l
21 25 m -21 0 l
21 19 m -21 0 l
21 17 m -21 0 l
21 15 m -21 0 l
21 13 m -21 0 l
21 11 m -43 0 l
43 75 m -21 0 l
21 45 m -21 0 l
21 31 m -21 0 l
21 24 m -21 0 l
21 20 m -21 0 l
21 17 m -21 0 l
21 14 m -21 0 l
21 13 m -21 0 l
21 12 m -43 0 l
43 75 m -21 0 l
21 44 m -21 0 l
21 32 m -21 0 l
21 24 m -21 0 l
21 20 m -21 0 l
21 17 m -21 0 l
21 14 m -21 0 l
21 13 m -21 0 l
21 11 m -43 0 l
43 76 m -21 0 l
21 44 m -21 0 l
21 31 m -21 0 l
21 25 m -21 0 l
21 20 m -21 0 l
21 16 m -21 0 l
21 15 m -21 0 l
21 13 m -21 0 l
CS M
21 11 m -43 0 l
43 76 m -21 0 l
21 44 m -21 0 l
21 31 m -21 0 l
21 24 m -21 0 l
21 20 m -21 0 l
21 17 m -21 0 l
21 15 m -21 0 l
21 12 m -21 0 l
21 12 m -43 0 l
43 75 m -21 0 l
21 45 m -21 0 l
21 31 m -21 0 l
21 24 m -21 0 l
21 20 m -21 0 l
21 17 m -21 0 l
21 14 m -21 0 l
21 13 m -21 0 l
21 12 m -43 0 l
43 75 m -21 0 l
21 44 m -21 0 l
21 32 m -21 0 l
21 24 m -21 0 l
21 20 m -21 0 l
21 16 m -21 0 l
21 15 m -21 0 l
21 13 m -21 0 l
21 11 m -43 0 l
43 76 m -21 0 l
21 44 m -21 0 l
21 31 m -21 0 l
21 25 m -21 0 l
21 19 m -21 0 l
21 17 m -21 0 l
21 15 m -21 0 l
21 13 m -21 0 l
21 11 m -43 0 l
CS [] 0 setdash M
stroke
grestore
showpage
end
