%!PS-Adobe-2.0 EPSF-2.0
%%Creator: SM
%%BoundingBox: 18 144 592 718
%%DocumentFonts: Helvetica
%%EndComments
 20 dict begin
72 300 div dup scale
1 setlinejoin 0 setlinecap
/Helvetica findfont 55 scalefont setfont 
/B {CS newpath moveto} def
/F {moveto 0 setlinecap} def
/C {CS M 1 1 3 {pop 3 1 roll 255 div} for SET_COLOUR} def
/CS {currentpoint stroke} def
/CF {currentpoint eofill} def
/L {lineto} def /l {rlineto} def /M {moveto} def /m {rmoveto} def
/P {currentpoint 0 1 rlineto stroke moveto} def
/T {currentlinecap exch 1 setlinecap show setlinecap} def
errordict /nocurrentpoint {pop 0 0 M currentpoint} put
/SET_COLOUR statusdict begin /processcolors where
  {pop processcolors 1 gt} {false} ifelse
  {(setrgbcolor)} {(pop pop pop)} ifelse cvx end def
 80 600 translate
gsave
CS [] 0 setdash M
CS M 1 100 mul 72 div dup setlinewidth
/P [ /currentpoint cvx 0 5 -1 roll .05 add dup -2 div 0 exch /rmoveto cvx /rlineto cvx /stroke cvx /moveto cvx ] cvx def
 0 0 0 C
CS M 4 100 mul 72 div dup setlinewidth
/P [ /currentpoint cvx 0 5 -1 roll .05 add dup -2 div 0 exch /rmoveto cvx /rlineto cvx /stroke cvx /moveto cvx ] cvx def
 0 0 255 C
CS [] 0 setdash M
 0 0 0 C
630 255 M 0 101 l
-11 68 l
-11 60 l
-11 52 l
-12 44 l
-11 37 l
-11 32 l
-11 27 l
-11 25 l
-11 22 l
-12 20 l
-11 19 l
-11 19 l
-11 18 l
-11 18 l
-11 18 l
-12 18 l
-11 20 l
-11 20 l
-11 21 l
-11 24 l
-11 26 l
-12 33 l
-11 51 l
-11 142 l
-11 70 l
-11 28 l
-11 17 l
-12 12 l
-11 8 l
-11 7 l
-11 5 l
-11 4 l
-11 3 l
CS [32 24] 0 setdash M
 0 0 255 C
 255 0 0 C
530 255 M 0 1561 l
-12 48 l
-11 25 l
-11 17 l
-11 13 l
-11 11 l
-11 9 l
-12 8 l
-11 7 l
-11 7 l
-11 6 l
-11 6 l
-11 5 l
-12 5 l
-11 5 l
-11 5 l
-11 4 l
-11 5 l
-11 4 l
-12 4 l
-11 3 l
-11 4 l
-11 4 l
-11 4 l
-11 3 l
CS [] 0 setdash M
 0 0 0 C
CS M 1 dup setlinewidth
/P [ /currentpoint cvx 0 5 -1 roll .05 add dup -2 div 0 exch /rmoveto cvx /rlineto cvx /stroke cvx /moveto cvx ] cvx def
CS M 2 100 mul 72 div dup setlinewidth
/P [ /currentpoint cvx 0 5 -1 roll .05 add dup -2 div 0 exch /rmoveto cvx /rlineto cvx /stroke cvx /moveto cvx ] cvx def
CS [] 0 setdash M
1164 36 M 22 50 m 1186 36 L
2 50 m 1188 36 L
-16 50 m -3 -14 l
0 14 l
36 0 l
0 -14 l
-2 14 l
1179 36 M 17 0 l
21 7 m -1 -1 l
1 -2 l
2 2 l
-2 1 l
0 -10 m 1217 13 L
2 20 m 1219 13 L
-6 20 m 6 0 l
1213 13 M 10 0 l
51 83 m 1231 19 L
70 67 m 1301 36 L
2 50 m 1303 36 L
-17 50 m -2 -14 l
0 14 l
36 0 l
0 -14 l
-3 14 l
1293 36 M 17 0 l
20 -12 m 18 0 l
0 3 l
-2 3 l
-1 1 l
-3 2 l
-4 0 l
-5 -2 l
-3 -3 l
-1 -4 l
0 -3 l
1 -4 l
3 -3 l
5 -1 l
2 0 l
5 1 l
3 3 l
-2 7 m 0 4 l
-1 3 l
-7 2 m -3 -2 l
-3 -3 l
-2 -4 l
0 -3 l
2 -4 l
3 -3 l
3 -1 l
CS [] 0 setdash M
CS [] 0 setdash M
67 1099 M -24 9 m -4 5 l
-3 8 l
-2 -3 l
2 -5 l
7 -5 l
8 -2 l
7 0 l
7 2 l
2 3 l
0 5 l
-2 5 l
-7 4 l
-7 3 l
7 -22 m 5 2 l
2 3 l
0 5 l
-2 5 l
-5 4 l
-7 0 m 7 0 l
7 3 l
2 2 l
0 5 l
-2 5 l
-7 5 l
-7 2 l
-8 0 l
-7 -2 l
-2 -3 l
2 -2 l
3 5 l
4 2 l
15 -22 m 5 3 l
2 2 l
0 5 l
-2 5 l
-5 5 l
7 1202 M 77 -43 l
7 1234 M 5 -5 l
7 -5 l
10 -5 l
12 -2 l
10 0 l
12 2 l
9 5 l
8 5 l
4 5 l
12 1229 M 10 -5 l
7 -2 l
12 -3 l
10 0 l
12 3 l
7 2 l
10 5 l
17 1253 M 50 0 l
17 1255 M 50 0 l
-33 24 m 24 -24 l
-10 12 m 19 15 l
-19 -17 m 19 14 l
17 1246 M 0 9 l
17 17 m 0 15 l
33 -41 m 0 17 l
0 9 m 0 15 l
-13 10 m 47 0 l
-47 9 m 47 0 l
34 1319 M 33 14 l
-33 -12 m 29 12 l
-29 15 m 33 -15 l
-33 -19 m 0 14 l
0 10 m 0 15 l
26 16 m 31 -10 l
-31 10 m 31 10 l
-26 -10 m 26 9 l
-9 -16 m 0 13 l
9 -19 m 0 9 l
0 9 m 0 8 l
7 1391 M 5 5 l
7 5 l
10 4 l
12 3 l
10 0 l
12 -3 l
9 -4 l
8 -5 l
4 -5 l
12 1396 M 10 5 l
7 2 l
12 2 l
10 0 l
12 -2 l
7 -2 l
10 -5 l
CS [] 0 setdash M
CS [] 0 setdash M
255 255 M 2006 0 l
0 2006 l
255 2261 L
255 255 L
2006 0 l
255 255 M 2006 0 l
255 255 M 0 43 l
-70 -121 m 18 42 m -6 -2 l
-4 -6 l
-2 -10 l
0 -6 l
2 -10 l
4 -6 l
6 -2 l
4 0 l
6 2 l
4 6 l
2 10 l
0 6 l
-2 10 l
-4 6 l
-6 2 l
-4 0 l
-4 -2 l
-2 -2 l
-2 -4 l
-2 -10 l
0 -6 l
2 -10 l
2 -4 l
2 -2 l
4 -2 l
4 0 m 4 2 l
2 2 l
2 4 l
2 10 l
0 6 l
-2 10 l
-2 4 l
-2 2 l
-4 2 l
28 -38 m -2 -2 l
2 -2 l
2 2 l
-2 2 l
28 38 m -6 -2 l
-4 -6 l
-2 -10 l
0 -6 l
2 -10 l
4 -6 l
6 -2 l
4 0 l
6 2 l
4 6 l
2 10 l
0 6 l
-2 10 l
-4 6 l
-6 2 l
-4 0 l
-4 -2 l
-2 -2 l
-2 -4 l
-2 -10 l
0 -6 l
2 -10 l
2 -4 l
2 -2 l
4 -2 l
4 0 m 4 2 l
2 2 l
2 4 l
2 10 l
0 6 l
-2 10 l
-2 4 l
-2 2 l
-4 2 l
30 -8 m 4 2 l
6 6 l
0 -42 l
-2 40 m 0 -40 l
-8 0 m 18 0 l
91 78 m 0 22 l
89 -22 m 0 22 l
62 -22 m 0 22 l
49 -22 m 0 22 l
39 -22 m 0 22 l
34 -22 m 0 22 l
29 -22 m 0 22 l
26 -22 m 0 22 l
23 -22 m 0 43 l
-50 -121 m 18 42 m -6 -2 l
-4 -6 l
-2 -10 l
0 -6 l
2 -10 l
4 -6 l
6 -2 l
CS M
4 0 l
6 2 l
4 6 l
2 10 l
0 6 l
-2 10 l
-4 6 l
-6 2 l
-4 0 l
-4 -2 l
-2 -2 l
-2 -4 l
-2 -10 l
0 -6 l
2 -10 l
2 -4 l
2 -2 l
4 -2 l
4 0 m 4 2 l
2 2 l
2 4 l
2 10 l
0 6 l
-2 10 l
-2 4 l
-2 2 l
-4 2 l
28 -38 m -2 -2 l
2 -2 l
2 2 l
-2 2 l
22 30 m 4 2 l
6 6 l
0 -42 l
-2 40 m 0 -40 l
-8 0 m 18 0 l
111 78 m 0 22 l
88 -22 m 0 22 l
63 -22 m 0 22 l
48 -22 m 0 22 l
40 -22 m 0 22 l
33 -22 m 0 22 l
30 -22 m 0 22 l
25 -22 m 0 22 l
23 -22 m 0 43 l
-20 -121 m 12 34 m 4 2 l
6 6 l
0 -42 l
-2 40 m 0 -40 l
-8 0 m 18 0 l
141 78 m 0 22 l
88 -22 m 0 22 l
63 -22 m 0 22 l
49 -22 m 0 22 l
39 -22 m 0 22 l
34 -22 m 0 22 l
29 -22 m 0 22 l
26 -22 m 0 22 l
23 -22 m 0 43 l
-41 -121 m 13 34 m 4 2 l
6 6 l
0 -42 l
-2 40 m 0 -40 l
-8 0 m 18 0 l
28 42 m -6 -2 l
-4 -6 l
-2 -10 l
0 -6 l
2 -10 l
4 -6 l
6 -2 l
4 0 l
6 2 l
4 6 l
2 10 l
0 6 l
-2 10 l
-4 6 l
-6 2 l
-4 0 l
-4 -2 l
-2 -2 l
-2 -4 l
-2 -10 l
0 -6 l
2 -10 l
2 -4 l
2 -2 l
4 -2 l
4 0 m 4 2 l
2 2 l
2 4 l
2 10 l
0 6 l
-2 10 l
-2 4 l
-2 2 l
-4 2 l
129 36 m 0 22 l
88 -22 m 0 22 l
62 -22 m 0 22 l
49 -22 m 0 22 l
40 -22 m 0 22 l
33 -22 m 0 22 l
29 -22 m 0 22 l
26 -22 m 0 22 l
23 -22 m 0 43 l
-60 -121 m 12 34 m 4 2 l
6 6 l
0 -42 l
-2 40 m 0 -40 l
-8 0 m 18 0 l
28 42 m -6 -2 l
-4 -6 l
-2 -10 l
0 -6 l
2 -10 l
4 -6 l
6 -2 l
4 0 l
6 2 l
4 6 l
2 10 l
0 6 l
-2 10 l
-4 6 l
-6 2 l
-4 0 l
-4 -2 l
-2 -2 l
-2 -4 l
-2 -10 l
0 -6 l
2 -10 l
2 -4 l
2 -2 l
4 -2 l
4 0 m 4 2 l
2 2 l
2 4 l
2 10 l
0 6 l
-2 10 l
-2 4 l
-2 2 l
-4 2 l
36 0 m -6 -2 l
-4 -6 l
-2 -10 l
0 -6 l
2 -10 l
4 -6 l
6 -2 l
4 0 l
6 2 l
4 6 l
2 10 l
0 6 l
-2 10 l
-4 6 l
-6 2 l
-4 0 l
-4 -2 l
-2 -2 l
-2 -4 l
-2 -10 l
0 -6 l
2 -10 l
2 -4 l
2 -2 l
4 -2 l
4 0 m 4 2 l
2 2 l
2 4 l
2 10 l
0 6 l
-2 10 l
-2 4 l
-2 2 l
-4 2 l
255 2261 M 2006 0 l
255 2261 M 0 -43 l
151 43 m 0 -21 l
89 21 m 0 -21 l
62 21 m 0 -21 l
49 21 m 0 -21 l
39 21 m 0 -21 l
34 21 m 0 -21 l
29 21 m 0 -21 l
26 21 m 0 -21 l
23 21 m 0 -43 l
151 43 m 0 -21 l
88 21 m 0 -21 l
63 21 m 0 -21 l
48 21 m 0 -21 l
40 21 m 0 -21 l
33 21 m 0 -21 l
30 21 m 0 -21 l
25 21 m 0 -21 l
23 21 m 0 -43 l
151 43 m 0 -21 l
88 21 m 0 -21 l
63 21 m 0 -21 l
49 21 m 0 -21 l
39 21 m 0 -21 l
34 21 m 0 -21 l
29 21 m 0 -21 l
26 21 m 0 -21 l
23 21 m 0 -43 l
151 43 m 0 -21 l
88 21 m 0 -21 l
62 21 m 0 -21 l
49 21 m 0 -21 l
40 21 m 0 -21 l
33 21 m 0 -21 l
29 21 m 0 -21 l
26 21 m 0 -21 l
23 21 m 0 -43 l
255 255 M 0 2006 l
255 255 M 43 0 l
83 233 M 12 34 m 4 2 l
6 6 l
0 -42 l
-2 40 m 0 -40 l
-8 0 m 18 0 l
28 42 m -6 -2 l
-4 -6 l
-2 -10 l
0 -6 l
2 -10 l
4 -6 l
6 -2 l
4 0 l
6 2 l
5 6 l
1 10 l
0 6 l
-1 10 l
-5 6 l
-6 2 l
-4 0 l
-4 -2 l
-2 -2 l
-2 -4 l
-2 -10 l
0 -6 l
2 -10 l
2 -4 l
2 -2 l
4 -2 l
4 0 m 4 2 l
2 2 l
2 4 l
3 10 l
0 6 l
-3 10 l
-2 4 l
-2 2 l
-4 2 l
23 -12 m 22 0 l
23 11 m -1 -1 l
1 -1 l
1 1 l
0 1 l
-1 2 l
-3 2 l
-3 0 l
-4 -2 l
-2 -2 l
-1 -2 l
-2 -5 l
0 -7 l
2 -4 l
2 -3 l
4 -1 l
2 0 l
4 1 l
2 3 l
1 4 l
0 1 l
-1 3 l
-2 3 l
-4 1 l
-1 0 l
-4 -1 l
-2 -3 l
-1 -3 l
7 17 m -3 -2 l
-2 -2 l
-1 -2 l
-1 -5 l
0 -7 l
1 -4 l
2 -3 l
3 -1 l
2 0 m 2 1 l
3 3 l
1 4 l
0 1 l
-1 3 l
CS M
-3 3 l
-2 1 l
47 54 m 22 0 l
-22 40 m 22 0 l
-22 27 m 22 0 l
-22 22 m 22 0 l
-22 18 m 22 0 l
-22 15 m 22 0 l
-22 13 m 22 0 l
-22 11 m 22 0 l
-22 10 m 43 0 l
83 456 M 12 34 m 4 2 l
6 6 l
0 -42 l
-2 40 m 0 -40 l
-8 0 m 18 0 l
28 42 m -6 -2 l
-4 -6 l
-2 -10 l
0 -6 l
2 -10 l
4 -6 l
6 -2 l
4 0 l
6 2 l
5 6 l
1 10 l
0 6 l
-1 10 l
-5 6 l
-6 2 l
-4 0 l
-4 -2 l
-2 -2 l
-2 -4 l
-2 -10 l
0 -6 l
2 -10 l
2 -4 l
2 -2 l
4 -2 l
4 0 m 4 2 l
2 2 l
2 4 l
3 10 l
0 6 l
-3 10 l
-2 4 l
-2 2 l
-4 2 l
23 -12 m 22 0 l
11 14 m -3 -12 l
3 3 l
3 1 l
4 0 l
4 -1 l
2 -3 l
1 -3 l
0 -3 l
-1 -3 l
-2 -3 l
-4 -1 l
-4 0 l
-3 1 l
-1 2 l
-2 2 l
0 1 l
2 1 l
1 -1 l
-1 -1 l
8 12 m 2 -1 l
3 -3 l
1 -3 l
0 -3 l
-1 -3 l
-3 -3 l
-2 -1 l
-7 25 m 12 0 l
-12 -1 m 6 0 l
6 1 l
42 45 m 22 0 l
-22 39 m 22 0 l
-22 28 m 22 0 l
-22 22 m 22 0 l
-22 18 m 22 0 l
-22 14 m 22 0 l
-22 13 m 22 0 l
-22 12 m 22 0 l
-22 10 m 43 0 l
-1 680 M 16 722 M -6 -2 l
-4 -6 l
-2 -10 l
0 -6 l
2 -10 l
4 -6 l
6 -2 l
4 0 l
6 2 l
4 6 l
2 10 l
0 6 l
-2 10 l
-4 6 l
-6 2 l
-4 0 l
-4 -2 l
-2 -2 l
-2 -4 l
-2 -10 l
0 -6 l
2 -10 l
2 -4 l
2 -2 l
4 -2 l
4 0 m 4 2 l
2 2 l
2 4 l
2 10 l
0 6 l
-2 10 l
-2 4 l
-2 2 l
-4 2 l
28 -38 m -2 -2 l
2 -2 l
2 2 l
-2 2 l
28 38 m -6 -2 l
-4 -6 l
-2 -10 l
0 -6 l
2 -10 l
4 -6 l
6 -2 l
4 0 l
7 2 l
4 6 l
1 10 l
0 6 l
-1 10 l
-4 6 l
-7 2 l
-4 0 l
-4 -2 l
-2 -2 l
-2 -4 l
-2 -10 l
0 -6 l
2 -10 l
2 -4 l
2 -2 l
4 -2 l
4 0 m 4 2 l
3 2 l
1 4 l
3 10 l
0 6 l
-3 10 l
-1 4 l
-3 2 l
-4 2 l
37 0 m -6 -2 l
-4 -6 l
-2 -10 l
0 -6 l
2 -10 l
4 -6 l
6 -2 l
4 0 l
6 2 l
4 6 l
2 10 l
0 6 l
-2 10 l
-4 6 l
-6 2 l
-4 0 l
-4 -2 l
-2 -2 l
-2 -4 l
-2 -10 l
0 -6 l
2 -10 l
2 -4 l
2 -2 l
4 -2 l
4 0 m 4 2 l
2 2 l
2 4 l
2 10 l
0 6 l
-2 10 l
-2 4 l
-2 2 l
-4 2 l
36 0 m -6 -2 l
-4 -6 l
-2 -10 l
0 -6 l
2 -10 l
4 -6 l
6 -2 l
4 0 l
6 2 l
4 6 l
2 10 l
0 6 l
-2 10 l
-4 6 l
-6 2 l
-4 0 l
-4 -2 l
-2 -2 l
-2 -4 l
-2 -10 l
0 -6 l
2 -10 l
2 -4 l
2 -2 l
4 -2 l
4 0 m 4 2 l
2 2 l
2 4 l
2 10 l
0 6 l
-2 10 l
-2 4 l
-2 2 l
-4 2 l
30 -8 m 4 2 l
6 6 l
0 -42 l
-2 40 m 0 -40 l
-8 0 m 18 0 l
46 88 m 22 0 l
-22 39 m 22 0 l
-22 28 m 22 0 l
-22 22 m 22 0 l
-22 17 m 22 0 l
-22 15 m 22 0 l
-22 13 m 22 0 l
-22 12 m 22 0 l
-22 10 m 43 0 l
38 903 M 18 42 m -6 -2 l
-4 -6 l
-2 -10 l
0 -6 l
2 -10 l
4 -6 l
6 -2 l
4 0 l
6 2 l
4 6 l
2 10 l
0 6 l
-2 10 l
-4 6 l
-6 2 l
-4 0 l
-4 -2 l
-2 -2 l
-2 -4 l
-2 -10 l
0 -6 l
2 -10 l
2 -4 l
2 -2 l
4 -2 l
4 0 m 4 2 l
2 2 l
2 4 l
2 10 l
0 6 l
-2 10 l
-2 4 l
-2 2 l
-4 2 l
28 -38 m -2 -2 l
2 -2 l
2 2 l
-2 2 l
28 38 m -6 -2 l
-4 -6 l
-2 -10 l
0 -6 l
2 -10 l
4 -6 l
6 -2 l
4 0 l
7 2 l
4 6 l
2 10 l
0 6 l
-2 10 l
-4 6 l
-7 2 l
-4 0 l
-4 -2 l
-2 -2 l
-2 -4 l
CS M
-2 -10 l
0 -6 l
2 -10 l
2 -4 l
2 -2 l
4 -2 l
4 0 m 5 2 l
2 2 l
2 4 l
2 10 l
0 6 l
-2 10 l
-2 4 l
-2 2 l
-5 2 l
37 0 m -6 -2 l
-4 -6 l
-2 -10 l
0 -6 l
2 -10 l
4 -6 l
6 -2 l
4 0 l
6 2 l
4 6 l
2 10 l
0 6 l
-2 10 l
-4 6 l
-6 2 l
-4 0 l
-4 -2 l
-2 -2 l
-2 -4 l
-2 -10 l
0 -6 l
2 -10 l
2 -4 l
2 -2 l
4 -2 l
4 0 m 4 2 l
2 2 l
2 4 l
2 10 l
0 6 l
-2 10 l
-2 4 l
-2 2 l
-4 2 l
30 -8 m 4 2 l
6 6 l
0 -42 l
-2 40 m 0 -40 l
-8 0 m 18 0 l
46 88 m 22 0 l
-22 39 m 22 0 l
-22 28 m 22 0 l
-22 22 m 22 0 l
-22 17 m 22 0 l
-22 15 m 22 0 l
-22 13 m 22 0 l
-22 12 m 22 0 l
-22 10 m 43 0 l
78 1126 M 18 42 m -6 -2 l
-4 -6 l
-2 -10 l
0 -6 l
2 -10 l
4 -6 l
6 -2 l
4 0 l
6 2 l
4 6 l
2 10 l
0 6 l
-2 10 l
-4 6 l
-6 2 l
-4 0 l
-4 -2 l
-2 -2 l
-2 -4 l
-2 -10 l
0 -6 l
2 -10 l
2 -4 l
2 -2 l
4 -2 l
4 0 m 4 2 l
2 2 l
2 4 l
2 10 l
0 6 l
-2 10 l
-2 4 l
-2 2 l
-4 2 l
29 -38 m -2 -2 l
2 -2 l
2 2 l
-2 2 l
28 38 m -6 -2 l
-4 -6 l
-2 -10 l
0 -6 l
2 -10 l
4 -6 l
6 -2 l
4 0 l
6 2 l
4 6 l
2 10 l
0 6 l
-2 10 l
-4 6 l
-6 2 l
-4 0 l
-4 -2 l
-2 -2 l
-2 -4 l
-2 -10 l
0 -6 l
2 -10 l
2 -4 l
2 -2 l
4 -2 l
4 0 m 4 2 l
2 2 l
2 4 l
2 10 l
0 6 l
-2 10 l
-2 4 l
-2 2 l
-4 2 l
30 -8 m 4 2 l
6 6 l
0 -42 l
-2 40 m 0 -40 l
-8 0 m 18 0 l
46 88 m 22 0 l
-22 39 m 22 0 l
-22 28 m 22 0 l
-22 22 m 22 0 l
-22 17 m 22 0 l
-22 15 m 22 0 l
-22 13 m 22 0 l
-22 11 m 22 0 l
-22 11 m 43 0 l
119 1349 M 18 42 m -6 -2 l
-4 -6 l
-2 -10 l
0 -6 l
2 -10 l
4 -6 l
6 -2 l
4 0 l
6 2 l
4 6 l
2 10 l
0 6 l
-2 10 l
-4 6 l
-6 2 l
-4 0 l
-4 -2 l
-2 -2 l
-2 -4 l
-2 -10 l
0 -6 l
2 -10 l
2 -4 l
2 -2 l
4 -2 l
4 0 m 4 2 l
2 2 l
2 4 l
2 10 l
0 6 l
-2 10 l
-2 4 l
-2 2 l
-4 2 l
28 -38 m -2 -2 l
2 -2 l
2 2 l
-2 2 l
22 30 m 4 2 l
6 6 l
0 -42 l
-2 40 m 0 -40 l
-8 0 m 18 0 l
46 88 m 22 0 l
-22 39 m 22 0 l
-22 28 m 22 0 l
-22 21 m 22 0 l
-22 18 m 22 0 l
-22 15 m 22 0 l
-22 13 m 22 0 l
-22 11 m 22 0 l
-22 10 m 43 0 l
-119 -21 m 12 34 m 4 3 l
6 6 l
0 -43 l
-2 41 m 0 -41 l
-8 0 m 18 0 l
46 89 m 22 0 l
-22 39 m 22 0 l
-22 28 m 22 0 l
-22 21 m 22 0 l
-22 18 m 22 0 l
-22 15 m 22 0 l
-22 13 m 22 0 l
-22 11 m 22 0 l
-22 10 m 43 0 l
139 1794 M 12 34 m 4 2 l
6 6 l
0 -42 l
-2 40 m 0 -40 l
-8 0 m 18 0 l
28 42 m -6 -2 l
-4 -6 l
-2 -10 l
0 -6 l
2 -10 l
4 -6 l
6 -2 l
4 0 l
6 2 l
4 6 l
2 10 l
0 6 l
-2 10 l
-4 6 l
-6 2 l
-4 0 l
-4 -2 l
-2 -2 l
-2 -4 l
-2 -10 l
0 -6 l
2 -10 l
2 -4 l
2 -2 l
4 -2 l
4 0 m 4 2 l
2 2 l
2 4 l
2 10 l
0 6 l
-2 10 l
-2 4 l
-2 2 l
-4 2 l
54 46 m 22 0 l
-22 40 m 22 0 l
-22 27 m 22 0 l
-22 22 m 22 0 l
-22 18 m 22 0 l
-22 15 m 22 0 l
-22 13 m 22 0 l
-22 11 m 22 0 l
-22 10 m 43 0 l
98 2017 M 12 34 m 5 2 l
5 6 l
0 -42 l
-1 40 m 0 -40 l
-9 0 m 19 0 l
28 42 m -6 -2 l
-4 -6 l
-2 -10 l
0 -6 l
2 -10 l
4 -6 l
6 -2 l
4 0 l
6 2 l
4 6 l
2 10 l
0 6 l
-2 10 l
-4 6 l
-6 2 l
-4 0 l
-4 -2 l
-2 -2 l
-2 -4 l
-2 -10 l
0 -6 l
2 -10 l
2 -4 l
2 -2 l
4 -2 l
4 0 m 4 2 l
2 2 l
2 4 l
2 10 l
0 6 l
-2 10 l
-2 4 l
CS M
-2 2 l
-4 2 l
36 0 m -6 -2 l
-4 -6 l
-2 -10 l
0 -6 l
2 -10 l
4 -6 l
6 -2 l
4 0 l
6 2 l
4 6 l
2 10 l
0 6 l
-2 10 l
-4 6 l
-6 2 l
-4 0 l
-4 -2 l
-2 -2 l
-2 -4 l
-2 -10 l
0 -6 l
2 -10 l
2 -4 l
2 -2 l
4 -2 l
4 0 m 4 2 l
2 2 l
2 4 l
2 10 l
0 6 l
-2 10 l
-2 4 l
-2 2 l
-4 2 l
54 46 m 22 0 l
-22 39 m 22 0 l
-22 28 m 22 0 l
-22 22 m 22 0 l
-22 18 m 22 0 l
-22 15 m 22 0 l
-22 12 m 22 0 l
-22 12 m 22 0 l
-22 10 m 43 0 l
58 2240 M 12 34 m 4 2 l
6 6 l
0 -42 l
-2 40 m 0 -40 l
-8 0 m 18 0 l
28 42 m -6 -2 l
-4 -6 l
-2 -10 l
0 -6 l
2 -10 l
4 -6 l
6 -2 l
4 0 l
7 2 l
4 6 l
2 10 l
0 6 l
-2 10 l
-4 6 l
-7 2 l
-4 0 l
-4 -2 l
-2 -2 l
-2 -4 l
-2 -10 l
0 -6 l
2 -10 l
2 -4 l
2 -2 l
4 -2 l
4 0 m 5 2 l
2 2 l
2 4 l
2 10 l
0 6 l
-2 10 l
-2 4 l
-2 2 l
-5 2 l
37 0 m -6 -2 l
-4 -6 l
-2 -10 l
0 -6 l
2 -10 l
4 -6 l
6 -2 l
4 0 l
6 2 l
4 6 l
2 10 l
0 6 l
-2 10 l
-4 6 l
-6 2 l
-4 0 l
-4 -2 l
-2 -2 l
-2 -4 l
-2 -10 l
0 -6 l
2 -10 l
2 -4 l
2 -2 l
4 -2 l
4 0 m 4 2 l
2 2 l
2 4 l
2 10 l
0 6 l
-2 10 l
-2 4 l
-2 2 l
-4 2 l
36 0 m -6 -2 l
-4 -6 l
-2 -10 l
0 -6 l
2 -10 l
4 -6 l
6 -2 l
4 0 l
6 2 l
4 6 l
2 10 l
0 6 l
-2 10 l
-4 6 l
-6 2 l
-4 0 l
-4 -2 l
-2 -2 l
-2 -4 l
-2 -10 l
0 -6 l
2 -10 l
2 -4 l
2 -2 l
4 -2 l
4 0 m 4 2 l
2 2 l
2 4 l
2 10 l
0 6 l
-2 10 l
-2 4 l
-2 2 l
-4 2 l
2261 255 M 0 2006 l
2261 255 M -43 0 l
43 67 m -21 0 l
21 40 m -21 0 l
21 27 m -21 0 l
21 22 m -21 0 l
21 18 m -21 0 l
21 15 m -21 0 l
21 13 m -21 0 l
21 11 m -21 0 l
21 10 m -43 0 l
43 67 m -21 0 l
21 39 m -21 0 l
21 28 m -21 0 l
21 22 m -21 0 l
21 18 m -21 0 l
21 14 m -21 0 l
21 13 m -21 0 l
21 12 m -21 0 l
21 10 m -43 0 l
43 67 m -21 0 l
21 39 m -21 0 l
21 28 m -21 0 l
21 22 m -21 0 l
21 17 m -21 0 l
21 15 m -21 0 l
21 13 m -21 0 l
21 12 m -21 0 l
21 10 m -43 0 l
43 67 m -21 0 l
21 39 m -21 0 l
21 28 m -21 0 l
21 22 m -21 0 l
21 17 m -21 0 l
21 15 m -21 0 l
21 13 m -21 0 l
21 12 m -21 0 l
21 10 m -43 0 l
43 67 m -21 0 l
21 39 m -21 0 l
21 28 m -21 0 l
21 22 m -21 0 l
21 17 m -21 0 l
21 15 m -21 0 l
21 13 m -21 0 l
21 11 m -21 0 l
21 11 m -43 0 l
43 67 m -21 0 l
21 39 m -21 0 l
21 28 m -21 0 l
21 21 m -21 0 l
21 18 m -21 0 l
21 15 m -21 0 l
21 13 m -21 0 l
21 11 m -21 0 l
21 10 m -43 0 l
43 68 m -21 0 l
21 39 m -21 0 l
21 28 m -21 0 l
21 21 m -21 0 l
21 18 m -21 0 l
21 15 m -21 0 l
21 13 m -21 0 l
21 11 m -21 0 l
21 10 m -43 0 l
43 67 m -21 0 l
21 40 m -21 0 l
21 27 m -21 0 l
21 22 m -21 0 l
21 18 m -21 0 l
21 15 m -21 0 l
21 13 m -21 0 l
21 11 m -21 0 l
21 10 m -43 0 l
43 67 m -21 0 l
21 39 m -21 0 l
21 28 m -21 0 l
21 22 m -21 0 l
21 18 m -21 0 l
21 15 m -21 0 l
21 12 m -21 0 l
21 12 m -21 0 l
21 10 m -43 0 l
CS [] 0 setdash M
stroke
grestore
showpage
end
