%!PS-Adobe-2.0 EPSF-2.0
%%Creator: SM
%%BoundingBox: 18 144 592 718
%%DocumentFonts: Helvetica
%%EndComments
 20 dict begin
72 300 div dup scale
1 setlinejoin 0 setlinecap
/Helvetica findfont 55 scalefont setfont 
/B {CS newpath moveto} def
/F {moveto 0 setlinecap} def
/C {CS M 1 1 3 {pop 3 1 roll 255 div} for SET_COLOUR} def
/CS {currentpoint stroke} def
/CF {currentpoint eofill} def
/L {lineto} def /l {rlineto} def /M {moveto} def /m {rmoveto} def
/P {currentpoint 0 1 rlineto stroke moveto} def
/T {currentlinecap exch 1 setlinecap show setlinecap} def
errordict /nocurrentpoint {pop 0 0 M currentpoint} put
/SET_COLOUR statusdict begin /processcolors where
  {pop processcolors 1 gt} {false} ifelse
  {(setrgbcolor)} {(pop pop pop)} ifelse cvx end def
 80 600 translate
gsave
CS [] 0 setdash M
CS M 1 100 mul 72 div dup setlinewidth
/P [ /currentpoint cvx 0 5 -1 roll .05 add dup -2 div 0 exch /rmoveto cvx /rlineto cvx /stroke cvx /moveto cvx ] cvx def
 0 0 0 C
CS M 4 100 mul 72 div dup setlinewidth
/P [ /currentpoint cvx 0 5 -1 roll .05 add dup -2 div 0 exch /rmoveto cvx /rlineto cvx /stroke cvx /moveto cvx ] cvx def
 0 0 255 C
CS [] 0 setdash M
 0 0 0 C
255 1739 M 7 0 l
6 0 l
7 0 l
6 0 l
6 0 l
7 0 l
6 0 l
7 0 l
6 0 l
7 0 l
6 0 l
7 0 l
6 0 l
6 0 l
7 0 l
6 0 l
7 0 l
6 0 l
7 0 l
6 0 l
6 0 l
7 0 l
6 0 l
7 0 l
6 0 l
7 0 l
6 0 l
7 0 l
6 0 l
6 0 l
7 0 l
6 0 l
7 0 l
6 0 l
7 0 l
6 0 l
6 0 l
7 0 l
6 0 l
7 0 l
6 1 l
7 0 l
6 0 l
6 0 l
7 0 l
6 0 l
7 0 l
6 0 l
7 0 l
6 0 l
7 0 l
6 0 l
6 0 l
7 0 l
6 0 l
7 0 l
6 0 l
7 0 l
6 0 l
6 0 l
7 0 l
6 0 l
7 0 l
6 0 l
7 0 l
6 0 l
7 0 l
6 0 l
6 0 l
7 0 l
6 0 l
7 0 l
6 0 l
7 0 l
6 0 l
6 0 l
7 0 l
6 0 l
7 0 l
6 0 l
7 0 l
6 0 l
7 1 l
6 0 l
6 0 l
7 0 l
6 0 l
7 0 l
6 0 l
7 0 l
6 0 l
6 0 l
7 0 l
6 0 l
7 0 l
6 0 l
7 0 l
6 0 l
7 0 l
6 0 l
6 0 l
7 0 l
6 0 l
7 0 l
6 0 l
7 0 l
6 0 l
6 0 l
7 0 l
6 0 l
7 0 l
6 0 l
7 0 l
6 0 l
7 0 l
6 0 l
6 0 l
7 0 l
6 0 l
7 0 l
6 0 l
7 0 l
6 0 l
6 0 l
7 0 l
6 -1 l
7 0 l
6 0 l
7 0 l
6 0 l
7 0 l
6 -1 l
6 0 l
7 0 l
6 0 l
7 -1 l
6 0 l
7 0 l
6 -1 l
6 0 l
7 -1 l
6 0 l
7 -1 l
6 0 l
7 -1 l
6 0 l
6 -1 l
7 -1 l
6 -1 l
7 0 l
6 -1 l
7 -1 l
6 -2 l
7 -1 l
6 -1 l
6 -1 l
7 -2 l
6 -1 l
7 -2 l
6 -2 l
7 -2 l
6 -2 l
6 -3 l
7 -2 l
6 -3 l
7 -3 l
6 -3 l
7 -4 l
6 -3 l
7 -4 l
6 -5 l
6 -5 l
7 -5 l
6 -6 l
7 -7 l
6 -7 l
7 -8 l
6 -9 l
6 -10 l
7 -11 l
6 -12 l
7 -15 l
6 -16 l
7 -20 l
6 -23 l
7 -27 l
6 -35 l
6 -43 l
7 -56 l
6 -73 l
7 -91 l
6 -101 l
7 -103 l
6 -102 l
6 -104 l
7 -109 l
6 -117 l
7 -128 l
6 -143 l
2 -42 l
CS [32 24] 0 setdash M
 0 0 255 C
 255 0 0 C
255 1722 M 7 0 l
6 0 l
7 0 l
6 0 l
6 0 l
7 0 l
6 0 l
7 0 l
6 0 l
7 0 l
6 0 l
7 0 l
6 0 l
6 0 l
7 0 l
6 0 l
7 0 l
6 0 l
7 0 l
6 0 l
6 0 l
7 0 l
6 0 l
7 0 l
6 0 l
7 0 l
6 0 l
7 0 l
6 0 l
6 0 l
7 0 l
6 0 l
7 0 l
6 0 l
7 0 l
6 0 l
6 0 l
7 0 l
6 0 l
7 0 l
6 0 l
7 0 l
6 0 l
6 0 l
7 0 l
6 0 l
7 0 l
6 0 l
7 0 l
6 0 l
7 0 l
6 0 l
6 0 l
7 0 l
6 0 l
7 0 l
6 0 l
7 0 l
6 0 l
6 0 l
7 0 l
6 0 l
7 0 l
6 0 l
7 0 l
6 0 l
7 0 l
6 0 l
6 -1 l
7 0 l
6 0 l
7 0 l
6 0 l
7 0 l
6 0 l
6 0 l
7 0 l
6 0 l
7 0 l
6 0 l
7 0 l
6 0 l
7 0 l
6 0 l
6 0 l
7 0 l
6 0 l
7 0 l
6 0 l
7 0 l
6 0 l
6 0 l
7 0 l
6 0 l
7 0 l
6 0 l
7 0 l
6 0 l
7 0 l
6 0 l
CS M
6 0 l
7 -1 l
6 0 l
7 0 l
6 0 l
7 0 l
6 0 l
6 0 l
7 0 l
6 0 l
7 0 l
6 -1 l
7 0 l
6 0 l
7 0 l
6 0 l
6 0 l
7 0 l
6 -1 l
7 0 l
6 0 l
7 0 l
6 0 l
6 -1 l
7 0 l
6 0 l
7 -1 l
6 0 l
7 0 l
6 -1 l
7 0 l
6 0 l
6 -1 l
7 0 l
6 -1 l
7 0 l
6 -1 l
7 -1 l
6 0 l
6 -1 l
7 -1 l
6 0 l
7 -1 l
6 -1 l
7 -1 l
6 -1 l
6 -1 l
7 -1 l
6 -2 l
7 -1 l
6 -1 l
7 -2 l
6 -1 l
7 -2 l
6 -2 l
6 -2 l
7 -2 l
6 -2 l
7 -3 l
6 -2 l
7 -3 l
6 -3 l
6 -4 l
7 -3 l
6 -4 l
7 -4 l
6 -5 l
7 -5 l
6 -5 l
7 -7 l
6 -6 l
6 -7 l
7 -9 l
6 -9 l
7 -10 l
6 -11 l
7 -13 l
6 -15 l
6 -17 l
7 -21 l
6 -25 l
7 -31 l
6 -40 l
7 -56 l
6 -89 l
7 -219 l
1453 255 L
CS [] 0 setdash M
 0 0 0 C
CS M 1 dup setlinewidth
/P [ /currentpoint cvx 0 5 -1 roll .05 add dup -2 div 0 exch /rmoveto cvx /rlineto cvx /stroke cvx /moveto cvx ] cvx def
CS M 2 100 mul 72 div dup setlinewidth
/P [ /currentpoint cvx 0 5 -1 roll .05 add dup -2 div 0 exch /rmoveto cvx /rlineto cvx /stroke cvx /moveto cvx ] cvx def
CS [] 0 setdash M
1089 40 M 14 34 m -5 -34 l
8 34 m -3 -14 l
-2 -12 l
-3 -8 l
32 34 m -3 -10 l
-4 -9 l
9 19 m -2 -7 l
-3 -5 l
-4 -7 l
-5 -5 l
-8 -5 l
-4 -2 l
-8 -3 l
-2 34 m 10 0 l
1143 29 M 17 0 l
0 3 l
-1 3 l
-2 1 l
-3 1 l
-4 0 l
-4 -1 l
-3 -3 l
-2 -4 l
0 -3 l
2 -4 l
3 -3 l
4 -2 l
3 0 l
4 2 l
3 3 l
-1 7 m 0 4 l
-2 3 l
-7 1 m -3 -1 l
-3 -3 l
-1 -4 l
0 -3 l
1 -4 l
3 -3 l
3 -2 l
63 84 m 1169 23 L
75 78 m -5 -5 l
-5 -7 l
-5 -10 l
-2 -12 l
0 -10 l
2 -12 l
5 -9 l
5 -8 l
5 -5 l
-5 73 m -5 -10 l
-2 -7 l
-3 -12 l
0 -10 l
3 -12 l
2 -7 l
5 -10 l
24 63 m 1263 40 L
2 51 m 1265 40 L
25 34 m -25 -24 l
12 10 m 15 -20 l
-17 20 m 15 -20 l
-34 51 m 9 0 l
17 -17 m 15 0 l
-41 -34 m 17 0 l
9 0 m 15 0 l
10 13 m 1307 7 L
9 46 m 1316 7 L
13 67 m 14 -34 l
-12 34 m 12 -29 l
15 29 m -15 -34 l
-19 34 m 15 0 l
9 0 m 15 0 l
17 -26 m 1369 17 L
11 31 m 1390 17 L
-10 26 m 1388 17 L
-16 9 m 13 0 l
-19 -9 m 9 0 l
9 0 m 9 0 l
8 84 m 5 -5 l
5 -7 l
5 -10 l
2 -12 l
0 -10 l
-2 -12 l
-5 -9 l
-5 -8 l
-5 -5 l
5 73 m 5 -10 l
2 -7 l
3 -12 l
0 -10 l
-3 -12 l
-2 -7 l
-5 -10 l
CS [] 0 setdash M
CS [] 0 setdash M
67 1099 M -24 9 m -4 5 l
-3 8 l
-2 -3 l
2 -5 l
7 -5 l
8 -2 l
7 0 l
7 2 l
2 3 l
0 5 l
-2 5 l
-7 4 l
-7 3 l
7 -22 m 5 2 l
2 3 l
0 5 l
-2 5 l
-5 4 l
-7 0 m 7 0 l
7 3 l
2 2 l
0 5 l
-2 5 l
-7 5 l
-7 2 l
-8 0 l
-7 -2 l
-2 -3 l
2 -2 l
3 5 l
4 2 l
15 -22 m 5 3 l
2 2 l
0 5 l
-2 5 l
-5 5 l
7 1202 M 77 -43 l
7 1234 M 5 -5 l
7 -5 l
10 -5 l
12 -2 l
10 0 l
12 2 l
9 5 l
8 5 l
4 5 l
12 1229 M 10 -5 l
7 -2 l
12 -3 l
10 0 l
12 3 l
7 2 l
10 5 l
17 1253 M 50 0 l
17 1255 M 50 0 l
-33 24 m 24 -24 l
-10 12 m 19 15 l
-19 -17 m 19 14 l
17 1246 M 0 9 l
17 17 m 0 15 l
33 -41 m 0 17 l
0 9 m 0 15 l
-13 10 m 47 0 l
-47 9 m 47 0 l
34 1319 M 33 14 l
-33 -12 m 29 12 l
-29 15 m 33 -15 l
-33 -19 m 0 14 l
0 10 m 0 15 l
26 16 m 31 -10 l
-31 10 m 31 10 l
-26 -10 m 26 9 l
-9 -16 m 0 13 l
9 -19 m 0 9 l
0 9 m 0 8 l
7 1391 M 5 5 l
7 5 l
10 4 l
12 3 l
10 0 l
12 -3 l
9 -4 l
8 -5 l
4 -5 l
12 1396 M 10 5 l
7 2 l
12 2 l
10 0 l
12 -2 l
7 -2 l
10 -5 l
CS [] 0 setdash M
CS [] 0 setdash M
255 255 M 2006 0 l
0 2006 l
255 2261 L
255 255 L
2006 0 l
255 255 M 2006 0 l
255 255 M 0 43 l
-20 -121 m 12 34 m 4 2 l
6 6 l
0 -42 l
-2 40 m 0 -40 l
-8 0 m 18 0 l
141 78 m 0 22 l
89 -22 m 0 22 l
62 -22 m 0 22 l
49 -22 m 0 22 l
39 -22 m 0 22 l
34 -22 m 0 22 l
29 -22 m 0 22 l
26 -22 m 0 22 l
23 -22 m 0 43 l
-40 -121 m 12 34 m 4 2 l
6 6 l
0 -42 l
-2 40 m 0 -40 l
-8 0 m 18 0 l
28 42 m -6 -2 l
-4 -6 l
CS M
-2 -10 l
0 -6 l
2 -10 l
4 -6 l
6 -2 l
4 0 l
6 2 l
4 6 l
2 10 l
0 6 l
-2 10 l
-4 6 l
-6 2 l
-4 0 l
-4 -2 l
-2 -2 l
-2 -4 l
-2 -10 l
0 -6 l
2 -10 l
2 -4 l
2 -2 l
4 -2 l
4 0 m 4 2 l
2 2 l
2 4 l
2 10 l
0 6 l
-2 10 l
-2 4 l
-2 2 l
-4 2 l
129 36 m 0 22 l
88 -22 m 0 22 l
63 -22 m 0 22 l
48 -22 m 0 22 l
40 -22 m 0 22 l
33 -22 m 0 22 l
30 -22 m 0 22 l
25 -22 m 0 22 l
23 -22 m 0 43 l
-60 -121 m 12 34 m 4 2 l
6 6 l
0 -42 l
-2 40 m 0 -40 l
-8 0 m 18 0 l
28 42 m -6 -2 l
-4 -6 l
-2 -10 l
0 -6 l
2 -10 l
4 -6 l
6 -2 l
4 0 l
6 2 l
4 6 l
2 10 l
0 6 l
-2 10 l
-4 6 l
-6 2 l
-4 0 l
-4 -2 l
-2 -2 l
-2 -4 l
-2 -10 l
0 -6 l
2 -10 l
2 -4 l
2 -2 l
4 -2 l
4 0 m 4 2 l
2 2 l
2 4 l
2 10 l
0 6 l
-2 10 l
-2 4 l
-2 2 l
-4 2 l
36 0 m -6 -2 l
-4 -6 l
-2 -10 l
0 -6 l
2 -10 l
4 -6 l
6 -2 l
4 0 l
6 2 l
4 6 l
2 10 l
0 6 l
-2 10 l
-4 6 l
-6 2 l
-4 0 l
-4 -2 l
-2 -2 l
-2 -4 l
-2 -10 l
0 -6 l
2 -10 l
2 -4 l
2 -2 l
4 -2 l
4 0 m 4 2 l
2 2 l
2 4 l
2 10 l
0 6 l
-2 10 l
-2 4 l
-2 2 l
-4 2 l
109 36 m 0 22 l
88 -22 m 0 22 l
63 -22 m 0 22 l
49 -22 m 0 22 l
39 -22 m 0 22 l
34 -22 m 0 22 l
29 -22 m 0 22 l
26 -22 m 0 22 l
23 -22 m 0 43 l
-81 -121 m 12 34 m 4 2 l
6 6 l
0 -42 l
-2 40 m 0 -40 l
-8 0 m 18 0 l
29 42 m -6 -2 l
-4 -6 l
-3 -10 l
0 -6 l
3 -10 l
4 -6 l
6 -2 l
4 0 l
6 2 l
4 6 l
2 10 l
0 6 l
-2 10 l
-4 6 l
-6 2 l
-4 0 l
-5 -2 l
-1 -2 l
-3 -4 l
-1 -10 l
0 -6 l
1 -10 l
3 -4 l
1 -2 l
5 -2 l
4 0 m 4 2 l
2 2 l
2 4 l
2 10 l
0 6 l
-2 10 l
-2 4 l
-2 2 l
-4 2 l
36 0 m -6 -2 l
-4 -6 l
-2 -10 l
0 -6 l
2 -10 l
4 -6 l
6 -2 l
4 0 l
6 2 l
4 6 l
2 10 l
0 6 l
-2 10 l
-4 6 l
-6 2 l
-4 0 l
-4 -2 l
-2 -2 l
-2 -4 l
-2 -10 l
0 -6 l
2 -10 l
2 -4 l
2 -2 l
4 -2 l
4 0 m 4 2 l
2 2 l
2 4 l
2 10 l
0 6 l
-2 10 l
-2 4 l
-2 2 l
-4 2 l
36 0 m -6 -2 l
-4 -6 l
-2 -10 l
0 -6 l
2 -10 l
4 -6 l
6 -2 l
4 0 l
6 2 l
4 6 l
2 10 l
0 6 l
-2 10 l
-4 6 l
-6 2 l
-4 0 l
-4 -2 l
-2 -2 l
-2 -4 l
-2 -10 l
0 -6 l
2 -10 l
2 -4 l
2 -2 l
4 -2 l
4 0 m 4 2 l
2 2 l
2 4 l
2 10 l
0 6 l
-2 10 l
-2 4 l
-2 2 l
-4 2 l
89 36 m 0 22 l
88 -22 m 0 22 l
62 -22 m 0 22 l
49 -22 m 0 22 l
40 -22 m 0 22 l
33 -22 m 0 22 l
29 -22 m 0 22 l
26 -22 m 0 22 l
23 -22 m 0 43 l
-52 -124 m 12 34 m 4 2 l
6 6 l
0 -42 l
-2 40 m 0 -40 l
-8 0 m 18 0 l
28 42 m -6 -2 l
-4 -6 l
-2 -10 l
0 -6 l
2 -10 l
4 -6 l
6 -2 l
4 0 l
6 2 l
4 6 l
2 10 l
0 6 l
-2 10 l
-4 6 l
-6 2 l
-4 0 l
-4 -2 l
-2 -2 l
-2 -4 l
-2 -10 l
0 -6 l
2 -10 l
2 -4 l
2 -2 l
4 -2 l
4 0 m 4 2 l
2 2 l
2 4 l
2 10 l
0 6 l
-2 10 l
-2 4 l
-2 2 l
-4 2 l
33 0 m 0 -22 l
1 25 m 0 -25 l
0 25 m -13 -18 l
19 0 l
-11 -7 m 8 0 l
255 2261 M 2006 0 l
255 2261 M 0 -43 l
151 43 m 0 -21 l
89 21 m 0 -21 l
62 21 m 0 -21 l
49 21 m 0 -21 l
39 21 m 0 -21 l
34 21 m 0 -21 l
29 21 m 0 -21 l
26 21 m 0 -21 l
23 21 m 0 -43 l
151 43 m 0 -21 l
88 21 m 0 -21 l
63 21 m 0 -21 l
48 21 m 0 -21 l
40 21 m 0 -21 l
33 21 m 0 -21 l
CS M
30 21 m 0 -21 l
25 21 m 0 -21 l
23 21 m 0 -43 l
151 43 m 0 -21 l
88 21 m 0 -21 l
63 21 m 0 -21 l
49 21 m 0 -21 l
39 21 m 0 -21 l
34 21 m 0 -21 l
29 21 m 0 -21 l
26 21 m 0 -21 l
23 21 m 0 -43 l
151 43 m 0 -21 l
88 21 m 0 -21 l
62 21 m 0 -21 l
49 21 m 0 -21 l
40 21 m 0 -21 l
33 21 m 0 -21 l
29 21 m 0 -21 l
26 21 m 0 -21 l
23 21 m 0 -43 l
255 255 M 0 2006 l
255 255 M 43 0 l
119 234 M 18 42 m -6 -2 l
-4 -6 l
-2 -10 l
0 -6 l
2 -10 l
4 -6 l
6 -2 l
4 0 l
6 2 l
4 6 l
2 10 l
0 6 l
-2 10 l
-4 6 l
-6 2 l
-4 0 l
-4 -2 l
-2 -2 l
-2 -4 l
-2 -10 l
0 -6 l
2 -10 l
2 -4 l
2 -2 l
4 -2 l
4 0 m 4 2 l
2 2 l
2 4 l
2 10 l
0 6 l
-2 10 l
-2 4 l
-2 2 l
-4 2 l
28 -38 m -2 -2 l
2 -2 l
2 2 l
-2 2 l
22 30 m 4 2 l
6 6 l
0 -42 l
-2 40 m 0 -40 l
-8 0 m 18 0 l
46 263 m 22 0 l
-22 141 m 22 0 l
-22 100 m 22 0 l
-22 78 m 22 0 l
-22 64 m 22 0 l
-22 53 m 22 0 l
-22 47 m 22 0 l
-22 41 m 22 0 l
-22 37 m 43 0 l
-119 -21 m 12 34 m 4 2 l
6 6 l
0 -42 l
-2 40 m 0 -40 l
-8 0 m 18 0 l
46 262 m 22 0 l
-22 141 m 22 0 l
-22 101 m 22 0 l
-22 77 m 22 0 l
-22 64 m 22 0 l
-22 54 m 22 0 l
-22 46 m 22 0 l
-22 41 m 22 0 l
-22 37 m 43 0 l
139 1839 M 12 34 m 4 2 l
6 6 l
0 -42 l
-2 40 m 0 -40 l
-8 0 m 18 0 l
28 42 m -6 -2 l
-4 -6 l
-2 -10 l
0 -6 l
2 -10 l
4 -6 l
6 -2 l
4 0 l
6 2 l
4 6 l
2 10 l
0 6 l
-2 10 l
-4 6 l
-6 2 l
-4 0 l
-4 -2 l
-2 -2 l
-2 -4 l
-2 -10 l
0 -6 l
2 -10 l
2 -4 l
2 -2 l
4 -2 l
4 0 m 4 2 l
2 2 l
2 4 l
2 10 l
0 6 l
-2 10 l
-2 4 l
-2 2 l
-4 2 l
54 220 m 22 0 l
-22 142 m 22 0 l
2261 255 M 0 2006 l
2261 255 M -43 0 l
43 242 m -21 0 l
21 141 m -21 0 l
21 100 m -21 0 l
21 78 m -21 0 l
21 64 m -21 0 l
21 53 m -21 0 l
21 47 m -21 0 l
21 41 m -21 0 l
21 37 m -43 0 l
43 241 m -21 0 l
21 141 m -21 0 l
21 101 m -21 0 l
21 77 m -21 0 l
21 64 m -21 0 l
21 54 m -21 0 l
21 46 m -21 0 l
21 41 m -21 0 l
21 37 m -43 0 l
43 241 m -21 0 l
21 142 m -21 0 l
CS [] 0 setdash M
stroke
grestore
showpage
end
