%!PS-Adobe-2.0 EPSF-2.0
%%Creator: SM
%%BoundingBox: 18 144 592 718
%%DocumentFonts: Helvetica
%%EndComments
 20 dict begin
72 300 div dup scale
1 setlinejoin 0 setlinecap
/Helvetica findfont 55 scalefont setfont 
/B {CS newpath moveto} def
/F {moveto 0 setlinecap} def
/C {CS M 1 1 3 {pop 3 1 roll 255 div} for SET_COLOUR} def
/CS {currentpoint stroke} def
/CF {currentpoint eofill} def
/L {lineto} def /l {rlineto} def /M {moveto} def /m {rmoveto} def
/P {currentpoint 0 1 rlineto stroke moveto} def
/T {currentlinecap exch 1 setlinecap show setlinecap} def
errordict /nocurrentpoint {pop 0 0 M currentpoint} put
/SET_COLOUR statusdict begin /processcolors where
  {pop processcolors 1 gt} {false} ifelse
  {(setrgbcolor)} {(pop pop pop)} ifelse cvx end def
 80 600 translate
gsave
CS [] 0 setdash M
CS M 1 100 mul 72 div dup setlinewidth
/P [ /currentpoint cvx 0 5 -1 roll .05 add dup -2 div 0 exch /rmoveto cvx /rlineto cvx /stroke cvx /moveto cvx ] cvx def
 0 0 0 C
CS M 4 100 mul 72 div dup setlinewidth
/P [ /currentpoint cvx 0 5 -1 roll .05 add dup -2 div 0 exch /rmoveto cvx /rlineto cvx /stroke cvx /moveto cvx ] cvx def
 0 0 0 C
CS [] 0 setdash M
255 2115 M 7 2 l
6 3 l
7 2 l
6 2 l
6 2 l
7 2 l
6 2 l
7 2 l
6 2 l
7 1 l
6 2 l
7 2 l
6 2 l
6 2 l
7 2 l
6 1 l
7 2 l
6 2 l
7 1 l
6 2 l
6 1 l
7 1 l
6 1 l
7 1 l
6 1 l
7 1 l
6 1 l
7 0 l
6 1 l
6 0 l
7 -1 l
6 -1 l
7 -1 l
6 -2 l
7 -3 l
6 -3 l
6 -4 l
7 -5 l
6 -6 l
7 -5 l
6 -5 l
7 -5 l
6 -4 l
6 -5 l
7 -4 l
6 -4 l
7 -4 l
6 -4 l
7 -3 l
6 -4 l
7 -4 l
6 -4 l
6 -3 l
7 -4 l
6 -4 l
7 -3 l
6 -4 l
7 -4 l
6 -3 l
6 -4 l
7 -4 l
6 -3 l
7 -4 l
6 -4 l
7 -3 l
6 -4 l
7 -4 l
6 -3 l
6 -4 l
7 -4 l
6 -3 l
7 -4 l
6 -4 l
7 -4 l
6 -3 l
6 -4 l
7 -4 l
6 -3 l
7 -4 l
6 -4 l
7 -3 l
6 -4 l
7 -4 l
6 -3 l
6 -4 l
7 -4 l
6 -3 l
7 -4 l
6 -4 l
7 -3 l
6 -4 l
6 -4 l
7 -3 l
6 -4 l
7 -4 l
6 -3 l
7 -4 l
6 -4 l
7 -4 l
6 -3 l
6 -4 l
7 -4 l
6 -3 l
7 -4 l
6 -4 l
7 -3 l
6 -4 l
6 -4 l
7 -3 l
6 -4 l
7 -4 l
6 -3 l
7 -4 l
6 -4 l
7 -3 l
6 -4 l
6 -4 l
7 -3 l
6 -4 l
7 -4 l
6 -4 l
7 -3 l
6 -4 l
6 -4 l
7 -3 l
6 -4 l
7 -4 l
6 -3 l
7 -4 l
6 -4 l
7 -3 l
6 -4 l
6 -4 l
7 -4 l
6 -3 l
7 -4 l
6 -4 l
7 -3 l
6 -4 l
6 -4 l
7 -3 l
6 -4 l
7 -4 l
6 -3 l
7 -4 l
6 -4 l
6 -3 l
7 -4 l
6 -4 l
7 -4 l
6 -3 l
7 -4 l
6 -4 l
7 -3 l
6 -4 l
6 -4 l
7 -3 l
6 -4 l
7 -4 l
6 -4 l
7 -3 l
6 -4 l
6 -4 l
7 -3 l
6 -4 l
7 -4 l
6 -4 l
7 -3 l
6 -4 l
7 -4 l
6 -3 l
6 -4 l
7 -4 l
6 -4 l
7 -3 l
6 -4 l
7 -4 l
6 -4 l
6 -3 l
7 -4 l
6 -4 l
7 -4 l
6 -3 l
7 -4 l
6 -4 l
7 -3 l
6 -4 l
6 -4 l
7 -4 l
6 -4 l
7 -3 l
6 -4 l
7 -4 l
6 -4 l
6 -3 l
7 -4 l
6 -4 l
7 -4 l
6 -4 l
7 -3 l
6 -4 l
7 -4 l
6 -4 l
6 -4 l
7 -3 l
6 -4 l
7 -4 l
6 -4 l
7 -4 l
6 -4 l
6 -3 l
7 -4 l
6 -4 l
7 -4 l
6 -4 l
7 -4 l
6 -4 l
7 -4 l
6 -3 l
6 -5 l
7 -3 l
6 -4 l
7 -4 l
6 -4 l
7 -4 l
6 -4 l
6 -4 l
7 -4 l
6 -4 l
7 -4 l
6 -4 l
7 -4 l
6 -5 l
7 -4 l
6 -4 l
6 -4 l
7 -4 l
6 -4 l
7 -4 l
6 -5 l
7 -4 l
6 -4 l
6 -4 l
7 -5 l
6 -4 l
7 -4 l
6 -5 l
7 -4 l
6 -5 l
6 -4 l
7 -5 l
6 -4 l
7 -5 l
6 -4 l
7 -5 l
6 -5 l
7 -5 l
6 -5 l
6 -5 l
7 -5 l
6 -5 l
7 -6 l
6 -5 l
7 -6 l
6 -6 l
7 -7 l
6 -6 l
6 -8 l
7 -8 l
6 -9 l
7 -12 l
6 -19 l
7 -4 l
6 -4 l
6 -4 l
7 -3 l
6 -4 l
7 -4 l
6 -4 l
7 -3 l
6 -4 l
7 -4 l
6 -3 l
6 -4 l
7 -4 l
6 -3 l
7 -4 l
6 -4 l
7 -4 l
6 -3 l
6 -4 l
7 -4 l
6 -3 l
7 -4 l
6 -4 l
7 -3 l
6 -4 l
7 -4 l
6 -3 l
6 -4 l
CS M
7 -4 l
6 -3 l
7 -4 l
6 -4 l
7 -3 l
6 -4 l
6 -4 l
7 -4 l
6 -3 l
7 -4 l
6 -4 l
CS [32 24] 0 setdash M
 0 0 255 C
 255 0 0 C
255 445 M 7 3 l
6 4 l
7 4 l
6 3 l
6 4 l
7 4 l
6 3 l
7 4 l
6 4 l
7 3 l
6 4 l
7 4 l
6 3 l
6 4 l
7 4 l
6 3 l
7 4 l
6 4 l
7 3 l
6 4 l
6 4 l
7 3 l
6 4 l
7 4 l
6 3 l
7 4 l
6 4 l
7 3 l
6 4 l
6 4 l
7 3 l
6 4 l
7 4 l
6 3 l
7 4 l
6 3 l
6 4 l
7 4 l
6 4 l
7 3 l
6 4 l
7 3 l
6 4 l
6 4 l
7 3 l
6 4 l
7 4 l
6 3 l
7 4 l
6 4 l
7 3 l
6 4 l
6 4 l
7 3 l
6 4 l
7 4 l
6 3 l
7 4 l
6 3 l
6 4 l
7 4 l
6 3 l
7 4 l
6 4 l
7 3 l
6 4 l
7 3 l
6 4 l
6 4 l
7 3 l
6 4 l
7 4 l
6 3 l
7 4 l
6 4 l
6 3 l
7 4 l
6 3 l
7 4 l
6 4 l
7 3 l
6 4 l
7 3 l
6 4 l
6 4 l
7 3 l
6 4 l
7 3 l
6 4 l
7 4 l
6 3 l
6 4 l
7 3 l
6 4 l
7 3 l
6 4 l
7 4 l
6 3 l
7 4 l
6 3 l
6 4 l
7 4 l
6 3 l
7 4 l
6 3 l
7 4 l
6 3 l
6 4 l
7 4 l
6 3 l
7 4 l
6 3 l
7 4 l
6 3 l
7 4 l
6 3 l
6 4 l
7 4 l
6 3 l
7 4 l
6 3 l
7 4 l
6 3 l
6 4 l
7 3 l
6 4 l
7 3 l
6 4 l
7 3 l
6 4 l
7 3 l
6 4 l
6 4 l
7 3 l
6 4 l
7 3 l
6 4 l
7 3 l
6 4 l
6 3 l
7 4 l
6 3 l
7 4 l
6 3 l
7 4 l
6 3 l
6 4 l
7 3 l
6 4 l
7 3 l
6 4 l
7 4 l
6 3 l
7 4 l
6 3 l
6 4 l
7 3 l
6 4 l
7 3 l
6 4 l
7 3 l
6 4 l
6 4 l
7 3 l
6 4 l
7 3 l
6 4 l
7 3 l
6 4 l
7 4 l
6 3 l
6 4 l
7 3 l
6 4 l
7 4 l
6 3 l
7 4 l
6 3 l
6 4 l
7 4 l
6 3 l
7 4 l
6 4 l
7 3 l
6 4 l
7 4 l
6 4 l
6 3 l
7 4 l
6 4 l
7 4 l
6 3 l
7 4 l
6 4 l
6 4 l
7 4 l
6 4 l
7 4 l
6 4 l
7 4 l
6 4 l
7 4 l
6 4 l
6 4 l
7 4 l
6 4 l
7 5 l
6 4 l
7 4 l
6 5 l
6 4 l
7 5 l
6 5 l
7 4 l
6 5 l
7 5 l
6 6 l
7 5 l
6 6 l
6 6 l
7 6 l
6 6 l
7 7 l
6 8 l
7 9 l
6 11 l
6 14 l
7 24 l
6 -4 l
7 -4 l
6 -3 l
7 -4 l
6 -4 l
7 -3 l
6 -4 l
6 -4 l
7 -3 l
6 -4 l
7 -4 l
6 -3 l
7 -4 l
6 -4 l
6 -3 l
7 -4 l
6 -4 l
7 -3 l
6 -4 l
7 -4 l
6 -4 l
6 -3 l
7 -4 l
6 -4 l
7 -3 l
6 -4 l
7 -4 l
6 -3 l
7 -4 l
6 -4 l
6 -3 l
7 -4 l
6 -4 l
7 -3 l
6 -4 l
7 -4 l
6 -3 l
7 -4 l
6 -4 l
6 -3 l
7 -4 l
6 -4 l
7 -3 l
6 -4 l
7 -4 l
6 -4 l
6 -3 l
7 -4 l
6 -4 l
7 -3 l
6 -4 l
7 -4 l
6 -3 l
7 -4 l
6 -4 l
6 -3 l
7 -4 l
6 -4 l
7 -3 l
6 -4 l
7 -4 l
CS M
6 -3 l
6 -4 l
7 -4 l
6 -3 l
7 -4 l
6 -4 l
7 -3 l
6 -4 l
7 -4 l
6 -3 l
6 -4 l
7 -4 l
6 -3 l
7 -4 l
6 -4 l
7 -4 l
6 -3 l
6 -4 l
7 -4 l
6 -3 l
7 -4 l
6 -4 l
274 2261 M 1 0 l
6 -4 l
6 -4 l
7 -3 l
6 -4 l
7 -4 l
6 -3 l
7 -4 l
6 -4 l
7 -4 l
6 -3 l
6 -4 l
7 -4 l
6 -3 l
7 -4 l
6 -4 l
7 -3 l
6 -4 l
6 -4 l
7 -3 l
6 -4 l
7 -4 l
6 -3 l
7 -4 l
6 -4 l
7 -3 l
6 -4 l
6 -4 l
7 -3 l
6 -4 l
7 -4 l
6 -3 l
7 -4 l
6 -4 l
6 -3 l
7 -4 l
6 -4 l
7 -3 l
6 -4 l
7 -4 l
6 -4 l
6 -3 l
7 -4 l
6 -4 l
7 -3 l
6 -4 l
7 -4 l
6 -3 l
7 -4 l
6 -4 l
6 -3 l
7 -4 l
6 -4 l
7 -3 l
6 -4 l
7 -4 l
6 -3 l
6 -4 l
7 -4 l
6 -3 l
7 -4 l
6 -4 l
7 -3 l
6 -4 l
7 -4 l
6 -3 l
6 -4 l
7 -4 l
6 -3 l
7 -4 l
6 -4 l
7 -4 l
6 -3 l
6 -4 l
7 -4 l
6 -3 l
7 -4 l
6 -4 l
7 -3 l
6 -4 l
7 -4 l
6 -3 l
6 -4 l
7 -4 l
6 -3 l
7 -4 l
6 -4 l
7 -3 l
6 -4 l
6 -4 l
7 -3 l
6 -4 l
7 -4 l
6 -3 l
7 -4 l
6 -4 l
7 -4 l
6 -3 l
6 -4 l
7 -4 l
6 -3 l
7 -4 l
6 -4 l
7 -3 l
6 -4 l
6 -4 l
7 -3 l
6 -4 l
7 -4 l
6 -3 l
7 -4 l
6 -4 l
7 -3 l
6 -4 l
6 -4 l
7 -3 l
6 -4 l
7 -4 l
6 -4 l
7 -3 l
6 -4 l
6 -4 l
7 -3 l
6 -4 l
7 -4 l
6 -3 l
7 -4 l
6 -4 l
7 -3 l
6 -4 l
6 -4 l
7 -3 l
6 -4 l
7 -4 l
6 -3 l
7 -4 l
6 -4 l
6 -4 l
7 -3 l
6 -4 l
7 -4 l
6 -3 l
7 -4 l
6 -4 l
6 -3 l
7 -4 l
6 -4 l
7 -3 l
6 -4 l
7 -4 l
6 -4 l
7 -3 l
6 -4 l
6 -4 l
7 -3 l
6 -4 l
7 -4 l
6 -3 l
7 -4 l
6 -4 l
6 -4 l
7 -3 l
6 -4 l
7 -4 l
6 -4 l
7 -3 l
6 -4 l
7 -4 l
6 -3 l
6 -4 l
7 -4 l
6 -4 l
7 -4 l
6 -3 l
7 -4 l
6 -4 l
6 -4 l
7 -3 l
6 -4 l
7 -4 l
6 -4 l
7 -4 l
6 -4 l
7 -3 l
6 -4 l
6 -4 l
7 -4 l
6 -4 l
7 -4 l
6 -4 l
7 -4 l
6 -4 l
6 -4 l
7 -3 l
6 -4 l
7 -5 l
6 -4 l
7 -4 l
6 -4 l
7 -4 l
6 -4 l
6 -4 l
7 -5 l
6 -4 l
7 -4 l
6 -5 l
7 -4 l
6 -5 l
6 -4 l
7 -5 l
6 -5 l
7 -5 l
6 -5 l
7 -5 l
6 -5 l
7 -6 l
6 -5 l
6 -6 l
7 -6 l
6 -7 l
7 -7 l
6 -8 l
7 -9 l
6 -11 l
6 -14 l
7 -26 l
6 -4 l
7 -4 l
6 -3 l
7 -4 l
6 -4 l
7 -3 l
6 -4 l
6 -4 l
7 -3 l
6 -4 l
7 -4 l
6 -3 l
7 -4 l
6 -4 l
6 -3 l
7 -4 l
6 -4 l
7 -3 l
6 -4 l
7 -4 l
6 -4 l
6 -3 l
7 -4 l
6 -4 l
7 -3 l
6 -4 l
7 -4 l
6 -3 l
7 -4 l
6 -4 l
6 -3 l
7 -4 l
6 -4 l
7 -3 l
6 -4 l
7 -4 l
6 -3 l
7 -4 l
6 -4 l
6 -3 l
7 -4 l
6 -4 l
7 -3 l
6 -4 l
7 -4 l
6 -4 l
6 -3 l
7 -4 l
6 -4 l
7 -3 l
6 -4 l
7 -4 l
CS M
6 -3 l
7 -4 l
6 -4 l
6 -3 l
7 -4 l
6 -4 l
7 -3 l
6 -4 l
7 -4 l
6 -3 l
6 -4 l
7 -4 l
6 -3 l
7 -4 l
6 -4 l
7 -3 l
6 -4 l
7 -4 l
6 -3 l
6 -4 l
7 -4 l
6 -3 l
7 -4 l
6 -4 l
7 -4 l
6 -3 l
6 -4 l
7 -4 l
6 -3 l
7 -4 l
6 -4 l
 0 0 0 C
CS M 1 dup setlinewidth
/P [ /currentpoint cvx 0 5 -1 roll .05 add dup -2 div 0 exch /rmoveto cvx /rlineto cvx /stroke cvx /moveto cvx ] cvx def
CS M 2 100 mul 72 div dup setlinewidth
/P [ /currentpoint cvx 0 5 -1 roll .05 add dup -2 div 0 exch /rmoveto cvx /rlineto cvx /stroke cvx /moveto cvx ] cvx def
CS [] 0 setdash M
1225 45 M 31 51 m -7 -2 l
-5 -5 l
-5 -10 l
-2 -7 l
-2 -10 l
-3 -14 l
-2 -20 l
26 68 m -5 -2 l
-4 -5 l
-5 -10 l
-3 -7 l
-2 -10 l
-2 -14 l
-3 -20 l
24 68 m 5 0 l
5 -2 l
2 -3 l
0 -7 l
-2 -5 l
-3 -2 l
-7 -3 l
-9 0 l
14 22 m 5 -5 l
0 -7 l
-3 -5 l
-2 -2 l
-5 -3 l
-9 0 m 9 -2 l
5 -5 l
2 -5 l
0 -7 l
-2 -5 l
-2 -2 l
-8 -3 l
-4 0 l
-5 3 l
-3 2 l
-2 7 l
10 17 m 7 -2 l
5 -5 l
2 -5 l
0 -7 l
-2 -5 l
-3 -2 l
-5 -3 l
32 8 m -2 -2 l
2 -1 l
1 1 l
-1 2 l
0 -11 m 0 -20 l
1 20 m 0 -20 l
-6 20 m 6 0 l
-6 -20 m 11 0 l
CS [32 24] 0 setdash M
CS [] 0 setdash M
67 1102 M -26 3 m -5 5 l
-2 4 l
0 5 l
2 5 l
3 3 l
7 2 l
9 0 l
10 -2 l
19 -8 l
39 1107 M -3 5 l
0 10 l
3 5 l
-5 19 m 7 -3 l
5 -2 l
17 -12 l
12 -7 l
9 -5 l
34 1143 M 7 -2 l
5 -2 l
17 -10 l
7 1199 M 77 -44 l
7 1230 M 5 -5 l
7 -5 l
10 -4 l
12 -3 l
10 0 l
12 3 l
9 4 l
8 5 l
4 5 l
12 1225 M 10 -5 l
7 -2 l
12 -2 l
10 0 l
12 2 l
7 2 l
10 5 l
17 1249 M 50 0 l
17 1252 M 50 0 l
-33 24 m 24 -24 l
-10 12 m 19 14 l
-19 -17 m 19 15 l
17 1242 M 0 10 l
17 17 m 0 14 l
33 -41 m 0 17 l
0 10 m 0 14 l
-13 11 m 47 0 l
-47 8 m 47 0 l
34 1315 M 33 15 l
-33 -12 m 29 12 l
-29 14 m 33 -14 l
-33 -20 m 0 15 l
0 9 m 0 15 l
26 17 m 31 -10 l
-31 10 m 31 10 l
-26 -10 m 26 8 l
-9 -15 m 0 13 l
9 -19 m 0 8 l
0 9 m 0 9 l
7 1387 M 5 5 l
7 5 l
10 5 l
12 2 l
10 0 l
12 -2 l
9 -5 l
8 -5 l
4 -5 l
12 1392 M 10 5 l
7 2 l
12 3 l
10 0 l
12 -3 l
7 -2 l
10 -5 l
CS [32 24] 0 setdash M
CS [] 0 setdash M
255 255 M 2006 0 l
0 2006 l
255 2261 L
255 255 L
2006 0 l
255 255 M 2006 0 l
255 255 M 0 43 l
-70 -121 m 18 42 m -6 -2 l
-4 -6 l
-2 -10 l
0 -6 l
2 -10 l
4 -6 l
6 -2 l
4 0 l
6 2 l
4 6 l
2 10 l
0 6 l
-2 10 l
-4 6 l
-6 2 l
-4 0 l
-4 -2 l
-2 -2 l
-2 -4 l
-2 -10 l
0 -6 l
2 -10 l
2 -4 l
2 -2 l
4 -2 l
4 0 m 4 2 l
2 2 l
2 4 l
2 10 l
0 6 l
-2 10 l
-2 4 l
-2 2 l
-4 2 l
28 -38 m -2 -2 l
2 -2 l
2 2 l
-2 2 l
28 38 m -6 -2 l
-4 -6 l
-2 -10 l
0 -6 l
2 -10 l
4 -6 l
6 -2 l
4 0 l
6 2 l
4 6 l
2 10 l
0 6 l
-2 10 l
-4 6 l
-6 2 l
-4 0 l
-4 -2 l
-2 -2 l
-2 -4 l
-2 -10 l
0 -6 l
2 -10 l
2 -4 l
2 -2 l
4 -2 l
4 0 m 4 2 l
2 2 l
2 4 l
2 10 l
0 6 l
-2 10 l
-2 4 l
-2 2 l
-4 2 l
30 -8 m 4 2 l
6 6 l
0 -42 l
-2 40 m 0 -40 l
-8 0 m 18 0 l
91 78 m 0 22 l
89 -22 m 0 22 l
62 -22 m 0 22 l
49 -22 m 0 22 l
39 -22 m 0 22 l
34 -22 m 0 22 l
29 -22 m 0 22 l
26 -22 m 0 22 l
23 -22 m 0 43 l
-50 -121 m 18 42 m -6 -2 l
-4 -6 l
-2 -10 l
0 -6 l
2 -10 l
4 -6 l
6 -2 l
4 0 l
6 2 l
4 6 l
2 10 l
0 6 l
-2 10 l
-4 6 l
-6 2 l
-4 0 l
-4 -2 l
-2 -2 l
-2 -4 l
-2 -10 l
0 -6 l
2 -10 l
2 -4 l
2 -2 l
4 -2 l
4 0 m 4 2 l
2 2 l
2 4 l
2 10 l
0 6 l
-2 10 l
-2 4 l
-2 2 l
-4 2 l
28 -38 m -2 -2 l
2 -2 l
2 2 l
-2 2 l
22 30 m 4 2 l
6 6 l
0 -42 l
-2 40 m 0 -40 l
-8 0 m 18 0 l
111 78 m 0 22 l
88 -22 m 0 22 l
63 -22 m 0 22 l
48 -22 m 0 22 l
40 -22 m 0 22 l
CS M
33 -22 m 0 22 l
30 -22 m 0 22 l
25 -22 m 0 22 l
23 -22 m 0 43 l
-20 -121 m 12 34 m 4 2 l
6 6 l
0 -42 l
-2 40 m 0 -40 l
-8 0 m 18 0 l
141 78 m 0 22 l
88 -22 m 0 22 l
63 -22 m 0 22 l
49 -22 m 0 22 l
39 -22 m 0 22 l
34 -22 m 0 22 l
29 -22 m 0 22 l
26 -22 m 0 22 l
23 -22 m 0 43 l
-41 -121 m 13 34 m 4 2 l
6 6 l
0 -42 l
-2 40 m 0 -40 l
-8 0 m 18 0 l
28 42 m -6 -2 l
-4 -6 l
-2 -10 l
0 -6 l
2 -10 l
4 -6 l
6 -2 l
4 0 l
6 2 l
4 6 l
2 10 l
0 6 l
-2 10 l
-4 6 l
-6 2 l
-4 0 l
-4 -2 l
-2 -2 l
-2 -4 l
-2 -10 l
0 -6 l
2 -10 l
2 -4 l
2 -2 l
4 -2 l
4 0 m 4 2 l
2 2 l
2 4 l
2 10 l
0 6 l
-2 10 l
-2 4 l
-2 2 l
-4 2 l
129 36 m 0 22 l
88 -22 m 0 22 l
62 -22 m 0 22 l
49 -22 m 0 22 l
40 -22 m 0 22 l
33 -22 m 0 22 l
29 -22 m 0 22 l
26 -22 m 0 22 l
23 -22 m 0 43 l
-60 -121 m 12 34 m 4 2 l
6 6 l
0 -42 l
-2 40 m 0 -40 l
-8 0 m 18 0 l
28 42 m -6 -2 l
-4 -6 l
-2 -10 l
0 -6 l
2 -10 l
4 -6 l
6 -2 l
4 0 l
6 2 l
4 6 l
2 10 l
0 6 l
-2 10 l
-4 6 l
-6 2 l
-4 0 l
-4 -2 l
-2 -2 l
-2 -4 l
-2 -10 l
0 -6 l
2 -10 l
2 -4 l
2 -2 l
4 -2 l
4 0 m 4 2 l
2 2 l
2 4 l
2 10 l
0 6 l
-2 10 l
-2 4 l
-2 2 l
-4 2 l
36 0 m -6 -2 l
-4 -6 l
-2 -10 l
0 -6 l
2 -10 l
4 -6 l
6 -2 l
4 0 l
6 2 l
4 6 l
2 10 l
0 6 l
-2 10 l
-4 6 l
-6 2 l
-4 0 l
-4 -2 l
-2 -2 l
-2 -4 l
-2 -10 l
0 -6 l
2 -10 l
2 -4 l
2 -2 l
4 -2 l
4 0 m 4 2 l
2 2 l
2 4 l
2 10 l
0 6 l
-2 10 l
-2 4 l
-2 2 l
-4 2 l
255 2261 M 2006 0 l
255 2261 M 0 -43 l
151 43 m 0 -21 l
89 21 m 0 -21 l
62 21 m 0 -21 l
49 21 m 0 -21 l
39 21 m 0 -21 l
34 21 m 0 -21 l
29 21 m 0 -21 l
26 21 m 0 -21 l
23 21 m 0 -43 l
151 43 m 0 -21 l
88 21 m 0 -21 l
63 21 m 0 -21 l
48 21 m 0 -21 l
40 21 m 0 -21 l
33 21 m 0 -21 l
30 21 m 0 -21 l
25 21 m 0 -21 l
23 21 m 0 -43 l
151 43 m 0 -21 l
88 21 m 0 -21 l
63 21 m 0 -21 l
49 21 m 0 -21 l
39 21 m 0 -21 l
34 21 m 0 -21 l
29 21 m 0 -21 l
26 21 m 0 -21 l
23 21 m 0 -43 l
151 43 m 0 -21 l
88 21 m 0 -21 l
62 21 m 0 -21 l
49 21 m 0 -21 l
40 21 m 0 -21 l
33 21 m 0 -21 l
29 21 m 0 -21 l
26 21 m 0 -21 l
23 21 m 0 -43 l
255 255 M 0 2006 l
255 255 M 43 0 l
38 234 M 18 42 m -6 -2 l
-4 -6 l
-2 -10 l
0 -6 l
2 -10 l
4 -6 l
6 -2 l
4 0 l
6 2 l
4 6 l
2 10 l
0 6 l
-2 10 l
-4 6 l
-6 2 l
-4 0 l
-4 -2 l
-2 -2 l
-2 -4 l
-2 -10 l
0 -6 l
2 -10 l
2 -4 l
2 -2 l
4 -2 l
4 0 m 4 2 l
2 2 l
2 4 l
2 10 l
0 6 l
-2 10 l
-2 4 l
-2 2 l
-4 2 l
28 -38 m -2 -2 l
2 -2 l
2 2 l
-2 2 l
28 38 m -6 -2 l
-4 -6 l
-2 -10 l
0 -6 l
2 -10 l
4 -6 l
6 -2 l
4 0 l
7 2 l
4 6 l
2 10 l
0 6 l
-2 10 l
-4 6 l
-7 2 l
-4 0 l
-4 -2 l
-2 -2 l
-2 -4 l
-2 -10 l
0 -6 l
2 -10 l
2 -4 l
2 -2 l
4 -2 l
4 0 m 5 2 l
2 2 l
2 4 l
2 10 l
0 6 l
-2 10 l
-2 4 l
-2 2 l
-5 2 l
37 0 m -6 -2 l
-4 -6 l
-2 -10 l
0 -6 l
2 -10 l
4 -6 l
6 -2 l
4 0 l
6 2 l
4 6 l
2 10 l
0 6 l
-2 10 l
-4 6 l
-6 2 l
-4 0 l
-4 -2 l
-2 -2 l
-2 -4 l
-2 -10 l
0 -6 l
2 -10 l
2 -4 l
2 -2 l
4 -2 l
4 0 m 4 2 l
2 2 l
2 4 l
2 10 l
0 6 l
-2 10 l
-2 4 l
-2 2 l
-4 2 l
30 -8 m 4 2 l
6 6 l
0 -42 l
-2 40 m 0 -40 l
-8 0 m 18 0 l
46 108 m 22 0 l
-22 50 m 22 0 l
-22 36 m 22 0 l
-22 28 m 22 0 l
-22 22 m 22 0 l
-22 19 m 22 0 l
-22 17 m 22 0 l
-22 15 m 22 0 l
-22 13 m 43 0 l
78 521 M 18 42 m -6 -2 l
CS M
-4 -6 l
-2 -10 l
0 -6 l
2 -10 l
4 -6 l
6 -2 l
4 0 l
6 2 l
4 6 l
2 10 l
0 6 l
-2 10 l
-4 6 l
-6 2 l
-4 0 l
-4 -2 l
-2 -2 l
-2 -4 l
-2 -10 l
0 -6 l
2 -10 l
2 -4 l
2 -2 l
4 -2 l
4 0 m 4 2 l
2 2 l
2 4 l
2 10 l
0 6 l
-2 10 l
-2 4 l
-2 2 l
-4 2 l
29 -38 m -2 -2 l
2 -2 l
2 2 l
-2 2 l
28 38 m -6 -2 l
-4 -6 l
-2 -10 l
0 -6 l
2 -10 l
4 -6 l
6 -2 l
4 0 l
6 2 l
4 6 l
2 10 l
0 6 l
-2 10 l
-4 6 l
-6 2 l
-4 0 l
-4 -2 l
-2 -2 l
-2 -4 l
-2 -10 l
0 -6 l
2 -10 l
2 -4 l
2 -2 l
4 -2 l
4 0 m 4 2 l
2 2 l
2 4 l
2 10 l
0 6 l
-2 10 l
-2 4 l
-2 2 l
-4 2 l
30 -8 m 4 2 l
6 6 l
0 -42 l
-2 40 m 0 -40 l
-8 0 m 18 0 l
46 107 m 22 0 l
-22 51 m 22 0 l
-22 35 m 22 0 l
-22 28 m 22 0 l
-22 23 m 22 0 l
-22 19 m 22 0 l
-22 17 m 22 0 l
-22 14 m 22 0 l
-22 13 m 43 0 l
119 807 M 18 42 m -6 -2 l
-4 -6 l
-2 -10 l
0 -6 l
2 -10 l
4 -6 l
6 -2 l
4 0 l
6 2 l
4 6 l
2 10 l
0 6 l
-2 10 l
-4 6 l
-6 2 l
-4 0 l
-4 -2 l
-2 -2 l
-2 -4 l
-2 -10 l
0 -6 l
2 -10 l
2 -4 l
2 -2 l
4 -2 l
4 0 m 4 2 l
2 2 l
2 4 l
2 10 l
0 6 l
-2 10 l
-2 4 l
-2 2 l
-4 2 l
28 -38 m -2 -2 l
2 -2 l
2 2 l
-2 2 l
22 30 m 4 2 l
6 6 l
0 -42 l
-2 40 m 0 -40 l
-8 0 m 18 0 l
46 108 m 22 0 l
-22 50 m 22 0 l
-22 36 m 22 0 l
-22 28 m 22 0 l
-22 22 m 22 0 l
-22 19 m 22 0 l
-22 17 m 22 0 l
-22 15 m 22 0 l
-22 13 m 43 0 l
-119 -21 m 12 34 m 4 2 l
6 6 l
0 -42 l
-2 40 m 0 -40 l
-8 0 m 18 0 l
46 107 m 22 0 l
-22 51 m 22 0 l
-22 35 m 22 0 l
-22 28 m 22 0 l
-22 23 m 22 0 l
-22 19 m 22 0 l
-22 17 m 22 0 l
-22 14 m 22 0 l
-22 13 m 43 0 l
139 1380 M 12 34 m 4 3 l
6 5 l
0 -42 l
-2 41 m 0 -41 l
-8 0 m 18 0 l
28 42 m -6 -1 l
-4 -7 l
-2 -10 l
0 -6 l
2 -10 l
4 -6 l
6 -2 l
4 0 l
6 2 l
4 6 l
2 10 l
0 6 l
-2 10 l
-4 7 l
-6 1 l
-4 0 l
-4 -1 l
-2 -3 l
-2 -4 l
-2 -10 l
0 -6 l
2 -10 l
2 -4 l
2 -2 l
4 -2 l
4 0 m 4 2 l
2 2 l
2 4 l
2 10 l
0 6 l
-2 10 l
-2 4 l
-2 3 l
-4 1 l
54 66 m 22 0 l
-22 50 m 22 0 l
-22 36 m 22 0 l
-22 28 m 22 0 l
-22 22 m 22 0 l
-22 20 m 22 0 l
-22 16 m 22 0 l
-22 15 m 22 0 l
-22 13 m 43 0 l
98 1667 M 12 34 m 5 2 l
5 6 l
0 -42 l
-1 40 m 0 -40 l
-9 0 m 19 0 l
28 42 m -6 -2 l
-4 -6 l
-2 -10 l
0 -6 l
2 -10 l
4 -6 l
6 -2 l
4 0 l
6 2 l
4 6 l
2 10 l
0 6 l
-2 10 l
-4 6 l
-6 2 l
-4 0 l
-4 -2 l
-2 -2 l
-2 -4 l
-2 -10 l
0 -6 l
2 -10 l
2 -4 l
2 -2 l
4 -2 l
4 0 m 4 2 l
2 2 l
2 4 l
2 10 l
0 6 l
-2 10 l
-2 4 l
-2 2 l
-4 2 l
36 0 m -6 -2 l
-4 -6 l
-2 -10 l
0 -6 l
2 -10 l
4 -6 l
6 -2 l
4 0 l
6 2 l
4 6 l
2 10 l
0 6 l
-2 10 l
-4 6 l
-6 2 l
-4 0 l
-4 -2 l
-2 -2 l
-2 -4 l
-2 -10 l
0 -6 l
2 -10 l
2 -4 l
2 -2 l
4 -2 l
4 0 m 4 2 l
2 2 l
2 4 l
2 10 l
0 6 l
-2 10 l
-2 4 l
-2 2 l
-4 2 l
54 65 m 22 0 l
-22 51 m 22 0 l
-22 35 m 22 0 l
-22 28 m 22 0 l
-22 23 m 22 0 l
-22 19 m 22 0 l
-22 17 m 22 0 l
-22 14 m 22 0 l
-22 13 m 43 0 l
58 1953 M 12 35 m 4 2 l
6 6 l
0 -43 l
-2 41 m 0 -41 l
-8 0 m 18 0 l
28 43 m -6 -2 l
-4 -6 l
-2 -10 l
0 -7 l
2 -10 l
4 -6 l
6 -2 l
4 0 l
7 2 l
4 6 l
2 10 l
0 7 l
-2 10 l
-4 6 l
CS M
-7 2 l
-4 0 l
-4 -2 l
-2 -2 l
-2 -4 l
-2 -10 l
0 -7 l
2 -10 l
2 -4 l
2 -2 l
4 -2 l
4 0 m 5 2 l
2 2 l
2 4 l
2 10 l
0 7 l
-2 10 l
-2 4 l
-2 2 l
-5 2 l
37 0 m -6 -2 l
-4 -6 l
-2 -10 l
0 -7 l
2 -10 l
4 -6 l
6 -2 l
4 0 l
6 2 l
4 6 l
2 10 l
0 7 l
-2 10 l
-4 6 l
-6 2 l
-4 0 l
-4 -2 l
-2 -2 l
-2 -4 l
-2 -10 l
0 -7 l
2 -10 l
2 -4 l
2 -2 l
4 -2 l
4 0 m 4 2 l
2 2 l
2 4 l
2 10 l
0 7 l
-2 10 l
-2 4 l
-2 2 l
-4 2 l
36 0 m -6 -2 l
-4 -6 l
-2 -10 l
0 -7 l
2 -10 l
4 -6 l
6 -2 l
4 0 l
6 2 l
4 6 l
2 10 l
0 7 l
-2 10 l
-4 6 l
-6 2 l
-4 0 l
-4 -2 l
-2 -2 l
-2 -4 l
-2 -10 l
0 -7 l
2 -10 l
2 -4 l
2 -2 l
4 -2 l
4 0 m 4 2 l
2 2 l
2 4 l
2 10 l
0 7 l
-2 10 l
-2 4 l
-2 2 l
-4 2 l
54 65 m 22 0 l
-22 50 m 22 0 l
-22 36 m 22 0 l
-22 28 m 22 0 l
-22 22 m 22 0 l
-22 20 m 22 0 l
-22 16 m 22 0 l
-22 15 m 22 0 l
-22 13 m 43 0 l
115 2239 M 12 34 m 4 2 l
6 6 l
0 -42 l
-2 40 m 0 -40 l
-8 0 m 18 0 l
28 42 m -6 -2 l
-4 -6 l
-2 -10 l
0 -6 l
2 -10 l
4 -6 l
6 -2 l
4 0 l
6 2 l
4 6 l
2 10 l
0 6 l
-2 10 l
-4 6 l
-6 2 l
-4 0 l
-4 -2 l
-2 -2 l
-2 -4 l
-2 -10 l
0 -6 l
2 -10 l
2 -4 l
2 -2 l
4 -2 l
4 0 m 4 2 l
2 2 l
2 4 l
2 10 l
0 6 l
-2 10 l
-2 4 l
-2 2 l
-4 2 l
32 0 m 0 -23 l
1 25 m 0 -25 l
0 25 m -13 -18 l
19 0 l
-10 -7 m 8 0 l
2261 255 M 0 2006 l
2261 255 M -43 0 l
43 87 m -21 0 l
21 50 m -21 0 l
21 36 m -21 0 l
21 28 m -21 0 l
21 22 m -21 0 l
21 19 m -21 0 l
21 17 m -21 0 l
21 15 m -21 0 l
21 13 m -43 0 l
43 86 m -21 0 l
21 51 m -21 0 l
21 35 m -21 0 l
21 28 m -21 0 l
21 23 m -21 0 l
21 19 m -21 0 l
21 17 m -21 0 l
21 14 m -21 0 l
21 13 m -43 0 l
43 87 m -21 0 l
21 50 m -21 0 l
21 36 m -21 0 l
21 28 m -21 0 l
21 22 m -21 0 l
21 19 m -21 0 l
21 17 m -21 0 l
21 15 m -21 0 l
21 13 m -43 0 l
43 86 m -21 0 l
21 51 m -21 0 l
21 35 m -21 0 l
21 28 m -21 0 l
21 23 m -21 0 l
21 19 m -21 0 l
21 17 m -21 0 l
21 14 m -21 0 l
21 13 m -43 0 l
43 87 m -21 0 l
21 50 m -21 0 l
21 36 m -21 0 l
21 28 m -21 0 l
21 22 m -21 0 l
21 20 m -21 0 l
21 16 m -21 0 l
21 15 m -21 0 l
21 13 m -43 0 l
43 86 m -21 0 l
21 51 m -21 0 l
21 35 m -21 0 l
21 28 m -21 0 l
21 23 m -21 0 l
21 19 m -21 0 l
21 17 m -21 0 l
21 14 m -21 0 l
21 13 m -43 0 l
43 87 m -21 0 l
21 50 m -21 0 l
21 36 m -21 0 l
21 28 m -21 0 l
21 22 m -21 0 l
21 20 m -21 0 l
21 16 m -21 0 l
21 15 m -21 0 l
21 13 m -43 0 l
CS [32 24] 0 setdash M
stroke
grestore
showpage
end
