%!PS-Adobe-2.0 EPSF-2.0
%%Creator: SM
%%BoundingBox: 18 144 592 718
%%DocumentFonts: Helvetica
%%EndComments
 20 dict begin
72 300 div dup scale
1 setlinejoin 0 setlinecap
/Helvetica findfont 55 scalefont setfont 
/B {CS newpath moveto} def
/F {moveto 0 setlinecap} def
/C {CS M 1 1 3 {pop 3 1 roll 255 div} for SET_COLOUR} def
/CS {currentpoint stroke} def
/CF {currentpoint eofill} def
/L {lineto} def /l {rlineto} def /M {moveto} def /m {rmoveto} def
/P {currentpoint 0 1 rlineto stroke moveto} def
/T {currentlinecap exch 1 setlinecap show setlinecap} def
errordict /nocurrentpoint {pop 0 0 M currentpoint} put
/SET_COLOUR statusdict begin /processcolors where
  {pop processcolors 1 gt} {false} ifelse
  {(setrgbcolor)} {(pop pop pop)} ifelse cvx end def
 80 600 translate
gsave
CS [] 0 setdash M
CS M 1 100 mul 72 div dup setlinewidth
/P [ /currentpoint cvx 0 5 -1 roll .05 add dup -2 div 0 exch /rmoveto cvx /rlineto cvx /stroke cvx /moveto cvx ] cvx def
 0 0 0 C
CS M 4 100 mul 72 div dup setlinewidth
/P [ /currentpoint cvx 0 5 -1 roll .05 add dup -2 div 0 exch /rmoveto cvx /rlineto cvx /stroke cvx /moveto cvx ] cvx def
 0 0 0 C
CS [] 0 setdash M
346 2170 M 10 -8 l
10 -7 l
9 -8 l
10 -8 l
10 -7 l
10 -8 l
9 -8 l
10 -8 l
10 -7 l
9 -8 l
10 -8 l
10 -8 l
9 -8 l
10 -8 l
10 -8 l
10 -8 l
9 -8 l
10 -8 l
10 -8 l
9 -8 l
10 -8 l
10 -8 l
9 -9 l
10 -8 l
10 -8 l
10 -8 l
9 -9 l
10 -8 l
10 -9 l
9 -8 l
10 -8 l
10 -9 l
9 -9 l
10 -8 l
10 -9 l
10 -9 l
9 -8 l
10 -9 l
10 -9 l
9 -9 l
10 -9 l
10 -9 l
10 -9 l
9 -9 l
10 -9 l
10 -10 l
9 -9 l
10 -9 l
10 -10 l
9 -9 l
10 -10 l
10 -9 l
9 -10 l
10 -9 l
10 -10 l
10 -10 l
9 -10 l
10 -10 l
10 -10 l
9 -10 l
10 -10 l
10 -10 l
9 -11 l
10 -10 l
10 -11 l
10 -10 l
9 -11 l
10 -10 l
10 -11 l
9 -11 l
10 -11 l
10 -11 l
9 -11 l
10 -11 l
10 -11 l
10 -11 l
9 -12 l
10 -11 l
10 -11 l
9 -12 l
10 -12 l
10 -11 l
9 -12 l
10 -11 l
10 -12 l
10 -12 l
9 -12 l
10 -11 l
10 -12 l
9 -12 l
10 -12 l
10 -12 l
9 -12 l
10 -12 l
10 -11 l
10 -12 l
9 -12 l
10 -12 l
10 -11 l
9 -12 l
10 -12 l
10 -12 l
9 -11 l
10 -11 l
10 -12 l
9 -11 l
10 -12 l
10 -11 l
10 -11 l
9 -11 l
10 -11 l
10 -11 l
9 -11 l
10 -11 l
10 -10 l
10 -11 l
9 -11 l
10 -10 l
10 -10 l
9 -11 l
10 -10 l
10 -10 l
9 -10 l
10 -10 l
10 -10 l
10 -10 l
9 -10 l
10 -10 l
10 -10 l
9 -10 l
10 -9 l
10 -10 l
9 -10 l
10 -9 l
10 -10 l
10 -9 l
9 -10 l
10 -9 l
10 -9 l
9 -10 l
10 -9 l
10 -10 l
9 -9 l
10 -9 l
10 -9 l
9 -10 l
10 -9 l
10 -9 l
10 -9 l
9 -10 l
10 -9 l
10 -9 l
9 -9 l
10 -9 l
10 -9 l
9 -10 l
10 -9 l
10 -9 l
10 -9 l
9 -9 l
10 -9 l
10 -9 l
9 -9 l
10 -10 l
10 -9 l
9 -9 l
10 -9 l
10 -9 l
10 -9 l
9 -9 l
10 -9 l
10 -9 l
9 -9 l
10 -9 l
10 -10 l
9 -9 l
10 -9 l
10 -9 l
10 -9 l
9 -9 l
10 -9 l
10 -9 l
9 -9 l
10 -9 l
10 -9 l
9 -9 l
10 -10 l
10 -9 l
CS [32 24] 0 setdash M
 0 0 255 C
346 1397 M 10 -1 l
10 0 l
9 0 l
10 0 l
10 0 l
10 0 l
9 -1 l
10 0 l
10 0 l
9 0 l
10 -1 l
10 0 l
9 0 l
10 0 l
10 -1 l
10 0 l
9 0 l
10 -1 l
10 0 l
9 0 l
10 -1 l
10 0 l
9 -1 l
10 0 l
10 -1 l
10 0 l
9 -1 l
10 0 l
10 -1 l
9 0 l
10 -1 l
10 -1 l
9 0 l
10 -1 l
10 -1 l
10 -1 l
9 0 l
10 -1 l
10 -1 l
9 -1 l
10 -1 l
10 -1 l
10 -1 l
9 -2 l
10 -1 l
10 -1 l
9 -1 l
10 -2 l
10 -1 l
9 -2 l
10 -1 l
10 -2 l
9 -2 l
10 -1 l
10 -2 l
10 -2 l
9 -2 l
10 -2 l
10 -2 l
9 -3 l
10 -2 l
10 -3 l
9 -2 l
10 -3 l
10 -3 l
10 -2 l
9 -3 l
10 -4 l
10 -3 l
9 -3 l
10 -4 l
10 -3 l
9 -4 l
10 -4 l
10 -4 l
10 -4 l
9 -4 l
10 -4 l
10 -5 l
9 -5 l
10 -4 l
10 -5 l
9 -5 l
10 -6 l
10 -5 l
10 -5 l
9 -6 l
10 -6 l
10 -6 l
9 -6 l
10 -6 l
10 -7 l
9 -6 l
10 -7 l
10 -7 l
10 -7 l
9 -7 l
10 -7 l
10 -7 l
9 -8 l
10 -7 l
10 -8 l
9 -8 l
10 -8 l
10 -8 l
9 -8 l
10 -8 l
10 -9 l
10 -8 l
9 -9 l
10 -8 l
10 -9 l
CS M
9 -9 l
10 -9 l
10 -9 l
10 -9 l
9 -9 l
10 -9 l
10 -9 l
9 -9 l
10 -9 l
10 -10 l
9 -9 l
10 -9 l
10 -10 l
10 -9 l
9 -10 l
10 -9 l
10 -10 l
9 -9 l
10 -9 l
10 -10 l
9 -10 l
10 -9 l
10 -10 l
10 -9 l
9 -10 l
10 -9 l
10 -10 l
9 -9 l
10 -10 l
10 -9 l
9 -10 l
10 -9 l
10 -10 l
9 -9 l
10 -10 l
10 -9 l
10 -10 l
9 -9 l
10 -10 l
10 -9 l
9 -9 l
10 -10 l
10 -9 l
9 -10 l
10 -9 l
10 -9 l
10 -10 l
9 -9 l
10 -9 l
10 -10 l
9 -9 l
10 -9 l
10 -10 l
9 -9 l
10 -9 l
10 -10 l
10 -9 l
9 -9 l
10 -9 l
10 -10 l
9 -9 l
10 -9 l
10 -9 l
9 -10 l
10 -9 l
10 -9 l
10 -9 l
9 -9 l
10 -10 l
10 -9 l
9 -9 l
10 -9 l
10 -9 l
9 -9 l
10 -10 l
10 -9 l
346 1397 M 10 -1 l
10 0 l
9 0 l
10 0 l
10 0 l
10 0 l
9 -1 l
10 0 l
10 0 l
9 0 l
10 -1 l
10 0 l
9 0 l
10 0 l
10 -1 l
10 0 l
9 0 l
10 -1 l
10 0 l
9 0 l
10 -1 l
10 0 l
9 -1 l
10 0 l
10 -1 l
10 0 l
9 -1 l
10 0 l
10 -1 l
9 0 l
10 -1 l
10 -1 l
9 0 l
10 -1 l
10 -1 l
10 -1 l
9 0 l
10 -1 l
10 -1 l
9 -1 l
10 -1 l
10 -1 l
10 -1 l
9 -2 l
10 -1 l
10 -1 l
9 -1 l
10 -2 l
10 -1 l
9 -2 l
10 -1 l
10 -2 l
9 -2 l
10 -1 l
10 -2 l
10 -2 l
9 -2 l
10 -2 l
10 -2 l
9 -3 l
10 -2 l
10 -3 l
9 -2 l
10 -3 l
10 -3 l
10 -2 l
9 -3 l
10 -4 l
10 -3 l
9 -3 l
10 -4 l
10 -3 l
9 -4 l
10 -4 l
10 -4 l
10 -4 l
9 -4 l
10 -4 l
10 -5 l
9 -5 l
10 -4 l
10 -5 l
9 -5 l
10 -6 l
10 -5 l
10 -5 l
9 -6 l
10 -6 l
10 -6 l
9 -6 l
10 -6 l
10 -7 l
9 -6 l
10 -7 l
10 -7 l
10 -7 l
9 -7 l
10 -7 l
10 -7 l
9 -8 l
10 -7 l
10 -8 l
9 -8 l
10 -8 l
10 -8 l
9 -8 l
10 -8 l
10 -9 l
10 -8 l
9 -9 l
10 -8 l
10 -9 l
9 -9 l
10 -9 l
10 -9 l
10 -9 l
9 -9 l
10 -9 l
10 -9 l
9 -9 l
10 -9 l
10 -10 l
9 -9 l
10 -9 l
10 -10 l
10 -9 l
9 -10 l
10 -9 l
10 -10 l
9 -9 l
10 -9 l
10 -10 l
9 -10 l
10 -9 l
10 -10 l
10 -9 l
9 -10 l
10 -9 l
10 -10 l
9 -9 l
10 -10 l
10 -9 l
9 -10 l
10 -9 l
10 -10 l
9 -9 l
10 -10 l
10 -9 l
10 -10 l
9 -9 l
10 -10 l
10 -9 l
9 -9 l
10 -10 l
10 -9 l
9 -10 l
10 -9 l
10 -9 l
10 -10 l
9 -9 l
10 -9 l
10 -10 l
9 -9 l
10 -9 l
10 -10 l
9 -9 l
10 -9 l
10 -10 l
10 -9 l
9 -9 l
10 -9 l
10 -10 l
9 -9 l
10 -9 l
10 -9 l
9 -10 l
10 -9 l
10 -9 l
10 -9 l
9 -9 l
10 -10 l
10 -9 l
9 -9 l
10 -9 l
10 -9 l
9 -9 l
10 -10 l
10 -9 l
 255 0 0 C
 0 0 0 C
CS M 1 dup setlinewidth
/P [ /currentpoint cvx 0 5 -1 roll .05 add dup -2 div 0 exch /rmoveto cvx /rlineto cvx /stroke cvx /moveto cvx ] cvx def
CS M 2 100 mul 72 div dup setlinewidth
/P [ /currentpoint cvx 0 5 -1 roll .05 add dup -2 div 0 exch /rmoveto cvx /rlineto cvx /stroke cvx /moveto cvx ] cvx def
CS [] 0 setdash M
1225 45 M 31 51 m -7 -2 l
-5 -5 l
-5 -10 l
-2 -7 l
-2 -10 l
-3 -14 l
-2 -20 l
26 68 m -5 -2 l
-4 -5 l
-5 -10 l
-3 -7 l
-2 -10 l
-2 -14 l
-3 -20 l
24 68 m 5 0 l
5 -2 l
2 -3 l
0 -7 l
-2 -5 l
-3 -2 l
-7 -3 l
-9 0 l
14 22 m 5 -5 l
0 -7 l
-3 -5 l
-2 -2 l
-5 -3 l
-9 0 m 9 -2 l
5 -5 l
2 -5 l
0 -7 l
-2 -5 l
-2 -2 l
-8 -3 l
-4 0 l
-5 3 l
CS M
-3 2 l
-2 7 l
10 17 m 7 -2 l
5 -5 l
2 -5 l
0 -7 l
-2 -5 l
-3 -2 l
-5 -3 l
32 8 m -2 -2 l
2 -1 l
1 1 l
-1 2 l
0 -11 m 0 -20 l
1 20 m 0 -20 l
-6 20 m 6 0 l
-6 -20 m 11 0 l
CS [32 24] 0 setdash M
CS [] 0 setdash M
67 1102 M -26 3 m -5 5 l
-2 4 l
0 5 l
2 5 l
3 3 l
7 2 l
9 0 l
10 -2 l
19 -8 l
39 1107 M -3 5 l
0 10 l
3 5 l
-5 19 m 7 -3 l
5 -2 l
17 -12 l
12 -7 l
9 -5 l
34 1143 M 7 -2 l
5 -2 l
17 -10 l
7 1199 M 77 -44 l
7 1230 M 5 -5 l
7 -5 l
10 -4 l
12 -3 l
10 0 l
12 3 l
9 4 l
8 5 l
4 5 l
12 1225 M 10 -5 l
7 -2 l
12 -2 l
10 0 l
12 2 l
7 2 l
10 5 l
17 1249 M 50 0 l
17 1252 M 50 0 l
-33 24 m 24 -24 l
-10 12 m 19 14 l
-19 -17 m 19 15 l
17 1242 M 0 10 l
17 17 m 0 14 l
33 -41 m 0 17 l
0 10 m 0 14 l
-13 11 m 47 0 l
-47 8 m 47 0 l
34 1315 M 33 15 l
-33 -12 m 29 12 l
-29 14 m 33 -14 l
-33 -20 m 0 15 l
0 9 m 0 15 l
26 17 m 31 -10 l
-31 10 m 31 10 l
-26 -10 m 26 8 l
-9 -15 m 0 13 l
9 -19 m 0 8 l
0 9 m 0 9 l
7 1387 M 5 5 l
7 5 l
10 5 l
12 2 l
10 0 l
12 -2 l
9 -5 l
8 -5 l
4 -5 l
12 1392 M 10 5 l
7 2 l
12 3 l
10 0 l
12 -3 l
7 -2 l
10 -5 l
CS [32 24] 0 setdash M
CS [] 0 setdash M
255 255 M 2006 0 l
0 2006 l
255 2261 L
255 255 L
2006 0 l
255 255 M 2006 0 l
276 255 M 0 22 l
26 -22 m 0 22 l
24 -22 m 0 22 l
20 -22 m 0 43 l
-70 -121 m 18 42 m -6 -2 l
-4 -6 l
-2 -10 l
0 -6 l
2 -10 l
4 -6 l
6 -2 l
4 0 l
6 2 l
4 6 l
2 10 l
0 6 l
-2 10 l
-4 6 l
-6 2 l
-4 0 l
-4 -2 l
-2 -2 l
-2 -4 l
-2 -10 l
0 -6 l
2 -10 l
2 -4 l
2 -2 l
4 -2 l
4 0 m 4 2 l
2 2 l
2 4 l
2 10 l
0 6 l
-2 10 l
-2 4 l
-2 2 l
-4 2 l
28 -38 m -2 -2 l
2 -2 l
2 2 l
-2 2 l
28 38 m -6 -2 l
-4 -6 l
-2 -10 l
0 -6 l
2 -10 l
4 -6 l
6 -2 l
4 0 l
7 2 l
4 6 l
2 10 l
0 6 l
-2 10 l
-4 6 l
-7 2 l
-4 0 l
-4 -2 l
-2 -2 l
-2 -4 l
-2 -10 l
0 -6 l
2 -10 l
2 -4 l
2 -2 l
4 -2 l
4 0 m 4 2 l
3 2 l
2 4 l
2 10 l
0 6 l
-2 10 l
-2 4 l
-3 2 l
-4 2 l
31 -8 m 4 2 l
6 6 l
0 -42 l
-2 40 m 0 -40 l
-8 0 m 18 0 l
77 78 m 0 22 l
81 -22 m 0 22 l
57 -22 m 0 22 l
44 -22 m 0 22 l
37 -22 m 0 22 l
30 -22 m 0 22 l
27 -22 m 0 22 l
23 -22 m 0 22 l
21 -22 m 0 43 l
-50 -121 m 18 42 m -6 -2 l
-4 -6 l
-2 -10 l
0 -6 l
2 -10 l
4 -6 l
6 -2 l
4 0 l
6 2 l
4 6 l
2 10 l
0 6 l
-2 10 l
-4 6 l
-6 2 l
-4 0 l
-4 -2 l
-2 -2 l
-2 -4 l
-2 -10 l
0 -6 l
2 -10 l
2 -4 l
2 -2 l
4 -2 l
4 0 m 4 2 l
2 2 l
2 4 l
2 10 l
0 6 l
-2 10 l
-2 4 l
-2 2 l
-4 2 l
28 -38 m -2 -2 l
2 -2 l
2 2 l
-2 2 l
22 30 m 4 2 l
6 6 l
0 -42 l
-2 40 m 0 -40 l
-8 0 m 18 0 l
98 78 m 0 22 l
81 -22 m 0 22 l
57 -22 m 0 22 l
44 -22 m 0 22 l
36 -22 m 0 22 l
31 -22 m 0 22 l
27 -22 m 0 22 l
23 -22 m 0 22 l
21 -22 m 0 43 l
-20 -121 m 12 34 m 4 2 l
6 6 l
0 -42 l
-2 40 m 0 -40 l
-8 0 m 18 0 l
128 78 m 0 22 l
80 -22 m 0 22 l
58 -22 m 0 22 l
44 -22 m 0 22 l
36 -22 m 0 22 l
31 -22 m 0 22 l
26 -22 m 0 22 l
24 -22 m 0 22 l
21 -22 m 0 43 l
-40 -121 m 12 34 m 4 2 l
6 6 l
0 -42 l
-2 40 m 0 -40 l
-8 0 m 18 0 l
28 42 m -6 -2 l
-4 -6 l
-2 -10 l
0 -6 l
2 -10 l
4 -6 l
6 -2 l
4 0 l
6 2 l
4 6 l
2 10 l
0 6 l
-2 10 l
-4 6 l
-6 2 l
-4 0 l
-4 -2 l
-2 -2 l
-2 -4 l
-2 -10 l
0 -6 l
2 -10 l
2 -4 l
2 -2 l
4 -2 l
4 0 m 4 2 l
2 2 l
2 4 l
2 10 l
0 6 l
-2 10 l
-2 4 l
-2 2 l
-4 2 l
115 36 m 0 22 l
81 -22 m 0 22 l
57 -22 m 0 22 l
45 -22 m 0 22 l
36 -22 m 0 22 l
30 -22 m 0 22 l
27 -22 m 0 22 l
CS M
23 -22 m 0 22 l
21 -22 m 0 43 l
-60 -121 m 12 34 m 4 2 l
6 6 l
0 -42 l
-2 40 m 0 -40 l
-8 0 m 18 0 l
28 42 m -6 -2 l
-4 -6 l
-2 -10 l
0 -6 l
2 -10 l
4 -6 l
6 -2 l
4 0 l
6 2 l
4 6 l
2 10 l
0 6 l
-2 10 l
-4 6 l
-6 2 l
-4 0 l
-4 -2 l
-2 -2 l
-2 -4 l
-2 -10 l
0 -6 l
2 -10 l
2 -4 l
2 -2 l
4 -2 l
4 0 m 4 2 l
2 2 l
2 4 l
2 10 l
0 6 l
-2 10 l
-2 4 l
-2 2 l
-4 2 l
36 0 m -6 -2 l
-4 -6 l
-2 -10 l
0 -6 l
2 -10 l
4 -6 l
6 -2 l
4 0 l
7 2 l
4 6 l
2 10 l
0 6 l
-2 10 l
-4 6 l
-7 2 l
-4 0 l
-4 -2 l
-2 -2 l
-2 -4 l
-2 -10 l
0 -6 l
2 -10 l
2 -4 l
2 -2 l
4 -2 l
4 0 m 4 2 l
3 2 l
1 4 l
3 10 l
0 6 l
-3 10 l
-1 4 l
-3 2 l
-4 2 l
255 2261 M 2006 0 l
276 2261 M 0 -21 l
26 21 m 0 -21 l
24 21 m 0 -21 l
20 21 m 0 -43 l
138 43 m 0 -21 l
81 21 m 0 -21 l
57 21 m 0 -21 l
44 21 m 0 -21 l
37 21 m 0 -21 l
30 21 m 0 -21 l
27 21 m 0 -21 l
23 21 m 0 -21 l
21 21 m 0 -43 l
138 43 m 0 -21 l
81 21 m 0 -21 l
57 21 m 0 -21 l
44 21 m 0 -21 l
36 21 m 0 -21 l
31 21 m 0 -21 l
27 21 m 0 -21 l
23 21 m 0 -21 l
21 21 m 0 -43 l
138 43 m 0 -21 l
80 21 m 0 -21 l
58 21 m 0 -21 l
44 21 m 0 -21 l
36 21 m 0 -21 l
31 21 m 0 -21 l
26 21 m 0 -21 l
24 21 m 0 -21 l
21 21 m 0 -43 l
137 43 m 0 -21 l
81 21 m 0 -21 l
57 21 m 0 -21 l
45 21 m 0 -21 l
36 21 m 0 -21 l
30 21 m 0 -21 l
27 21 m 0 -21 l
23 21 m 0 -21 l
21 21 m 0 -43 l
255 255 M 0 2006 l
255 282 M 22 0 l
-22 75 m 22 0 l
-22 54 m 22 0 l
-22 41 m 22 0 l
-22 34 m 22 0 l
-22 29 m 22 0 l
-22 25 m 22 0 l
-22 22 m 22 0 l
-22 19 m 43 0 l
-1 560 M 16 602 M -6 -2 l
-4 -6 l
-2 -10 l
0 -6 l
2 -10 l
4 -6 l
6 -2 l
4 0 l
6 2 l
4 6 l
2 10 l
0 6 l
-2 10 l
-4 6 l
-6 2 l
-4 0 l
-4 -2 l
-2 -2 l
-2 -4 l
-2 -10 l
0 -6 l
2 -10 l
2 -4 l
2 -2 l
4 -2 l
4 0 m 4 2 l
2 2 l
2 4 l
2 10 l
0 6 l
-2 10 l
-2 4 l
-2 2 l
-4 2 l
28 -38 m -2 -2 l
2 -2 l
2 2 l
-2 2 l
28 38 m -6 -2 l
-4 -6 l
-2 -10 l
0 -6 l
2 -10 l
4 -6 l
6 -2 l
4 0 l
7 2 l
4 6 l
1 10 l
0 6 l
-1 10 l
-4 6 l
-7 2 l
-4 0 l
-4 -2 l
-2 -2 l
-2 -4 l
-2 -10 l
0 -6 l
2 -10 l
2 -4 l
2 -2 l
4 -2 l
4 0 m 4 2 l
3 2 l
1 4 l
3 10 l
0 6 l
-3 10 l
-1 4 l
-3 2 l
-4 2 l
37 0 m -6 -2 l
-4 -6 l
-2 -10 l
0 -6 l
2 -10 l
4 -6 l
6 -2 l
4 0 l
6 2 l
4 6 l
2 10 l
0 6 l
-2 10 l
-4 6 l
-6 2 l
-4 0 l
-4 -2 l
-2 -2 l
-2 -4 l
-2 -10 l
0 -6 l
2 -10 l
2 -4 l
2 -2 l
4 -2 l
4 0 m 4 2 l
2 2 l
2 4 l
2 10 l
0 6 l
-2 10 l
-2 4 l
-2 2 l
-4 2 l
36 0 m -6 -2 l
-4 -6 l
-2 -10 l
0 -6 l
2 -10 l
4 -6 l
6 -2 l
4 0 l
6 2 l
4 6 l
2 10 l
0 6 l
-2 10 l
-4 6 l
-6 2 l
-4 0 l
-4 -2 l
-2 -2 l
-2 -4 l
-2 -10 l
0 -6 l
2 -10 l
2 -4 l
2 -2 l
4 -2 l
4 0 m 4 2 l
2 2 l
2 4 l
2 10 l
0 6 l
-2 10 l
-2 4 l
-2 2 l
-4 2 l
30 -8 m 4 2 l
6 6 l
0 -42 l
-2 40 m 0 -40 l
-8 0 m 18 0 l
46 150 m 22 0 l
-22 75 m 22 0 l
-22 54 m 22 0 l
-22 41 m 22 0 l
-22 34 m 22 0 l
-22 29 m 22 0 l
-22 25 m 22 0 l
-22 22 m 22 0 l
-22 19 m 43 0 l
38 988 M 18 42 m -6 -2 l
-4 -6 l
-2 -10 l
0 -6 l
2 -10 l
4 -6 l
6 -2 l
4 0 l
6 2 l
4 6 l
2 10 l
0 6 l
-2 10 l
-4 6 l
-6 2 l
-4 0 l
-4 -2 l
-2 -2 l
-2 -4 l
-2 -10 l
CS M
0 -6 l
2 -10 l
2 -4 l
2 -2 l
4 -2 l
4 0 m 4 2 l
2 2 l
2 4 l
2 10 l
0 6 l
-2 10 l
-2 4 l
-2 2 l
-4 2 l
28 -38 m -2 -2 l
2 -2 l
2 2 l
-2 2 l
28 38 m -6 -2 l
-4 -6 l
-2 -10 l
0 -6 l
2 -10 l
4 -6 l
6 -2 l
4 0 l
7 2 l
4 6 l
2 10 l
0 6 l
-2 10 l
-4 6 l
-7 2 l
-4 0 l
-4 -2 l
-2 -2 l
-2 -4 l
-2 -10 l
0 -6 l
2 -10 l
2 -4 l
2 -2 l
4 -2 l
4 0 m 5 2 l
2 2 l
2 4 l
2 10 l
0 6 l
-2 10 l
-2 4 l
-2 2 l
-5 2 l
37 0 m -6 -2 l
-4 -6 l
-2 -10 l
0 -6 l
2 -10 l
4 -6 l
6 -2 l
4 0 l
6 2 l
4 6 l
2 10 l
0 6 l
-2 10 l
-4 6 l
-6 2 l
-4 0 l
-4 -2 l
-2 -2 l
-2 -4 l
-2 -10 l
0 -6 l
2 -10 l
2 -4 l
2 -2 l
4 -2 l
4 0 m 4 2 l
2 2 l
2 4 l
2 10 l
0 6 l
-2 10 l
-2 4 l
-2 2 l
-4 2 l
30 -8 m 4 2 l
6 6 l
0 -42 l
-2 40 m 0 -40 l
-8 0 m 18 0 l
46 150 m 22 0 l
-22 75 m 22 0 l
-22 54 m 22 0 l
-22 41 m 22 0 l
-22 34 m 22 0 l
-22 29 m 22 0 l
-22 25 m 22 0 l
-22 22 m 22 0 l
-22 19 m 43 0 l
78 1416 M 18 42 m -6 -2 l
-4 -6 l
-2 -10 l
0 -6 l
2 -10 l
4 -6 l
6 -2 l
4 0 l
6 2 l
4 6 l
2 10 l
0 6 l
-2 10 l
-4 6 l
-6 2 l
-4 0 l
-4 -2 l
-2 -2 l
-2 -4 l
-2 -10 l
0 -6 l
2 -10 l
2 -4 l
2 -2 l
4 -2 l
4 0 m 4 2 l
2 2 l
2 4 l
2 10 l
0 6 l
-2 10 l
-2 4 l
-2 2 l
-4 2 l
29 -38 m -2 -2 l
2 -2 l
2 2 l
-2 2 l
28 38 m -6 -2 l
-4 -6 l
-2 -10 l
0 -6 l
2 -10 l
4 -6 l
6 -2 l
4 0 l
6 2 l
4 6 l
2 10 l
0 6 l
-2 10 l
-4 6 l
-6 2 l
-4 0 l
-4 -2 l
-2 -2 l
-2 -4 l
-2 -10 l
0 -6 l
2 -10 l
2 -4 l
2 -2 l
4 -2 l
4 0 m 4 2 l
2 2 l
2 4 l
2 10 l
0 6 l
-2 10 l
-2 4 l
-2 2 l
-4 2 l
30 -8 m 4 2 l
6 6 l
0 -42 l
-2 40 m 0 -40 l
-8 0 m 18 0 l
46 150 m 22 0 l
-22 76 m 22 0 l
-22 53 m 22 0 l
-22 41 m 22 0 l
-22 34 m 22 0 l
-22 29 m 22 0 l
-22 25 m 22 0 l
-22 22 m 22 0 l
-22 19 m 43 0 l
119 1844 M 18 42 m -6 -2 l
-4 -6 l
-2 -10 l
0 -6 l
2 -10 l
4 -6 l
6 -2 l
4 0 l
6 2 l
4 6 l
2 10 l
0 6 l
-2 10 l
-4 6 l
-6 2 l
-4 0 l
-4 -2 l
-2 -2 l
-2 -4 l
-2 -10 l
0 -6 l
2 -10 l
2 -4 l
2 -2 l
4 -2 l
4 0 m 4 2 l
2 2 l
2 4 l
2 10 l
0 6 l
-2 10 l
-2 4 l
-2 2 l
-4 2 l
28 -38 m -2 -2 l
2 -2 l
2 2 l
-2 2 l
22 30 m 4 2 l
6 6 l
0 -42 l
-2 40 m 0 -40 l
-8 0 m 18 0 l
46 150 m 22 0 l
-22 76 m 22 0 l
-22 53 m 22 0 l
-22 42 m 22 0 l
-22 33 m 22 0 l
-22 29 m 22 0 l
-22 25 m 22 0 l
2261 255 M 0 2006 l
2261 282 M -21 0 l
21 75 m -21 0 l
21 54 m -21 0 l
21 41 m -21 0 l
21 34 m -21 0 l
21 29 m -21 0 l
21 25 m -21 0 l
21 22 m -21 0 l
21 19 m -43 0 l
43 129 m -21 0 l
21 75 m -21 0 l
21 54 m -21 0 l
21 41 m -21 0 l
21 34 m -21 0 l
21 29 m -21 0 l
21 25 m -21 0 l
21 22 m -21 0 l
21 19 m -43 0 l
43 129 m -21 0 l
21 75 m -21 0 l
21 54 m -21 0 l
21 41 m -21 0 l
21 34 m -21 0 l
21 29 m -21 0 l
21 25 m -21 0 l
21 22 m -21 0 l
21 19 m -43 0 l
43 129 m -21 0 l
21 76 m -21 0 l
21 53 m -21 0 l
21 41 m -21 0 l
21 34 m -21 0 l
21 29 m -21 0 l
21 25 m -21 0 l
21 22 m -21 0 l
21 19 m -43 0 l
43 129 m -21 0 l
21 76 m -21 0 l
21 53 m -21 0 l
21 42 m -21 0 l
21 33 m -21 0 l
21 29 m -21 0 l
21 25 m -21 0 l
CS [32 24] 0 setdash M
stroke
grestore
showpage
end
