%!PS-Adobe-2.0 EPSF-2.0
%%Creator: SM
%%BoundingBox: 18 144 592 718
%%DocumentFonts: Helvetica
%%EndComments
 20 dict begin
72 300 div dup scale
1 setlinejoin 0 setlinecap
/Helvetica findfont 55 scalefont setfont 
/B {CS newpath moveto} def
/F {moveto 0 setlinecap} def
/C {CS M 1 1 3 {pop 3 1 roll 255 div} for SET_COLOUR} def
/CS {currentpoint stroke} def
/CF {currentpoint eofill} def
/L {lineto} def /l {rlineto} def /M {moveto} def /m {rmoveto} def
/P {currentpoint 0 1 rlineto stroke moveto} def
/T {currentlinecap exch 1 setlinecap show setlinecap} def
errordict /nocurrentpoint {pop 0 0 M currentpoint} put
/SET_COLOUR statusdict begin /processcolors where
  {pop processcolors 1 gt} {false} ifelse
  {(setrgbcolor)} {(pop pop pop)} ifelse cvx end def
 80 600 translate
gsave
CS [] 0 setdash M
CS M 1 100 mul 72 div dup setlinewidth
/P [ /currentpoint cvx 0 5 -1 roll .05 add dup -2 div 0 exch /rmoveto cvx /rlineto cvx /stroke cvx /moveto cvx ] cvx def
 0 0 0 C
CS M 4 100 mul 72 div dup setlinewidth
/P [ /currentpoint cvx 0 5 -1 roll .05 add dup -2 div 0 exch /rmoveto cvx /rlineto cvx /stroke cvx /moveto cvx ] cvx def
 0 0 0 C
CS [] 0 setdash M
255 692 M 11 0 l
11 0 l
10 0 l
11 0 l
10 0 l
11 0 l
11 0 l
10 0 l
11 0 l
10 0 l
11 1 l
11 0 l
10 0 l
11 0 l
11 0 l
10 0 l
11 0 l
11 0 l
10 0 l
11 1 l
10 0 l
11 0 l
11 0 l
10 1 l
11 0 l
10 0 l
11 0 l
11 1 l
10 0 l
11 1 l
11 0 l
10 0 l
11 1 l
10 1 l
11 0 l
11 1 l
10 1 l
11 0 l
11 1 l
10 1 l
11 1 l
11 1 l
10 1 l
11 1 l
10 1 l
11 2 l
11 1 l
10 1 l
11 2 l
10 2 l
11 1 l
11 2 l
10 2 l
11 2 l
11 2 l
10 3 l
11 2 l
11 2 l
10 3 l
11 2 l
10 3 l
11 3 l
11 3 l
10 3 l
11 3 l
10 3 l
11 4 l
11 3 l
10 4 l
11 3 l
11 4 l
10 3 l
11 4 l
11 4 l
10 4 l
11 3 l
10 4 l
11 4 l
11 4 l
10 4 l
11 4 l
11 4 l
10 3 l
11 4 l
10 4 l
11 4 l
11 3 l
10 4 l
11 4 l
10 3 l
11 4 l
11 3 l
10 3 l
11 4 l
11 3 l
10 3 l
11 3 l
11 3 l
10 3 l
11 2 l
10 3 l
11 3 l
11 2 l
10 3 l
11 2 l
11 2 l
10 2 l
11 2 l
10 2 l
11 2 l
11 2 l
10 2 l
11 1 l
11 2 l
10 1 l
11 1 l
10 2 l
11 1 l
11 1 l
10 1 l
11 1 l
11 1 l
10 1 l
11 0 l
10 1 l
11 1 l
11 0 l
10 1 l
11 0 l
10 0 l
11 1 l
11 0 l
10 0 l
11 0 l
11 0 l
10 0 l
11 0 l
11 0 l
10 0 l
11 0 l
10 0 l
11 -1 l
11 0 l
10 0 l
11 -1 l
11 0 l
10 -1 l
11 0 l
10 -1 l
11 -1 l
11 0 l
10 -1 l
11 -1 l
11 -1 l
10 -1 l
11 0 l
10 -1 l
11 -1 l
11 -1 l
10 -1 l
11 -2 l
11 -1 l
10 -1 l
11 -1 l
10 -1 l
11 -2 l
11 -1 l
10 -1 l
11 -2 l
10 -1 l
11 -2 l
11 -1 l
10 -2 l
11 -1 l
11 -2 l
10 -1 l
11 -2 l
11 -2 l
10 -1 l
11 -2 l
10 -2 l
11 -2 l
11 -2 l
10 -2 l
11 -1 l
11 -2 l
10 -2 l
11 -2 l
CS [32 24] 0 setdash M
 0 0 255 C
255 683 M 11 0 l
11 -1 l
10 0 l
11 0 l
10 -1 l
11 0 l
11 -1 l
10 -1 l
11 0 l
10 -1 l
11 0 l
11 -1 l
10 -1 l
11 0 l
11 -1 l
10 -1 l
11 -1 l
11 0 l
10 -1 l
11 -1 l
10 -1 l
11 -1 l
11 -1 l
10 -1 l
11 -1 l
10 -1 l
11 -1 l
11 -2 l
10 -1 l
11 -1 l
11 -2 l
10 -1 l
11 -1 l
10 -2 l
11 -1 l
11 -2 l
10 -1 l
11 -2 l
11 -1 l
10 -2 l
11 -2 l
11 -2 l
10 -1 l
11 -2 l
10 -2 l
11 -2 l
11 -2 l
10 -1 l
11 -2 l
10 -2 l
11 -2 l
11 -2 l
10 -2 l
11 -1 l
11 -2 l
10 -2 l
11 -2 l
11 -1 l
10 -2 l
11 -1 l
10 -2 l
11 -1 l
11 -1 l
10 -1 l
11 -1 l
10 -1 l
11 0 l
11 -1 l
10 0 l
11 0 l
11 0 l
10 0 l
11 1 l
11 1 l
10 1 l
11 2 l
10 1 l
11 2 l
11 3 l
10 2 l
11 3 l
11 3 l
10 4 l
11 4 l
10 4 l
11 5 l
11 5 l
10 5 l
11 6 l
10 6 l
11 7 l
11 7 l
10 7 l
11 8 l
11 8 l
10 8 l
11 9 l
11 9 l
10 9 l
11 10 l
10 10 l
11 11 l
11 11 l
10 11 l
11 11 l
11 12 l
10 13 l
11 12 l
10 13 l
11 13 l
11 13 l
10 14 l
CS M
11 14 l
11 14 l
10 15 l
11 15 l
10 15 l
11 15 l
11 15 l
10 16 l
11 16 l
11 16 l
10 17 l
11 16 l
10 17 l
11 17 l
11 17 l
10 17 l
11 17 l
10 18 l
11 18 l
11 18 l
10 18 l
11 18 l
11 18 l
10 19 l
11 18 l
11 19 l
10 19 l
11 19 l
10 19 l
11 19 l
11 19 l
10 19 l
11 20 l
11 19 l
10 20 l
11 19 l
10 20 l
11 20 l
11 20 l
10 19 l
11 20 l
11 20 l
10 20 l
11 21 l
10 20 l
11 20 l
11 20 l
10 21 l
11 20 l
11 20 l
10 21 l
11 20 l
10 21 l
11 20 l
11 21 l
10 21 l
11 20 l
10 21 l
11 21 l
11 20 l
10 21 l
11 21 l
11 21 l
10 20 l
11 21 l
11 21 l
10 21 l
11 21 l
10 21 l
11 21 l
11 21 l
10 21 l
7 12 l
255 683 M 11 0 l
11 -1 l
10 0 l
11 0 l
10 -1 l
11 0 l
11 -1 l
10 -1 l
11 0 l
10 -1 l
11 0 l
11 -1 l
10 -1 l
11 0 l
11 -1 l
10 -1 l
11 -1 l
11 0 l
10 -1 l
11 -1 l
10 -1 l
11 -1 l
11 -1 l
10 -1 l
11 -1 l
10 -1 l
11 -1 l
11 -2 l
10 -1 l
11 -1 l
11 -2 l
10 -1 l
11 -1 l
10 -2 l
11 -1 l
11 -2 l
10 -1 l
11 -2 l
11 -1 l
10 -2 l
11 -2 l
11 -2 l
10 -1 l
11 -2 l
10 -2 l
11 -2 l
11 -2 l
10 -1 l
11 -2 l
10 -2 l
11 -2 l
11 -2 l
10 -2 l
11 -1 l
11 -2 l
10 -2 l
11 -2 l
11 -1 l
10 -2 l
11 -1 l
10 -2 l
11 -1 l
11 -1 l
10 -1 l
11 -1 l
10 -1 l
11 0 l
11 -1 l
10 0 l
11 0 l
11 0 l
10 0 l
11 1 l
11 1 l
10 1 l
11 2 l
10 1 l
11 2 l
11 3 l
10 2 l
11 3 l
11 3 l
10 4 l
11 4 l
10 4 l
11 5 l
11 5 l
10 5 l
11 6 l
10 6 l
11 7 l
11 7 l
10 7 l
11 8 l
11 8 l
10 8 l
11 9 l
11 9 l
10 9 l
11 10 l
10 10 l
11 11 l
11 11 l
10 11 l
11 11 l
11 12 l
10 13 l
11 12 l
10 13 l
11 13 l
11 13 l
10 14 l
11 14 l
11 14 l
10 15 l
11 15 l
10 15 l
11 15 l
11 15 l
10 16 l
11 16 l
11 16 l
10 17 l
11 16 l
10 17 l
11 17 l
11 17 l
10 17 l
11 17 l
10 18 l
11 18 l
11 18 l
10 18 l
11 18 l
11 18 l
10 19 l
11 18 l
11 19 l
10 19 l
11 19 l
10 19 l
11 19 l
11 19 l
10 19 l
11 20 l
11 19 l
10 20 l
11 19 l
10 20 l
11 20 l
11 20 l
10 19 l
11 20 l
11 20 l
10 20 l
11 21 l
10 20 l
11 20 l
11 20 l
10 21 l
11 20 l
11 20 l
10 21 l
11 20 l
10 21 l
11 20 l
11 21 l
10 21 l
11 20 l
10 21 l
11 21 l
11 20 l
10 21 l
11 21 l
11 21 l
10 20 l
11 21 l
11 21 l
10 21 l
11 21 l
10 21 l
11 21 l
11 21 l
10 21 l
7 12 l
 255 0 0 C
 0 0 0 C
CS M 1 dup setlinewidth
/P [ /currentpoint cvx 0 5 -1 roll .05 add dup -2 div 0 exch /rmoveto cvx /rlineto cvx /stroke cvx /moveto cvx ] cvx def
CS M 2 100 mul 72 div dup setlinewidth
/P [ /currentpoint cvx 0 5 -1 roll .05 add dup -2 div 0 exch /rmoveto cvx /rlineto cvx /stroke cvx /moveto cvx ] cvx def
CS [] 0 setdash M
1164 36 M 22 50 m 1186 36 L
2 50 m 1188 36 L
-16 50 m -3 -14 l
0 14 l
36 0 l
0 -14 l
-2 14 l
1179 36 M 17 0 l
21 7 m -1 -1 l
1 -2 l
2 2 l
-2 1 l
0 -10 m 1217 13 L
2 20 m 1219 13 L
-6 20 m 6 0 l
1213 13 M 10 0 l
51 83 m 1231 19 L
70 67 m 1301 36 L
2 50 m 1303 36 L
-17 50 m -2 -14 l
0 14 l
36 0 l
0 -14 l
-3 14 l
1293 36 M 17 0 l
20 -12 m 18 0 l
0 3 l
-2 3 l
-1 1 l
-3 2 l
-4 0 l
-5 -2 l
-3 -3 l
-1 -4 l
0 -3 l
1 -4 l
3 -3 l
5 -1 l
2 0 l
5 1 l
3 3 l
-2 7 m 0 4 l
CS M
-1 3 l
-7 2 m -3 -2 l
-3 -3 l
-2 -4 l
0 -3 l
2 -4 l
3 -3 l
3 -1 l
CS [32 24] 0 setdash M
CS [] 0 setdash M
67 1102 M -26 3 m -5 5 l
-2 4 l
0 5 l
2 5 l
3 3 l
7 2 l
9 0 l
10 -2 l
19 -8 l
39 1107 M -3 5 l
0 10 l
3 5 l
-5 19 m 7 -3 l
5 -2 l
17 -12 l
12 -7 l
9 -5 l
34 1143 M 7 -2 l
5 -2 l
17 -10 l
7 1199 M 77 -44 l
7 1230 M 5 -5 l
7 -5 l
10 -4 l
12 -3 l
10 0 l
12 3 l
9 4 l
8 5 l
4 5 l
12 1225 M 10 -5 l
7 -2 l
12 -2 l
10 0 l
12 2 l
7 2 l
10 5 l
17 1249 M 50 0 l
17 1252 M 50 0 l
-33 24 m 24 -24 l
-10 12 m 19 14 l
-19 -17 m 19 15 l
17 1242 M 0 10 l
17 17 m 0 14 l
33 -41 m 0 17 l
0 10 m 0 14 l
-13 11 m 47 0 l
-47 8 m 47 0 l
34 1315 M 33 15 l
-33 -12 m 29 12 l
-29 14 m 33 -14 l
-33 -20 m 0 15 l
0 9 m 0 15 l
26 17 m 31 -10 l
-31 10 m 31 10 l
-26 -10 m 26 8 l
-9 -15 m 0 13 l
9 -19 m 0 8 l
0 9 m 0 9 l
7 1387 M 5 5 l
7 5 l
10 5 l
12 2 l
10 0 l
12 -2 l
9 -5 l
8 -5 l
4 -5 l
12 1392 M 10 5 l
7 2 l
12 3 l
10 0 l
12 -3 l
7 -2 l
10 -5 l
CS [32 24] 0 setdash M
CS [] 0 setdash M
255 255 M 2006 0 l
0 2006 l
255 2261 L
255 255 L
2006 0 l
255 255 M 2006 0 l
255 255 M 0 43 l
-70 -121 m 18 42 m -6 -2 l
-4 -6 l
-2 -10 l
0 -6 l
2 -10 l
4 -6 l
6 -2 l
4 0 l
6 2 l
4 6 l
2 10 l
0 6 l
-2 10 l
-4 6 l
-6 2 l
-4 0 l
-4 -2 l
-2 -2 l
-2 -4 l
-2 -10 l
0 -6 l
2 -10 l
2 -4 l
2 -2 l
4 -2 l
4 0 m 4 2 l
2 2 l
2 4 l
2 10 l
0 6 l
-2 10 l
-2 4 l
-2 2 l
-4 2 l
28 -38 m -2 -2 l
2 -2 l
2 2 l
-2 2 l
28 38 m -6 -2 l
-4 -6 l
-2 -10 l
0 -6 l
2 -10 l
4 -6 l
6 -2 l
4 0 l
6 2 l
4 6 l
2 10 l
0 6 l
-2 10 l
-4 6 l
-6 2 l
-4 0 l
-4 -2 l
-2 -2 l
-2 -4 l
-2 -10 l
0 -6 l
2 -10 l
2 -4 l
2 -2 l
4 -2 l
4 0 m 4 2 l
2 2 l
2 4 l
2 10 l
0 6 l
-2 10 l
-2 4 l
-2 2 l
-4 2 l
30 -8 m 4 2 l
6 6 l
0 -42 l
-2 40 m 0 -40 l
-8 0 m 18 0 l
91 78 m 0 22 l
89 -22 m 0 22 l
62 -22 m 0 22 l
49 -22 m 0 22 l
39 -22 m 0 22 l
34 -22 m 0 22 l
29 -22 m 0 22 l
26 -22 m 0 22 l
23 -22 m 0 43 l
-50 -121 m 18 42 m -6 -2 l
-4 -6 l
-2 -10 l
0 -6 l
2 -10 l
4 -6 l
6 -2 l
4 0 l
6 2 l
4 6 l
2 10 l
0 6 l
-2 10 l
-4 6 l
-6 2 l
-4 0 l
-4 -2 l
-2 -2 l
-2 -4 l
-2 -10 l
0 -6 l
2 -10 l
2 -4 l
2 -2 l
4 -2 l
4 0 m 4 2 l
2 2 l
2 4 l
2 10 l
0 6 l
-2 10 l
-2 4 l
-2 2 l
-4 2 l
28 -38 m -2 -2 l
2 -2 l
2 2 l
-2 2 l
22 30 m 4 2 l
6 6 l
0 -42 l
-2 40 m 0 -40 l
-8 0 m 18 0 l
111 78 m 0 22 l
88 -22 m 0 22 l
63 -22 m 0 22 l
48 -22 m 0 22 l
40 -22 m 0 22 l
33 -22 m 0 22 l
30 -22 m 0 22 l
25 -22 m 0 22 l
23 -22 m 0 43 l
-20 -121 m 12 34 m 4 2 l
6 6 l
0 -42 l
-2 40 m 0 -40 l
-8 0 m 18 0 l
141 78 m 0 22 l
88 -22 m 0 22 l
63 -22 m 0 22 l
49 -22 m 0 22 l
39 -22 m 0 22 l
34 -22 m 0 22 l
29 -22 m 0 22 l
26 -22 m 0 22 l
23 -22 m 0 43 l
-41 -121 m 13 34 m 4 2 l
6 6 l
0 -42 l
-2 40 m 0 -40 l
-8 0 m 18 0 l
28 42 m -6 -2 l
-4 -6 l
-2 -10 l
0 -6 l
2 -10 l
4 -6 l
6 -2 l
4 0 l
6 2 l
4 6 l
2 10 l
0 6 l
-2 10 l
-4 6 l
-6 2 l
-4 0 l
-4 -2 l
-2 -2 l
-2 -4 l
-2 -10 l
0 -6 l
2 -10 l
2 -4 l
2 -2 l
4 -2 l
4 0 m 4 2 l
2 2 l
2 4 l
2 10 l
0 6 l
-2 10 l
-2 4 l
-2 2 l
-4 2 l
129 36 m 0 22 l
88 -22 m 0 22 l
62 -22 m 0 22 l
49 -22 m 0 22 l
40 -22 m 0 22 l
33 -22 m 0 22 l
29 -22 m 0 22 l
26 -22 m 0 22 l
23 -22 m 0 43 l
-60 -121 m 12 34 m 4 2 l
6 6 l
0 -42 l
-2 40 m 0 -40 l
-8 0 m 18 0 l
28 42 m -6 -2 l
-4 -6 l
-2 -10 l
0 -6 l
2 -10 l
CS M
4 -6 l
6 -2 l
4 0 l
6 2 l
4 6 l
2 10 l
0 6 l
-2 10 l
-4 6 l
-6 2 l
-4 0 l
-4 -2 l
-2 -2 l
-2 -4 l
-2 -10 l
0 -6 l
2 -10 l
2 -4 l
2 -2 l
4 -2 l
4 0 m 4 2 l
2 2 l
2 4 l
2 10 l
0 6 l
-2 10 l
-2 4 l
-2 2 l
-4 2 l
36 0 m -6 -2 l
-4 -6 l
-2 -10 l
0 -6 l
2 -10 l
4 -6 l
6 -2 l
4 0 l
6 2 l
4 6 l
2 10 l
0 6 l
-2 10 l
-4 6 l
-6 2 l
-4 0 l
-4 -2 l
-2 -2 l
-2 -4 l
-2 -10 l
0 -6 l
2 -10 l
2 -4 l
2 -2 l
4 -2 l
4 0 m 4 2 l
2 2 l
2 4 l
2 10 l
0 6 l
-2 10 l
-2 4 l
-2 2 l
-4 2 l
255 2261 M 2006 0 l
255 2261 M 0 -43 l
151 43 m 0 -21 l
89 21 m 0 -21 l
62 21 m 0 -21 l
49 21 m 0 -21 l
39 21 m 0 -21 l
34 21 m 0 -21 l
29 21 m 0 -21 l
26 21 m 0 -21 l
23 21 m 0 -43 l
151 43 m 0 -21 l
88 21 m 0 -21 l
63 21 m 0 -21 l
48 21 m 0 -21 l
40 21 m 0 -21 l
33 21 m 0 -21 l
30 21 m 0 -21 l
25 21 m 0 -21 l
23 21 m 0 -43 l
151 43 m 0 -21 l
88 21 m 0 -21 l
63 21 m 0 -21 l
49 21 m 0 -21 l
39 21 m 0 -21 l
34 21 m 0 -21 l
29 21 m 0 -21 l
26 21 m 0 -21 l
23 21 m 0 -43 l
151 43 m 0 -21 l
88 21 m 0 -21 l
62 21 m 0 -21 l
49 21 m 0 -21 l
40 21 m 0 -21 l
33 21 m 0 -21 l
29 21 m 0 -21 l
26 21 m 0 -21 l
23 21 m 0 -43 l
255 255 M 0 2006 l
255 255 M 43 0 l
38 234 M 18 42 m -6 -2 l
-4 -6 l
-2 -10 l
0 -6 l
2 -10 l
4 -6 l
6 -2 l
4 0 l
6 2 l
4 6 l
2 10 l
0 6 l
-2 10 l
-4 6 l
-6 2 l
-4 0 l
-4 -2 l
-2 -2 l
-2 -4 l
-2 -10 l
0 -6 l
2 -10 l
2 -4 l
2 -2 l
4 -2 l
4 0 m 4 2 l
2 2 l
2 4 l
2 10 l
0 6 l
-2 10 l
-2 4 l
-2 2 l
-4 2 l
28 -38 m -2 -2 l
2 -2 l
2 2 l
-2 2 l
28 38 m -6 -2 l
-4 -6 l
-2 -10 l
0 -6 l
2 -10 l
4 -6 l
6 -2 l
4 0 l
7 2 l
4 6 l
2 10 l
0 6 l
-2 10 l
-4 6 l
-7 2 l
-4 0 l
-4 -2 l
-2 -2 l
-2 -4 l
-2 -10 l
0 -6 l
2 -10 l
2 -4 l
2 -2 l
4 -2 l
4 0 m 5 2 l
2 2 l
2 4 l
2 10 l
0 6 l
-2 10 l
-2 4 l
-2 2 l
-5 2 l
37 0 m -6 -2 l
-4 -6 l
-2 -10 l
0 -6 l
2 -10 l
4 -6 l
6 -2 l
4 0 l
6 2 l
4 6 l
2 10 l
0 6 l
-2 10 l
-4 6 l
-6 2 l
-4 0 l
-4 -2 l
-2 -2 l
-2 -4 l
-2 -10 l
0 -6 l
2 -10 l
2 -4 l
2 -2 l
4 -2 l
4 0 m 4 2 l
2 2 l
2 4 l
2 10 l
0 6 l
-2 10 l
-2 4 l
-2 2 l
-4 2 l
30 -8 m 4 2 l
6 6 l
0 -42 l
-2 40 m 0 -40 l
-8 0 m 18 0 l
46 323 m 22 0 l
-22 177 m 22 0 l
-22 125 m 22 0 l
-22 97 m 22 0 l
-22 80 m 22 0 l
-22 67 m 22 0 l
-22 58 m 22 0 l
-22 51 m 22 0 l
-22 46 m 43 0 l
78 1237 M 18 42 m -6 -2 l
-4 -6 l
-2 -10 l
0 -6 l
2 -10 l
4 -6 l
6 -2 l
4 0 l
6 2 l
4 6 l
2 10 l
0 6 l
-2 10 l
-4 6 l
-6 2 l
-4 0 l
-4 -2 l
-2 -2 l
-2 -4 l
-2 -10 l
0 -6 l
2 -10 l
2 -4 l
2 -2 l
4 -2 l
4 0 m 4 2 l
2 2 l
2 4 l
2 10 l
0 6 l
-2 10 l
-2 4 l
-2 2 l
-4 2 l
29 -38 m -2 -2 l
2 -2 l
2 2 l
-2 2 l
28 38 m -6 -2 l
-4 -6 l
-2 -10 l
0 -6 l
2 -10 l
4 -6 l
6 -2 l
4 0 l
6 2 l
4 6 l
2 10 l
0 6 l
-2 10 l
-4 6 l
-6 2 l
-4 0 l
-4 -2 l
-2 -2 l
-2 -4 l
-2 -10 l
0 -6 l
2 -10 l
2 -4 l
2 -2 l
4 -2 l
4 0 m 4 2 l
2 2 l
2 4 l
2 10 l
0 6 l
-2 10 l
-2 4 l
-2 2 l
-4 2 l
30 -8 m 4 2 l
6 6 l
0 -42 l
-2 40 m 0 -40 l
-8 0 m 18 0 l
CS M
46 323 m 22 0 l
-22 177 m 22 0 l
-22 125 m 22 0 l
-22 97 m 22 0 l
-22 80 m 22 0 l
-22 67 m 22 0 l
-22 58 m 22 0 l
-22 51 m 22 0 l
-22 46 m 43 0 l
119 2240 M 18 42 m -6 -2 l
-4 -6 l
-2 -10 l
0 -6 l
2 -10 l
4 -6 l
6 -2 l
4 0 l
6 2 l
4 6 l
2 10 l
0 6 l
-2 10 l
-4 6 l
-6 2 l
-4 0 l
-4 -2 l
-2 -2 l
-2 -4 l
-2 -10 l
0 -6 l
2 -10 l
2 -4 l
2 -2 l
4 -2 l
4 0 m 4 2 l
2 2 l
2 4 l
2 10 l
0 6 l
-2 10 l
-2 4 l
-2 2 l
-4 2 l
28 -38 m -2 -2 l
2 -2 l
2 2 l
-2 2 l
22 30 m 4 2 l
6 6 l
0 -42 l
-2 40 m 0 -40 l
-8 0 m 18 0 l
2261 255 M 0 2006 l
2261 255 M -43 0 l
43 302 m -21 0 l
21 177 m -21 0 l
21 125 m -21 0 l
21 97 m -21 0 l
21 80 m -21 0 l
21 67 m -21 0 l
21 58 m -21 0 l
21 51 m -21 0 l
21 46 m -43 0 l
43 302 m -21 0 l
21 177 m -21 0 l
21 125 m -21 0 l
21 97 m -21 0 l
21 80 m -21 0 l
21 67 m -21 0 l
21 58 m -21 0 l
21 51 m -21 0 l
21 46 m -43 0 l
CS [32 24] 0 setdash M
stroke
grestore
showpage
end
